3.55,1
25.99,19
9.79,3
33.31,12
19.79,12
19.6,35
46.18,36
24.35,6
4.31,1
25.56,11
15.57,3
12.69,4
18.4,20
47.39,25
4.37,2
22.56,11
68.02,30
68.2,87
3.1,1
11,3
17.2,6
9.6,3
31.13,23
68.28,66
54.5,15
32.85,22
12.23,11
12.46,6
31.58,15
27.81,19
31.55,17
58.25,46
6.2,2
45.85,12
19.53,15
24.73,15
25.63,11
18.97,9
16.02,9
42.83,39
48.61,37
27.78,4
39.56,31
23.82,10
12.82,7
4.35,1
39.27,42
31.71,40
8.36,4
14.13,3
24.07,17
44.88,25
9.93,1
39.05,34
19.56,8
38.9,20
34.99,28
33.01,22
4.97,2
48.06,58
5.49,1
29.22,18
12.83,5
3.52,1
4.86,2
63.7,61
62.46,49
61.48,46
13.04,2
23.78,13
11.46,7
15.87,5
26.13,21
43.84,58
53.27,37
50.36,56
10.18,8
6.53,1
23.86,3
57.46,37
32.33,9
31.48,57
20.29,16
35.14,31
24.22,19
5.25,2
16.84,8
56.68,31
48.27,22
48.14,22
15.27,6
4.38,1
35.31,36
17.16,4
32.81,14
19.96,15
23.34,30
5.16,1
28.45,26
58.82,91
20.44,11
24.9,13
16.53,5
15.65,4
7.27,4
19.34,21
14.76,6
2.88,2
27.37,6
6.46,1
12.85,7
3.78,1
54.61,39
16.75,5
21.39,21
59.34,22
24.33,16
12.83,7
20.96,17
36.72,50
28.31,26
44.53,13
33.06,9
28.07,8
29.46,17
50.87,58
18.2,5
23.17,8
15.41,9
18.19,12
28.98,15
30.17,8
14.46,3
14.42,6
9.08,3
18.28,7
54.85,23
70.67,27
34.95,39
18.58,8
6.55,2
16.54,8
17.38,5
19.43,11
2.4,2
40.68,47
43.17,45
19.49,9
32.99,69
18.47,37
37.24,17
38,37
38.59,17
22.96,8
10.17,4
49.3,24
26.53,11
8.25,5
40.41,39
19.67,6
29.88,17
6.68,2
18.36,12
44.05,31
4.87,2
8.49,2
18.88,19
38.98,17
14.93,3
46.98,28
10.14,4
3.14,1
26.58,27
18.91,13
57.78,58
32.77,33
13.48,9
1.19,1
7.87,2
40.38,38
21.19,10
34.51,29
10.58,6
33.21,41
9.44,2
14.53,7
26.13,16
19.43,26
31.32,39
24,8
19.62,10
11.42,4
64.78,32
43.68,28
22.64,6
41.74,24
27.83,43
32.3,16
27.54,30
16.96,4
46.06,33
28.79,27
14.84,12
57.14,33
11.04,5
8.68,1
26.81,8
35.46,21
26.14,10
32.53,11
15.79,14
11.15,7
7.88,2
12.74,7
19.24,7
15.95,14
47.4,17
44.29,44
5.6,1
9.92,2
24.62,19
7.96,5
18.67,13
16.16,8
23.68,5
20.54,6
7.33,3
57.29,46
17.18,3
56.86,24
3.82,1
12.58,11
34.62,19
14.6,9
26.09,19
30.6,26
18.87,7
3.15,4
40.14,38
55.83,21
43.98,23
35.71,14
42.1,15
22.43,5
41.37,16
36.2,22
38.93,53
22.88,22
27.1,13
14.08,3
32.78,9
28.36,30
2.68,1
12.32,7
56.46,51
3.51,3
74.06,57
29.48,36
35.41,29
2.83,1
5.33,2
8.41,2
42.07,15
39.49,21
12.92,5
24.7,11
14.62,3
8.35,5
69.04,107
14.38,3
23.36,9
27.24,29
10.56,2
19.33,6
25.84,28
59.98,67
3.31,1
21.29,6
3.26,1
15.76,5
14.44,3
5.07,1
52.38,106
21.5,15
14.94,12
15.68,2
21.19,8
14.18,7
13.51,12
28.21,13
43.28,18
3.16,1
12.76,2
22.11,6
7.21,2
2.67,1
9.96,6
20.57,4
45.28,22
18.21,6
15.38,8
4.22,2
8.3,1
42.28,21
13.95,3
25.1,7
23.37,24
25.44,15
14.11,4
7.77,2
29.97,16
36.31,17
21.26,12
26.92,10
30.25,23
53.38,19
68.93,53
63.79,38
26.42,23
29.97,33
10.44,5
7.95,4
44.79,36
82.18,104
14.8,7
44.08,27
19.73,3
10.59,8
10.66,2
37.48,16
11.29,3
19.59,12
23.64,9
8.24,1
24.16,9
47.68,63
51.07,16
25.51,5
24.93,30
12.3,7
8.02,3
15.97,5
14.76,9
17.51,10
9.85,7
19.87,7
7.07,3
23.94,5
31.89,44
55.45,21
23.37,16
4.22,2
10.58,2
6.26,1
25.26,16
45.19,13
54.35,38
9.86,5
3.96,1
18.03,7
32.29,11
80.74,58
36.4,33
6.42,2
27.81,12
21.92,16
22.66,15
84.26,111
11.25,11
15.64,9
32.41,28
17.59,16
55.48,15
18.87,3
24.56,14
44.38,55
13.31,4
13.45,6
20.29,7
19.95,16
15.37,4
66.37,40
40.55,26
52.91,41
12.28,5
58.46,47
3.25,1
19.84,11
12.11,2
8.86,3
29.82,17
7.13,4
40.26,16
22.21,17
19.54,14
26.94,45
7.21,3
25.35,19
37.69,16
23.99,28
4.81,1
34.65,9
37.78,38
40.64,51
82.53,35
27.77,3
2.73,1
24.08,22
35.59,28
40.18,35
36.7,12
20.38,20
45.83,41
21.59,18
17.89,7
16.54,7
11.91,3
37.53,10
43.27,86
29.82,8
14.68,4
69.54,78
6.11,2
59.88,84
13.43,5
60.28,29
63.19,68
8.73,2
6.15,2
30.05,17
37.62,12
52.9,39
30.1,35
20.26,13
40.55,31
55.04,66
51.02,26
36.59,24
3.19,1
9.37,4
18.93,6
13.21,6
32.78,17
15.24,10
25.69,26
28.91,10
19.24,6
6.14,5
12.03,3
40.8,28
7.91,6
11.73,6
3.56,1
7.22,4
32.34,13
31.88,29
6.86,1
49.56,88
4.45,1
17.23,8
29.66,22
36.8,28
10.05,4
43.2,46
18.18,10
5.99,1
31.32,20
4.56,3
25.98,7
20.12,9
37.11,34
15.42,5
25.84,10
11.09,8
39.89,70
16.82,6
18.11,13
33.48,23
2.27,1
7.93,4
9.98,3
10.74,1
3.32,1
45.5,97
16.33,8
6.11,1
3.89,1
27.9,8
6.13,2
18.99,8
3.68,1
23.02,6
26.77,22
7.7,6
18.54,2
40.43,20
27.18,31
10.22,2
45.12,32
15.37,2
25.13,5
13.53,14
32.74,13
24.68,19
58.15,47
39.51,50
19.23,23
63.09,22
36.98,34
35.14,20
62.36,24
8.34,1
13.92,5
21.12,8
42.2,22
15.86,17
5.34,2
15.43,3
31.49,45
30.76,25
20.15,14
32.81,22
31.38,13
3.77,1
93.48,78
64.16,53
17.01,5
40.41,12
3.73,2
27.28,17
15.8,9
8.25,4
3.81,1
20.93,16
20.88,13
20.2,9
8.78,5
6.95,1
12.13,5
29.19,34
22.02,18
59.3,64
45.2,30
31.03,30
28.86,11
16.78,5
3.8,2
16.85,15
4.27,2
38.21,21
18.8,3
12.23,4
56.7,26
8.53,3
5.19,1
57.69,17
22.83,4
12.39,17
59.2,69
8.01,5
18.39,18
19.26,13
13.78,3
45.93,45
43.18,28
56.23,20
26.43,16
33.88,23
41.44,27
23.09,25
3.35,2
36.64,18
4.77,1
21.21,15
54.14,36
18.1,11
3.41,1
7.7,3
63.03,35
17.06,6
14.72,14
47.21,28
70.41,52
50.13,43
9.14,6
11.33,7
24.01,15
10.37,2
38.62,20
17.76,12
18.29,38
89.94,77
30.29,31
14.32,13
26.84,12
24.31,17
7.87,3
10.73,8
39.21,10
17.71,3
20.72,9
57.43,61
32.43,7
9.21,1
20.4,11
3.57,1
68.79,69
13.95,10
23.96,9
53.27,55
37.33,16
16.88,2
56.11,44
9.1,3
81.68,31
7.69,1
28.28,7
34.76,32
15.99,2
7.99,3
10.87,3
40.32,17
14.07,19
21.28,8
69.99,35
3.76,1
30.06,10
18.2,7
54.96,29
15.79,6
12.46,6
12.16,11
33.47,25
36.33,19
22.47,11
41.56,42
15.24,8
58.52,11
30.26,10
28.34,22
34.59,21
15.84,5
5.07,1
71.41,30
48.3,12
16.67,21
18.24,7
17.96,11
34.66,5
7.54,2
7.48,2
27.49,22
20.59,7
49.04,25
15.41,12
32.02,20
56.58,26
23.52,7
11.91,3
26.28,22
13.04,4
18.42,9
52.25,31
24.33,17
19.41,23
75.43,41
20.41,9
39.38,39
25.48,4
20.11,8
8.24,1
28.18,31
33.14,12
16.79,7
79.51,32
19.77,5
14.47,9
37.4,23
15.52,7
29.49,31
16.79,5
35.52,9
14.69,13
38.96,46
7.3,4
26.43,17
5.01,2
9.43,8
41.81,35
19.48,18
17.13,8
8.73,4
8.44,2
20.56,15
56.38,44
10.01,4
8.12,2
51.03,41
9.03,5
13.04,2
63.74,50
23.41,12
6.58,1
11.81,5
38.98,12
3.21,2
6.35,4
16.75,9
8.31,7
16.17,15
4.31,1
21.39,14
10.83,1
5.75,2
18.73,15
6.26,3
30.14,4
12.09,3
5.12,2
51.49,32
14.91,5
18.93,6
13.05,7
39.67,16
15.98,14
41.97,20
22.62,6
16.79,10
3.46,1
10.03,3
23.2,9
57.83,80
11.74,2
21.26,8
8.83,3
56.38,71
9.41,4
7.39,1
66.13,37
34.41,11
25.16,17
50.44,30
14.66,5
26.23,10
73.8,35
5.76,3
24.32,18
35.27,38
36.11,13
18.42,6
31.77,17
6.67,5
46.94,19
25.72,25
7.79,3
67.44,33
5.21,1
18.39,10
6.84,4
27.24,20
47.88,20
58.97,18
34.94,15
26.41,18
4.03,2
9.29,4
24.6,26
32.23,14
73.94,51
3.72,1
6.38,4
24.06,19
20.47,25
45.74,49
17.71,9
27.96,25
28.19,18
6.58,3
25.97,19
3.03,2
23.29,21
11.18,4
52.42,14
38.59,27
5.58,3
29.56,9
31.42,8
62.91,53
5.37,1
32.55,40
37.59,20
28.85,8
20.31,9
6.03,1
17.14,8
4.29,1
10.34,3
17.71,6
6.01,2
45.54,27
23.91,15
36.32,24
38.26,17
3.9,2
87.16,49
4.76,1
4.32,3
57.56,25
32.03,50
19.99,6
12.58,1
4.91,1
5.44,2
23.74,13
15.52,8
11.68,3
18.37,12
17.34,11
19.12,11
48.65,38
6.32,1
25.11,14
51.87,12
76.19,33
12.86,8
19.75,10
8.34,3
13.94,1
25.43,6
13.2,11
5.21,3
7.03,1
54.62,77
18.66,5
31.92,24
6.54,2
34.93,34
45.89,35
28.89,7
53.48,62
52.09,24
11.99,5
47.37,44
28.47,14
3.92,1
13.87,4
15.76,6
59.09,43
10.07,5
14.2,6
2.16,1
15.12,5
59.2,56
6.67,4
18.2,6
9.52,3
52.57,17
61.89,34
4.05,2
2.35,1
27.68,6
15.68,5
14,3
62.07,108
27.71,17
25.68,5
26.36,30
16.57,9
6.69,2
22.38,9
40.79,17
47.21,26
3.68,1
13.04,4
30.78,9
24.44,8
15.53,8
32.8,26
79.65,64
49.92,19
27.76,10
27.14,14
9.37,2
9.76,2
15.64,11
21.19,13
17.83,7
20.96,11
11.34,5
16.75,29
66.97,44
38.27,39
15.69,9
14.61,5
22.96,19
27.51,6
36.62,12
24.2,20
47.83,29
5.06,2
25.82,3
51.13,25
23.8,12
36.72,38
16.66,11
49.82,26
13.64,9
26.03,13
12.19,5
7.16,4
41.28,28
42.68,25
26.81,13
28.13,16
13.12,4
25.76,24
3.92,1
12.85,2
11.46,5
30.26,25
29.14,50
2.34,1
17.25,6
24.17,12
3.77,1
30.49,16
32.16,11
9.81,4
5.16,1
26.47,21
20.04,4
15.2,5
44.23,12
34.43,11
40.34,28
24.39,8
26.16,5
6.09,3
20.1,4
19.19,19
35.83,14
21.76,31
38.83,91
9.38,3
26.06,23
43.7,16
18,14
2.58,1
55.48,28
24.71,11
24.19,9
15.01,1
41.69,36
16.48,5
35.8,22
32.93,7
52.53,26
15.51,1
39.6,16
25.11,9
16.09,5
22.81,30
27.14,18
36.51,16
6.08,2
52.74,48
35.22,30
4.82,1
25.05,4
28.04,13
65.21,21
2.3,1
15.63,18
27.34,24
19.35,20
37.98,20
10.45,4
0.36,1
14.4,2
13.11,7
39.7,24
42.1,48
11.84,5
55.51,16
10.11,3
11.94,3
27.24,16
24.21,7
35.71,22
5.12,1
23.76,16
25.89,14
96.8,41
6.94,2
36.62,33
36.79,34
58.08,70
7.69,3
33.83,41
37.1,50
5.69,1
53.71,31
3.17,1
22.6,8
34.74,13
2.28,1
64.77,109
24.11,19
7.78,2
49.47,35
51.33,36
17.76,18
4.5,1
5.94,1
27.88,14
29.86,17
10.77,2
41.35,19
8.25,6
26.31,9
27.26,19
26.35,21
4.58,1
3.24,1
11.65,5
9.95,7
26.62,25
2.34,1
71.2,84
34.01,39
25.73,16
25.58,10
35.37,19
4.83,1
6.32,3
19.55,9
44.25,42
37.1,34
39.51,11
59.36,24
12.06,5
30.37,24
7.11,3
34.27,18
7.33,1
25.54,9
24.65,12
33.35,11
30.77,13
4.56,2
33.93,37
6.72,1
38.63,14
14.17,13
21.88,14
33.32,39
4.71,1
32.2,33
14.5,7
28.58,10
4.58,1
11.24,3
20.23,8
3.64,3
74.28,46
21.62,9
5.94,1
9.44,7
62.74,38
6.6,6
6.89,1
27.16,10
28.37,9
37.37,56
5.54,1
39.7,91
41.86,24
28.09,17
10.78,6
15.67,11
12.55,5
7.69,2
52.58,32
11.93,6
17.21,10
9.39,4
5.87,2
27.7,20
30.84,13
41.53,24
17.83,8
6.94,2
26.76,19
21.5,8
29.77,16
11.76,4
31.75,9
38.6,12
33.18,27
7.67,2
2.2,1
21.56,16
31.31,14
25.58,16
48.85,24
39.05,54
39.49,12
18.87,6
6.21,1
25.78,20
12.42,3
30.28,19
6.39,3
16.49,5
22.68,9
17.64,5
5.71,1
23.11,7
30.16,9
14.36,4
25.08,5
13.6,3
7.37,2
31.01,18
43.08,32
12.93,6
56.56,16
33.77,7
8.35,4
3.88,1
39.74,20
22.16,13
6.82,2
29.38,8
41.02,29
27.99,16
28.56,9
48.83,73
2.73,1
7.24,3
9.7,3
23.81,14
34.71,80
59.98,15
6.84,3
24.36,4
17.69,4
9.67,9
5.12,1
9.41,5
31.76,8
41.61,25
10.17,1
40.33,30
54.27,29
2.67,1
62.99,54
18.84,14
11.04,1
10.11,4
23.89,20
4.1,1
8.08,3
12.77,5
60.02,31
38.68,30
24.74,9
47.48,27
27.63,15
20.09,5
15.95,5
7.64,3
11.63,1
32.4,25
9.22,1
4.87,1
91.51,56
60.66,42
39.97,15
25.49,16
28.51,13
93.14,113
54.12,58
44.94,22
9.85,4
15.29,12
23.66,12
23.95,8
16.57,5
1.97,1
19.49,13
34.27,20
85.99,51
22.19,13
3.79,1
20.56,15
11.28,3
29.66,15
44.1,51
27.39,8
47.16,21
27.08,10
42.16,32
16.6,7
4.57,1
3.59,2
50.48,84
6.89,3
22.56,8
3.65,1
24.63,15
30.03,6
17.94,5
16.92,13
23.26,37
12.18,4
28.4,14
8.79,3
22.53,10
6.76,2
2.49,1
21.26,12
29.56,24
7.98,4
36.44,16
5.54,1
74.12,30
14.32,7
31.71,15
7.11,4
17.24,5
16.15,3
71.21,45
44.44,57
19.83,19
13.52,8
13.45,6
46.53,18
4.83,2
10.33,4
24.07,6
16.34,9
9.13,6
42.97,31
36.38,43
9.57,4
10.29,4
28.05,20
18.51,15
17.34,9
6.9,3
7.76,6
19.55,15
14.64,6
3.52,1
19.69,17
27.33,27
30.86,29
7.31,3
33.9,17
47.77,57
13.03,5
22.97,19
39.21,25
33.87,26
9.93,6
11.66,3
68.06,76
8.64,2
14.14,11
47.64,24
16.56,5
34.55,10
19.28,10
25.32,30
14.21,6
51.72,107
9.3,3
16.15,3
104.66,103
10.41,4
19.77,19
91.29,45
11.56,10
19.36,5
20.04,6
3.22,1
4.91,1
75.18,92
20.99,13
14.28,4
29.39,18
57.76,28
28.14,15
16.09,7
35.04,24
44.21,32
7.67,1
20.77,12
67.26,32
53.93,27
14.04,4
18.98,5
47.19,72
8.1,2
2.88,1
27.52,13
15.14,7
40.24,15
10.99,8
7.83,2
42.44,33
24.64,7
40.83,26
45.69,59
28.37,20
8.26,4
29.38,11
46.68,15
2.66,2
27.93,19
6.22,2
52.97,53
38.68,17
28.11,14
10.65,8
33.98,48
22.93,19
5.99,1
14.27,9
4.88,1
29.93,7
15.99,5
16.07,4
19.63,5
39.74,22
18.03,12
64.44,51
60.83,40
26.85,29
76.28,47
26.34,8
15.32,6
46.3,27
22.66,33
16.83,12
19.59,13
41.36,18
42.26,9
70.54,107
8.83,1
39.97,21
58.42,35
3.47,1
10.63,4
27.31,15
50.34,27
3.39,1
28.4,9
33.82,28
49.36,43
24.61,20
3.95,1
23.78,22
39.13,49
5.37,2
21.21,5
25.49,24
15.29,5
9.24,8
28.14,16
2,1
8.79,5
23.42,22
8.28,2
23.7,6
40.84,28
29.26,10
20.55,12
30.32,15
71.27,52
41.28,24
22.29,17
26.82,24
23.52,16
12.04,4
6.69,3
45.39,64
16.97,10
5.39,2
45.39,14
28.98,9
39.59,38
7.36,4
19.96,12
9.04,5
13.79,4
10.19,6
14.98,3
35.93,11
12.49,6
10.95,2
11.91,3
24.53,29
8.25,2
19.85,2
68.72,54
19.23,12
51.66,9
19.54,23
10.74,6
38.44,35
77.32,50
2.89,1
27.43,15
14.61,4
36.19,6
23.62,17
25.95,14
16.3,4
30.92,29
6.93,1
35.56,50
50.16,56
38.57,18
22.16,10
34.38,31
12.11,9
28.52,15
25.81,18
31.62,59
70.29,28
17.8,4
11.26,3
26.94,18
19.69,7
5.5,1
18.6,8
8.79,1
16.76,2
6.49,1
58.96,48
24.1,11
34.78,22
73.63,54
24.48,25
23.16,13
48.3,10
20.89,2
34.45,13
8.3,4
42.94,37
27.75,16
10.25,7
15.36,6
49.98,33
8.84,2
3.24,1
39.58,11
18.02,12
18.64,3
22.79,11
15.08,2
52.08,72
11.78,3
60.28,25
11.05,4
27.18,28
54.42,54
42.29,29
36.95,53
16.07,5
23.08,23
38.55,22
24.73,12
35.34,13
11.81,6
4.66,1
23.15,16
45.89,43
16.91,21
28.78,19
4.25,1
14.59,7
5.46,3
29.54,23
47.22,25
17.46,9
6.95,2
28.1,19
15.94,12
28.53,51
49.79,31
22.83,8
29.77,28
7.74,1
4.01,2
30.98,31
8.77,4
29.14,10
2.76,1
10.58,7
45.02,25
23.02,6
6.63,2
30.87,25
27.4,11
33.9,31
8.56,2
34.94,43
15.43,8
56.21,23
14.97,16
48.55,25
18.04,10
83.44,70
36.09,59
27.95,6
18.72,13
17.88,7
25.64,30
63.34,61
42.48,64
38.31,22
44.1,23
39.56,21
64.78,73
65.67,75
8.27,4
15.93,4
28.77,30
43.51,26
37,22
4.39,1
11.51,6
23.83,9
15,16
6.66,2
17.48,5
40.38,12
64.45,51
27.75,7
13.51,4
87.64,93
26.14,14
2.97,1
21.79,7
10.29,11
8.03,5
40.66,23
16.32,6
20.94,14
47.12,66
9.06,2
3.07,1
3.03,2
15.37,14
7.22,4
23.67,15
23.98,20
30.68,22
10.34,2
3.04,1
3.71,1
30.46,12
17.56,9
78.81,34
38.31,8
9.39,4
17.53,3
52.36,43
65.14,32
13.96,13
12.86,10
3.64,1
37.42,28
44.88,38
4.14,2
22.67,20
4.9,2
8.96,3
16.81,8
19.87,8
15.7,6
81.86,50
12.32,4
44.96,30
46.81,17
82.22,70
6.01,1
44.44,28
56.27,42
32.9,7
19.98,8
4.65,1
4.01,1
13.34,6
24.2,7
5.34,1
16.2,6
14.66,3
29.19,36
25.96,21
14.48,13
41.25,20
18.45,9
32.92,32
37.05,13
23.82,7
13.82,11
19.63,20
30.85,22
33.43,28
81.67,43
11.43,3
19.81,7
13.33,4
30.34,17
50.04,35
10.89,7
30.98,25
43.11,28
5.05,1
14.73,9
35.87,8
26.83,40
24.48,2
4.95,2
45.34,14
7,1
56.68,45
16.7,11
3.41,1
32,35
29.55,24
45.72,62
58.27,42
7.56,5
46.53,33
16.13,11
26.05,49
29.14,15
22.78,1
3.02,1
16.84,6
29.4,12
39.27,24
42.01,17
53.33,62
13.36,4
25.58,6
42.04,54
19.56,9
11.65,2
21.13,5
3.81,1
9.49,2
16.2,1
33.03,72
27.66,16
29.15,31
9.45,3
8.84,6
9.58,2
3.58,1
13.2,5
20,20
66.15,36
72.99,38
12.24,4
9.27,2
48.96,59
45.89,41
27.59,18
37.57,21
45.06,17
33.93,30
30.56,18
3.55,1
27.21,28
35.95,39
28.72,29
56.22,48
56.71,26
18.72,7
45.7,26
49.48,25
12.69,5
2.95,2
18.31,9
52.26,28
6.1,1
8.11,3
45.36,32
15.26,10
3.16,1
36.35,22
21.63,2
22.58,10
64.56,32
7.01,1
63.07,35
43.14,18
19.27,17
32.04,20
12.83,4
27.96,36
7.59,2
51.18,59
9.09,6
26.48,20
37.27,22
17.4,5
29.35,17
9.4,6
54.24,22
26.99,31
36.24,15
6.08,1
36.77,14
10.74,2
14.7,5
26.01,25
45.12,18
16.19,2
9.42,4
5.54,3
37.98,11
1.37,1
5.8,1
25.3,24
8.79,1
15.12,12
13.74,4
40.45,36
23.71,17
72.12,39
15.3,11
12.01,4
48.57,11
9.91,3
20.58,10
49.92,12
23.87,18
66.62,117
13.98,3
59.5,27
41.6,29
20.61,11
22.26,6
26.25,17
7.28,4
29.84,32
13.43,9
12.11,4
19.56,18
37.95,20
42.31,15
24.96,11
11.32,2
3.88,2
41.2,14
11.6,3
12.58,1
8.71,2
21.37,13
24.26,4
23.43,11
10.02,3
23.03,19
43.45,17
20.19,19
89.82,43
20.26,8
47.1,33
38.24,31
34.58,11
34.59,24
42.55,34
47.45,41
46.62,33
25.47,21
8.83,3
5.73,4
8.87,2
6.63,3
2.57,1
39.88,39
13.65,10
80.5,94
19.37,10
21.57,14
8.72,5
27.98,10
36.66,17
6.3,2
34.52,23
33.69,41
29.83,14
10.57,5
22.53,11
13.14,11
18.99,12
24.38,12
17.23,6
9.76,2
9.07,6
32.32,77
14.99,3
18.48,4
26.59,25
29.97,7
20.86,16
12.39,5
29.66,13
34.3,27
13.6,8
25.89,11
8.09,4
6.56,2
27.84,8
29.47,15
22.82,10
9.28,2
8.54,7
25.71,15
35.14,40
18.21,7
4.5,1
7.5,2
20.5,16
6.51,2
33.07,30
17.54,5
24,9
107.48,112
12.89,10
6.44,4
42.35,28
73.71,38
49.2,31
11.74,3
43.9,49
7.34,3
27.81,12
13.82,6
24.36,17
49.79,42
2.7,1
25.5,14
7.2,3
21.15,9
24,20
27.9,18
78.96,74
45.06,62
9.26,3
10.56,3
44.42,87
24.92,11
27.82,25
19.38,10
35.56,13
97.6,59
76.89,60
76.81,31
93.33,93
55.32,39
15.62,21
6.84,3
54.83,23
39.33,30
24.51,14
14.28,4
8.74,4
27.46,5
78.31,91
17.29,5
19.22,5
12.42,3
33.22,8
32.49,6
24.58,21
25.2,6
3.65,1
5.36,1
12.09,4
17.89,2
22.89,16
21.61,3
40.09,39
6.2,1
22.83,13
36.78,25
47.52,24
5.85,3
17.63,8
26.97,12
68.09,37
4.85,2
38.5,24
19.96,19
7.72,2
46.75,32
7.94,3
86.72,108
22.26,11
14.43,7
42.02,21
48.64,32
42.01,45
75.37,37
30.04,20
10.84,2
23.5,22
27.05,7
47.58,22
22.54,12
12.67,6
57.27,26
19.11,10
6.05,3
6.95,3
9.26,3
48.11,23
18.36,15
48.29,27
32.15,8
19.35,6
29.27,16
39.76,27
25.31,17
21.71,19
5.09,1
20.01,10
16.49,3
14.43,5
41.31,25
56.92,29
30.73,26
32.61,48
22.69,8
9.83,1
33,52
30.04,47
33.58,21
16.52,12
44.52,33
20.12,23
4.88,1
13.79,10
20.61,12
10.86,3
3.21,1
21.95,7
10.06,4
7.06,1
6.9,3
27.65,15
48.54,15
23.57,11
42.29,50
19.34,14
35.02,16
28.8,12
11.73,2
49.59,13
24.38,21
12.51,7
5.33,1
19.04,9
39.58,33
58.28,68
12.84,3
29.2,9
41.07,57
76.35,30
57.15,49
48.21,28
12.95,4
3.99,2
36.99,21
6.81,1
4.55,1
33.11,9
11.19,4
27.28,5
24.83,13
62.01,45
11.5,5
46.07,58
24.92,9
10.51,3
40.69,45
2.56,2
14.85,15
41.41,17
21.24,13
20.12,6
17.22,9
66.58,50
48.49,112
31.97,20
8.62,4
9.68,3
74.18,65
24.39,45
15.89,4
12.56,3
3.05,1
33.31,31
15.53,7
32.31,8
3.11,1
44.99,22
5.82,1
8.27,2
32.94,25
6.7,2
5.01,3
8.45,3
30.74,11
34.91,21
28.87,16
79.95,76
9.71,4
24.74,12
17.12,7
54.47,20
51.91,43
13.66,3
43.32,17
34.68,8
23.2,8
15.96,10
25.2,15
5.29,1
32.29,30
30.75,45
22.81,7
4.16,1
44.45,30
5.29,1
38.98,68
32.27,22
42.99,25
42.9,31
10.59,4
59.08,20
22.05,27
15.95,18
31.68,43
4.39,2
33.65,45
12.28,2
26.5,20
28.42,7
10.91,6
42.42,54
3.23,1
25.7,8
4.19,1
9.19,7
9.9,2
10.58,4
38,20
16.61,9
67.19,80
24.54,5
14.85,5
25.29,17
33.88,24
51.8,36
55.26,75
11.94,8
22.31,8
23.19,8
25.28,14
15.91,7
48.76,14
4.05,3
13.18,3
49.83,33
3.44,3
14.84,11
46.72,66
17.14,4
67.66,72
21.78,12
7.09,3
38.62,37
5.94,1
15.27,8
42.7,9
8.35,2
4.65,2
16.76,8
43.23,20
14.41,6
21.55,7
21.87,14
6.05,2
8.73,2
23.89,6
10.12,6
13.55,5
71.19,38
39.71,38
26.82,23
33.16,35
24.38,14
101.79,76
11.43,5
30.24,22
19.91,25
5.56,2
32.53,20
10.97,2
24.25,11
29.48,29
29.55,14
38.7,38
17.71,6
17.32,6
6.21,1
32.12,18
7.27,1
3.21,1
3.09,1
17.98,4
57.95,56
25.22,6
47.2,38
6.07,2
24.07,15
41.02,42
25.34,24
31.82,35
19.61,14
20.19,13
52.93,30
19.89,11
35.14,26
13.89,7
18.57,11
25.78,19
11.09,2
8.54,3
8.02,1
39.49,12
32.93,13
12.22,12
4.21,1
35.15,29
32.35,14
58.36,53
6.08,1
6.63,2
6.68,3
46.98,33
31.26,46
13.9,4
22.69,26
61.13,55
6.53,3
14.62,7
7.73,1
15.43,7
73.49,76
24.38,5
2.81,1
25.46,8
15.66,5
33.49,21
34.5,17
12.74,4
24.04,14
18.96,6
15.15,10
11.67,4
6.52,3
28.05,43
29.36,25
25.46,32
19.93,5
36.85,16
81.38,93
17.51,5
20.08,12
23.8,23
28.98,11
11.57,4
11.42,5
12.53,2
2.18,1
26.68,17
13.21,20
8.92,2
24.96,41
56.97,97
75.37,116
36.7,12
44.78,54
23.45,9
67.1,78
18.46,10
23.57,5
28.08,44
8.58,3
26.09,9
7.95,3
23.47,10
3.41,1
17.78,8
3.17,1
40.98,26
16.47,6
51.49,37
39.79,34
45.87,47
6.73,2
16.15,8
23.4,12
64.91,70
8.16,2
9.03,3
6.76,4
42.83,43
4.67,2
38.41,31
44.86,26
13.04,3
69.95,31
17.27,23
5.18,1
60.49,27
8.68,2
39.43,12
5.79,1
30.41,16
27.9,19
4.67,1
20.66,9
42.32,29
10.77,5
46,13
33.19,30
20.23,19
7.35,5
12.22,2
28.9,10
50.81,58
6.5,3
27.3,13
8.46,2
21.89,16
28.27,7
20.67,8
22.02,18
29.42,28
8.25,5
54.01,56
56.16,48
100.66,39
50.2,8
55.85,24
17.11,5
44.82,24
12.35,6
62.39,121
20.94,16
20.97,14
20.72,10
44.34,33
12.77,3
20.06,15
7.84,1
30.51,21
24.52,7
59.63,31
6.99,3
18.23,14
31.41,50
8.96,3
47.29,25
4.55,1
17.57,4
38.82,30
3.77,1
23.09,21
34.3,31
19.32,4
14.87,5
21.72,23
16.97,9
12.72,3
24.79,6
46.01,26
9.47,5
15.72,9
33.48,45
5.86,1
30.42,9
23.26,23
17.81,4
5.35,2
11.03,3
30.49,22
15.39,4
86.92,47
45.27,14
10.3,4
44.52,33
3.47,1
46.57,39
12.91,2
40.45,47
13.34,4
19.46,12
14.68,9
55.1,36
7.45,1
18.36,12
16.59,20
22.6,25
29.12,10
35.03,20
3.22,1
17.85,9
1.04,1
5.09,1
26.3,44
9.11,7
51.08,66
3.19,1
15.39,6
16.97,14
59.27,32
14.11,4
86.95,89
14.38,7
24.74,18
20.61,8
40.07,29
84.64,43
12.84,3
28.15,22
5.57,1
32.48,16
37.41,25
27.31,28
7.28,4
93.55,62
15.91,4
29.83,12
39.9,13
21.39,9
16.46,5
21.54,16
19.26,7
32.09,19
35.32,24
23.88,12
7.84,3
29.67,12
31.86,30
58.7,55
18.15,6
34.24,16
33.48,30
18.03,6
3.9,1
26.7,8
6.72,3
19.5,17
52.05,25
79.22,70
51.73,16
5.61,2
30.23,15
38.44,23
10.01,7
84.5,98
4.82,1
22.39,16
5.82,2
51.41,94
23.75,8
21.95,10
33.76,24
13.07,9
55.21,50
16.74,10
49.23,22
32.36,40
16.87,9
23.22,7
5.06,3
86.32,35
42.42,49
30.02,24
60.18,34
25.46,27
21.26,21
6.32,1
27.95,9
20.51,6
16.4,15
32.85,5
12.62,4
19.06,10
18.73,10
7.63,3
30.54,37
23.11,14
51.47,24
31.44,19
35.97,33
14.91,6
20.46,10
10.97,5
12.59,4
25.11,9
33.45,46
32.93,13
13.3,5
53.42,29
19.19,12
30.38,31
46.38,50
27.79,9
2.14,1
16.53,10
61.03,43
42.23,26
40.49,81
3.67,4
38.19,19
14.59,11
38.44,26
23.96,14
15.34,5
14.65,13
10.54,3
61.01,50
7.71,3
41.81,28
42.81,37
14.87,7
35.81,47
44.42,20
17.78,10
9.88,5
44.98,20
3.84,2
8.94,3
14.78,4
18.9,8
36.22,23
48.88,44
69.81,42
21.14,6
13.89,4
16.8,16
5.06,1
9.2,5
34.49,15
17.92,14
15.57,7
38.94,9
50.3,33
23.54,27
24.31,8
36.5,18
3.36,1
26.37,28
64.4,48
57.7,71
4.24,1
15.81,5
33.92,11
59.31,49
7.97,2
41.57,50
14.26,4
12.37,5
11.56,6
16.81,7
52.94,34
16.97,9
11.73,2
23.16,13
23.35,13
44.53,19
47.81,49
75.69,38
61.1,32
24.46,9
50.73,83
17.62,12
38.95,35
14.71,7
17.35,4
39.79,53
15.7,4
10.45,2
15.89,3
6.37,2
16.5,4
16.17,5
38.11,48
20.24,29
17.01,13
52.14,18
37.41,28
3.13,1
5.11,2
23.7,11
7.52,3
8.13,4
4.87,1
75.58,27
48.35,32
13.03,3
46.02,20
46.2,15
12.15,5
11.75,8
30.47,11
24.65,9
25.38,10
3.66,1
34.06,15
40.62,16
16.13,8
24.05,16
17.46,6
53.88,37
30.63,11
25.54,12
39.61,20
8.02,5
13.19,4
4.8,1
54.96,81
56.17,50
12.46,7
20.55,3
10.18,4
14.99,3
18.11,28
50.08,55
26.28,10
34.09,14
16.35,9
12.94,4
52.35,43
10.72,2
20.39,14
14.58,21
37.22,17
19.32,7
2.84,1
63.02,35
7.62,4
21.6,9
17.85,11
33.17,10
8.22,2
49.81,51
7.67,3
38.37,10
11.2,6
11.72,7
16.38,10
12.24,7
19,14
13.23,10
3.08,1
7.77,2
47.54,64
14.14,9
64.84,69
38.87,26
3.99,1
4.82,1
90.58,56
19.53,16
38.47,25
29.57,15
20.86,6
7.89,6
9.58,3
5.47,1
26.97,12
32.44,22
75.19,90
13.57,3
4.39,1
42.61,13
6.83,3
15.53,5
27.83,7
38.07,25
56.61,36
19,9
11.49,6
18.46,6
14.07,3
56.12,60
6.04,2
11.16,4
65.9,60
32.09,16
7.75,5
23.34,13
63.94,24
34.54,36
29.31,21
57.89,40
43.1,29
4.53,1
15.57,9
20.15,14
41.25,40
20.44,13
19.04,14
3.97,1
8.49,4
16.21,4
82.94,44
22.19,10
13.09,9
6.86,2
25.85,14
25.53,5
3.32,1
15.52,7
32.2,19
37.37,43
7.38,3
24.08,32
29.82,17
30.51,17
18.53,9
17.51,6
39.95,13
10.87,4
11.53,3
42.91,23
10.22,4
14.22,12
38.75,13
12.95,4
11.25,7
66.84,25
14.91,4
12.97,6
21.17,14
5.78,3
51.69,17
25.19,12
9.31,3
29.26,30
8.97,3
21.53,12
21.85,19
10.42,9
18.15,6
27.88,43
3.43,1
11.92,3
8.43,1
24.98,19
38.59,35
48.84,22
31.24,12
18.87,8
12.81,5
60.82,35
8.13,6
43.62,43
13.79,4
49.9,39
11.97,3
10.38,4
47.76,39
45.79,29
22.71,14
33.62,16
3.57,1
48.78,20
16.07,7
19.97,16
21.77,8
7.34,2
40.55,45
14.51,8
63.87,73
51.59,15
16.33,6
4.19,1
44.49,70
4.81,3
22.05,5
46.95,80
26.78,23
6.54,2
33.03,11
25.72,18
24.92,24
16.2,8
47.06,62
14.16,4
45.08,35
41.89,64
23.59,13
15.78,14
59.59,22
74.92,50
28.07,7
5.83,1
28.91,20
45.23,17
51.32,35
3.21,1
5.1,2
58.81,45
2.97,1
62.45,18
11.06,8
9.36,4
16.72,4
19,4
13.73,8
20.49,10
8.38,4
83.89,52
38.18,27
7.73,2
5.89,1
17.5,12
29.37,24
61.42,18
50.07,30
7.69,1
1.15,1
22.18,10
26.74,11
7.49,6
29.87,24
65.42,73
4.65,2
9.11,1
25.96,11
19.16,12
20.51,4
18.71,16
32.65,27
14.87,9
39.53,18
18.13,6
3.84,1
14.19,2
5.04,2
18.53,15
9.13,2
3.99,1
34.14,21
74.59,39
60.72,92
47.78,62
30.52,12
34.12,21
24.51,8
15.95,4
31.8,24
9.64,5
36.25,30
20.52,8
7.15,3
9.38,5
13.76,4
16.87,3
60.22,67
28.33,18
17.44,8
8.38,2
16.65,14
19.59,4
23.08,9
2.59,1
11.43,4
23.3,21
61.67,47
20.9,8
31.5,24
5.82,1
19.39,7
38.34,21
21.23,12
4.31,1
11.31,2
35.67,19
36.83,22
22.54,17
22.02,6
82.29,79
23.91,8
14.66,10
12.34,4
29.68,23
71.44,63
45.98,16
4.12,1
40.22,15
10.8,7
32.33,20
19.33,9
22.72,8
42.03,21
23.26,9
18.51,5
54.1,63
16.26,9
15.12,7
5.3,2
20.17,8
7.73,2
53.79,36
40.74,24
36.46,14
30.72,11
14.63,6
16.87,17
22.45,12
36.85,7
60.38,22
6.3,2
15.72,7
4.1,1
5.95,1
39.57,17
36.45,28
17.21,6
12.49,4
17.79,5
12.32,4
4.62,2
4.77,2
34.89,35
17.69,15
4.89,2
10.44,5
3.33,1
13.44,5
18.58,8
32.64,13
10.56,3
6.94,2
12.17,3
10.71,2
51.55,22
21.37,8
20.05,6
26.19,12
50.24,62
33.29,19
29,6
20.71,9
54.9,50
7.9,3
14.82,3
17.25,7
3.89,2
10.61,7
2.54,1
9.56,5
9.67,6
11.68,2
42.54,13
21.59,8
64.99,36
35.82,8
17,8
23.33,11
20.05,7
19.43,14
27.54,15
39.99,30
42.39,16
51.65,46
33.11,19
41.19,46
33.97,37
34.69,18
6.32,1
24.76,18
25.65,8
44.16,41
24.75,7
3.26,1
18.33,8
9.8,2
58.53,16
62.99,42
36.73,17
73.29,46
39.02,11
24.94,27
10.83,7
12.1,4
18.36,6
33.09,26
38.42,49
2.07,1
9.02,5
27.03,37
12.21,11
9.42,2
38.53,22
32.57,12
28.14,32
4.82,1
35.64,13
44.24,57
31.56,26
23.41,15
11.55,2
19.87,10
48.14,37
46.43,23
30.65,14
4.24,1
8.09,6
7.53,3
54.06,43
7.55,6
25.23,10
35.3,16
7.1,3
62.58,89
17.32,19
2.88,1
48.62,16
34.47,10
8.73,6
16.62,7
12.52,5
22.43,15
46.87,34
39.59,6
21.8,13
26.87,29
32.3,13
28.54,16
46.2,84
50.16,16
52.44,13
70.09,67
89.62,54
39.11,16
15.69,12
6.37,2
10.61,11
45.85,21
25.95,28
86.69,81
25.74,6
11.98,7
7.46,4
6.88,2
8.68,1
19.98,8
18.71,18
76.69,53
4.37,1
4.33,2
13.49,4
8.18,2
2.92,1
67.43,40
76.04,50
30.57,22
8.04,2
18.79,6
10.56,5
14.87,1
68.82,29
17.31,4
9.79,2
25.35,10
30.38,20
46.13,43
4.66,1
41.79,25
15.12,6
60.12,52
34.53,21
29.68,27
35.1,45
17.95,11
27.94,24
17.06,20
11.62,5
22.68,6
48.14,30
36.03,20
17.02,5
17.16,12
10.72,4
46.57,24
8.64,3
15.89,4
44.52,36
49.61,41
14.74,15
11.27,5
43.44,24
12.57,7
26.53,18
13.74,3
8.17,3
5.89,1
37.64,33
49.9,12
8.83,6
27.14,17
7.57,3
13.98,5
22.59,8
7.94,6
47.4,22
14.34,6
59.75,37
13.81,8
51.22,34
10.3,4
7.04,5
8.61,2
15.24,4
4.05,1
17.75,6
19.96,6
9.98,3
27.57,13
52.93,41
36.47,16
55.68,35
19.32,10
59.49,25
24.24,15
27.13,14
35.6,11
103.71,70
14.89,7
32.29,19
29.45,8
13.28,8
40.14,10
4.73,3
5.94,2
10.15,4
39.07,46
34.23,14
44.97,27
5.27,2
19.78,12
23.57,25
20.45,15
24.21,10
3.78,2
41.4,15
20.26,11
22.15,11
4.34,1
28.14,6
40.67,35
35.98,22
3.18,1
19.22,17
20.98,8
7.31,3
14.35,7
7.85,5
4.44,1
33.87,18
14.27,2
36.44,10
13.63,9
28.52,20
23.38,8
31.91,21
20.55,22
15.44,15
3.64,1
47.06,21
38.62,21
19.24,19
12.49,2
11.34,4
30.78,14
14.86,2
15.69,3
42.76,18
8.59,2
47.88,59
70.46,57
28.48,14
50.62,32
33.69,14
25.04,32
11.19,5
22.13,5
16.93,6
5.3,1
18.3,16
22.62,7
7.62,3
30.69,27
85.28,50
60.51,38
54.64,63
18.5,7
19.52,11
42.35,31
22.66,8
12.28,3
7.53,1
23.7,7
24.75,20
54.98,19
29.44,41
15.32,11
11.6,5
17.64,11
30.15,15
21.96,8
19.94,7
15.3,4
6.89,1
16.61,5
50.32,43
42.78,41
13.91,10
10.11,5
16.41,14
6.67,2
44.52,71
48.84,28
36.38,66
67.95,48
43.42,16
11.23,1
13.66,7
5.04,1
35.22,24
28.32,32
17.9,9
8.92,3
9.27,5
89.92,29
13.71,14
103.1,39
35.93,23
26.85,11
3.69,1
25.54,16
8.09,3
52.5,26
54.42,45
71.28,81
26.08,28
79.92,47
26.5,17
6.9,1
6.95,2
23.41,7
20.82,15
43.61,33
42.6,19
17.75,11
49.28,42
16.57,6
18.37,7
14.2,6
8.11,4
25.21,6
22.51,6
26.57,27
8.8,2
20.14,15
21.79,11
43.03,23
19.89,17
26.02,10
26.73,16
28.59,22
19.48,6
6.68,1
61.02,42
7.85,4
37.23,26
38.35,15
64.98,24
3.87,1
22.02,18
28.1,40
16.7,16
19.45,14
42.23,19
40.84,52
39.78,10
23.36,6
5.04,1
14.34,8
11.78,7
25.75,22
37.74,14
63.8,43
36.82,16
11.15,8
28.16,33
39.91,36
12.91,8
66.48,77
43.51,16
6.2,1
25.64,22
23.9,3
16.73,6
34.57,24
8.31,3
9.17,2
12.14,7
26.01,29
51.43,59
46.62,24
20.54,6
4.47,1
19.97,13
49.09,18
16.3,6
42.97,27
21.97,8
48.81,72
24.34,10
2.96,1
53.56,30
3.42,1
11.83,5
20.49,4
12.5,6
54.78,24
42.33,25
11.44,2
21.46,19
26.74,25
33.5,21
18.7,6
6.74,2
43.25,30
22.42,6
32.79,23
5.51,1
51.69,49
26.11,13
8.41,7
38.84,13
16.53,3
37.27,20
70.54,54
23.8,11
10.5,7
17.9,9
14.91,2
5.26,2
11.04,6
48.62,12
60.14,53
16.53,18
22.87,8
3.5,2
16.36,16
10.57,4
3.23,3
23.63,13
15.65,13
57.3,43
7.86,5
45.63,16
30.95,42
12.24,3
53.48,33
119.44,70
9.1,3
41.24,21
26.9,20
19.75,20
15.94,15
29.91,15
56.56,27
63.07,28
17.32,3
41.9,27
41.07,22
3.75,1
88.07,67
20.93,10
60.5,40
61.58,49
11.89,1
36.13,32
19.85,7
7.65,2
60.82,79
34.71,21
30.42,25
26.88,13
11.09,4
21.43,15
18.64,10
34.34,21
40.31,41
7.4,6
15.4,17
17.7,19
44.84,11
17.03,11
6.06,1
31.84,11
14.24,9
6.49,1
42.94,46
29.95,13
7.82,5
24.78,13
8.7,5
35,31
46.86,11
22.03,6
18.85,13
22.4,26
10.31,2
41.64,13
30.25,22
19.04,13
14.21,4
37.4,38
75.63,77
58.51,23
60.57,34
26.96,31
4.21,1
8.28,3
36.21,12
15.99,4
31.61,14
16.09,9
13.22,3
18.39,8
38.48,19
45.43,37
13.53,13
21.5,36
24.21,6
23.12,10
29.58,13
23.46,7
43.27,31
4.06,2
15.71,10
31.77,14
16.87,12
5.58,2
12.05,4
28.4,7
7.38,2
5.73,3
17.32,5
4.71,1
22.55,16
8.79,2
8.47,3
27.67,18
9.75,5
10.65,5
12.72,5
8.34,3
13.67,4
61.65,36
14.72,6
35.58,20
33.09,20
36.62,15
33.86,11
101.84,70
37.58,39
40.88,50
72.64,112
12.13,3
16.31,5
37.76,18
30.81,15
8.11,2
29.48,14
10.81,8
22.05,10
25.01,14
24.79,13
16.26,4
17.9,9
19.89,21
17.03,9
38.02,25
8.65,3
21.72,7
46.28,48
43.89,30
9.67,5
46.73,43
37.28,26
12.36,2
13.84,9
11.41,4
22.28,9
24.55,10
21.09,6
18.28,21
21.91,6
6.09,4
20.18,13
38.4,70
6.7,2
47.16,22
21.04,13
23.34,31
97.48,39
8.31,4
25.26,6
7.57,2
16.53,9
32.42,22
41.43,41
38.45,16
3.72,1
28.8,21
18.6,15
49.01,44
11.85,2
16.81,5
19.85,16
31.23,54
34.88,24
46.62,44
29.13,23
11.27,4
19.75,9
23.35,20
12.35,5
98.71,67
21.03,8
9.69,3
37.51,11
20.27,19
15.85,12
21.92,20
9.24,2
5.44,3
20.28,11
7.75,2
34.6,20
41.26,55
22.33,12
36.4,18
32.69,18
35.49,97
5.55,2
2.97,1
24.4,11
17.21,4
91.5,40
13.43,7
8.49,3
23.53,30
50.28,15
3.98,1
25.2,17
34.76,28
5.87,1
9.57,3
28.72,21
23.21,6
27.65,17
22.31,9
28.35,10
15.93,13
6.32,5
5.37,2
47.51,46
32.53,7
26.13,8
31,53
12.82,10
35.09,20
13.67,5
34.69,33
22.07,6
5.17,1
41.81,14
33.13,24
81.88,133
26.74,5
65.53,64
17,2
22.39,11
14.94,11
23.45,13
47.87,60
22.96,14
8.32,2
5.57,1
3.87,1
67.5,24
35.07,66
15.2,8
20.93,29
24.88,23
26.54,27
16.91,5
38.44,43
22.1,12
4,2
41.57,22
42.68,42
26.56,11
22.59,40
6.96,2
14.59,4
30.77,25
6.78,2
27.73,35
25.76,30
11.54,6
28.29,27
41.04,50
40.09,61
18.78,8
10.31,2
27.07,18
67.41,57
4.83,2
9.23,9
44.83,60
52.41,15
17.03,11
11.91,2
35.43,17
30.39,15
49.7,18
23.72,12
53.81,30
36.85,48
29.29,34
48.89,29
7.08,1
34.56,8
23.82,15
38.66,17
26.18,19
2.9,1
24.85,17
23.26,10
33,13
11.35,3
23.61,15
40.74,49
43.46,64
24.19,4
32.26,18
12.97,6
37.08,69
49.05,31
16.05,9
30.4,58
40.07,23
19.74,11
29.93,18
2.8,1
30.4,32
25.06,11
4.41,1
15.96,5
49.28,12
12.64,4
39.07,13
14.32,5
16.09,3
5.33,1
11.63,8
27.24,9
39.9,15
9.72,5
25.21,26
16.07,7
31.19,28
27.51,11
17,5
18.64,10
15.01,8
33.97,11
23.02,12
62.1,26
13.68,7
17.19,16
48.89,12
22.06,10
13.44,12
3.56,1
3.28,1
10.86,4
37.12,20
45.31,12
26.21,10
6.28,3
7.39,3
59.71,31
85.46,46
23.81,6
22.17,12
16.77,7
21.75,9
20.13,5
16.35,7
27.67,9
46.32,50
50.13,34
2.81,1
13.44,4
5.11,1
25.76,18
18.58,16
10.85,8
13.78,4
22.81,18
8.58,3
40.38,13
4.99,1
7.17,4
9.45,2
41.3,48
7.35,2
6.38,2
34.42,9
28.54,22
18.85,3
7.46,3
42.66,29
65.89,24
17.92,8
34,14
17.06,6
44,34
24.45,12
15.98,14
18.22,10
28.56,13
16.3,9
1.32,1
18.15,7
34.13,52
6.04,2
53.21,62
19.51,7
21.59,5
8.17,1
15.24,7
15.49,12
7.49,5
60.9,13
25.15,25
24.01,16
49.19,28
43.36,43
13.05,7
21.06,36
47.01,45
25.27,22
11.53,5
37.53,18
28.65,29
56.18,35
7.42,3
28.97,8
13.52,12
37.91,29
34.56,10
18.13,12
25.28,4
38.78,39
16.04,7
29.31,8
53.28,18
14.36,3
14.63,6
26.45,9
32.08,30
12.44,7
71.93,37
35.91,33
31.66,22
35.8,14
9.36,3
36.27,17
13.28,5
46.08,43
12.67,10
16.31,7
39.77,62
95.01,48
22.85,18
16.37,8
24.1,14
3.52,1
20.27,11
3.19,1
23.43,13
16.97,12
97.22,107
24,7
12.74,5
16.89,8
6,3
24.28,10
18.83,4
16.85,7
57.06,28
19.14,10
36.22,15
46.31,41
7.97,2
15.65,6
55.47,74
12.16,4
24,10
19.49,6
27.71,10
14.14,14
26.28,6
12.92,9
27.53,18
13.01,9
21.89,18
3.65,1
46.82,26
29.8,16
34.18,25
20.34,8
17.69,14
3.68,2
20.14,18
13.52,6
34.15,22
27.69,14
19.28,13
43.31,30
11.88,6
32.61,10
16.58,15
37.88,32
18.06,5
12.99,5
11.01,5
38.67,10
57.53,76
50.11,31
29.93,15
25.63,14
17.81,6
46.61,55
25.11,12
6.17,1
4.35,1
39.84,33
43.56,28
9.71,3
78.99,81
58.64,47
34.7,19
59.45,19
67.17,55
22.46,10
51.09,12
22.2,22
9.56,3
39.1,11
7.1,3
18.37,7
30.53,30
21.38,8
13.61,3
25.11,8
21.13,12
15.71,9
6.88,1
25.82,34
9.92,1
52.32,36
63.46,28
33.38,15
45.3,37
12.6,9
65.08,44
7.34,3
34.69,33
47.3,29
34.08,42
107.87,39
12.93,7
36.59,33
17.18,7
21.92,18
32.12,65
26.4,4
21.57,5
11.76,3
16.21,10
12.05,7
29.81,21
27.07,9
32.3,40
32.09,13
5.67,1
26.96,12
35.27,18
38.64,16
16.45,21
78.07,36
94.59,77
13.88,4
6,3
9.05,2
29.53,17
10.88,2
10.21,2
48.41,45
7.22,3
12.49,6
34.85,36
17.83,13
19.3,15
42.5,28
20.56,7
32.51,17
40.65,34
21.75,9
34.96,31
19.3,19
49.27,99
44.52,49
6.91,6
22.62,39
1.98,1
22.83,13
22.2,5
21.3,18
5.92,1
53.33,24
13.78,2
13.52,3
3.61,1
10.84,4
13.09,3
33.07,33
39.91,34
75.75,33
49.76,38
2.17,1
39.89,12
20.4,19
5.66,1
3.54,2
24.16,9
24.18,14
57.07,26
16.44,6
46,41
24.8,19
9.68,5
27.48,16
9.34,2
56.82,92
17.84,5
11.2,4
36.1,17
36.25,8
35.27,13
22.47,12
49.72,15
44.2,40
19.18,41
14.31,6
27.55,12
6.52,1
14.95,7
24.47,6
14.49,8
11.03,2
18.25,3
13.4,4
23.73,16
16.87,5
24.6,35
6.62,4
16.88,3
26.71,10
5.35,2
15.67,5
23.41,13
82.74,61
4.03,1
47.69,70
58.57,26
12.71,3
37.9,43
32.17,28
42.72,19
43.67,21
66.11,78
40.74,8
18.35,12
6.42,3
16.6,14
23.7,8
37.13,12
59.17,24
20.46,17
3.76,2
53.5,28
81.96,49
66.1,21
25.58,14
5.05,1
47.55,34
28.08,9
12.54,9
68.71,43
4.81,3
14.92,10
51.78,69
16.27,8
46.25,49
27.22,18
30.51,14
10.31,1
17.37,6
55.56,14
5.14,1
13.27,3
13.83,11
11.05,4
12.92,10
25.41,10
43.71,21
44.79,38
6.54,4
45.71,36
27.79,18
24.99,7
29.26,26
18.97,6
11.39,3
44.04,19
46.13,28
22.95,7
28.66,34
18,13
37.33,43
60.71,39
22.45,9
89.55,58
11.61,8
21.23,13
6.33,3
6.06,4
9.25,2
17.23,19
10.42,3
52.01,74
53.66,47
18.24,9
44.56,29
42.58,16
26.52,13
12.81,6
26.3,42
10.7,3
14.53,8
7.51,5
30.34,8
6.54,2
29.52,10
26.59,15
9.16,6
5.82,3
30.15,12
40.69,49
30.86,7
13.78,5
22.38,6
6.73,1
9.81,4
28.08,32
14.39,9
45.55,32
39.1,35
20.27,3
17.67,13
7.32,1
18.6,5
27.31,10
51.11,22
16.89,6
29.71,28
41.23,14
30.77,19
33.12,39
28.5,30
39.23,20
87.54,76
8.52,1
13.75,7
34.97,48
35.85,18
52.46,44
14.99,5
3.05,1
26.44,25
21.18,16
10.07,7
36.27,10
28.33,9
41.48,16
7.25,3
14.86,13
16.39,6
4.88,1
8.21,3
8.56,4
13.49,4
20.93,22
36.58,43
25.41,32
35.62,18
30.31,20
6.14,1
18.47,11
81.26,75
21.73,29
30.46,43
2.19,1
24.72,16
49.78,46
17.6,5
39.52,26
22.76,8
36.87,27
4.35,2
10.12,1
19.63,15
15.28,9
33.23,22
53.85,71
54.36,35
10.86,6
56,25
49.35,72
5.06,2
55.31,52
27.67,10
46.44,77
34.61,28
13.1,6
5.4,1
49.14,19
14.46,3
5.7,3
39.57,13
45.02,24
11.4,8
41.1,42
30.4,52
14.66,7
31.48,11
31.03,22
2.57,1
22.74,8
48.63,25
144.43,97
84.88,72
53.12,65
33.02,11
29.56,25
14.54,5
39.99,57
16.04,3
72.16,44
26.94,21
41.39,33
41.58,25
90.02,57
30.51,14
21.59,6
6.08,2
20.07,17
28.85,36
20.83,19
2.21,1
34.19,14
46.64,28
29.46,16
9.81,4
54.17,57
22.2,22
44.23,62
22.55,10
24.04,28
66.36,37
27.85,14
64.44,43
4.83,2
44.42,68
28.24,26
13.13,4
21.94,4
11.69,9
23.93,13
26.16,15
11.07,9
60.7,46
43.56,28
6.93,2
56.99,42
8.21,4
4.12,1
15.61,9
5.31,1
25.61,11
4.44,1
13.05,11
18.75,16
53.47,37
38.86,20
30.46,18
55.65,20
23.12,18
18.77,3
23.91,18
94.07,57
68.34,32
2.11,1
15.02,16
23.39,16
19.28,13
13.83,9
25.41,13
47.9,30
3.08,1
7.59,4
44.79,17
29.55,29
65.37,25
61.63,46
24.63,18
9.65,6
36.4,19
9.87,4
7.98,2
22.75,23
12.18,6
60.81,110
45.16,62
19.42,14
68.59,48
17.19,5
16.17,3
19.24,13
21.71,11
16.8,6
5.97,2
27.92,6
4.22,1
63.02,57
45.7,66
30.58,11
4.09,1
12.48,2
14.89,6
13.33,7
36.68,35
44.03,46
10.08,3
34.45,13
26.84,24
24.09,10
39.07,24
12.36,10
38.39,27
42.48,18
27.01,10
82.58,34
6.71,1
16.09,9
32.94,21
5.06,1
17.89,14
29.77,29
4.95,1
14.53,4
6.75,4
56.6,43
24.29,21
47.36,97
6.84,2
46.28,25
20.8,19
8,2
43.36,36
14.97,4
6.29,1
23.12,4
30.93,19
4.54,2
20.77,13
31.85,73
5.36,2
26.14,10
34.64,17
4.04,1
9.43,3
71.1,77
1.15,1
28.47,25
19.64,15
26.97,11
34.48,32
5.74,3
20.18,14
18.19,4
19.74,11
35.58,28
11.99,2
25.19,8
10.57,8
42.13,27
16.21,8
4.4,1
8.55,3
38.72,51
15.6,9
6.11,3
23.51,26
15.69,10
26.05,19
14.36,6
31.17,7
20.89,38
20.85,6
57.83,20
42.55,30
59.84,68
21.74,13
39,55
32.63,13
7.61,3
24.07,6
3.63,1
27.76,18
40.38,13
50.57,30
8.49,2
41.94,38
29.38,21
34.39,27
32.57,12
21.36,5
4.62,2
3.2,1
59.37,46
3.46,2
11.33,6
85.87,77
27.34,6
10.39,9
57.65,71
54.97,38
39.34,36
13.16,4
15.53,5
37.91,30
15.95,5
10.27,3
19.84,16
12.69,4
27.93,32
3.67,1
49.36,51
22.83,25
42.66,64
61.63,33
17.57,9
29.97,26
11.59,3
48.49,54
20.35,5
37.76,14
32.93,13
79.84,54
26.31,17
38.71,31
67.43,49
14.39,1
27.05,34
48.3,18
12.79,3
22.74,32
47.27,25
2.94,1
43.61,92
7.33,1
10.48,11
5.86,2
35.05,29
5.32,1
13.35,4
14.8,10
29.3,14
46.1,28
49.07,14
17.93,8
31.93,14
30.47,35
6.81,2
5.8,2
32.51,32
22.34,4
27.73,21
8.06,2
36.33,26
33.11,11
19.2,7
15.92,19
42.76,25
25.71,10
36.19,19
31.6,42
20.04,20
13.09,4
23.65,11
6.27,2
15.43,6
6.47,1
11.61,15
16.37,5
14.5,9
52.34,16
24.79,24
44.55,58
29.69,36
25.06,15
25.83,15
18.42,16
64.27,63
63.44,48
22.42,16
14.22,15
27.82,23
47.12,32
5.44,2
34.68,12
2.95,1
35.51,24
34.71,16
35.48,25
17.71,12
51.12,38
24.01,19
11.31,7
23.72,12
30.54,13
3.86,1
43.38,34
20.28,16
54.72,84
10.8,3
16.48,2
65.24,61
38.15,23
13.93,10
42.85,22
38.4,17
50.75,49
12.02,7
18.52,5
41.91,53
36.38,38
20.88,8
19.49,7
32.52,30
16.14,5
46.17,73
15.09,3
17.71,8
83.28,65
22.23,13
36.57,51
28.11,17
4.93,2
16.22,13
6.05,1
28.19,19
78.28,83
5.05,1
27.69,7
9.89,3
49.73,34
11.84,6
39.69,65
12.61,9
39.57,30
5.92,2
34.57,29
14.8,7
9.9,5
6.65,1
22.28,25
72.58,60
5.23,1
3.37,1
55.42,28
10.8,3
9.79,4
28.78,15
28.68,52
49.58,39
41.45,22
29.29,11
20.14,12
4.33,1
36.58,68
41.94,28
7.99,3
66.03,75
90.06,66
6.88,3
6.41,3
7.43,4
9.7,2
25.98,30
5.12,2
57.96,38
36.99,37
24.45,4
21.46,24
15.25,12
3.8,1
35.18,30
11.88,3
16,5
55.89,26
19.13,13
34.92,17
26.29,14
20.31,14
26.24,18
3.68,1
7.85,1
22.93,6
11.98,3
19.27,9
40.52,20
5.22,1
60.97,30
35.06,14
42.49,16
53.45,48
6.73,1
31.9,23
52.9,32
34.27,17
14.95,3
19.48,6
14.36,17
24.69,15
19.88,7
25.3,6
21.9,19
33.32,25
6.39,1
18.71,4
41.35,13
18.25,3
2.42,1
20.22,13
22.61,20
7.84,5
10.03,1
27.88,19
8.61,8
16.31,5
10.42,2
18.01,7
22.11,5
20.32,6
21.82,17
64.58,28
10.89,3
35.37,23
22.58,21
23.81,13
45.55,22
54.23,30
55.39,13
5.87,4
22.65,6
17.16,9
6.73,2
8.69,6
8.59,4
59.36,37
59.95,39
25.94,5
14.46,3
5.2,1
48.54,25
10.87,3
36.39,57
50.49,42
14.84,3
34.42,32
9.03,2
54.9,88
56.26,35
9.67,3
12.25,6
25.52,16
50.81,52
43.91,38
23.14,16
7.33,1
15.35,13
51.99,71
47.58,31
18.13,8
66.34,40
10.13,4
16.72,5
28.54,14
23.08,14
26.92,23
34.09,17
59.44,21
86.12,38
22.71,6
12.27,4
34.95,44
74.25,30
21.25,16
36.64,42
39.02,22
72.99,57
12,5
26.57,21
65.83,85
7.82,2
14.5,11
31.09,18
20.43,9
6.26,1
28.88,12
38.12,49
15.32,7
7.74,3
5.34,1
17.62,7
45.6,37
10.16,4
22.6,23
13.02,3
17.9,16
47.77,33
20.86,13
6.38,1
20.99,24
21.78,22
11.43,3
26.7,10
8.03,6
18.32,6
23.23,16
5.82,2
51.96,66
42.79,16
5.48,4
4.49,2
6.53,2
28.73,16
21.16,20
8.81,3
8.93,2
35.94,27
50.76,50
31.18,27
31.32,11
13.81,3
10.47,4
28.32,18
31.06,18
39.57,23
15.76,7
8.81,4
20.65,8
45.27,22
50.04,72
12.57,4
54.41,23
15.95,11
15.51,2
6.26,1
46.97,21
7.62,1
28.46,13
49.34,26
23.09,23
13.79,5
22.82,8
35.56,29
13.43,5
11.89,4
31.22,17
36.67,15
24.7,8
28.45,59
36.1,49
18.52,5
19.82,16
58.4,34
42.82,33
14.68,5
45.11,20
20.12,13
15.99,16
19.61,8
5.54,3
18.53,11
4.52,2
41.14,18
18.95,8
30.73,16
15.64,6
25.41,16
10.61,7
25.1,23
10.84,2
40.8,34
19.15,10
60.72,46
9.02,3
9.82,1
11.98,4
85.84,54
11.81,4
9.2,2
11.86,7
35.38,28
11.66,5
7.47,1
32.66,12
82.15,62
38.39,41
15.66,3
22.25,23
2.73,1
23.55,7
10.67,4
12.19,2
6.36,3
12.7,2
51.87,50
37.83,25
66.86,56
13.98,15
31.76,15
22,5
14.5,10
39.34,38
4.23,2
30.34,34
28.06,28
52.74,17
19.76,9
1.85,1
22.7,25
22.99,12
8.81,5
7.47,3
4.32,1
50.96,21
43.01,17
5.39,1
116.21,32
6.95,1
82.72,98
43.49,23
19.9,6
23.22,25
10.73,3
23.13,4
28.92,13
10.1,4
24.55,23
7.53,3
28.41,9
40.21,13
12.98,7
18.42,12
44.88,19
42.91,13
59.2,41
23.04,6
24.71,37
11.01,2
4.17,1
22.97,15
15.7,16
27.38,21
72.68,39
29.51,13
19.81,8
23.38,17
30.34,34
51.53,28
15.37,13
6.58,3
13.7,8
30.05,16
7.04,2
31.33,36
8.31,2
10.74,10
28.48,20
6.94,2
17.73,4
17.88,7
11.16,12
15.56,2
26.89,9
38.19,57
19.44,8
10.65,2
20.97,15
23.33,8
21.99,2
18.57,3
8.76,4
13.1,4
40.78,8
42.25,53
2.87,1
16.01,3
29.47,12
7.13,2
30.28,17
10.06,5
5.1,3
21.78,17
11.05,6
19.16,4
26.66,5
4.6,1
9.69,3
12.23,3
37.18,14
14.47,10
6.56,1
4.09,1
18.54,17
35.52,13
47.51,65
9.49,2
27.72,16
39.59,10
9.86,7
32.85,9
7.61,3
28.65,17
11.69,6
4.26,2
47.55,24
8.95,3
30.43,9
33.69,39
38.09,15
78.13,64
25.16,16
18.48,4
119.76,58
26.77,22
12.33,1
23.19,13
4.95,1
11.34,6
9.12,4
12.62,4
149.75,95
12.24,2
29.76,26
30.52,24
28.4,12
31.36,50
30.89,52
9.99,2
27.92,28
24.83,32
34.97,18
24.72,8
8.94,2
2.9,1
17.9,7
18.43,6
34.69,7
105.81,46
16.66,9
20.38,8
47.75,32
38.69,8
29.52,22
7.11,5
38.72,73
15.45,14
14.64,7
6.23,2
15.05,8
12.78,2
5.16,1
12.01,4
31.97,16
15.83,5
3.78,2
47.17,27
30.4,8
29.8,32
18.36,12
10.29,2
19.42,15
26.19,24
56.95,22
41.17,23
31.65,21
5.65,2
9.89,3
7.88,2
62.18,49
46.54,17
7.51,1
30.5,35
17.78,11
23.41,12
62.07,60
8.91,1
14.13,8
9.24,2
18.6,6
20.48,18
34.07,24
33.9,23
14.65,5
32.73,61
48.61,42
8.12,4
3.58,2
17.73,8
48.2,61
23.26,12
5.11,1
8.57,7
27.6,16
25.66,9
27.29,16
12.15,4
23.31,14
15.73,4
25.77,18
40.56,20
24.96,8
43.65,53
25.07,18
17.69,7
75.76,79
21.46,9
13.17,5
72.47,70
10.09,7
4.11,1
34.81,40
59.35,25
31.23,12
83.86,30
16.79,10
42.39,35
12.1,1
24.85,15
33.52,17
37.25,40
5.28,1
3.78,1
23.24,10
76.84,46
22.63,12
6.67,1
36.66,56
38.84,28
43.16,33
32.99,16
32.07,15
19.75,12
23.35,15
18.63,3
42.58,21
64.57,67
3.75,1
29.66,26
16.84,6
18.43,11
3.19,1
56.27,63
21.82,14
30.83,24
17.21,5
14.44,4
21.91,9
19.09,7
25.03,5
7.57,2
25.43,9
27.62,8
19.51,11
17.71,6
22.8,14
22.86,19
7.39,3
4.78,1
21.25,4
40.23,48
9.61,2
34.13,41
4.59,2
8.26,5
9.83,3
6.62,1
43.2,24
13.7,7
7.34,3
9.31,2
43.1,19
10.62,5
4.23,1
14.78,6
19.11,6
15.01,9
58.08,55
8.12,3
17.8,6
3.89,2
4.75,1
27.5,15
15.74,5
36.2,34
0.97,1
17.87,11
5.4,1
20.02,25
5.54,2
72.14,44
4.37,1
33.57,31
53.36,32
32.08,14
33.42,14
89.76,126
6.6,4
34.02,36
51,19
34.12,10
25.99,11
39.74,17
23.38,20
15.98,7
21.94,7
19.8,1
12.57,6
26.76,14
7.57,4
12.72,7
4,1
29.12,14
9.64,1
47.88,14
6.65,3
18,10
4.3,1
9.42,4
10.17,1
15.04,6
5.09,1
22.44,13
14.37,1
20.12,2
8.8,1
26.46,19
12.43,5
16.15,12
18.66,3
17.42,6
9.35,3
30.3,17
24.64,8
8.69,2
31,18
25.83,19
44.42,50
37.85,41
27.53,8
4.71,1
12.83,6
11.99,3
21.28,8
52.53,57
29.25,20
25.01,13
19.76,14
47.97,18
40.62,28
6.75,2
26.19,9
37.25,16
21.96,3
18.9,10
11.15,7
12.53,4
57.81,26
8.92,4
56.19,14
15.97,11
30.25,20
33.33,9
44.25,37
24.38,12
15.19,4
42.18,23
42.5,22
34.32,10
14.12,8
4.38,1
35.19,41
52.5,30
17.94,4
12.16,3
62.49,16
81.43,38
31.54,21
20.51,11
7.96,2
26.78,14
11.3,3
25.57,19
8.73,3
25.68,41
77.88,34
10.59,8
32.76,53
28.13,7
29.31,14
43.96,54
9.86,3
5.51,3
45.79,59
33.39,17
19.17,21
27.63,31
47.26,65
20.64,15
57.94,27
42.19,10
27.01,22
16.92,4
13.9,11
26.53,11
70.4,23
6.85,2
41.84,50
39.18,47
25.02,16
6.54,4
49.45,36
18.77,8
12.27,7
45.92,44
35.36,17
38.84,33
24.7,14
3.27,1
50.72,29
37.25,22
23.43,13
10.83,1
48.05,11
24.11,12
49.78,58
17.5,14
37.04,25
7.67,4
14.08,10
22.28,9
34.48,32
48.25,39
8.8,3
45.93,50
19.22,19
7.35,4
22.2,8
10.27,9
51.73,89
11.78,4
5.39,1
3.86,1
15.35,8
43.21,47
25.61,20
64.7,19
4.92,1
54.07,17
34.47,37
39.04,18
43.41,27
20.87,11
48.57,25
8.83,3
17.12,12
4.54,1
13.56,10
8.82,8
40.08,33
22.63,25
19.07,6
19.7,13
6.06,4
27.65,41
41.84,21
18.98,30
26.05,21
13.59,10
21.45,12
12.22,6
27.32,19
42.81,47
12.35,7
15.13,14
3.21,1
12.46,6
15.33,7
33.96,35
7.23,1
23.83,12
14.98,5
7.2,2
33.45,14
5.6,2
32.25,28
24.15,23
9.53,5
85.91,93
10.61,3
38.19,41
19.32,9
36.1,43
18.85,12
32.16,12
16.52,3
42.93,17
12.36,14
55.62,31
27.66,12
17.65,4
5.9,1
22,5
34.8,62
27.38,12
5.67,2
29.77,36
33.78,17
13.74,9
21.14,16
10.71,11
17.65,11
30.16,17
53.33,24
62.63,79
13.59,2
19.98,7
15.5,3
41.38,35
10.76,1
19.1,3
24.1,17
6.83,2
16,14
34.42,24
19.98,9
51.67,57
19.58,7
44.67,19
14.68,2
12.01,4
20.46,7
53.88,44
71.69,42
21.97,12
32.51,16
44.27,30
42,22
5.99,1
50.91,71
24.03,20
21.9,36
8.84,6
20.81,9
3.56,2
13.24,5
33.26,31
19.43,6
43.32,42
26.76,23
14.43,4
12.78,8
10.62,4
6.12,4
32.87,19
22.22,10
30.47,42
4.76,1
8.63,2
11.98,4
25.44,13
21.01,9
8.54,4
14.04,3
10.45,4
26.1,3
8.28,1
24.04,3
14.64,12
2.95,1
53.91,32
13.62,3
7.66,1
25.41,14
5.23,2
50.33,32
13.96,4
45.8,15
19.06,5
7.62,2
18.3,4
20.88,12
58.51,71
1.88,1
5.25,1
21.18,13
30.87,45
34.3,17
36.81,47
13.41,10
26.92,12
22.22,2
18.29,14
13.8,9
20.12,13
45.7,14
18.65,5
38.83,27
34.41,26
29.57,25
22.86,12
27.74,12
8.37,4
14.84,2
12.71,7
27.33,8
5.58,2
27.55,32
35.13,31
20.09,13
11.22,14
20.97,19
35.37,14
41.75,29
11.14,8
31.65,22
78.95,61
22.35,6
52.17,28
58.27,46
26.08,29
8.35,5
22.31,5
43.64,15
27.07,14
7.07,3
21.98,17
20.63,3
73.82,54
55.81,36
72.88,86
11.23,5
11.91,10
46.04,10
15.28,2
6.97,5
4.87,1
11.08,9
3.68,1
36.85,18
7.44,2
29.89,19
42.85,25
41.9,31
54.18,16
14.85,11
26.57,17
30.94,43
25.07,12
42.36,28
52.65,55
10.99,4
19.71,15
13.17,7
5.48,1
33.44,76
37,38
35.02,18
32.93,28
13.51,6
20.19,5
29.52,10
21.85,9
15.01,5
13.04,7
18.19,7
15.92,5
32.35,15
22.34,23
67.97,56
12.67,5
28.26,12
30.83,6
8.53,5
16.17,12
12.39,12
24.32,14
55.72,48
15.79,4
40.99,53
32.48,41
123.62,72
50.96,45
4.78,2
74.55,43
17.88,10
50.09,25
10.17,3
5.58,2
41.43,23
19.32,6
29.18,24
14.8,8
11.37,3
18.49,7
5.02,1
33.24,13
14.79,8
8.31,2
17.66,7
3.6,1
21.28,11
20.05,13
26.11,15
27.31,13
36.59,9
23.5,14
10.19,7
17.09,4
31.18,30
13.77,5
15.14,5
61.9,28
25.07,16
32.03,7
23.4,8
25.21,3
40.68,42
12.65,6
5.6,3
29.94,21
13.05,10
2.86,1
7.06,3
30.05,27
88.75,49
5.74,1
48.54,72
50.32,54
17.86,4
38.23,35
6.55,1
11.8,4
26.67,9
3.13,2
15.26,11
5.44,2
22.81,13
27.26,17
32.45,14
30.4,10
15.43,5
3.11,1
40.19,22
17.02,5
15.72,7
27.44,32
47.92,19
27.72,9
19.36,9
12.1,5
53.41,85
18.84,14
2.62,1
63.65,77
32.07,37
14.98,5
25.58,7
15.93,7
14.33,9
21.22,7
11.43,1
4.97,2
37.87,20
15.6,8
15.26,5
6.19,4
69.74,27
33.71,11
20.61,8
12.25,3
16.51,12
3.33,1
11.69,4
19.99,9
28.75,23
16.08,12
21.58,6
19.67,8
9.24,7
4.11,1
19.48,7
27.37,9
43.2,21
10.71,9
5.86,3
13.52,5
4.7,2
80.63,67
3.69,1
4.56,1
11.04,9
19.49,10
47.62,31
9.79,5
32.75,7
21.6,15
6.5,2
11.31,4
20.65,16
30.25,11
34.59,28
20.23,6
37.54,27
32.76,25
59.89,34
21.6,14
50.1,52
14.68,3
26.61,17
24.81,11
14.32,3
18.52,16
44.42,33
5.73,2
28.64,22
10.05,1
16.15,13
14.32,7
16.71,15
48.11,34
39.96,9
39.72,44
52.11,33
10.9,9
63.51,30
26.74,12
17.71,26
29.9,12
15.41,4
3.27,1
3.74,1
51.23,19
16.66,6
22.97,15
17.8,7
58.67,40
19.75,8
18.78,19
32,32
12.45,6
24.52,13
7.4,2
22.5,27
7.4,4
10.4,3
11.29,4
35.06,47
25.88,26
4.13,1
11.34,7
12.03,2
27.33,12
24.12,7
37.13,17
51.59,59
13.22,6
5.72,1
23.52,22
16.81,4
13.32,9
55.01,29
21.42,24
33.84,36
15.85,7
5.39,2
4.85,3
9.14,3
24.36,23
9.69,2
8.12,3
19.9,10
19.96,10
58.78,65
11.68,2
34.34,19
29.37,30
27.31,7
85.82,77
7.98,8
33.76,31
44.37,27
6.58,1
68.21,47
3.82,1
20.24,12
66.55,28
27.13,22
17.19,7
99.75,55
71.89,61
13.72,4
16.17,2
29.62,34
10.64,5
42.26,10
77.21,28
20.88,10
29.04,11
38.62,33
19.66,11
61.72,34
19.75,9
15.87,11
19.3,15
59.92,90
1.83,1
72.19,18
10.58,3
24.1,9
23.75,7
11.48,4
44.4,65
25.8,21
26.3,10
17.52,13
4.64,2
60.23,34
24.1,16
16.48,13
19.8,14
42.73,70
19.67,10
56.68,97
5.65,2
3.91,1
45.64,19
60.64,72
40.74,15
7.83,3
18.12,30
42.13,23
23.2,14
13.76,4
34.83,36
16.65,13
11.4,4
16.56,16
16.28,15
31.97,23
17.87,3
31.27,40
28.03,8
16.1,7
21.97,10
43.92,30
11.07,5
21.64,3
13.52,2
25.43,21
59.48,33
9.79,4
53.47,48
3.57,2
36.54,25
11.09,13
38.61,49
9.49,6
49.82,19
40.56,27
12.69,2
4,1
7.83,3
21.05,4
35.12,12
17.05,7
31.94,39
8.2,2
51.12,62
33.69,20
20.14,12
18.99,4
19.3,10
4,1
22.06,11
48.32,58
39.06,31
10.47,9
59.33,37
14.23,4
21.04,6
18.04,12
41.82,20
41.48,38
34.34,50
41.9,60
25.33,9
13.84,2
44.3,22
18,25
5.31,1
27.06,4
27.71,22
26.79,22
9.05,4
10,2
4.9,2
21.74,9
20.77,12
30.91,12
14.17,5
3.4,1
13.85,3
14.04,6
6.36,1
19.34,7
51.4,28
35.06,13
10.15,2
21.06,14
25.33,11
19.88,15
6.87,2
13.51,2
21.54,8
21.93,12
32.31,31
35.47,30
34.5,12
28.63,6
15.93,2
6.35,3
24.28,31
104.36,62
24.23,18
43.42,26
43.06,46
33.18,16
16.97,12
9.77,3
6.38,3
19.05,8
18.46,6
44.31,12
9.06,1
44.05,38
31.77,26
24.99,13
7.48,1
35.23,18
12.88,5
11.2,7
24.38,12
38.99,32
15.91,4
35.38,18
34.48,34
15.23,5
75.98,43
14.37,2
39.09,22
9.74,6
8.13,2
8.8,1
6.62,4
47.53,24
10.12,3
15.34,17
22.86,12
18.92,12
22.69,11
4.65,3
8.74,4
19.65,11
15.73,3
31.88,32
7.36,3
15.82,14
15.39,14
36.37,18
29.36,33
26.69,7
17.54,8
20.12,17
25.27,5
28.17,31
16.04,5
23.44,23
52.92,28
32.53,22
15.29,5
11.96,4
67.66,62
24.77,30
6.62,1
4.81,2
20.61,13
17.15,9
42.02,24
12.57,6
37.16,15
7.03,2
29.91,6
5.54,2
10.48,2
50.93,25
8.45,2
29.21,61
9.28,4
15.18,7
32.56,17
29.47,37
10.68,1
17.98,9
13.65,17
27.87,13
8.31,5
29.98,15
30.92,17
33.91,7
17.08,12
10.35,5
3.84,2
14.38,7
17.59,13
51.63,68
53.91,68
9.9,2
13.03,2
11.62,5
44.6,27
38.55,8
53.28,47
28.91,58
16.74,6
24.78,30
19.26,9
49.31,19
13.63,6
14.86,3
15.31,10
24.49,10
13.6,8
57.72,31
15.42,10
4.83,1
6.84,3
12.71,9
3.06,1
38.15,47
16.12,8
47.2,33
1.72,1
12.55,3
12.35,3
40.37,65
13.06,2
18.29,9
32.28,6
4.72,1
26.29,16
46.21,31
17.6,5
12.7,8
5.26,1
29.43,23
44.95,52
20.5,12
19.05,3
21.08,17
38.81,18
8.31,2
6.45,3
24.77,8
34.63,31
22.15,21
11.39,3
25.81,22
21.06,4
45.69,8
14.23,7
35.57,20
27.46,6
29.57,37
3.35,1
34.2,9
6.87,1
17.99,8
31.37,32
55.2,44
32.33,39
23.44,4
42.37,35
4.59,1
38.83,47
28.25,28
10.2,10
5.29,1
4.94,1
28.11,15
11.6,6
30.46,12
38.84,19
33.95,14
21.9,22
6.33,3
3.28,1
12.16,4
17.04,4
25.36,17
34.8,13
22.7,19
6.48,1
11.85,5
3.79,1
15.63,8
29.77,24
9.2,2
27.14,40
8.77,3
29.28,16
17.59,15
11.08,6
42.84,27
24.52,10
16.38,16
25.08,6
19.22,3
25.66,9
40.11,21
25.94,16
64.64,57
33.43,14
71.92,82
27.54,25
12.38,3
38.03,35
27.35,33
26.58,9
82.59,59
26.24,21
19.92,8
10.72,2
41.92,18
14.5,8
79.9,36
27.37,10
14.71,6
64.07,122
10.2,5
6.09,4
24.77,21
59.69,44
3.57,2
34.43,66
12,2
5.51,2
24.12,16
48.56,11
94.1,38
7.79,1
2.01,1
5.3,3
26.6,7
11.18,2
22.9,13
17.08,13
29.46,10
30.3,18
18.91,4
2.9,1
34.86,27
10.91,3
2.38,1
16.02,3
11.92,4
6.37,2
20.05,20
4.55,1
14.18,14
9.84,2
10.54,1
6.32,3
19.67,38
54.86,35
34.98,29
9.43,5
25.06,8
5.02,2
90.04,48
25.33,26
13.28,10
15.16,8
11.26,4
16.91,4
26.26,18
4.47,1
94.73,24
8.31,2
19.3,9
22.71,4
16.36,7
40.27,59
80.97,61
12.6,3
8.97,13
64.51,24
5.39,5
59.45,16
25.23,35
24.36,17
11.07,4
12.53,6
64.19,33
13.3,3
9.97,3
33.58,18
30.27,27
7.69,3
48.16,30
39.86,35
22.72,4
15.02,2
4.29,2
32.45,23
5.94,3
21.38,4
37.84,16
32.32,21
61.81,32
20.69,19
20.31,9
37.76,53
18.49,9
2.38,1
11.75,4
35.38,31
4.37,1
26.87,24
22.68,12
42,18
3.84,1
24.17,19
82.74,52
17.65,21
28.87,10
7.14,4
9.12,3
11.82,3
26.95,6
16.06,5
68.38,71
9.34,1
7.85,4
32.45,12
18.43,10
18.15,18
15.24,17
13.13,9
6.79,2
13.16,2
18.53,4
13.9,4
24.57,22
3.96,1
33.01,10
10.05,2
6.9,2
46.18,34
10.76,5
23.32,18
35.65,20
18.75,4
9.9,4
36.39,27
5.97,1
15.15,5
9.53,9
33.3,27
15.14,7
25.91,13
11.01,4
14.97,6
20.99,4
5.24,1
4.26,2
37.86,14
19.78,7
64.5,23
28.32,11
48.19,66
1.16,1
23.17,17
9.05,2
22.64,15
10.86,13
12.09,4
9.31,3
9.3,5
15.61,4
7.05,5
22.1,8
32.2,21
5.41,1
13.68,19
6.88,3
55.13,58
18.68,11
10.04,3
11.3,2
3.94,1
27.85,17
49.65,45
20.05,4
3.54,1
50.93,75
49.22,22
33.51,25
10.4,5
59.85,24
17.81,5
53.28,43
78.01,34
54.58,18
22.89,25
62.41,50
11.54,5
53.79,31
43.33,22
28.12,25
6.56,2
33.69,31
35,40
58.77,84
15.24,12
22.06,10
19.17,15
39.26,22
41.62,25
7.76,3
38.07,28
18.96,3
42.15,48
2.71,1
19.85,21
6.86,1
6.79,2
3.95,1
8.54,2
5.1,1
15.48,19
59.79,19
15.5,2
28.57,9
47.76,22
24.48,6
19.3,7
50.05,41
33.83,12
18.6,12
23.38,11
64.58,64
5.31,1
25.65,6
18.99,7
6.68,4
7.35,2
15.62,4
29.29,12
7.06,1
22.71,14
14.04,5
24.18,3
58.2,53
10.45,6
60.75,42
28.16,15
75.48,69
9.86,3
4.41,2
40.46,15
15.59,15
35.58,13
21.44,36
10.24,4
30.25,19
30.36,11
81.14,76
31.99,9
5.43,1
45.39,18
46.91,18
4.54,1
14.9,5
22.57,6
3.71,1
14.54,13
33.88,36
21.93,9
30.23,12
6.16,1
44.62,31
26.02,16
48.13,17
19.17,13
18.46,1
4.23,2
69.94,83
23.16,16
13.47,9
42.53,34
66.93,41
29.06,16
25.38,12
25.72,18
47.71,21
34.02,27
10.81,5
36.58,19
3.52,1
23.89,23
8.4,7
16.65,8
78.39,61
36.6,15
37.12,12
72.91,38
10.19,8
13.69,6
8.72,7
7.49,1
6.41,2
27.9,8
7.93,5
33.24,20
14.85,5
22.16,8
37.27,16
40.81,16
48.15,61
4.73,2
23.94,27
21.81,15
5.21,1
9.63,1
42.47,19
32.82,36
10.87,6
5.84,3
38.97,21
6.87,3
19.14,13
9.52,1
10.28,4
10.99,3
28.04,16
8.99,3
3.22,1
42.8,31
28.55,34
9.84,2
63.62,54
14.35,6
54.02,69
21.97,12
12.7,4
20.89,7
51,49
14.56,5
15.85,12
20.53,25
17.05,7
31.4,19
26.65,8
25.62,39
37.08,18
38.25,10
62.24,52
23.36,14
13.6,4
27.34,15
12.44,5
20.49,12
33.09,33
22.6,21
79.93,96
51.92,52
56.06,13
3.26,1
4.05,2
35.82,43
16.24,4
26.63,21
41.4,36
43.4,33
8.31,3
78.76,28
10.76,3
24.63,29
21.56,7
49.54,12
23.51,26
35.05,19
5.33,3
32.84,9
5.85,1
10.51,8
26.67,17
37.85,21
16.49,10
13.09,13
49.75,22
34.7,24
46.1,9
28.51,18
3.24,2
40.84,44
12.12,3
24.63,28
17.82,25
15.81,8
3.51,1
13.11,4
33.88,44
23.16,26
24.39,14
22.65,10
39.83,57
29.15,17
45.14,26
4.56,2
4.36,1
13.51,6
13.54,4
14.23,11
25.24,6
6.85,4
19.08,10
4.78,1
14.08,3
27.17,7
34.33,17
37.43,14
19.76,10
67.84,59
46.55,27
22.09,11
10.32,2
9.28,2
19.96,2
31.25,42
70.75,37
41.48,34
5.56,2
18.04,15
8.46,2
10.04,3
39.47,48
11.18,3
52.55,23
41.22,84
16.18,3
20.66,13
5.93,1
50.81,14
6.88,2
21.59,14
1.21,1
7.02,3
44.51,36
4.47,1
31.14,15
32.9,26
7.3,2
33.22,31
4.97,2
11.36,4
7.56,2
44.68,22
24.17,21
22.25,10
52.22,20
8.99,8
29.19,17
17.14,6
63.56,80
34.98,33
7.87,2
11.37,5
14.02,6
17.99,7
18.85,9
30.66,25
9.42,2
29.8,22
72.24,51
8.49,4
40.2,17
14.5,11
6.41,2
44.64,28
36.56,12
14.96,5
25.72,12
55.89,40
17.69,16
5.4,3
51.96,82
31.39,46
21.11,10
5.7,1
10.83,3
45.14,48
19.46,18
15.06,9
69.45,27
20.84,17
11.33,5
37.65,12
36.95,40
42.92,45
41.31,38
20.19,5
2.73,1
41.4,11
104.14,51
18.29,9
12.62,10
40.07,15
19.49,26
10.79,7
34.98,42
31.98,19
33.5,9
23.63,17
42.72,39
13.72,7
23.13,11
12.25,7
27.36,25
10.5,4
30.49,6
24.14,9
28.31,22
5.15,1
18.36,10
31.72,32
10.77,4
53.98,14
43.5,18
24.74,22
26.84,5
6.84,1
12.29,10
4.74,1
78.54,44
16.79,7
6.01,4
31.44,4
8.6,1
73.39,48
43.37,30
16.74,6
12.47,9
9,2
6.42,3
3.43,1
9.32,3
10.17,7
76.35,35
16.44,9
24.15,19
57.34,41
17.96,3
5.57,1
7.3,3
22.5,9
55.89,52
8.41,5
6.63,1
22.75,17
18.37,14
8.75,5
34.57,24
26.62,9
43.48,46
8.43,4
35.54,11
70.82,22
28.01,12
12.08,5
54.51,32
21.74,7
29.76,9
11.14,2
30.15,26
31.04,9
10.53,2
32.21,13
23.86,13
17.28,9
16.76,8
29.28,26
30.56,6
12.97,3
18.09,18
50.26,48
26.01,12
29.77,17
16.91,8
22.91,30
32.95,21
19.38,24
33.39,17
21.34,14
55.18,47
7.57,3
13.14,5
48.31,17
26.07,24
54.33,36
11.76,4
14.14,5
22.61,3
38.55,28
66.15,28
3.11,1
5.89,2
46.02,65
22.87,20
5.89,1
20.68,15
11.26,7
2.9,1
62.35,80
9.56,4
19.88,11
20.37,9
36.45,35
24.38,12
34.56,14
15.47,8
27.29,25
27.96,29
22.81,4
10.07,5
7.43,1
22.21,5
21.75,10
39.14,35
38.61,25
18.57,16
28.02,18
24.67,29
1.82,1
21.28,5
20.13,8
11.82,6
12.56,8
23.35,6
39.73,38
6.83,4
35.89,12
19.72,29
34.66,22
7.34,1
14.13,3
30.3,20
21.43,7
8.19,3
12.12,7
53.86,40
117.37,124
21.28,18
23.3,11
6.54,4
42.62,22
6.87,2
23.57,7
8.21,3
19.37,5
9.3,5
42.43,10
14.89,8
84.31,50
44.6,33
20.42,24
15.77,2
14.28,5
43.29,18
29.28,31
19.16,23
28.52,18
10.4,6
7.71,2
8.29,2
31.51,13
17.07,11
27.76,6
17.42,8
18.68,7
67.9,44
31.33,28
6.91,2
11.82,5
9.75,2
9.67,5
68.15,32
11.36,18
24.04,14
10.98,2
29.28,23
23.36,21
9.04,5
72.92,21
3.98,1
19.13,9
21.21,6
18.96,20
14.15,4
51.91,55
25.3,6
13.79,3
4.13,1
34.33,7
44.95,30
2.31,1
25.75,33
16.27,7
20.37,7
23.98,7
29.18,18
32.44,12
14.98,5
35.06,15
21.34,7
23.39,14
21.06,8
30.76,41
34.59,9
17.51,7
14.86,10
48.31,15
58.88,28
17.49,4
39.06,17
24.22,10
30.43,22
23.41,6
9.59,2
47.86,24
35.59,37
22.26,12
36.52,17
21.86,25
39.62,15
22.18,5
24.97,39
22.71,10
4.92,2
14.89,5
11.93,6
3.52,1
52.07,57
41.95,18
4.92,1
43.75,25
14.7,5
7.43,4
7.97,1
23.64,20
7.65,2
17.67,6
31.69,16
43.54,72
6.98,2
80,46
22.3,14
26.52,27
7.97,1
14.1,6
70.91,23
16.51,4
32.61,25
11.97,6
35.49,23
49.73,25
53.15,76
48.65,24
25.61,16
29.24,22
41.46,67
11.36,1
45.59,51
40.38,40
16.59,9
21.15,8
3.22,2
38.36,16
34.93,20
52.01,46
15.35,12
26.55,23
26.98,14
25.66,6
25.92,17
36.56,68
3.02,1
8.74,1
15.61,14
15.67,2
40.14,33
15.04,3
15.3,11
27.31,16
11.48,4
106.97,107
10.66,3
44.27,18
42.65,47
25.92,31
14.92,3
20.97,32
37.18,35
12.56,3
24.87,15
9.17,3
22.2,24
17.18,5
9.58,3
6.33,2
25.21,53
6.86,3
17,8
12.49,1
44.9,30
6.77,3
19.45,14
30.24,13
55.34,15
50.92,31
12.04,3
77.22,29
3.46,1
45.85,27
68.27,25
15.53,3
35.69,16
13.23,7
47.53,24
41.23,29
11.57,9
19.67,22
45.96,26
24.6,14
19.45,14
15.36,5
24.29,13
21.64,9
5.67,1
32.74,15
36.71,15
35.46,24
11.23,5
19.53,9
5.48,2
38.11,15
42.68,19
54.89,23
49.75,47
3.04,1
19.17,15
41.09,22
39.54,39
8.07,1
30.91,14
3.19,1
42.71,32
37.03,34
40.76,31
37.03,13
12.75,5
5.97,1
14.66,5
6.67,2
7.76,3
12.36,6
53.48,17
25.4,24
11,8
17.7,9
44.68,16
42.77,20
17.38,8
10.18,3
36.14,14
15.85,14
39.92,37
42.7,16
40.64,12
13.93,3
19.05,6
9.28,2
45.59,41
17.64,12
34.98,14
17.33,8
42.34,21
4.97,1
12.72,3
25.6,16
7.61,2
5.22,2
7.27,3
5.89,2
17.58,16
44.39,19
41.12,39
38.49,27
25.62,14
19.92,5
27,27
25.92,10
34.07,39
5.68,1
4.33,1
23.04,17
4.68,1
4.68,2
51.09,23
59.02,41
9.09,2
40.7,29
51.97,59
32.48,30
23.5,37
69.97,71
13.39,5
53.12,61
19.82,9
96.07,99
34.92,21
13.52,8
20.72,7
15.13,26
8.7,4
8.5,5
13.34,2
35.65,20
29.83,13
18.45,13
10.53,2
32.93,20
55.62,24
18.24,15
32.53,16
49.72,26
20.49,7
30.6,24
20.66,16
4.52,1
26.07,15
12.37,1
18.35,4
11.79,3
17.64,12
35.44,28
47.5,42
22.15,13
3.1,1
6.91,3
3.58,1
5.65,1
14.59,5
13.8,4
22.13,19
9.57,7
23.77,21
127.94,78
16.72,7
10.69,2
63.42,27
15.66,6
36.45,31
13.2,5
15.69,5
6.68,3
3.83,2
51.19,24
6.28,3
27.66,15
36.77,31
24.97,14
42.52,28
3.99,1
12.29,4
67.2,75
52.12,60
10.61,5
48.02,17
2.33,1
8.45,2
73.71,96
6.79,6
7.76,2
40.51,16
14.2,7
35.47,30
14.04,2
14.23,14
11.26,4
23.06,17
24.26,17
36.51,20
93.79,25
17.34,7
27.14,12
3.19,1
8.55,2
13.6,6
4.23,1
16.54,7
10.98,12
32.09,7
63.8,27
14.43,6
117.87,93
29.8,11
17.85,17
36.08,25
58.39,61
18.22,5
8.21,5
14.05,3
41.04,21
21.72,17
41.49,42
66.05,84
23.19,23
31.05,14
40.75,19
3.68,2
47.54,67
50.67,16
13.32,2
50.55,15
18.48,8
33.72,27
37.58,17
9,3
3.58,1
34.18,24
31.32,36
79.09,102
3.59,2
24.94,14
12.26,5
22.72,7
18.45,17
24.32,9
26.6,31
47.81,19
14.26,7
24.47,26
12.96,5
41.72,21
38.93,23
27.71,13
10.38,2
24.95,18
44.45,31
12.18,4
8.53,8
10.26,3
17.57,8
24.32,17
30.25,64
32.48,8
24.98,11
60.38,22
9.53,3
29.72,28
16.11,3
101.77,81
18.04,12
1.14,1
13.06,10
85.81,57
32.33,5
35.21,12
5.83,3
30.46,15
12.34,2
6.49,4
25.03,12
5.59,2
17.34,7
21.67,9
41.22,15
40.76,12
4.29,2
26.37,27
17.64,9
27.15,16
14.23,7
16.77,8
50.54,33
43.38,65
57.79,13
8.56,1
21.07,8
29.98,12
13.02,5
26.41,10
14.54,3
19.06,19
37.89,7
14.99,6
8.53,2
26.68,14
4.34,1
31.84,34
35.96,9
34,44
15.55,9
23.64,33
18.43,18
41.81,38
6.08,1
8.42,1
21.85,7
40.94,28
26.73,10
17.51,7
6.37,2
37.2,42
25.33,7
52.51,50
20.73,5
70.87,66
5.26,1
33.68,10
30.28,24
22.07,9
32.04,14
3.02,1
40.9,40
34.21,36
24.19,21
46.94,24
14.52,9
33.32,30
13.83,3
47.27,30
42.16,36
27.73,15
45.04,29
6.23,2
26.51,10
20.37,11
11.22,5
4.81,2
6.97,3
41.08,21
55.2,37
5.58,1
22.47,12
28.96,15
9.83,2
2.89,1
11.77,3
4.21,1
9.91,3
58.14,41
23.73,22
33.15,25
19.63,8
95.94,86
26.36,14
27.43,31
14.04,14
24.08,31
16.45,7
3.9,1
8.51,3
21.53,14
53.87,36
52.38,28
38.28,24
16.56,10
30.44,14
13.18,6
20.26,7
10.5,5
8.09,1
9.94,5
54.34,47
88.27,95
11.21,5
26.51,35
12.98,7
58.64,70
30.23,28
28.1,9
33.46,30
6.45,1
29.95,18
14.36,12
47.72,47
34.47,23
17.84,5
7.62,2
43.44,54
23.94,20
19.67,30
19.31,34
24.54,21
11.97,9
10.07,1
18.38,6
21.74,7
19.55,10
23.83,20
26.87,28
27.26,13
26.82,35
14.74,10
16.91,15
44.12,55
36.67,20
22.61,15
26.69,19
35.03,34
38.71,17
10.26,5
18.43,11
52.44,33
11.71,4
38.01,25
55.46,19
25.43,14
14.27,4
4.97,1
5.93,1
47.56,19
29.17,18
9.64,4
23.19,15
65.18,26
26.18,13
3.99,1
15.71,5
5.39,2
22.61,5
29.74,9
12.41,11
21.43,14
11.52,2
7.78,1
11.55,4
56.5,62
20.03,15
20.09,3
35.69,33
80.6,108
6.46,3
4.79,1
34.6,18
22.67,7
12.26,3
11.81,2
29.02,17
12.79,7
72.85,45
17.08,24
7.91,1
21.79,19
6.3,1
19.88,7
4.16,1
44.54,56
18.51,4
21.97,24
23.87,17
22.26,13
9.31,2
4.22,2
15.59,6
40.08,11
25.55,25
62.54,51
63.54,89
36.49,29
38.25,42
43.16,10
107.56,26
18.58,7
57.65,103
57.85,27
18.76,7
11.14,8
160.94,142
21.22,18
26.79,11
35.94,15
59.68,99
25.41,18
12.72,3
20.27,22
7.66,3
24.05,9
38.7,31
48.87,31
15.41,5
9.05,1
39.97,29
60.57,107
7.78,2
7.42,2
4.98,1
35.31,18
8,5
36.26,52
44.83,24
54.8,49
45.23,26
51.66,59
9.71,6
53.77,47
35.76,20
29.88,10
17.72,6
55.58,20
44.11,23
32.24,22
60.52,25
2.76,1
96.36,40
67.62,41
61.91,32
25.27,7
15.67,10
14.25,2
3.72,2
22.46,5
36.93,16
17.29,8
4.58,3
5.18,2
8.48,3
24.61,14
49.66,20
57.26,26
12.29,2
14.79,13
9.89,4
8.12,1
49.25,54
46.24,34
23.72,12
31.62,10
20.15,3
28.97,24
18.31,13
32.52,29
19.9,11
33.64,17
26.58,21
15.73,10
3.9,1
23.14,10
16.45,8
39.55,22
43.08,34
29.8,27
58.5,47
3.76,1
41.07,31
3.6,1
30.89,74
27.68,30
33.41,48
21.26,12
27.52,27
32.84,19
37.83,19
30.13,32
65.43,61
38.79,19
39.85,31
22.43,5
24.91,31
22.48,8
41.91,30
49.35,21
14.48,10
25.55,13
45.24,30
22.9,22
50.92,31
9.3,3
53.89,29
63.24,42
31.29,16
27.02,42
19.15,4
5.47,2
17.13,12
2.12,1
40.58,37
6.62,3
23.31,12
21,15
22.15,5
26.97,45
28.12,17
25.34,6
19.08,10
7.54,3
42.33,27
19.14,17
40.18,43
10.75,2
21.53,15
17.88,4
57.7,14
6.12,1
86.93,39
38.66,23
28.48,22
17.53,15
4.8,1
36.4,22
4.33,2
56.49,15
20.53,6
56.22,26
30.41,6
20.28,25
21.44,17
6.75,3
11.18,2
31.69,8
14.45,7
37.79,57
50.84,22
32.07,16
9.74,3
6.4,2
27.77,14
18.77,7
22.68,7
19.16,9
14.16,8
23.49,9
19.49,11
25,12
38.51,11
17.41,6
29.01,16
32.52,7
15.69,9
93.19,72
64.21,41
39.97,33
15.41,4
27.97,28
74.77,34
7.53,3
9.72,3
18.26,5
20.48,8
32.98,48
11.52,5
11.33,2
12.19,7
51,21
27.52,11
12.73,9
44.75,62
7.36,5
42.04,27
38.94,40
19.56,7
44.91,20
46.14,36
30.09,19
15.87,6
12.08,5
17.99,14
56.63,34
5.72,3
40.81,54
20.97,7
22.28,5
11.17,6
77.43,52
10,8
30.81,36
13.76,6
28.63,48
39.9,61
9.04,3
23.52,17
5.63,2
18.16,5
8.83,2
17.51,10
5.74,2
29.55,16
40.23,53
49.04,19
9.62,2
16.61,6
19.36,9
51.55,27
10.67,3
28.35,12
4.99,1
24.8,12
18.32,11
45.01,50
25.79,8
83.6,48
23.92,6
28.67,20
28.21,22
15.37,9
3.83,1
11.96,4
25.37,26
46.07,32
84.49,48
23.43,4
50.92,29
16.38,3
15.31,9
5.54,1
23.11,6
16.59,7
25.46,11
30.33,22
19.78,7
25.73,35
49.76,23
25.73,9
13.18,5
11.59,9
29.01,24
16.24,4
48.82,31
40.56,29
11.38,5
46.23,52
4.02,2
48.81,17
6.03,2
6.02,3
18.12,7
12.88,9
36.15,23
47.34,28
3.41,2
31.56,7
13.88,2
15.23,4
26.95,4
44.3,55
33.09,19
31.69,32
14.21,9
13.34,6
7.39,4
18.83,6
1.93,1
35.25,7
29.61,23
10.82,3
33.41,25
38.56,10
15.55,9
18.41,21
51.33,19
18.89,9
16.63,8
51.14,51
10.92,12
7.56,3
19,7
3.64,2
9.34,2
11.22,6
37.08,27
46.57,17
38.44,24
9.55,2
39.06,14
4.59,3
50.43,27
29.26,29
6.34,1
10.85,7
11.83,6
10.57,4
29.76,17
19.15,6
3.9,1
21.94,7
5.23,1
8.33,1
23.04,9
13.58,6
28.19,38
30.07,39
36.33,55
42.75,44
3.27,1
3.23,1
17.31,7
26.73,34
31.06,31
5.25,1
4.21,1
11.83,5
33.57,11
9.63,9
45.44,29
28.79,31
19.47,7
16.08,4
87.69,52
23.06,9
73.37,77
8.14,1
66.72,87
3.71,2
8.97,2
8.7,10
61.51,27
23.83,16
17.96,9
24.43,15
10.88,4
76.23,42
3.56,1
32.18,12
33.24,27
25.73,4
18.33,4
33.55,64
14.43,3
56.39,64
44.35,23
52.66,51
23.96,12
19.01,7
20.55,9
5.84,2
9.63,3
20.85,17
2.04,1
83.08,100
62.47,42
34.51,21
48.58,23
7.11,3
59.71,52
15.13,5
42.44,66
17.79,6
5.55,1
10.48,5
8.39,5
35.66,17
12.9,8
27.02,30
14.99,10
14.97,16
53.44,50
33.58,19
61.69,100
38.84,30
25.97,13
19.24,12
71.91,76
12.55,11
38.7,16
4.74,4
5.91,5
6.34,1
41.51,39
5.99,1
39.91,35
36.64,15
21.17,7
16.79,4
17.5,10
18.82,9
4.33,1
18.24,10
43.18,13
43.7,37
12.05,3
15.08,3
7.28,2
9.38,3
93.33,99
27.26,7
18.14,6
8.82,2
29.81,10
2.42,1
43.62,32
10.24,1
14.33,5
44.61,14
14.58,7
9.38,5
1.84,1
24.32,19
31.9,14
26.42,9
14.63,4
71.26,38
38.9,18
22.26,16
38.5,40
29.28,15
9.82,5
16.77,7
47.29,70
19.87,16
7.68,4
26.76,18
57.13,48
14.22,3
33.72,38
9.99,4
50.83,26
5.38,3
7.35,2
22.52,8
22.69,9
10.97,7
8.71,3
29.59,33
40.89,46
10.79,4
16.04,13
1.73,1
36.68,24
48.95,28
31.04,39
23.2,13
34.54,15
21.31,25
59.37,41
8.48,4
46.01,40
44.54,38
9.38,9
51.82,12
12.86,7
16.76,6
9.12,2
15.41,3
13.6,3
9.32,3
53.1,19
12.77,2
3.09,1
24.38,20
22.44,9
38.64,18
90.73,50
11.76,6
73.5,34
9.42,6
5.53,2
13.85,8
8.28,2
44.17,34
16.01,6
18.9,11
87.44,70
2.05,1
4.78,4
6.16,1
14.31,8
10.77,2
45.38,39
3.64,1
14.34,5
42.3,21
69.44,55
24.72,12
70.07,65
28.2,15
29.17,19
26.87,18
38.19,15
49.13,32
44.07,24
17.06,16
13.94,3
12.47,6
27.66,20
16.28,7
25.6,7
9.61,2
1.63,1
16.72,7
10.91,1
30.82,13
16.55,8
52.01,38
26.1,11
39.01,82
8.21,2
12.83,3
65.73,40
18.75,8
30.09,9
21.21,6
49.54,114
9.42,1
10.99,3
114.6,47
10.92,7
9.04,3
33.2,21
20.38,9
35.35,23
8.83,4
39.13,35
12.78,5
104.25,66
22.32,11
46.89,22
27,13
35.27,19
61.21,34
33.53,16
42.25,16
54.54,56
24.46,36
17.19,10
5.51,1
11.12,4
22.73,11
19.31,8
22.69,24
60.98,87
28.19,17
71.66,99
19.23,8
64.49,73
36.43,33
3.16,1
16.36,9
21.77,14
3.78,1
5.24,2
43.63,22
20.46,5
13.49,5
31.35,12
28.7,18
5.88,2
38.88,24
34.66,24
26.75,16
9.32,3
20.09,8
39.65,17
35.44,18
7.42,2
8.15,5
23.56,17
27.14,15
21.81,21
26.84,11
14.33,6
15.2,6
27.15,12
50.63,26
16.07,5
18.74,8
53.54,18
27.95,14
10.73,5
35.43,22
9.81,3
43.69,17
51.36,28
38.45,11
66.41,44
14.47,6
27.93,17
29.16,30
11.24,3
9.42,9
10.29,6
45.99,13
37.22,14
25.01,25
7.09,2
11.43,5
5.26,1
23.62,6
25.66,8
27.21,6
7.09,1
47.34,14
12.06,6
17.93,13
61.34,151
15.31,4
14.58,8
57.43,29
19.18,10
62.04,42
11.92,15
20.58,10
11.3,5
18.7,13
37.54,22
28.02,19
8.49,1
11.54,5
21.55,14
4.31,1
12.39,5
23.4,15
8.63,5
4.45,3
22.68,12
45.44,48
36.09,28
24.04,12
41.33,22
79.95,49
26.77,10
43.82,40
27.97,15
9.15,4
17.25,11
24.2,13
6.44,2
18.75,14
34.63,13
10.32,5
26.87,27
46,13
6.11,1
7.99,4
2.7,1
13.55,2
24.68,23
29.98,30
65.16,38
12.33,6
27.15,19
17.19,10
4.2,2
17.71,7
22.72,12
15.77,9
12.94,12
33.59,20
21.01,18
10.48,6
66.12,37
12.39,10
8.2,5
13.75,5
12,2
6.17,2
45.76,30
12.43,17
24.1,8
39.21,29
48.63,13
8.52,1
13.15,10
3.83,1
18.22,25
26.85,5
32.65,36
23.74,6
19.73,7
17.33,8
82.85,46
41.24,37
53.71,36
17.16,6
11.62,9
11.3,4
18.97,9
17.48,8
9.94,1
4.06,1
34.8,17
18.43,11
7.25,1
25.42,31
24.95,8
22.11,9
33.09,15
39.27,37
15.62,4
19.32,17
48.86,50
21.16,7
2.54,1
19.3,6
36.16,32
2.48,2
26.99,13
46.92,15
11.75,5
20.41,4
42.62,23
25.99,9
16.75,3
11.89,3
3.92,1
8.6,1
9.21,2
29.64,13
12.34,7
23.05,16
20.22,18
54.05,102
35.65,24
13.42,5
19.26,7
29.31,17
7.53,2
24.86,21
30.41,22
40.18,31
24.94,8
53.58,22
8.32,3
26.95,22
38.31,32
28.6,23
36.66,17
30.54,7
28.63,7
6.25,1
18.23,3
22.32,12
44.04,60
12.92,7
20.19,10
22.71,9
2.23,1
13.17,15
33.18,9
15.27,5
25.13,30
1.99,1
9.41,3
65.4,80
5.94,2
29.59,17
98.71,61
20.54,12
31.05,28
61.34,36
64.7,21
2.78,1
20.93,15
5.07,2
17.32,11
57.37,97
23.81,9
26.69,12
13.88,4
5.01,2
22.14,6
10.13,2
15.55,10
37.34,13
34.35,85
51.6,35
15.64,20
4.65,1
19.05,9
22,18
36.61,37
9.32,2
31.12,60
14.98,7
5.8,2
6.13,2
60.94,30
35.93,11
41.13,24
4.15,1
30.64,8
31.74,23
4.87,1
9.54,7
35.46,41
5.19,1
26.47,18
12.8,2
49.22,20
9.43,4
12.34,6
19.78,25
16.94,4
17.12,5
22.3,4
17.08,6
41.67,37
23.63,17
43.04,18
5.18,4
10.68,4
10.22,3
29.49,12
23.23,27
73.19,38
26.97,11
18.92,5
23.45,17
11,7
36.01,29
42.64,34
33.71,28
15.35,7
9.66,4
4.61,1
17.41,3
120.19,52
27.29,14
29.19,15
48.74,42
66.92,35
50.35,18
32.48,21
6.22,3
7.49,2
12.28,2
78.85,42
22.82,6
23.88,27
14.01,6
34.36,7
33.98,32
26,8
7.26,3
15.44,4
64.38,47
15.81,5
20.33,16
38.09,48
27.16,14
13.48,9
32.92,10
13.53,14
3.89,1
21.73,9
22.61,18
22.47,13
20.03,16
49.87,26
41.17,19
7.86,6
16.79,6
33.96,15
16.85,11
3.47,1
17.11,12
6.25,2
42.73,47
3.85,1
28.87,15
16.45,6
8.72,5
33.75,29
9.98,6
13.28,11
70.13,24
66.79,31
9.73,9
10.77,2
18.62,19
57.22,46
11.21,3
12.19,4
43.26,49
19.11,10
76.05,22
17.26,8
78.69,51
55.78,39
7.17,1
25.35,10
27.95,18
12.29,9
16.35,6
18.17,7
75.73,96
31.49,15
16.12,7
33.91,10
46.89,23
2.47,1
5.44,2
4.9,1
27.72,30
5.84,1
22.29,10
15.44,12
4.06,2
12.2,3
8.16,6
16.03,14
29.28,12
32.37,45
33.91,8
10.6,6
14.13,4
34.83,11
25.38,22
20.67,14
24.88,13
21.31,27
5.25,2
26.83,5
19.82,4
34.74,27
65.54,24
30.3,8
3.57,1
31.72,14
19.06,9
8.35,3
32.98,18
16.55,14
34.88,15
56.17,80
11.41,3
11.06,4
20.08,20
22.5,25
16.34,5
33.19,13
24.31,13
21.63,21
24.61,13
47.66,27
22.85,24
41.06,59
60.53,64
88.26,86
23.24,10
38.25,14
28.09,10
20.38,3
58.15,58
44.26,20
6.15,1
48.94,24
25.38,12
71.43,33
11,4
26.73,8
10.14,6
18.2,8
32.51,19
2.8,1
42.22,17
33.83,23
9.34,5
23.31,10
11.71,4
46.19,35
2.48,1
37.12,28
24.24,9
7.5,1
35.14,9
46.7,36
13.61,3
50.49,85
6.69,4
73.63,71
15.11,8
19.56,7
57.18,27
33.6,28
8.95,5
20.11,26
11.55,2
28.96,28
27.38,33
32.17,39
64.69,52
5.4,1
36.79,39
10.27,6
17.1,7
41.62,32
3.3,1
15.95,6
10.61,4
29.87,19
18.24,6
29.78,7
4.68,1
16.22,10
8.86,4
7.61,1
27.31,22
8.92,2
9.63,3
35.29,14
30.51,12
16.2,10
22.14,9
11.84,7
31.52,14
4.27,2
22.27,21
23.05,30
19.03,17
20.44,12
29.99,20
4.91,1
25.82,2
23.14,11
7.88,4
36.04,34
14.5,5
46.81,24
10.85,2
24.99,15
30.55,24
26.61,16
23.38,13
10.45,3
45.67,15
36.14,26
85.53,50
11,3
26.06,20
2.84,1
43.67,33
30.78,17
30.47,22
4.42,2
3.61,1
19.73,3
16.75,7
44.18,33
11.78,1
52.96,55
33.46,19
17.08,9
40.13,38
45.98,42
11.59,5
2.34,1
12.79,3
7.44,2
7.91,4
28.43,10
18.46,8
24.95,14
5.32,1
17.48,13
27.7,5
16.31,6
4.91,2
68.03,70
42.24,14
27.38,24
19.94,3
9.8,2
14.19,3
13.86,3
42.84,15
16.5,4
55.06,88
22.18,12
31.05,10
35.82,19
40.82,16
30.3,33
43.96,24
11.47,3
60.58,58
18.99,6
17.7,10
16.37,14
34.54,26
15.01,5
48.58,27
40.73,30
13.85,9
3.35,1
2.19,1
6.85,3
4.02,1
14.6,2
10.59,1
39.79,21
10.86,4
48,30
11.75,7
58.14,30
8.59,7
3.66,1
17.81,10
65.01,54
12.69,7
42.63,61
29.53,22
35.39,29
30.42,35
20.7,9
8.57,3
10.04,4
23.3,8
60.33,41
59.89,25
22.08,15
16.8,12
31.4,6
9.19,2
13.3,4
9.47,2
14.14,3
61.95,60
8.88,3
58.76,93
29.81,15
27.44,13
18.16,5
34.02,15
49.63,22
67.75,19
14.09,5
21.82,13
52.8,27
29.15,26
10.45,3
11.08,4
25.7,8
3.65,1
38.88,21
2.29,1
48.17,72
29.78,21
4.08,1
22,10
17.88,6
57.18,43
20.47,9
21.29,27
38.57,20
15.67,3
39.55,10
30.43,5
28.36,17
35.93,25
30.24,29
39,32
27.67,17
10.88,6
10.14,7
19.66,10
25.24,4
62.05,36
19.5,19
14.53,4
9.38,4
15.91,5
14.68,18
7.61,5
12.08,3
11.2,1
52.38,29
22.87,15
14.39,4
33.04,8
30.24,30
53.44,41
61.55,38
52.08,25
24.81,15
19.26,5
7.73,2
47.33,26
15.46,5
15.12,8
32.75,8
23.78,6
27.27,27
63.1,90
17.95,8
32.09,13
26.73,20
10.6,3
97.86,33
3.24,1
18.26,8
3.32,1
5.1,3
9.25,2
8.37,2
13.59,8
17.51,6
25.3,11
11.78,3
7.27,3
39.68,41
22.5,30
8.47,3
37.36,36
19.41,6
20.21,11
27.15,14
19.21,4
32.54,27
26.13,6
28.88,20
18.22,22
29.32,46
14.36,5
23.79,23
35.82,8
2.94,1
10.39,8
52.06,36
78.97,59
13.7,10
11.11,3
8.24,2
10.99,4
12.44,5
6.95,1
34.14,33
52.99,31
4.92,2
27.18,23
9.77,3
90.52,70
13.59,6
10.41,6
14.4,12
51.43,21
11.38,2
34.12,15
18.39,3
59.79,12
31.08,15
11.15,3
21.11,17
61.84,18
28.08,7
21.74,6
28.91,25
18.94,9
27.83,11
13.2,5
16.68,9
35.67,47
9.22,3
12.4,2
38.39,26
14.4,10
12.92,4
39.52,10
23.45,22
39.78,13
7.08,1
10.17,2
20.88,17
24.07,6
5.56,2
21.92,9
26.72,52
11.22,2
3.97,1
54.22,21
21.5,5
18.85,13
26.2,8
17.76,8
37.17,19
33.29,20
27.36,13
35.25,40
12.72,6
8.69,1
18.35,7
20.52,8
19.24,5
12.86,4
31.07,18
10.3,4
34.38,19
22.47,11
59.48,16
4.35,1
26.64,15
6.66,1
14.78,7
7.64,2
34.23,20
21.39,8
39.01,29
31.63,9
8.71,2
28.23,26
15.47,12
38.41,18
7.56,8
25.54,27
14.67,10
9.22,10
12.67,2
47.67,12
37.06,18
21.46,18
21.83,18
16.45,9
6.47,5
12.91,5
8.31,6
28.12,10
7.87,5
33.11,17
25.44,15
53.11,51
15.38,6
9.4,2
9.11,8
77.16,50
32.88,20
24.54,19
23.5,21
20.24,8
20.83,8
39.06,26
23.63,14
58.57,51
10.56,6
18.87,3
20.86,16
18.04,7
4.69,1
50.69,18
38.68,13
14.01,6
27.04,13
45.31,12
54.46,34
76.14,61
42.83,14
67.39,46
45.17,74
5.32,1
24.95,4
26.85,18
16.82,6
6.16,1
15.74,7
7.59,2
51.68,13
83.02,28
30.77,8
5.45,2
18.31,9
10.87,3
57.65,45
14.21,9
6.97,5
15.04,4
15.04,9
32.84,35
21.95,12
5.59,2
6.26,1
25.61,8
5.83,2
31.32,38
4.07,1
69.24,45
22.8,16
22.99,14
4.58,1
21.81,16
28.87,6
4.22,1
30.87,8
35.42,16
6.08,1
27.6,6
13.45,6
19.03,10
24.4,18
85.9,40
11.08,8
41.78,7
26.04,12
18.49,15
26.23,50
16.85,2
13.93,9
20.58,9
37.66,25
32.92,45
8.29,6
69.79,82
30.85,43
20.65,4
50.99,32
89.64,64
13.42,13
3.09,1
20.53,14
13.54,9
13.2,11
36.64,14
24.98,7
7.77,3
41.29,58
18.32,5
18.82,13
8.12,2
2.54,1
7.16,3
62.44,32
36.94,18
49.19,31
3.89,2
29.14,23
9.86,3
37.29,20
40.25,21
42.05,19
15.43,4
10.66,4
19.96,15
17.07,24
51.72,41
6.58,1
12.41,4
61.78,47
6.38,1
32.47,14
14.75,12
2.42,2
12.45,14
9.66,4
18.4,11
23.91,14
51.47,25
59.84,29
7.34,4
10.42,3
56.87,24
53.41,42
15.66,6
6.36,3
51.77,34
35.15,15
18.79,16
6.13,5
15.53,6
51.53,21
42.12,46
55.31,41
12.07,4
17.11,18
35.83,29
30.69,33
48.5,24
12.68,14
50.95,53
44.59,79
16.04,10
35.58,34
17.88,4
21.44,4
23.95,15
37.06,16
13.98,4
50.05,39
33.35,31
26.69,12
38.56,31
11.97,5
32.23,17
6,1
27.99,6
18.31,16
9.58,2
19.67,9
37.49,35
44.36,26
9.2,2
26.38,13
1.49,1
14.1,12
6.63,1
19.85,11
20.16,17
19.1,6
16.72,3
25.09,10
14.76,11
26.21,20
47.64,30
35.05,14
8.93,4
50.96,54
9.06,3
10.11,2
52.05,20
16.55,9
12.69,1
6.01,1
28.36,41
45.85,29
33.49,20
10.71,4
8.56,6
19.59,13
21.49,12
27.71,27
17.75,12
27.17,32
20.53,16
24.66,8
62.82,33
4.53,1
6.17,5
19.29,12
19.61,4
4.13,1
19.48,6
8,2
32.74,13
11.61,3
15.41,6
37.28,41
28.17,14
39.89,61
33.42,64
19.26,11
47.3,42
40.46,28
3.7,1
15.84,5
58.43,58
31.69,35
20.02,9
63,56
7.33,3
11.91,3
60.95,42
5.78,2
19.46,12
33.51,15
17.78,9
13.85,2
31.2,14
38.52,56
26.07,31
22.37,24
21.92,4
9.75,2
63.03,28
29.28,13
11.55,5
27.81,6
49.49,15
58.15,54
46.13,21
31.34,44
23.27,26
4.48,1
4.38,1
7.71,3
11.17,2
35.85,33
5.19,1
28.18,32
6.97,1
8.98,4
34.07,29
17.22,11
42.06,35
32.41,14
4.14,1
17.43,10
5.07,1
10.96,4
15.76,14
53.46,48
28.65,10
7.58,1
31.98,29
71.33,32
15.12,9
16.27,6
40.41,52
18.19,3
11.36,6
45.32,14
57.88,20
5.35,1
46.68,15
9.25,3
17.27,3
11.77,4
5.29,1
94.87,45
41.2,29
44.71,29
15.42,7
45.12,51
70.68,46
28.19,16
54.18,18
32.05,14
5.01,2
30.11,78
8.68,2
23.21,13
38.52,9
7.27,2
8.13,3
52.71,59
85.92,101
12.86,7
18.25,11
5.87,1
8.85,3
20.89,13
18.8,6
33,9
69.04,101
2.93,1
33.19,25
13.2,3
108.64,69
117.25,91
14.8,8
34.63,12
30.12,31
37.58,39
9.79,3
53.23,43
39.49,13
26.94,17
8.09,1
26.17,19
24.52,17
4.81,1
32.91,49
3.05,1
10.14,3
31.57,21
15.43,10
4.1,1
32.01,12
18.26,3
95.71,57
13.31,7
38.19,24
5.6,1
21.41,15
41,15
49.92,34
33.58,23
51.92,23
3.91,1
71.28,77
4.41,1
21.1,11
6.81,1
51.63,29
21.26,7
39.54,39
2.88,1
97.14,89
12.36,8
21.75,10
10.6,5
41.93,15
13.77,1
42.09,9
11.54,5
24.15,6
6.67,2
49.13,54
21.85,7
10.09,6
8.04,3
3.52,2
5.15,1
17.16,5
9.48,2
27.62,12
6.94,2
30.18,32
32.89,17
7.45,1
51.14,27
5.63,3
46.3,31
4.83,1
29.03,25
55.05,29
10.23,2
16.69,19
4.07,1
42.04,45
62.51,26
31.23,17
39.18,18
17,2
18.43,4
48.14,38
2.68,1
5.42,1
58.12,61
3.6,1
42.97,26
23,10
54.13,41
76.49,24
21.64,4
14.58,17
47.91,22
38.11,6
20.07,13
28.34,11
47.2,29
103.82,54
51.2,46
25.45,9
29.79,17
9.33,2
17.13,9
16.39,7
41.76,34
9.88,2
31.89,8
9.03,6
11.8,3
80.8,28
9.99,2
46.63,25
51.27,35
6.6,3
8.95,3
36.21,10
27.66,20
5.59,1
18.39,3
22.32,12
36.54,25
44.09,21
13.65,6
38.3,19
20.47,14
45.22,31
20.22,15
43.91,28
33.33,22
12.72,2
23.5,32
32.77,9
18,7
21.91,9
14.28,11
63.51,34
10.2,5
36.32,53
13.59,4
5.21,3
79.67,38
22.67,6
11.94,6
18.42,5
37.5,13
40.97,15
9.32,2
15.87,8
20.66,5
45.05,39
13.27,3
37.96,21
38.89,24
26.04,19
6.26,3
33.53,10
33.22,20
77.3,43
22.9,7
27.61,8
13.53,7
21.19,13
8.57,8
33.63,33
5.5,1
25.17,17
44.81,64
18.04,5
10.17,2
29.05,23
12.58,7
18.74,4
11.36,3
9.28,2
19.91,19
23.88,30
45.39,24
29.42,33
3.13,1
17.11,6
28.24,28
5.65,3
7.19,2
27.46,29
36.15,17
30.2,10
43.24,20
83.2,21
19.73,22
4.02,1
33.41,40
58.95,50
31.65,11
45.58,24
24.1,12
5.09,1
14.36,4
5.5,2
23.52,14
4.31,2
31.26,11
58.37,50
39.32,36
50.71,50
24.47,11
16.48,11
18.06,4
64.57,47
9.47,5
8.51,2
19.34,13
12.14,6
14.02,6
15.76,9
87.16,60
35.36,16
4.92,2
2.76,1
5.74,1
28.52,30
16.81,8
20.72,4
41.33,47
11.36,6
16.8,2
23.54,21
44.46,31
6.38,1
58,53
21.65,15
25.79,40
19.26,11
89.51,81
23.23,25
6.05,1
12.64,4
6.14,3
25.16,23
69.69,33
31.43,14
9.9,1
27.81,12
70.6,59
14.27,4
16.68,5
5.19,3
9,6
67.76,35
5.84,1
30.37,10
25.63,9
38.22,28
13.01,4
9.33,2
47.16,11
25.01,7
12.35,7
13.4,11
5.92,1
32.76,15
34.4,17
27.03,40
13.43,2
2.4,1
13.72,6
34.36,34
38.33,34
12.62,1
49.03,21
18.01,13
13.96,2
40.4,39
5.27,1
9.44,4
16.91,5
37.28,26
30.84,55
34.11,39
13.99,5
5.24,4
5.05,1
22.14,13
2.79,1
40.34,32
18.85,12
12.77,8
20.1,8
81.72,57
11.96,3
4.18,1
4.38,1
30.62,17
7.26,2
23.95,15
6.13,2
6.56,2
63.06,49
10.91,3
6.39,2
24.16,19
4.14,1
41.29,41
38.59,26
12.93,5
25.46,13
15.92,3
4.65,2
12.66,5
9.99,5
27.04,7
34.87,26
30.79,19
26.66,15
29.81,32
6.43,2
112.56,109
15.3,14
15.74,5
43.34,53
88.38,85
20.32,24
13.73,6
6.77,1
9.75,5
72.48,41
32.32,15
19.85,9
15.46,4
6.23,2
39.21,23
33.68,33
50.05,19
12.1,8
26.31,8
17.48,7
20.03,6
16.43,6
49.81,16
4.63,2
19.54,13
30.26,6
17.34,7
34.89,34
15.94,4
32.49,41
33.82,17
26.83,21
20.62,7
49.64,13
16.83,10
7.24,1
4.27,2
40.1,25
21.81,9
10.56,5
27.51,46
9.51,4
53.94,81
52.52,55
6.41,2
33.44,7
28.86,27
24.25,26
5.25,1
25.84,10
13.92,2
5.44,3
52.69,33
10.49,6
11.12,1
25.84,31
16.4,12
4.95,1
9.17,7
22.56,18
5.34,3
8.85,3
12.26,4
2.96,1
18.74,11
9.85,8
25.96,15
8.89,3
16.91,6
16.94,32
13.59,10
9.22,2
30.98,13
34.05,22
17.76,3
7.96,1
26.96,15
52.52,36
6.13,1
15.98,5
11.86,3
20.38,23
18.18,4
11.48,9
15.86,5
9.38,4
87.17,28
20.56,5
33.01,13
55.43,52
24.76,12
71.42,35
40.15,23
25.13,11
64.5,40
100.22,63
12.01,5
36.26,36
17.92,9
24.23,4
52.23,33
27.44,12
87.91,123
36.34,24
53.41,32
14.87,6
3.67,1
9.41,3
20.74,10
15.72,11
17.8,17
19.93,5
28.26,30
35.69,15
14.63,6
12.27,2
7.55,3
22.11,29
16.17,11
6.05,2
27.16,11
16.19,8
56.84,22
3.38,2
44.23,33
27.31,11
34.66,31
8.45,1
14.84,3
4.98,2
26.14,19
13.82,11
41.43,19
3.49,1
80.36,56
23.53,6
31.38,37
7.25,2
3.17,1
33.67,24
20.39,3
8.6,4
31.09,16
35.1,12
25.19,8
33.06,5
31.36,26
63.82,34
34.36,20
50.89,33
57.39,24
4.38,3
18.98,9
34.38,22
27.8,20
6.1,1
60.21,70
13.8,7
6.12,1
15.52,8
8.31,2
9.66,1
35.55,15
77.03,42
7.2,1
30.38,26
31.95,8
46.56,45
24.51,31
14.96,4
17.58,6
17.97,6
29.25,22
9.01,3
4.75,1
38.5,10
6.15,2
7.71,5
51.62,22
33.24,11
20.92,17
46.44,15
7.53,6
21.6,7
6.2,1
16.9,7
44.49,21
31.79,20
10,7
8.95,4
7.41,1
43.39,32
52.34,17
32.74,29
14.39,6
11.9,4
18.8,11
9.75,3
6.08,1
21.88,11
26.97,5
90.77,40
14.63,13
55.16,22
5.35,1
29.2,23
20.6,15
46.86,34
13.24,7
1.84,1
58.19,66
10.14,8
9.42,3
82.43,44
25.55,11
9.3,6
12.97,6
57.93,35
17.38,9
21.2,14
27.3,28
3.97,2
15.43,2
6.03,1
39.58,30
33.92,16
28.62,23
54.71,49
29.09,13
20.41,11
33.3,8
6.77,1
81.21,113
12.05,5
41.48,21
14.21,4
11.6,3
69.22,83
22.48,20
6.37,2
62.73,73
17.76,4
33.8,46
50.06,45
28.26,28
16.24,4
44.42,24
10.21,4
42.47,41
37.15,13
9.05,2
4.07,1
3.14,1
15.67,7
31.78,13
29.5,22
10.93,3
8.87,4
48.23,21
38.77,19
23.78,9
57.84,57
29.85,23
17.15,5
30.28,24
9.89,2
12.62,3
14.17,19
47.22,38
4.85,2
74.33,26
63.43,35
11.78,5
18.39,21
23.45,29
4.89,1
48.82,26
4.55,1
78.94,54
30.59,32
24.25,8
6.68,3
12.63,5
8.72,3
25.5,24
36.79,21
35.04,22
3.44,1
12.55,3
4.58,3
40.45,18
41.98,48
16.92,3
26.94,12
47.33,34
25.2,11
20.26,22
24.75,9
68.09,51
4.77,1
10.79,2
90.83,86
43.25,69
19.75,5
54.21,26
35.39,22
11.63,5
17.94,5
8.19,3
7.2,3
6.59,1
39.32,25
78.11,138
9.54,3
27.04,22
24.96,8
17.27,5
95.74,100
6.56,3
10.86,8
38.53,16
18.51,5
54.99,20
22.29,3
23.31,3
3.79,1
57.24,44
9.77,3
46.01,41
43.99,41
21.48,13
36.29,111
57.01,46
21.08,17
37.02,15
23.05,30
5.64,3
14.22,5
75.12,49
22.35,13
57.32,43
35.67,27
43.29,36
35.5,33
30.75,34
32.47,22
13.51,9
8.01,6
21.81,4
16.17,8
68.22,75
10.11,1
3.55,1
12.25,5
5.92,3
14.26,7
21.01,6
17.38,7
70.4,28
21.49,10
9.31,1
34.34,11
12.89,4
30.2,15
45.56,38
32.75,25
34.61,19
29.86,4
34.49,39
16.72,13
25.16,28
22.8,9
19.64,10
33.2,52
20.99,22
2.89,1
20.73,12
26.13,14
39.65,45
38.56,23
34.77,10
8.05,2
13.04,7
24.63,4
26.15,9
7.86,2
44.61,30
71.41,45
39.77,14
14.64,2
4.37,2
15.66,6
34.79,31
25.54,15
26.32,5
23.14,10
12.08,2
53.85,16
7.59,3
31.73,7
49.22,70
36.63,25
23.24,11
14.14,6
22.26,3
7.23,5
25.92,11
18.59,17
16.36,14
4.44,2
2.88,1
31.14,9
34.54,22
31.81,40
9.19,4
60.48,66
8.72,2
10.82,1
30,15
81.93,80
8.15,5
19.8,4
20.66,8
38.14,27
13.09,4
21.43,13
32.77,31
37.67,34
113.9,75
21.11,27
37.51,7
51.76,73
15.4,2
15.1,7
32.32,19
10.84,5
3.32,1
33.27,14
8.66,3
38.01,27
11.13,3
6.69,2
25.96,11
13.63,8
21.54,14
27.78,8
10.05,1
28.18,10
69.26,18
31.27,37
9.92,3
4.14,1
33.74,21
12.27,7
4.05,1
35.66,27
52.28,72
33.98,16
13.47,5
7.13,1
24.16,14
25.45,11
13.75,5
18.78,6
4.04,1
18.65,7
10.47,2
16.24,3
24.98,13
9.96,3
30.17,28
13.11,8
34.09,6
23.1,11
77.57,37
18.03,12
13.05,6
23.89,4
35.44,26
24.84,19
16.25,14
80.97,75
19.62,16
42.82,18
22.28,3
6.31,3
10.59,2
16.35,2
26.92,12
6.35,1
16.94,6
23.53,6
41.74,64
60.08,48
25.95,10
19.04,15
50.83,21
21.12,11
64.71,42
15.02,5
18.84,7
54.31,28
5.91,5
24.33,6
14.85,7
12.78,8
31.98,4
27.12,14
4.14,1
45.45,26
12.87,2
52.99,21
18.36,14
39.16,50
25.47,7
14.72,3
4.25,1
38.24,26
13.55,4
24.73,27
12.71,8
55.18,31
22.25,17
39.5,13
38.58,38
37.37,44
14.83,16
12.36,3
16.74,5
37.51,22
79.16,56
63.24,51
5.75,1
8.74,2
36.67,17
15.52,8
53.98,45
20.8,3
74.98,78
19.22,22
4.08,1
18.36,2
48.19,69
57.28,25
10.92,7
31.31,11
5.11,1
19.76,11
5.18,2
3.77,1
9.33,3
38.4,104
20.99,21
8.09,3
10.34,3
22.73,10
60.36,25
13.31,4
2.53,1
9.27,3
26.22,11
28.62,10
21.07,14
42.65,33
25.63,27
4.39,1
55.83,28
17.66,9
25.54,14
25.62,22
66.02,35
59.26,26
19.93,11
58.33,64
97.76,55
31.65,24
15.6,5
18.61,11
78.1,106
43.69,25
32.07,14
27.62,24
7.44,3
22.66,8
35.59,22
13.67,8
19.21,5
37.66,37
37.36,28
45.75,23
21.49,27
21.19,8
27.62,12
6.13,3
18.02,11
13.22,7
48.71,28
16.79,14
73.12,29
34.39,16
22.62,10
55.14,84
34.94,24
66.91,116
35.81,20
18.42,20
14.41,8
10.73,3
26.17,9
34.1,49
21.67,8
30.01,64
50.86,15
25.44,7
21.44,21
13.42,5
23.97,10
29.59,30
19.16,9
26.47,5
23.44,26
66.99,73
6.1,4
15.32,6
46.31,47
22.26,19
27.35,8
21.18,13
66.96,38
7.85,2
42.72,33
11.13,3
6.69,1
3.19,1
27.37,20
9.3,2
8.74,2
34.47,11
41.61,26
27.13,16
83.53,58
23.66,6
19.92,17
33.98,12
19.78,17
64.16,26
21.41,3
81.03,42
61.27,23
5.1,1
40.95,26
8.38,2
42.07,50
2.82,1
77.62,101
45.89,44
4.25,1
12.48,10
29.51,20
11.22,5
9.09,5
40.9,23
40.6,24
33.57,17
26.02,9
27.91,27
27.48,25
42.92,20
13.35,7
23.56,22
19.36,8
15.76,12
33.93,32
44.06,54
32.84,10
30.24,18
21.68,6
18.81,11
22.79,11
30.56,28
4.58,1
46.72,21
6.34,1
25.47,9
49.92,47
50.61,27
6.21,1
10.14,2
17.61,9
78.46,28
39.47,25
5.06,2
14.64,9
17.51,9
15.12,7
39.51,14
1.66,1
29.34,32
38.22,23
19.79,6
23.03,13
35.77,15
60.38,79
12.89,8
14.21,9
4.53,1
25.11,19
39.23,20
7.86,2
43.24,33
15.82,9
52.16,28
30.29,17
62.46,63
9,9
71.61,115
47.77,21
4.2,1
5.48,2
64.39,22
8.7,3
6.8,2
65.18,95
45.11,34
26.17,14
35.67,33
23.52,8
19.63,15
62.77,60
84.95,38
38.4,20
18.34,5
28.16,21
20.62,27
14.27,10
32.01,11
23.94,20
50.17,61
12.06,4
23.79,13
127.46,89
23.09,14
15.53,12
29.93,16
30.09,47
26.97,16
17.19,7
8.2,2
22.67,9
52.97,31
6.8,2
16.28,19
9.64,5
23.27,11
4.4,1
7.73,4
82.95,124
27.09,16
40.27,31
21.73,8
24.32,6
13.53,13
3.27,1
9.34,2
2.64,1
11.08,8
42.52,34
5.46,2
31.34,17
87.74,55
15.09,3
38.26,13
57.53,46
49.14,36
25.99,16
2.5,1
36.95,14
14.68,17
9.39,3
23.77,27
53.73,23
19.81,8
53.1,92
11.42,3
22.15,34
23.97,11
1.65,1
31.61,18
5.28,3
13.75,3
21.96,14
26.91,8
32.75,11
6.58,2
19.97,5
4.36,2
16.13,5
11.42,8
45.95,15
17.08,9
15.38,9
35.03,12
23.5,9
8.47,3
29.76,27
31.02,50
17.29,9
52.66,79
42.8,78
45.79,79
17.42,8
13.02,8
47.14,27
60.91,41
30.67,11
6.29,1
21.88,8
18.32,4
22.89,3
44.15,25
10.43,4
22.49,15
32,37
2.07,1
19.47,13
6.07,4
14.36,11
38.52,57
21.36,3
5.38,4
54.41,39
8.26,2
22.43,7
36.53,70
35.96,87
40.08,28
17.88,3
14.24,5
52.12,30
54.86,47
34.09,8
48.63,55
41.25,12
46.52,35
18.47,15
7.8,2
16,8
10.29,2
13.68,4
48.26,26
