3.55,1
25.99,19
98.89,87
47.62,33
45.51,133
73.41,151
24.35,6
25.56,11
70.41,159
18.4,20
80.07,81
71.75,144
151.82,278
68.2,87
67.22,76
78.2,205
109.09,113
54.5,15
122.08,248
12.23,11
12.46,6
94.84,236
60.11,50
45.85,12
19.53,15
24.73,15
109.27,177
35.68,47
42.83,39
104.71,148
56.4,55
37.99,31
35.06,56
40.54,47
78.26,216
118.76,176
54.75,39
47.95,52
132.56,113
65.51,50
79.69,129
52.46,48
43.36,104
63.87,61
115.89,171
87.57,61
13.04,2
57.11,113
43.84,58
65.96,71
50.36,56
10.18,8
102.19,109
65.7,49
122.06,316
51.47,42
66.19,172
47.42,44
104.05,82
87.47,45
56.12,34
112.88,96
65.05,118
170.92,313
45.87,96
46.29,87
76.29,116
20.44,11
144.26,466
66.43,225
114.1,98
2.88,2
209.34,653
26.44,14
103.85,87
20.96,17
150.96,624
39.02,58
49.69,18
28.07,8
38.13,25
147.15,384
63.03,175
84.71,202
74.32,90
47.63,32
193.4,615
112.42,103
67.38,214
126.96,337
86.67,316
92.71,69
72.05,140
56.44,75
36.9,46
59.92,238
62.86,217
38,37
92.91,95
133.14,142
73,154
40.41,39
267.76,627
68.37,89
44.05,31
77.36,142
140.03,229
63.97,68
3.14,1
129.92,248
76.31,144
64.08,89
91.35,39
1.19,1
91.15,176
52.96,76
53.52,57
97.33,231
80.28,205
74.66,156
19.43,26
81.83,264
86.32,63
218.88,274
50.17,47
179.28,278
41.74,24
29.61,46
32.3,16
49.84,69
138.48,89
178.85,203
61.55,154
64.6,270
26.81,8
35.46,21
26.14,10
61.81,61
100.87,199
68.21,122
50.07,77
53.36,156
47.4,17
95.05,301
9.92,2
51.33,67
27.07,45
37.94,22
57.7,84
123.14,76
98.33,167
17.18,3
65.12,32
12.58,11
34.62,19
26.09,19
30.6,26
91.31,109
68.68,114
55.83,21
82.59,73
84.37,46
41.29,33
53.99,109
111.61,367
27.1,13
77.5,261
47.26,32
54.44,54
90.23,88
29.48,38
52.7,69
2.83,1
8.41,2
42.16,23
14.62,3
67.91,68
115.37,541
27.24,28
36.48,15
19.33,6
37.34,52
3.26,1
54.52,15
50.87,102
21.5,15
60.05,78
21.19,8
14.18,7
41.42,76
82.05,39
3.16,1
22.11,6
2.67,1
75.09,65
18.21,6
8.3,1
53.61,28
23.37,24
104.49,186
29.97,16
36.31,17
70.36,28
30.25,23
68.93,53
63.79,38
83.66,333
80.87,252
96.41,265
16.78,10
105.33,136
52.64,83
19.73,3
16.27,12
19.59,12
27.61,13
81.69,157
51.07,16
25.51,5
45.33,75
8.02,3
24.41,24
56.09,34
47.62,31
92.44,347
7.07,3
23.94,5
75.22,220
96.96,196
4.22,2
122.76,274
92.92,81
64.36,195
127.77,339
80.74,58
42.04,50
80.03,176
21.92,16
107.18,302
96.01,141
74.3,180
56.52,46
74.96,298
29.29,24
75.55,147
98.08,298
67.39,38
19.95,16
15.37,4
127.53,198
164.39,281
71.78,67
164.01,434
67.87,72
46.47,42
29.82,17
201.08,332
19.54,14
39.39,89
111.42,197
261.94,249
44.33,119
126.29,83
34.65,9
108.04,259
98.37,201
60.79,109
156.11,164
29.57,35
81.97,137
78.07,171
23.6,20
43.27,86
103.75,157
79,166
142.19,265
63.35,68
16.62,3
30.56,17
104.83,118
80.14,107
51.68,77
28.35,19
50.54,40
98.7,349
73.02,68
3.19,1
115.99,136
69.06,115
17.46,12
46.71,97
86.05,120
6.14,5
12.03,3
88.25,72
11.73,6
3.56,1
87.15,149
55.89,64
86.27,157
110.66,177
97.03,171
98.25,161
116.55,184
43.2,46
155.31,174
31.32,20
4.56,3
194.31,150
101.47,185
37.11,34
17.05,15
58.84,175
68.63,49
28.93,22
146.97,203
114.29,205
3.32,1
64.18,205
6.11,1
68.76,44
23.02,6
98.91,225
106.54,420
58.71,83
91.94,158
15.37,2
25.13,5
72.11,254
32.74,13
99.59,148
58.15,47
39.51,50
84.59,152
78.84,63
62.36,24
74.03,222
112.84,282
52.05,60
31.49,45
38.59,36
53.71,33
95.78,89
64.16,53
34.03,22
15.8,9
37.72,38
75.08,234
33.18,42
114.75,150
121.45,187
71.13,57
88.37,87
35.94,8
38.21,21
123.09,192
41.42,10
24.31,40
57.42,66
8.01,5
33.03,33
147.41,337
54.37,88
51.76,58
114.12,147
26.43,16
121.33,170
93.18,169
91.35,312
69.49,128
35.03,28
85.44,141
123.35,184
145.21,141
70.41,52
213.48,396
9.14,6
65.89,173
59.4,51
63.5,311
30.29,31
37.19,77
73.62,77
77,135
48.58,113
65.97,50
61.01,69
36.35,54
3.57,1
68.79,69
67.75,32
67.45,106
16.88,2
97.68,176
174.85,463
94.75,67
58.27,120
15.99,2
85.39,78
15.52,21
56.86,90
99.38,90
109.01,196
13.58,7
100.77,238
58.64,60
57.47,30
53.07,32
128.97,254
54.62,61
59.03,87
127.47,357
15.84,5
5.07,1
49.26,114
50.26,61
34.66,5
36.41,34
106.86,256
49.04,25
129.33,527
87.14,172
56.58,26
78.32,141
49.21,109
99.88,368
17.37,8
52.25,31
42.86,108
220.25,264
127.12,315
39.38,39
47.61,100
71.06,50
145.41,236
20.79,15
166.93,203
92.48,309
62.34,73
62.52,74
62.71,50
45.24,70
28.49,23
28.7,15
9.43,8
81.36,122
19.48,18
112.21,136
8.73,4
61.52,156
62.75,62
116.28,215
53.72,43
61.3,48
92.5,136
89.78,147
6.35,4
25.59,14
58.47,83
38.5,54
154.79,289
5.12,2
93.85,193
62.52,39
39.67,16
50.11,104
107.38,207
63.11,34
152.25,173
10.03,3
57.83,80
107.76,313
27.19,24
129.89,190
74.11,121
97.6,132
95.37,106
81.94,124
96.24,58
112.72,223
24.32,15
49.09,85
36.11,13
158.08,313
48.33,23
119.06,136
97.62,139
123.25,194
89.45,130
69.39,44
46.89,45
98.43,183
49.45,76
73.94,51
3.72,1
111.38,119
59.76,114
20.47,25
114.51,172
56.21,28
43.74,42
69.58,130
52.42,14
86.95,118
46.9,28
123.81,199
43.45,78
73.27,77
28.85,8
20.31,9
88.71,94
4.29,1
17.71,6
95.66,169
34.7,27
68.13,91
49.32,31
201.37,179
85.87,221
28.75,37
61.56,127
55.34,37
23.74,13
65.81,72
11.68,3
56.64,103
57.05,95
54.7,65
62.75,51
6.32,1
25.11,14
130.13,151
19.75,10
86.24,106
7.03,1
70.96,134
113.86,147
111.65,257
74.23,210
45.89,35
69.34,112
77.44,65
113.4,219
70.8,66
58.69,16
70.8,75
10.07,5
15.12,5
97.49,284
6.67,4
92.09,155
90.6,63
149.79,155
96.11,363
68.34,63
25.68,5
26.36,30
35.91,56
52.8,43
117.63,157
78.45,82
80.77,115
86.63,276
127.32,200
49.92,19
88.65,152
81.8,196
46.13,133
21.19,13
25.81,10
30.8,17
103.59,127
82.18,133
52.58,73
38.52,12
31.47,43
28.44,15
51.67,97
75.95,82
18.25,22
87.76,149
51.33,49
26.81,13
28.13,16
25.76,24
65.55,116
30.26,25
134.88,531
47.55,21
62,50
41.59,17
26.47,21
44.23,12
34.43,11
73.78,115
78.91,212
84.65,47
19.19,19
33.96,78
32.47,64
66.68,188
2.58,1
55.48,28
91.58,254
85.92,77
78.04,111
37.37,11
94.67,194
169.11,204
90.07,146
16.09,5
30.82,54
27.14,18
85.33,193
77.12,103
4.82,1
98.96,123
127.37,242
95.87,87
80.55,152
79.01,124
19.35,20
102.77,352
42.54,37
72.92,144
116.52,502
27.26,8
31.96,13
79.62,43
49.96,32
74.08,54
68.25,120
23.76,16
64.5,80
80.21,121
81.14,102
7.69,3
51.67,69
95.78,237
89.74,88
53.71,31
97.3,142
118.46,344
39.62,52
57.9,56
69.91,67
17.76,18
86.96,275
27.88,14
10.77,2
142.28,313
88.85,239
26.31,9
35.21,27
84.57,87
158.37,748
68.86,119
72.3,88
74.43,119
56.44,43
63.44,30
4.83,1
115.95,196
119.98,197
40.52,41
126.44,107
12.45,5
39.98,40
190.97,312
24.65,12
68.96,139
46.29,55
41.36,55
89.41,155
14.23,7
78.99,141
3.64,3
111.99,94
21.33,5
131.82,73
35.72,29
98.99,165
125.72,160
53.31,100
61.2,224
58.37,60
36.04,21
15.67,11
122.85,121
49.37,123
70.75,90
11.93,6
39.6,36
138.42,590
38.67,26
6.94,2
199.3,207
29.77,16
38.6,12
42.54,46
21.56,16
117.29,125
34.88,27
96.84,106
39.05,54
39.49,12
209.04,185
109.52,165
16.49,5
22.68,9
44.51,35
39.13,16
83.45,50
86.57,251
12.93,6
56.56,16
21.78,13
87.54,94
79.77,88
6.82,2
59.85,56
66.67,102
124.55,165
65.13,151
7.24,3
20.38,9
45.18,51
35.18,83
120.01,62
24.36,4
17.69,4
109.19,338
9.41,5
178.2,192
40.33,30
73.2,63
213.49,349
98.75,78
31.22,20
121.91,216
154.33,300
99.97,187
24.74,9
80.15,57
91.35,153
20.09,5
41.48,32
44.41,37
48.04,94
4.87,1
96.09,61
66.74,58
67.16,51
25.49,16
160.37,391
68.66,103
44.94,22
20.43,11
14.76,11
125.39,366
67.24,56
117.66,731
85.99,51
23.73,14
70.1,118
62.86,100
166.17,202
27.08,10
42.16,32
48.09,20
68.19,51
49.87,168
12.18,4
22.53,10
33.74,45
79.19,132
83.46,84
36.11,16
13.06,6
52.34,27
73.09,83
129.76,160
57.31,102
54.33,202
13.52,8
13.45,6
293.3,401
10.33,4
24.07,6
217.97,361
127.95,146
122.1,147
22.01,13
28.05,20
18.51,15
33.4,24
122.19,172
19.55,15
14.64,6
70.57,159
29.15,33
20.24,10
33.9,17
59.39,97
67.35,216
56.29,68
56.58,121
18.29,10
49.51,23
89.93,133
31.5,11
139.9,170
211.64,471
57.71,103
58.24,33
99.65,57
25.22,30
14.21,6
80.74,390
104.66,103
10.41,4
171.81,527
91.29,45
48.48,46
85.89,81
75.18,92
123.16,176
105.79,155
84.12,67
165.14,313
71.64,67
57.39,91
91.99,51
50.81,36
68.04,62
60.9,97
114.85,251
99.78,53
39.44,18
145.47,812
7.83,2
94.89,194
43.91,42
115.23,814
44.35,70
46.68,15
27.93,19
80.06,153
38.68,17
28.11,14
78.95,83
56.77,68
26.1,36
34.26,17
16.07,4
19.63,5
36.53,52
108.93,238
60.83,40
26.85,29
76.28,47
22.66,33
16.83,12
41.36,18
97.98,173
82.82,163
67.57,143
76.49,74
63.39,39
204.99,295
74.94,127
43.48,59
39.64,90
61.68,149
56.34,52
47.24,42
23.42,22
72.06,129
40.84,28
92.17,109
92.3,151
131.08,191
41.28,24
22.29,17
46.63,47
73.19,163
150.15,335
47.4,52
70.83,29
28.98,9
63.33,110
60.63,71
226.75,220
78.73,133
68.84,207
118.16,106
66.75,72
43.13,20
24.53,30
19.85,2
196.49,237
19.23,12
51.66,9
81.53,247
10.74,6
142.22,507
77.32,50
78.19,164
59.25,58
47.88,33
43.68,47
37.78,34
48.38,70
51.74,102
69.22,89
89.98,141
12.11,9
69.43,218
113.02,42
11.26,3
56.28,58
19.69,7
8.55,4
13.19,8
66.81,59
54.83,33
34.78,22
186.86,203
82.47,88
23.16,13
20.89,2
34.45,13
8.3,4
79.96,157
49.4,46
27.58,15
15.74,5
100.54,132
20.66,14
70.68,94
15.08,2
65.74,166
77.34,134
43.76,79
76.71,81
99.67,253
138.22,595
104.18,89
43.4,39
29.54,23
36.23,39
53.5,205
49.79,31
22.83,8
122.12,216
65.05,84
8.77,4
130.1,91
30.87,25
27.4,11
51.2,76
49.68,49
58.64,122
132.88,70
36.85,84
48.15,26
75.29,51
134.4,107
137.97,227
50.8,79
70.19,120
100.77,259
120.89,226
145.82,756
104.83,155
46.48,27
64.78,73
80.54,118
8.27,4
47.75,17
59.68,95
58.12,58
80.73,164
58.12,161
64.45,51
13.51,4
129.08,242
26.14,14
34.59,50
40.78,108
42.18,26
68.16,153
125.1,266
9.06,2
117.96,124
23.67,15
110.45,457
136.95,269
17.56,9
108.69,103
153.37,234
65.14,32
45.2,96
68.61,194
3.64,1
74.56,112
53.06,71
14.65,7
27.64,16
73.27,50
57.19,26
12.32,4
74.01,76
46.81,17
82.22,70
6.01,1
131.68,338
58.9,43
32.9,7
42.9,25
4.01,1
14.66,3
84.9,276
61.12,135
65.93,62
37.05,13
23.82,7
37.34,63
78.98,121
60.35,66
77.38,33
136.07,322
44.06,38
54.74,39
85.68,130
43.11,28
147.45,240
35.87,8
56.92,101
151.05,313
56.68,45
49.03,94
96.32,94
80.11,163
66.56,54
59.45,82
52.27,115
29.14,15
22.78,1
75.38,82
39.27,24
42.01,17
73.07,168
42.04,54
61.12,63
64.46,182
29.15,31
62.27,96
13.2,5
187.53,165
130.13,114
12.24,4
54.43,79
52.33,63
41.34,32
137.67,146
74.94,51
92.03,288
3.55,1
167.17,393
54.21,92
62.86,96
56.22,48
79.79,51
123.51,101
54.86,43
135.25,217
23.61,12
52.26,28
6.1,1
96.18,159
87.35,197
78.76,66
120.58,235
21.05,19
78.24,94
144.1,283
33.52,51
51.18,61
161.12,518
62.88,304
36.24,15
72.05,210
63.27,124
37.98,11
44.79,70
29.97,31
43.02,62
85.07,148
23.71,17
72.12,39
61.66,88
98.79,75
25.15,18
97.77,312
49.92,12
52.21,113
66.62,117
13.98,3
59.5,27
46.78,39
57.37,51
26.25,18
99.37,145
156.85,254
12.11,4
19.56,18
165.54,230
146.53,168
48.15,71
151.46,237
8.71,2
92,268
94.67,280
43.45,17
20.26,8
55.36,99
91.95,77
45.33,38
52.19,49
103.78,165
108.13,143
6.63,3
44.27,45
13.65,10
99.71,126
50.61,56
16.73,8
117.19,259
6.3,2
34.52,23
35.33,43
49.35,70
112.15,298
23.52,12
203.79,391
69.79,134
63.16,245
14.99,3
68.04,174
292.33,677
13.6,8
25.89,11
65.06,64
62.8,53
35.68,47
191.85,385
40.37,64
78.53,75
86.69,115
6.51,2
222.4,138
24,9
151.1,404
23.4,31
52.94,46
92.32,66
92.61,122
17.88,8
43.9,49
99.98,400
50.98,34
13.82,6
46.34,113
158.33,204
84.64,162
35.55,17
119.28,264
27.9,18
78.96,74
52.46,100
48.71,107
28.07,27
19.38,10
169.61,265
76.69,64
124.97,176
62.19,57
15.62,21
99.23,86
206.29,431
92.9,375
107.04,254
56.96,24
74.12,101
80.83,70
49.95,90
115.52,313
59.46,49
38.16,19
103.26,55
29.3,5
120.51,274
42.2,91
90.45,227
109.21,162
54.79,46
30.04,20
10.84,2
128.05,522
115.38,238
47.58,22
241.16,351
12.67,6
19.11,10
6.95,3
49.47,124
112.91,188
72.81,77
36.16,20
57.34,36
21.71,19
5.09,1
20.01,10
65.74,50
74.53,177
32.61,49
100.85,414
30.04,47
86.21,203
35.42,70
84.97,147
44.55,82
17.17,13
54.78,140
60.6,68
62.27,58
85.92,111
48.54,15
40.81,42
42.29,49
106.36,185
145.63,364
196.85,536
59.59,23
72.6,89
142.16,133
5.33,1
86.45,130
79.77,135
88.21,357
56.35,50
37.37,21
6.81,1
28.55,17
108.32,111
42.61,85
51.39,80
72.85,107
48.89,242
41.41,17
155.67,732
75.77,93
78.98,74
60.49,201
31.97,20
145.37,680
21.84,38
45.13,34
57.26,60
57.62,49
5.82,1
8.27,2
67.86,121
30.74,11
80.33,75
102.73,201
110.37,141
111.03,179
84.86,173
115.77,161
32.29,30
156.67,170
22.81,7
67.78,75
56.25,55
45.35,77
136.96,269
41.8,31
60.67,185
55.42,67
104.65,322
37.41,58
12.28,2
29.49,25
134.95,444
46.17,78
53.05,83
47.46,34
46.94,59
9.9,2
61.37,37
40.54,42
69.31,83
14.85,5
68.15,132
94.97,151
114.37,224
80.75,136
22.31,8
48.76,14
35.99,38
54.97,83
86.33,127
89.22,108
38.62,37
5.94,1
105.24,305
42.7,9
39.54,59
4.65,2
26.68,20
21.55,7
34.52,42
121.16,428
30.48,8
50.27,36
147.7,526
39.71,38
82.24,274
81.02,205
137.21,146
83.14,113
95.59,195
61.82,202
107.86,138
105.76,149
131.31,138
96.65,241
17.43,9
6.21,1
97.22,114
7.27,1
17.98,4
72.57,93
110.29,251
146.57,392
213.85,285
25.34,24
60.59,134
19.61,14
22.02,15
95.01,186
25.78,19
8.54,3
59.57,29
13,12
33.65,26
32.35,14
94.97,182
6.08,1
86.04,196
51.77,43
139,363
13.9,4
99.19,302
109.37,125
41.4,20
72.74,104
73.49,76
103.97,238
99.39,466
34.24,23
46.96,57
76.27,54
58.89,102
72.54,197
81.38,92
17.51,5
29.44,23
23.8,23
26.68,17
55.97,165
66.52,210
68.31,132
75.37,116
120.53,234
106.52,214
79.83,311
59.12,182
93.3,127
32.48,22
150.12,285
53.84,64
56.38,76
57.85,96
80.19,137
64.59,135
4.67,2
108.04,149
84.54,81
65.46,130
92.35,91
65.59,30
36.85,35
30.41,16
27.9,19
66.56,203
111.76,98
48.52,32
47.05,80
227.5,766
57.6,109
20.23,19
153.28,194
73.06,115
69.53,197
66.09,130
54.43,129
39.75,20
36.28,25
22.02,18
42.36,55
48.89,57
90.92,223
88.34,185
96.3,275
67.36,147
120.03,432
53.27,51
107.91,140
30.51,21
110.81,139
38.25,51
83.42,113
25.66,16
52.35,30
39.26,63
17.57,4
3.77,1
71.09,285
84.67,246
108.83,232
16.97,9
73.24,137
95.92,108
76.45,114
40.58,68
11.57,5
29.95,48
11.03,3
97.36,324
93.6,56
45.27,14
44.52,33
12.91,2
87.36,154
26.84,22
14.68,9
89.46,68
62.2,28
45.24,80
22.6,25
35.03,20
3.22,1
42.05,83
45.46,128
9.11,7
81.5,171
40.76,82
63.03,32
151.99,293
90.65,319
107.46,153
40.07,29
84.64,43
28.15,22
123.44,196
95.6,167
133.41,247
98.08,71
158.76,347
78.83,85
21.54,16
67.84,60
32.71,20
33.42,24
20.18,6
80.94,117
31.86,30
58.7,55
41.1,39
102.62,89
37.32,38
51.86,53
102.06,208
51.73,16
60.7,83
84.88,100
22.39,16
62.43,134
80.21,85
21.95,10
64.43,77
55.31,122
16.87,9
26.96,36
86.32,35
55.97,106
62.69,103
112.99,172
25.46,27
41.69,42
141.08,249
16.4,15
87.82,99
23.63,13
36.25,15
33.75,25
40.13,70
29.06,17
73.82,69
44.59,42
14.91,6
181.07,692
41.03,30
29.82,22
33.45,46
157.1,359
53.42,30
98.65,96
124.16,372
46.38,50
27.79,9
16.53,10
98.56,95
76.85,317
37.76,21
55.34,78
38.44,26
23.96,14
89.19,61
64.97,99
58.86,48
106.39,181
69.08,202
26.23,20
9.88,5
48.88,44
222.4,286
71.84,70
16.8,16
81.26,321
45.5,29
64.78,108
203.21,288
50.7,34
39.04,52
182.1,318
117.7,107
57.56,67
64.4,48
29.23,11
59.31,49
7.97,2
190.29,243
12.37,5
84.05,286
37.36,20
52.94,35
16.97,9
83.09,146
39.87,51
61.86,54
73.64,169
75.72,41
61.1,32
51.99,88
19.52,18
53.56,50
14.71,7
91.62,225
101.6,307
6.37,2
16.17,5
38.11,48
49.55,92
45.12,56
52.14,18
37.41,28
3.13,1
182.67,200
37.21,25
8.13,4
4.87,1
164.34,197
59.4,59
58.89,68
36.55,19
82.46,171
66.19,82
53.88,37
30.63,11
39.61,20
13.19,4
89.79,317
116.89,320
12.46,7
34.17,23
19.72,25
75.55,152
95.61,171
58.93,69
85.41,104
72.08,251
2.84,1
91.1,111
9.54,4
33.17,10
104.56,184
96.54,73
158.78,218
11.2,6
33.59,61
13.23,11
47.54,64
87.6,200
38.87,26
98.11,73
25.09,26
48.98,35
46.13,35
9.58,3
32.44,22
75.19,90
40.59,31
54.96,56
133.9,303
75.1,141
195.43,182
111.97,211
85.29,113
32.09,16
7.75,5
31.95,18
94.56,54
84.72,139
41.67,38
188.01,168
29.52,15
15.57,9
20.15,14
94.68,188
20.44,13
16.21,4
119.06,93
86.98,349
6.86,2
52.17,25
94.56,205
41.47,65
49.88,133
73.66,163
91.45,190
143.09,377
201.72,225
55.28,59
122.86,160
127.45,599
12.95,4
84.71,62
132.51,184
21.17,14
13.92,2
259.46,229
25.19,12
9.31,3
120.3,660
8.97,3
80.17,197
31.01,31
66.06,251
146.05,306
51.35,133
105.73,79
74.75,154
38.59,35
66.46,53
31.24,12
12.81,5
47.5,47
51.01,67
13.79,4
96.18,120
29.7,57
116.9,185
138.66,361
79.03,60
50.41,83
16.07,7
73.83,133
44.2,44
87.49,303
23.76,18
105.96,153
113.73,213
4.81,3
56.61,39
67.51,162
164.7,522
57.99,21
66.22,109
90.5,163
78.55,190
45.08,35
43.96,60
50,42
15.78,14
108.14,70
49.44,50
92.13,183
62.45,18
20.49,10
117.4,152
63.21,51
84.33,40
144.54,286
44.87,28
223.91,305
169.79,186
95.44,191
23.21,10
25.96,11
30.1,29
148.4,266
18.71,16
79.45,165
9.13,2
104.5,96
136.3,522
107.77,361
77.85,100
34.12,21
50.82,42
9.64,5
49.75,51
79.74,46
114.92,171
71.89,81
39.46,24
32.03,14
16.65,14
70.04,102
27.74,27
33.17,29
5.82,1
138.02,695
106.77,309
35.67,19
146.76,221
178.52,350
38.58,69
40.86,13
100.83,547
65.98,56
45.98,16
40.22,15
13.85,10
56.14,72
53.9,48
33.29,13
42.03,21
58.25,74
278.87,357
59.07,39
89.05,52
35.38,22
7.73,2
85.25,116
68.33,96
161.73,207
111.58,234
43.7,25
36.85,7
5.95,1
52.15,35
107.29,136
17.21,6
71.55,84
82.53,188
17.69,15
4.89,2
3.33,1
30.46,34
18.58,8
72.74,118
51.55,22
84.94,82
53.29,69
54.9,50
9.67,6
154.21,267
35.82,8
23.33,11
90.66,127
134.17,423
88.4,52
51.65,46
83.73,57
83.53,215
54.4,30
25.65,8
58.18,74
54.45,54
155.85,314
86.81,191
89.84,91
39.02,11
111.24,275
53.81,134
37.74,47
36.88,47
27.03,37
47.53,137
9.42,2
62.25,60
48.29,97
76.23,119
44.24,57
29.12,27
171.09,103
30.65,14
8.09,6
7.53,3
63.96,51
28.95,42
76.27,177
130.13,229
29.16,21
65.45,93
25.7,25
2.88,1
48.62,15
34.47,10
115.18,154
102.29,212
47.8,83
178.07,286
61.4,56
50.89,112
130.26,190
89.62,54
146.08,183
62.22,103
10.61,11
25.95,28
83.11,70
14.27,10
135.96,275
178.53,312
58,161
149.66,338
4.37,1
60.98,61
67.43,40
84.94,69
53.26,76
45.77,35
14.87,1
68.82,29
55.12,51
25.35,10
30.38,20
68.91,118
55.32,91
69,59
80.09,206
150.13,137
132.64,362
56.79,103
17.06,19
11.62,5
89.62,145
48.14,30
65.84,93
30.03,40
106.48,115
54.64,29
146.1,231
44.52,36
131.19,241
81.12,296
67.06,189
43.44,24
44.51,50
37.64,33
49.9,12
27.14,17
13.98,5
22.59,8
237.99,272
12.88,7
128.48,486
35.18,37
51.22,38
26.74,17
39.72,36
4.05,1
17.75,6
19.96,6
77.42,163
97.41,70
156.58,85
55.68,35
19.32,10
115.99,116
26.49,14
55.19,30
172.26,309
14.89,7
116.97,117
130.08,190
5.94,2
26.11,22
41.51,52
48.52,29
86.42,111
5.27,2
15.81,10
81.35,192
120.52,274
20.26,11
22.15,11
28.14,6
95.92,196
137.34,319
97.04,582
20.98,8
65.95,58
40.58,21
36.44,10
64.38,105
57.36,57
42.3,59
144.03,362
59.2,124
178.56,298
38.79,35
105.14,292
47.88,59
85.56,89
69.87,119
50.62,32
59.59,80
85.02,446
109.11,226
19,17
113.72,237
94.48,76
58.53,76
116.21,96
159.91,234
69.23,93
12.28,3
7.53,1
23.7,7
24.75,20
38.76,72
39.31,50
17.64,11
21.96,8
59.22,58
193.91,300
139.49,61
63.13,65
102.55,405
39.4,67
44.47,53
59.06,112
66.61,55
55.9,124
135.68,232
179.5,382
92.55,60
71.5,272
47.6,103
35.93,23
55.94,41
54.21,60
8.09,3
112.51,331
76.09,96
63.63,81
118.67,120
26.5,17
6.9,1
105.45,166
20.82,15
58.84,53
42.6,19
67.06,241
117.19,341
18.37,7
40.61,33
31.43,39
45.05,50
25.21,11
47.82,27
80.06,423
53.38,72
74.28,66
19.48,6
74.29,83
69.63,99
124.55,391
122.85,102
64.98,23
118.9,395
16.7,16
49.99,67
44.05,66
139.74,253
11.78,7
25.75,22
78.45,80
142.77,294
45.3,75
47.58,57
78.57,103
43.51,17
25.64,22
53.08,21
16.73,6
85.3,285
81.82,108
9.17,2
12.14,7
36.65,58
109.43,417
51.22,31
20.54,6
4.47,1
19.97,13
49.09,18
56.07,42
55.79,89
53.56,30
77.73,260
101.15,183
21.46,19
113.24,110
80.93,223
18.7,6
86.72,160
26.23,32
71.06,110
27.12,13
94.79,109
145.06,264
79.15,76
176.54,259
81.06,175
17.9,9
87.15,133
39.89,88
42.57,23
3.5,2
63.17,143
74.95,170
116.99,449
63.43,184
89.72,57
135.5,258
91.4,261
25.09,31
102.64,132
146.53,372
70.26,32
79.05,192
88.82,74
144.32,197
117.74,151
101.88,49
78.68,167
114.17,354
111.34,116
34.34,23
45.68,56
12.91,11
46.52,138
52.45,152
52.38,45
6.06,1
109.16,356
92.19,226
7.85,5
42.43,24
35,31
22.03,6
76.7,237
174.1,219
14.21,4
95.13,99
94.95,111
157.33,281
54.86,85
109.93,165
92.89,52
16.09,9
13.22,3
94.65,64
93.21,125
69.74,99
13.53,13
149.44,338
23.12,10
47.62,44
54.96,76
39.12,25
4.71,1
43.64,41
69.43,137
64.72,135
10.65,5
107.8,106
139.91,208
102.1,144
23.29,8
66.2,48
40.66,15
42.68,41
42.91,56
82.26,154
111.8,185
135.23,375
48.47,105
22.05,10
87.89,65
17.9,9
89.98,277
63.5,61
94.42,263
86.71,76
116,227
112.58,601
9.67,5
85.04,38
63.2,96
11.41,4
22.28,9
24.55,10
21.09,6
48.75,48
97.37,571
69.29,95
37.97,57
46.22,95
163.94,208
56.83,55
46.59,34
135.05,187
150.93,299
3.72,1
102.39,65
18.6,15
60.99,70
14.21,4
70.62,165
78,254
28.93,24
19.75,9
127.46,281
12.35,5
237.15,289
23.31,11
58.42,115
37.51,11
31.72,34
15.85,12
44.66,73
17.43,5
7.75,2
61.5,88
61.15,33
38.34,19
32.69,18
70.67,317
145.76,189
104.86,379
65.25,58
32.67,48
55.84,62
56.73,86
171.06,346
114.56,143
23.63,25
5.37,2
47.51,46
31.47,54
65.06,127
39.88,32
5.17,1
174.4,174
111.28,227
95.68,233
30.63,11
61.01,26
28.59,34
99.01,284
52.75,85
22.96,14
5.57,1
135.36,148
95.52,488
31.71,30
59.84,137
55.97,103
53.71,63
63.6,117
26.69,14
67.25,72
71.68,96
22.59,40
126.74,126
86.3,145
71.74,82
41.6,85
254.36,651
78.63,281
43.67,90
53.24,44
10.31,2
67.41,57
9.23,9
44.83,60
119.93,111
35.43,17
30.39,15
86.29,168
58.71,34
60.19,203
7.08,1
23.82,15
67.47,65
112.78,102
23.61,15
40.71,48
63.35,157
93.76,173
42.03,83
120.85,71
16.05,9
30.65,61
49.15,34
63.53,81
29.93,17
2.8,1
61.95,60
55.72,90
4.41,1
15.96,5
52.56,14
41.96,17
16.09,3
5.33,1
11.43,9
105.9,86
39.9,15
79.33,100
25.21,26
16.07,7
56.95,74
65.87,54
96.54,57
73.64,48
23.02,12
17.19,16
48.89,12
26.12,24
87.95,218
47.82,35
119.31,82
26.21,10
28.63,48
28.76,25
111.96,109
85.46,46
23.81,6
22.17,12
16.77,7
153.88,233
56.68,37
62.61,110
106.4,146
30.32,24
5.11,1
34.87,35
93.27,122
37.12,32
13.78,4
90.17,60
42.64,52
7.35,2
67.24,40
34.42,9
30.84,24
18.85,3
63.94,107
140.93,166
17.92,8
152.23,119
170.39,479
42.02,99
25.25,13
130.15,141
56.31,30
34.13,52
6.04,2
77.51,121
27.62,14
8.17,1
42.77,49
23.82,12
7.49,5
24.01,16
75.98,69
100.4,264
59.74,38
68.21,265
60.63,70
25.27,22
33.24,26
40.7,66
84.05,195
97.02,209
70.82,35
13.52,12
74.79,137
33.48,13
18.13,12
52.77,64
112.35,91
70.15,44
96.15,88
74.45,187
86.47,424
35.98,30
35.8,14
59.69,78
13.28,5
46.08,43
31.32,43
79.22,168
73.92,335
95.01,48
35.94,43
68.51,101
50.3,120
23.43,13
54.84,111
101.89,128
53.71,51
16.89,8
6,3
94.08,212
81.19,85
179.67,342
97.17,98
68.49,95
44.37,61
45.64,32
54.07,75
121.81,300
59.04,202
27.53,18
16.02,12
46.82,26
47.27,37
119.87,163
57,51
68.09,94
32.61,10
16.58,16
82.3,164
18.06,5
56.64,42
123.26,46
57.53,76
109.12,311
46.76,46
71.13,149
45.87,24
187.38,438
89.31,107
63.53,88
108.8,167
35.36,20
46.94,51
39.1,11
33.22,39
13.61,3
83.9,127
21.13,12
15.71,9
67.34,169
52.32,36
133.47,487
93.45,131
95.4,89
7.34,3
82.97,407
118.88,46
48.6,43
29.13,44
121.67,521
67.84,357
183.32,136
11.76,3
15.21,7
43.59,149
64.4,105
37.13,17
38.64,16
108.36,130
121.42,121
14.22,3
32.7,43
48.32,20
58.24,62
62.44,98
40.4,85
54.12,106
86.6,118
64.93,69
21.75,9
123.14,165
64.11,164
49.27,99
64.1,137
22.62,39
22.83,13
37.17,9
91.23,102
92.25,133
30.6,17
103.98,210
81.43,46
51.29,62
164.56,191
191.25,205
45.17,19
41.04,90
5.66,1
24.18,14
78.96,84
24.73,11
95.63,106
38.71,37
90.57,69
64.15,74
71.75,160
97.9,144
50.99,35
32.73,29
111.03,286
115.85,326
46.41,102
34.19,15
133.07,115
99.88,363
88.7,306
46.71,46
29.64,54
39.1,44
23.66,13
82.74,61
172.89,350
64.57,38
12.71,3
80.11,181
138.77,483
65.23,41
77.1,108
87.74,166
30.34,21
37.34,42
36.33,12
124.4,151
38.03,44
3.76,2
61.32,57
167.76,340
70.25,70
27.74,20
49.21,34
112.74,96
104.32,151
14.92,10
83.1,192
72.86,92
61.29,67
90.48,164
119.24,510
13.27,3
56.39,154
86.96,97
58.14,29
110.03,90
78.73,276
44.76,61
45.71,36
217.04,311
33.3,27
44.04,19
54.56,42
36.08,45
105.64,119
114.34,174
60.71,39
89.55,58
61.86,27
82.77,131
38.28,51
17.23,19
65.69,119
75.66,61
18.24,9
58.12,79
42.58,16
26.52,13
55.11,153
74.35,61
6.54,2
117.73,289
26.59,15
45.77,109
194.58,297
96.39,89
70.38,165
131.11,260
48.59,37
71.25,82
46.59,103
27.95,48
49.66,38
61.1,85
46.23,27
60.07,49
73.52,101
57.11,68
33.12,39
28.5,30
190.44,364
87.54,76
63.08,146
105.22,144
52.46,44
42.06,47
38.09,51
36.27,10
155.38,238
44.82,90
16.39,6
69.98,148
13.49,4
66.21,191
36.58,43
25.41,32
97.49,88
36.59,27
88.53,98
136.44,223
49.9,132
118.14,169
84.78,185
17.6,5
71.27,55
181.89,390
97.49,174
10.12,1
76.36,93
162.19,87
33.23,22
80.4,253
170.14,164
78.03,158
76.4,80
61.23,113
64.26,67
56.6,40
61.56,131
95.02,330
5.4,1
5.7,3
110.73,137
11.4,8
41.1,42
112.61,337
97.67,175
34.25,24
38.23,25
130.85,415
96.07,241
69.2,197
74.85,191
16.04,3
141.21,217
107.51,117
101.63,114
79.19,69
114.65,275
28.85,36
93.77,71
34.19,14
56.39,43
9.81,4
79.63,203
52.34,118
107.81,312
72.79,116
66.36,37
34.39,17
150.1,317
44.42,68
21.94,4
97.15,109
23.93,13
26.16,15
124.62,163
70.62,61
6.93,2
67.36,60
8.21,4
40.23,31
5.31,1
158.65,448
4.44,1
17.44,13
160.23,469
148.58,137
64.72,39
43.37,31
55.65,20
58.87,102
109.13,148
198.67,278
68.34,32
52.84,79
19.28,13
81.08,40
31.31,30
65.37,25
72.25,57
114.1,155
36.4,19
22.75,23
12.18,6
94.69,302
45.16,60
38.29,78
71.26,49
16.17,3
33.8,55
127.57,259
52.37,27
165.57,149
4.22,1
68.28,73
71.26,152
73.4,74
102.35,152
80.76,196
63.33,71
31.03,12
128.32,143
153.22,394
112.78,85
123.11,242
61.38,121
5.06,1
111.31,209
55.8,80
62.1,53
51.78,68
61.6,45
50.57,126
20.8,19
43.36,36
34.03,46
23.12,4
37.77,41
56.22,86
44.56,145
4.04,1
92.65,85
71.1,77
108.94,194
80.4,97
66.44,36
92.38,190
76.23,48
18.19,4
58.51,81
41.91,39
10.57,8
57.95,140
15.6,9
62.3,166
118.78,904
63.48,140
53.2,151
20.85,6
59.84,67
69.91,263
59.16,87
79.03,130
91.21,102
34.39,27
70.27,27
4.62,2
134.17,132
11.33,6
114.28,124
71.21,121
109.32,204
78.1,99
39.34,36
15.53,5
110.86,267
15.72,8
70.34,90
40.41,63
81.04,197
30.99,44
67.57,185
61.63,33
100.93,56
39.62,52
89.19,180
37.76,14
32.76,16
82.6,64
100.68,168
65.87,78
101.93,108
49.52,129
51.58,17
35.56,78
47.27,25
58.82,171
7.33,1
137.96,274
12.85,3
39.97,29
98.43,139
89.22,118
129.16,344
49.45,42
32.51,32
105.58,302
65.83,88
79.15,84
50.38,64
60.54,46
64.47,180
51.54,99
74.27,203
117.23,311
155.45,129
71.94,144
72.97,63
38.72,45
88.79,268
66.27,120
131.16,264
64.27,63
108.88,264
14.22,15
81.16,177
61.67,53
51.03,61
197.89,274
108.13,102
127.37,295
47.25,53
27.25,16
3.86,1
49.41,45
66.91,123
179.51,178
46.84,27
129.32,603
98.51,302
128.8,181
50.75,49
26.29,31
18.52,5
41.91,53
47.37,49
152.66,244
67.97,169
99.21,192
61.44,105
93.52,111
109.71,163
36.57,50
70.86,111
142.56,246
76.13,134
84.26,112
45.18,30
49.73,34
22.27,23
43.41,75
86.82,233
44.96,33
69.81,85
14.8,7
28.06,12
110.53,298
156.49,435
104.52,100
124.12,155
99.69,110
43.05,34
42.89,78
49.58,39
41.45,22
129.29,318
77.89,206
81.47,329
90.38,160
44.22,83
108.31,107
84.01,256
134.78,185
109.74,723
82.53,158
116.71,142
70.46,89
157.3,289
97.83,136
41.72,102
49.83,93
123.07,219
5.22,1
65.14,89
77.15,187
132.56,280
24.69,17
120.76,125
25.3,6
70.38,100
93.99,120
70.47,188
99.59,426
64.34,88
52.91,32
97.9,157
104.07,126
101.08,53
100.75,371
22.58,21
67.48,40
55.39,13
22.65,6
17.16,9
57.55,32
25.76,56
140.73,560
65.96,48
141.96,243
185.79,442
142,295
62.02,219
65.29,53
215.87,281
69.25,121
66.16,46
9.67,3
41.49,42
25.52,16
78.24,135
60.3,68
55.71,93
15.35,13
112.94,364
18.13,8
231.28,324
73.16,68
47.83,31
90.09,42
34.95,44
36.64,42
79.48,77
19.64,9
124.64,95
140.07,251
170.17,360
178.48,291
297.92,284
20.43,9
28.88,12
73.04,147
17.84,11
45.6,37
66.16,126
52.52,69
50.74,38
34.58,49
31.43,37
172.66,216
146.53,207
71.04,87
32.22,22
56.44,70
42.79,16
90.85,302
21.13,25
8.81,3
109.24,402
140.17,368
52.57,54
115.46,180
29.01,8
58.64,70
44.42,20
221.96,758
50.04,72
165.06,180
15.51,2
122.69,503
136.58,157
50.81,170
24.68,12
41.74,45
25.22,9
31.22,17
155.43,398
24.7,8
28.45,59
50.57,90
27.98,24
145.08,96
42.82,33
133.94,81
41.32,57
200.81,547
46.29,57
86.25,178
41.97,56
78.8,150
60.05,121
49.02,56
30.57,36
40.8,34
75.26,112
74.48,95
158.27,355
35.38,28
32.66,12
118.49,144
38.39,41
22.25,23
2.73,1
10.67,4
105.89,145
83.45,92
81.11,82
56.23,197
65.16,45
88.81,282
39.34,38
92.24,129
45.18,39
22.7,25
105.72,271
8.81,5
80.03,66
4.32,1
99.27,155
114.24,69
188.51,76
95.02,167
19.9,6
48.65,126
54.96,76
7.53,3
153.77,221
99.1,152
18.42,12
44.88,19
32.74,46
25.56,15
37.39,52
37.82,34
72.68,39
65.81,75
19.81,8
47.06,81
69.58,337
107.31,240
118.83,198
15.84,12
58.77,109
8.45,3
77.63,346
28.48,20
17.73,4
101.89,58
38.19,57
19.44,8
31.62,35
30.48,13
95.51,76
94.65,215
16.01,3
47.83,27
74.68,100
81.87,176
124.62,449
37.18,14
77.28,76
71.19,107
66.15,128
114,360
146.62,244
39.05,38
102.35,141
111.94,198
129.8,348
38.09,15
141.61,169
63.01,59
18.48,4
119.76,58
47.45,125
12.33,1
51.96,69
64.84,101
21.04,8
189.64,160
33.66,31
55.66,71
57.32,158
58.1,214
27.92,28
39.46,60
47.6,24
8.94,2
170.84,239
112.28,220
20.38,8
56.65,52
56.4,44
47.47,76
60.61,125
58.09,166
6.23,2
15.05,8
79.08,44
38.28,18
12.01,4
31.97,16
3.78,2
47.17,27
44.45,96
33.85,43
19.42,15
36.39,62
117.79,93
108.12,212
66.03,152
85.4,113
64.8,48
36.73,67
30.5,35
17.78,11
42.13,28
62.5,63
122.62,95
9.24,2
111.75,314
54.74,78
56.24,194
5.11,1
8.57,7
91.5,270
50.95,73
12.15,4
43.64,50
98.81,158
40.56,20
24.96,8
55.48,77
82.51,62
122.57,133
149.56,524
38.3,19
101.72,188
10.09,7
112.06,741
60,30
83.86,30
58.16,71
70.71,119
37.25,40
3.78,1
45.37,40
77.38,50
42.44,34
6.67,1
36.66,56
80.16,102
84.14,101
77.62,270
32.07,15
151.73,200
23.35,15
94.47,211
3.75,1
27.06,27
18.43,11
3.19,1
89.09,133
31.24,30
88.53,374
69.38,161
32.38,18
25.03,5
47.91,46
27.62,8
19.51,11
24.67,15
54.47,76
39.15,7
72.52,205
41.25,56
57.52,100
65.85,87
80.16,504
137.31,393
16.19,9
46.87,48
70.34,79
45.12,44
15.01,9
94.49,143
51.37,50
109.8,376
3.89,2
100.73,107
84.55,35
43.95,61
75.77,159
46.07,66
49.41,142
72.14,44
33.57,31
114.3,266
32.08,14
28.86,13
96.14,154
124.96,144
91.93,89
34.12,10
187.04,455
35.31,38
33.14,14
49.09,47
125.32,229
81.23,67
47.88,14
102.87,132
72.07,127
27.64,17
104.57,227
16.15,12
51.33,59
59.38,82
79.49,84
35.96,32
51.38,86
37.85,41
16.65,7
21.28,8
74.75,90
62.71,74
88.55,175
65.99,202
146.25,273
58.05,46
26.19,9
62.85,77
11.15,7
88.39,126
8.92,4
41.97,70
64.95,107
33.33,9
91.42,104
58.06,69
42.18,23
46.73,20
33.66,35
39.16,57
77.26,101
27.65,8
96.39,114
51.58,60
30.22,21
26.78,14
25.57,19
56.01,39
25.68,41
77.88,34
95.66,277
42.7,77
80.52,90
156.01,257
65.98,125
33.39,16
32.18,43
105.75,592
76.22,139
126.48,314
42.7,67
15.05,10
63.17,36
155.71,82
99.92,351
128.11,105
75.45,62
6.54,4
49.45,36
43.58,21
12.27,7
61.1,70
38.84,33
24.7,14
181.39,310
41.02,29
24.11,12
99.8,270
91.86,548
63.77,51
41.02,22
14.08,10
33.41,17
77.23,160
126.85,198
19.22,19
24.8,18
22.2,9
96.79,543
51.73,89
11.78,4
3.86,1
53.68,62
67.43,22
74.78,203
77.94,101
67.81,42
115.37,109
62.3,54
42.81,42
13.56,10
8.82,8
79.33,131
85.95,83
6.06,4
38.71,47
73.52,242
26.05,21
108.85,196
12.22,6
49.16,53
80.54,160
53.6,113
144.19,214
12.46,6
33.96,35
67.01,192
56.27,44
33.45,14
80.78,225
97.58,164
9.53,5
85.91,93
83.89,164
74.66,120
116.18,274
104.61,101
168.93,203
12.36,14
76.39,41
112.34,358
116.84,81
5.67,2
66.65,236
82.86,181
53.62,257
40.07,42
99.65,80
242.66,390
83.29,59
174.84,392
19.1,3
30.59,26
60.15,64
108.67,362
73.9,182
149.4,198
90.73,270
44.74,29
50.91,71
94.05,514
78.76,414
88.32,76
44.38,64
26.52,10
43.32,42
26.76,23
36.81,24
10.62,4
6.12,4
94.84,145
22.22,10
47.45,69
115.31,236
21.01,9
31.26,37
14.04,3
67.29,39
123.23,360
17.85,16
7.66,1
17.55,3
115.24,254
13.96,4
57.81,51
37.57,17
20.88,12
91.32,160
35.47,38
98.09,257
34.3,17
101.58,267
40.33,34
26.92,12
18.29,14
20.12,13
18.65,5
54.69,58
69.94,219
114.19,147
77.07,127
130.89,289
28.25,32
37.58,36
117.86,122
92.27,69
82.8,259
35.37,14
88.05,67
47.94,114
92.02,86
205.69,371
120.42,245
32.1,36
43.17,70
63.03,27
32.9,18
20.63,3
162.81,316
99.34,277
54.4,77
11.91,10
21.47,26
51.28,61
71.97,262
54.24,54
160.58,342
115.42,165
95.15,164
158.31,270
58.29,119
30.96,22
73.02,81
98.64,168
30.57,38
25.29,21
52.15,87
65.65,290
48.17,50
35.02,18
128,201
33.22,10
32.35,15
35.2,50
36.35,37
28.26,12
93.99,145
46.06,107
16.17,12
26.02,27
82.41,88
63.82,85
40.99,53
56.7,147
66.79,106
143.33,218
86.18,237
50.09,25
48.15,34
29.18,24
38.58,74
53.92,29
89.76,301
28.69,31
72.96,57
85.2,161
83.82,69
81.43,105
60.12,47
46.1,44
13.77,5
57.53,92
66.52,89
93.3,301
53.48,84
34.92,37
57.22,98
56.72,94
70.43,114
136.93,445
35.33,11
3.13,2
79.59,41
5.44,2
27.26,17
150.7,527
30.4,10
183.72,335
41.54,48
27.44,31
47.92,19
19.36,9
51.27,110
62.26,127
18.84,14
63.65,78
41,48
15.93,7
15.58,9
21.22,7
37.87,20
17.73,15
68.3,63
37.97,16
58.18,32
37.06,32
79.23,121
41.67,65
34.08,34
21.58,6
103.25,69
113.67,337
33.18,13
186.89,197
131.37,233
54.68,125
19.49,10
47.62,31
18.33,16
21.6,15
20.65,16
71.61,30
71.37,117
37.97,41
109.18,226
55.79,96
59.59,71
91.08,252
41.83,37
24.81,11
14.32,3
119.62,82
50.48,52
57.62,105
22.84,16
14.32,7
16.71,15
48.11,35
113.8,192
59.76,106
55.92,93
131.34,110
147.25,202
30.97,15
36.28,9
185.54,218
27.33,16
17.8,7
58.67,40
24.19,10
36.62,39
59.54,89
12.45,6
7.4,2
53.11,99
7.4,4
55.77,54
82.58,71
72.57,163
52.26,62
73.42,124
70.37,26
41.08,18
172.33,553
5.72,1
51.7,25
13.32,9
132.32,141
82.49,477
5.39,2
67.8,92
96.23,200
19.9,10
36.41,28
126.77,503
41.08,60
229.94,273
33.76,31
21.13,6
171.86,142
114.21,66
17.19,7
120.88,91
112.66,107
50.07,93
78.02,70
128.81,220
83.03,147
104.84,208
61.72,34
55.18,55
37.99,45
56.74,82
1.83,1
97.48,205
24.1,9
11.48,4
44.4,65
40.53,46
26.3,10
27.26,24
70.91,35
84.8,146
26.51,35
51.72,109
74.36,166
56.28,97
85.09,112
59.35,72
125.07,185
18.12,29
42.13,23
124.21,207
16.65,13
55.43,104
16.28,15
133.29,282
45.9,80
16.1,7
76.68,127
38.85,32
73.63,92
180.51,673
124.22,216
51.97,39
67.7,102
115.01,165
77.19,94
12.69,2
93.7,204
8.2,2
114.64,227
50.63,62
72.98,120
68.53,115
50.67,73
39.06,31
60.34,53
60.48,126
42.92,78
59.34,196
66.86,98
76.89,270
36.4,33
43.25,36
10,2
92.74,272
40.19,28
85.59,72
162.77,174
77.35,113
96.09,201
10.15,2
57.84,78
57.92,44
13.51,2
21.54,8
144.44,305
101.18,417
39.9,91
144.41,263
24.23,18
46.24,29
50.2,58
45.15,36
61.14,65
6.38,3
45.19,36
79.38,57
31.77,26
24.99,13
35.23,18
69.54,32
48.01,27
24.38,12
38.99,32
112.65,152
33.82,32
112.56,120
42.49,63
39.09,22
57.22,76
106.91,207
43.6,63
51.18,78
112.88,373
25.41,30
40.76,50
34.34,50
73.85,150
63.72,130
304.81,566
63.45,97
25.27,5
57.53,88
83.36,249
157.15,415
45.41,77
84.73,111
54.03,145
52.78,62
270.11,843
84.53,69
151.13,143
80.8,82
8.45,2
86.32,324
33.7,26
90.55,177
80.1,223
17.98,9
30.26,35
82.94,177
96.22,90
61.92,31
30.92,17
3.84,2
123.17,188
38.61,74
69.71,154
53.72,71
38.55,8
53.28,47
76,271
153.05,176
52.15,158
34.81,26
83.98,223
48.96,36
19.61,13
107.24,172
111.89,236
38.44,29
37.31,54
74.95,213
47.2,33
1.72,1
81.85,162
102.09,173
72.22,42
72.22,124
104.21,247
40.65,41
101.67,168
49.97,65
165.62,686
27.04,13
83.38,476
38.81,18
65.01,66
6.45,3
52.24,20
34.63,31
57.84,149
11.39,3
75.78,408
14.23,7
77.93,127
29.57,37
53.74,76
120.76,582
59.45,184
79.92,104
46.7,74
28.25,28
48.31,135
129.51,151
140.56,246
21.28,22
39.19,36
43.87,40
39.59,29
134.49,432
27.14,40
108.89,72
17.59,15
42.84,27
31.83,82
25.08,6
91.96,135
40.11,21
71.51,77
71.68,72
74.48,89
71.29,86
127.89,124
78.32,72
88.25,149
10.72,2
81.31,89
97.37,65
67.74,145
62.07,76
24.77,21
59.69,44
3.57,2
34.43,66
210.1,229
47.1,44
148.69,200
16.88,13
219.75,306
36.79,13
85.3,161
10.91,3
6.37,2
27.6,36
49.63,86
37.7,118
67.68,62
34.98,29
102.37,102
25.33,27
13.28,10
51.38,31
79.43,92
16.91,4
42.78,45
136.53,114
145.71,344
66.36,127
118.9,97
16.5,34
81.37,128
25.23,35
102.07,144
12.53,6
39.88,55
33.58,18
30.27,32
72.07,65
178.03,1044
51.15,66
37.69,30
86.97,71
56.62,87
83.11,123
61.81,32
20.69,19
62.73,166
11.75,4
189.32,294
97.57,379
56.71,60
109.75,127
75.16,144
29.14,10
9.12,3
26.95,6
86.16,93
174.93,544
23.52,15
7.85,4
32.45,12
46.08,57
45.49,65
13.13,9
24.71,27
33.01,10
10.05,2
86.42,301
27.47,14
52.26,93
52.28,158
36.39,26
51.22,22
38,24
9.53,9
66.93,51
4.26,2
165.9,308
28.32,11
53.38,78
75.71,147
22.64,15
30.69,36
38.3,48
57.92,26
61.68,36
13.68,19
106.56,180
160.16,267
30.26,20
82.24,135
99.27,299
113.84,419
41.67,43
71,175
108.21,107
126.69,232
22.89,25
133.87,155
52.22,45
105.91,339
96.66,110
48.33,64
35,40
75.75,166
32.04,22
33.08,24
55.61,31
86.18,57
74.34,107
83.42,202
19.85,21
25.94,14
17.31,20
15.5,2
57.32,33
131.39,468
38.2,30
7.72,3
99.92,173
40.94,47
48.86,13
159.11,611
24.79,26
36.18,31
87.03,129
4.41,2
27.38,25
35.58,13
20.6,34
33.66,22
160.94,242
127.21,123
15.84,13
63.32,136
51.84,48
76.2,103
169.86,80
154.86,546
81.82,129
23.16,16
105.97,152
143.76,145
94.77,107
92.86,79
52.63,24
42.18,35
47.31,31
163.07,441
65.36,70
87.8,72
69.93,41
146.15,231
72.91,38
27.9,8
33.24,20
95.95,340
58.07,34
119.17,518
104.87,125
51.75,114
33.97,38
64.53,68
37.54,40
10.87,6
5.84,3
179.57,189
6.87,3
66.38,83
51.27,125
10.99,3
28.04,16
8.99,3
54.01,53
36.78,50
34.18,25
95.73,208
62.07,68
54.02,69
24.42,15
12.7,4
51,49
72.68,89
15.85,12
79.55,202
149.33,279
29.83,20
53.01,184
102.51,101
87.77,90
43.37,34
75.44,167
89.63,120
73.03,216
108.37,198
71.75,118
69,30
35.82,43
23.57,5
78.54,233
88.99,240
86.29,247
91.92,139
137.14,304
44,17
72.43,96
59.49,59
141.01,403
32.84,9
36.12,32
34.38,22
16.49,10
58.12,135
164.22,177
50.99,44
50.59,58
86.11,222
71.22,112
43.51,56
17.82,25
61.24,177
103.56,674
23.16,26
106.04,203
104.51,194
148.18,433
15.07,6
4.36,1
62.5,85
63.85,108
52.42,59
76.28,180
71.26,71
68.54,44
12.79,4
50.37,105
64.7,89
103.13,48
22.78,22
82,142
83.18,55
63.51,222
44.09,22
108.36,175
138.01,551
1.21,1
97.75,313
140.31,117
40.01,42
20.02,13
48.96,73
42.57,33
116.82,172
93.76,131
24.17,21
52.22,20
145.94,230
145.36,206
111.67,176
47.34,55
17.99,7
132.98,349
52.63,133
77.6,119
101.96,191
40.45,17
14.99,14
45.6,31
52.18,25
128.34,514
25.72,12
93.78,170
27.29,26
125.42,171
81.54,291
48.86,121
111.89,150
44.74,47
90.86,145
182.7,328
20.84,17
36.95,40
53.1,63
93.72,151
2.73,1
147.08,173
18.29,9
17.61,12
87.21,170
48.93,103
46.9,67
64.99,137
96.38,150
70.52,114
108.95,204
103.7,398
18.22,11
111.49,127
26.7,23
61.17,144
100.57,87
43.37,30
16.74,6
44.28,57
7.64,3
64.17,60
83.87,44
21.94,17
111.19,223
157.95,334
88,99
6.63,1
49.31,98
113.24,357
8.75,5
177.19,556
44.75,48
157.01,152
130.17,241
102.11,188
27.56,10
32.21,13
52.08,15
64.27,71
75.65,153
12.97,3
91.44,272
103.4,263
148.93,526
16.91,8
34.75,58
101.72,257
93.61,157
115.63,295
57.67,57
46.99,79
97.25,145
78.34,120
61.43,86
33.47,50
20.68,15
11.26,7
70.31,101
88.65,64
82.43,117
68.43,123
162.16,256
80.46,133
27.96,29
56.83,85
120.26,283
55.78,67
54.41,57
18.57,16
74.7,115
78.15,152
29.86,18
77.88,81
78.3,130
19.72,29
149.48,301
7.34,1
30.3,20
64.28,43
127.86,194
21.28,18
88.47,157
58.67,73
63.37,124
9.3,5
115.72,83
57.46,67
66.3,136
14.28,5
29.28,31
91.59,101
74.94,49
9.42,2
38.97,56
74.62,83
67.9,44
38.66,42
181.01,336
11.36,18
57.69,141
38.94,14
64.44,96
115.62,393
9.04,5
89.75,193
75.87,48
18.96,20
75.58,161
78.57,141
34.33,7
25.75,33
16.27,7
186.34,156
39.17,35
67.24,32
36.05,15
52.54,85
41.96,55
49.14,39
39.06,17
27.4,22
9.59,2
48.41,26
48.97,113
64.63,63
22.4,27
22.71,10
88.57,155
11.93,6
3.52,1
59.02,77
100.44,103
109.44,179
14.7,5
109.13,253
214.19,382
57.59,118
129.51,474
31.69,16
47.28,80
76.52,43
34.84,32
143.62,446
41.1,29
66.83,80
54.15,59
185.72,500
69.17,180
98.23,63
59.38,53
73.42,207
45.68,78
45.59,51
55.96,101
73.98,155
23.22,8
56.3,29
79.08,67
78.55,110
32.25,33
93.95,152
119,86
36.56,68
3.02,1
86.88,194
55.25,28
70.53,88
94.72,204
15.3,11
106.97,107
115.06,289
61.54,40
50.87,65
61.07,136
63.44,97
94.45,106
44.52,47
55.16,174
22.2,24
32.74,16
130.96,468
96.1,420
112.79,86
17,8
12.49,1
115.48,84
66.39,75
106.97,88
77.22,29
45.85,28
46.79,26
41.23,29
64.61,97
19.67,22
121.05,116
109.7,173
28.78,22
46.53,24
69.4,124
108.87,195
96.08,207
73.79,77
193.42,672
42.68,19
158.08,135
109.47,360
19.17,15
41.09,22
71.34,129
71.28,95
58.73,54
26.45,26
6.67,2
59.67,58
113.65,253
73.54,34
52.67,184
44.68,16
224.21,158
86.63,229
157.43,394
85.99,177
192.85,211
60.19,40
104.06,116
160.9,248
40.54,21
17.33,8
50.1,29
42.32,41
79.23,69
107.1,242
73.34,80
76.17,113
38.49,27
26.92,17
33.03,17
92.85,72
35.6,39
45.31,42
83.4,98
63.35,55
51.97,59
42.91,60
41.08,78
66.07,72
53.12,60
142.44,303
49.9,43
13.52,8
27.37,18
43.91,122
203.09,293
160.7,398
88.99,81
29.83,13
31.96,43
35.37,26
67.77,188
144.85,226
36.37,48
83.25,172
18.35,4
39.7,99
17.64,12
35.44,28
79.9,139
22.15,13
3.58,1
40.83,47
13.8,4
22.13,19
214.7,593
63.42,27
36.45,31
147.85,160
74.11,59
67.93,128
72.44,115
44.88,31
46.59,44
129.25,161
133.54,329
69.13,57
118.71,395
10.15,10
78.86,125
20.49,12
35.47,30
81.52,51
87.35,104
64.64,99
37.48,25
60.73,93
165.2,332
90,149
16.54,7
92.35,67
52.2,28
242.03,335
54.01,47
71.09,103
98.34,104
70.1,60
21.72,17
59.96,91
67.05,89
57.92,165
128.81,191
50.55,15
18.48,8
33.72,27
40.61,18
76.93,109
31.32,36
79.09,102
48.59,125
103.22,174
28.19,32
26.6,31
220.5,643
21.94,11
94.47,274
121.49,161
64.36,58
10.38,2
30.92,22
63.12,90
99.4,407
70.95,67
15.63,7
58.94,96
30.25,64
32.48,8
41.88,34
9.53,3
55.32,56
101.77,81
50.82,49
114.6,103
43.51,40
30.46,15
12.34,2
51.45,50
13.8,6
17.34,7
21.67,9
59.95,106
17.64,9
92.71,183
96.86,237
70.47,179
47.34,88
65.37,85
38.99,62
130.34,94
14.99,6
8.53,2
4.34,1
115.89,255
34.42,45
28.34,17
24.94,35
122.21,231
21.85,7
96.07,167
41.87,25
6.37,2
37.2,42
102.07,331
59.22,71
128.41,186
5.26,1
76,170
29.8,24
3.02,1
83.16,187
82.98,261
51.87,104
29.75,33
71.99,125
47.27,30
55.54,50
46.25,39
81.21,67
12.87,7
6.97,3
182.9,208
78.11,182
11.77,3
18.34,19
114.94,188
23.73,21
67.21,80
19.63,8
144.29,221
26.36,14
27.43,31
80.39,279
137.96,391
3.9,1
21.53,14
58.29,38
185.49,349
38.28,24
128.19,333
30.44,14
30.39,18
8.09,1
39.79,54
56.2,53
131.38,298
288.12,638
80.09,73
58.64,70
67.31,103
134.83,359
41.88,36
16.42,18
53.75,55
34.47,23
53.35,26
43.44,54
70.31,174
19.67,30
114.54,408
99.57,202
10.07,1
38.04,40
43.46,81
103.08,106
30.98,51
88.26,403
84.07,188
149.8,91
127.68,308
80.28,139
150.02,148
130.47,300
38.01,25
79.86,68
102.99,233
5.93,1
43.58,36
9.64,4
66.34,186
77.44,427
73.33,60
84.28,251
84.15,497
59.88,64
29.59,27
58.55,101
101.02,287
82.39,45
11.81,2
78.01,109
141.74,279
118.42,228
40.49,44
6.3,1
89.09,52
85.15,245
84.23,63
213.43,317
31.74,26
191.45,237
4.22,2
25.55,25
125.2,265
63.54,89
121.66,117
40.69,49
38.15,21
87.43,237
62.42,39
11.14,8
170.33,179
84.48,22
35.94,15
82.42,286
31.52,22
59.28,59
53.92,133
24.05,9
43.89,45
103.23,134
98.61,169
121.86,355
4.98,1
104.15,161
51.48,121
69.57,88
55.36,48
67.48,88
79.96,232
98.66,436
157.66,251
40.15,51
55.58,20
92.6,195
45.36,51
117.66,109
107.32,53
105.81,116
154.25,90
15.67,10
56.47,81
102.35,69
5.18,2
24.61,14
102.75,110
12.29,2
41.22,61
49.25,55
69.6,53
46.14,34
53.47,107
150.6,306
26.35,17
3.9,1
23.14,10
80.38,228
39.55,22
111,253
72.95,167
137.76,153
30.89,72
55.06,119
72.76,213
49.86,56
27.52,27
33.68,20
37.83,19
41.45,42
137.16,239
38.79,19
39.85,31
118.42,237
22.48,8
53.93,47
106.28,243
71,69
25.55,13
34.97,49
79.17,107
9.3,3
104.95,128
31.29,16
140.93,304
63.07,22
17.13,12
2.12,1
72,167
72.75,53
26.97,45
62.59,57
57.81,68
46.24,55
7.54,3
48.5,54
66.51,134
10.75,2
32.83,37
45.03,26
34.75,40
102.08,198
52.47,56
62.85,34
110.04,196
116.41,409
32.64,19
11.18,2
31.69,8
86.69,157
129.47,357
50.84,22
166.84,280
62.08,77
120.89,137
19.49,11
25,12
74.52,65
84.81,96
29.01,17
138.83,99
104.49,110
151.47,139
49.22,77
15.41,4
42.21,47
83.79,39
21.21,14
174.01,340
78.7,295
36.55,30
127.28,68
105.43,258
94.6,140
57.97,68
47.13,43
44.91,20
82.47,126
73.98,77
29.57,38
77.38,167
63.67,48
88.11,220
11.17,6
187.25,404
108.77,289
68.26,84
28.63,48
74.02,217
9.04,3
101.93,303
5.63,2
56.03,109
9.62,2
51.55,27
76.11,100
4.99,1
24.8,12
90.53,284
54.12,82
58.61,16
83.6,48
135.69,111
62.48,106
49.86,65
97.37,60
87.61,133
70.3,106
79.18,90
43.55,41
74.82,201
141.83,284
86.96,73
52.9,49
54.24,72
126.02,321
48.82,31
97.93,107
11.38,5
117.04,375
4.02,2
77.48,46
22.21,21
106.02,239
18.39,7
62.09,37
3.41,2
68.21,24
46.27,66
87.58,168
61.81,110
143.48,333
27.41,20
57.42,42
10.82,3
107.13,132
47.31,22
33.39,32
117.14,77
60.13,193
58.14,80
57.6,154
51.56,39
50.98,18
152.92,194
76.9,76
4.59,3
142.42,140
49.63,90
18.6,11
27.19,19
86.67,339
29.76,17
19.15,6
26.05,31
126.73,522
67.6,266
36.33,55
74.07,122
49.64,28
40.11,59
46.77,62
45.44,29
36.31,46
16.08,4
112.49,134
60.93,94
137.17,211
8.14,1
66.72,87
8.97,2
61.51,27
64.19,91
50.94,86
34.47,28
51.59,102
102.54,61
78.68,199
18.33,4
33.46,64
132.95,123
68.92,95
30.63,17
97.77,104
9.22,6
96.14,84
20.85,17
2.04,1
82.98,101
76.27,59
163.48,791
37.13,15
54.17,96
180.99,473
53.41,49
12.9,8
69.87,78
63.87,59
75.44,172
38.84,30
63.33,54
87.28,134
31.22,76
160.19,276
117.1,290
57.43,73
41.17,45
5.99,1
49.14,64
50.57,29
16.79,4
17.5,10
40.48,24
4.33,1
130.05,273
49.8,55
12.05,3
125.31,334
9.38,3
93.33,99
18.14,6
207.11,390
129.77,237
14.58,7
77.9,147
75.72,165
26.42,9
123.68,75
119.74,132
46.56,75
9.82,5
67.45,139
26.76,18
84.47,113
75.36,69
107.51,168
7.35,2
98.25,101
74.83,33
66.64,143
53.26,100
112.14,194
88.26,248
36.68,24
82.5,81
31.04,39
34.54,15
27.77,41
59.37,41
87.43,207
56.13,41
51.82,12
16.76,6
9.12,2
22.8,6
13.6,3
124.81,73
25.95,17
156.86,199
169.95,407
13.85,8
27.72,17
42.6,98
87.44,70
4.78,4
71.33,174
77.81,108
14.34,5
144.43,218
75.2,88
39.67,16
29.17,19
215.31,524
38.19,15
122.4,232
44.07,24
17.83,17
16.28,7
46.93,56
1.63,1
80.3,177
13.31,4
52.01,38
26.1,11
65.86,288
89.47,190
18.75,8
54.37,138
9.42,1
104.78,50
114.6,47
31.25,43
9.04,3
94.13,160
35.34,22
39.13,35
12.78,5
105.43,70
50.76,72
153.96,480
102.74,170
136.57,398
25.82,40
27.48,20
11.12,4
53,66
29.87,43
60.98,87
28.19,17
103.3,276
133.42,342
16.36,9
31.7,42
68.74,37
168.45,699
86.89,99
86.16,126
66.62,127
44.85,43
48.81,66
21.81,21
114.56,115
17.5,8
15.2,6
55.27,36
132.32,110
160.14,126
112.38,197
10.73,5
47.64,33
109.85,120
45.01,14
134.61,248
55.89,186
111.76,173
29.16,30
11.24,3
82.13,49
10.29,6
126.66,121
54.7,153
57.37,57
23.62,6
111.14,131
27.21,6
7.09,1
34.82,20
112.8,66
82.19,302
14.58,8
97.62,61
62.04,42
107.01,227
243.79,411
11.3,6
18.7,13
61.19,111
34.32,26
39.34,33
50.09,54
59.75,62
49.44,52
36.09,28
178.12,171
234.76,498
77,93
58.63,75
33.52,23
26.36,26
26.68,16
18.75,14
113.84,174
106.35,216
185.12,274
33.22,35
91.98,217
65.16,38
27.39,13
27.15,19
34.55,41
77.74,129
63.57,91
115,337
65.23,121
28.95,38
255.94,318
81.45,47
8.2,5
13.75,5
45.76,30
11.53,15
24.1,8
226.61,220
8.52,1
131.44,110
65.88,93
96.9,471
151.08,125
24.88,15
106.58,96
92.79,292
55.47,41
35.87,29
18.97,9
9.94,1
4.06,1
21.34,12
25.42,31
46.44,26
59.25,94
49.45,105
56.18,83
32.36,16
36.16,32
26.99,13
66.52,36
11.75,5
118.74,244
42.62,23
25.99,9
88.43,63
8.6,1
29.64,12
89.65,138
38.88,47
77.78,136
90.49,371
35.65,24
134.36,97
7.53,2
89.41,136
150.12,234
44.99,39
24.94,8
75.21,107
89.32,197
28.92,22
163.13,620
73.02,67
224.7,431
67.59,126
12.92,7
114.98,96
64.03,211
15.27,5
159.67,373
1.99,1
65.4,79
5.94,2
84.25,86
29.84,25
68.07,47
31.22,26
57.37,98
64.99,37
72.53,57
141.64,576
122.49,262
28.78,20
26.18,19
84.71,183
57.41,255
154.08,440
28.85,36
35.27,32
37.7,39
51.22,144
115.84,160
132.69,133
79.56,79
4.15,1
39.16,34
9.54,7
81.07,169
58.57,104
12.8,2
69.39,72
50.82,148
77.21,110
138.06,321
68.97,112
72.9,62
5.18,4
43.76,55
81.65,55
127.84,149
26.21,22
39.08,47
53.24,51
136.02,126
33.97,34
70.6,34
32.14,32
120.19,52
67.68,169
102.67,218
157.12,253
89.15,40
33.49,56
89.25,70
22.82,6
65.15,170
14.01,6
33.98,32
118.1,110
157.38,228
33.92,32
66.78,93
88.43,300
13.53,14
64.41,32
119.19,474
38.06,53
141.61,452
17.86,12
17.11,12
37.64,22
42.73,47
123.03,267
77.13,42
100.03,348
83.96,81
125.45,101
127.22,95
118.4,74
21.5,13
80.57,178
72,71
68.57,128
48.82,68
76.05,22
17.26,8
104.7,92
97.96,425
46.82,135
26.34,9
27.95,18
66.85,140
144.17,244
116.69,172
89.86,128
31.49,15
32.7,27
94.23,61
28.61,31
97.66,186
84.16,208
15.44,12
4.06,2
45.59,131
22.15,31
77.2,159
48.17,78
10.6,6
109.84,164
32.93,26
20.67,15
88.86,106
66.31,195
77.24,138
63.63,81
50.81,113
16.55,14
57.46,87
11.41,3
99.06,222
36.42,72
16.34,5
100.21,238
69.81,225
72.03,125
47.02,82
60.53,64
103.84,136
38.25,14
107.86,159
132.37,276
44.26,20
76.51,197
104.95,135
18.2,8
46.33,32
117.64,673
190.64,261
37.12,28
24.24,9
55.33,60
76.76,90
57.88,125
89.62,159
71.85,56
8.95,5
150.51,364
59.77,180
68.23,209
20.77,21
193.18,187
10.27,6
17.1,7
84.84,113
15.95,6
88.68,158
18.24,6
26.03,23
70.38,64
95.84,286
37.31,53
81.26,179
92.88,79
88.77,222
22.14,9
131.62,322
216.16,295
67.89,242
51.51,103
83.85,236
28.04,5
25.82,2
37.48,28
38.1,51
86.02,396
38.71,10
46.81,24
41.86,22
64.6,132
62.34,75
37.33,40
59.66,118
11,3
101.47,105
108.29,87
30.78,17
103.3,147
98.52,243
17.08,9
69.31,134
79.55,151
119.4,181
39.48,26
134.95,248
66.26,69
87.21,140
16.31,6
80.31,110
42.24,14
34.15,33
29.94,22
53.63,21
55.06,88
31.05,10
38.22,23
99.32,66
29.73,37
43.96,24
45.19,76
72.4,93
109.6,184
121.78,147
107.1,134
135.46,128
40.73,30
2.19,1
156.1,204
40.77,25
42.47,40
72.58,110
114.46,139
8.59,7
45.61,37
185.1,207
93.8,197
91.79,101
30.42,35
20.7,9
63.76,55
71.19,65
49.32,43
51.84,61
148.45,278
63.68,103
78.03,85
127.53,152
18.16,5
34.02,15
56.89,26
121.2,135
48.16,30
97.98,171
37.02,39
57.24,145
67.95,42
82.81,212
65.49,74
4.08,1
22,10
71.42,55
79.61,77
20.47,9
58.31,97
127.88,111
15.67,3
117.5,155
81.38,146
60.25,106
48.77,44
54.85,43
85.01,317
19.66,10
97.05,120
19.5,19
26.14,34
182.77,314
58.15,136
14.39,4
60.65,86
124.84,132
121.83,68
25.27,26
78.53,108
15.46,5
15.12,8
58.2,200
154.24,543
142.32,481
250.21,470
8.37,2
64.13,32
17.51,6
79.16,105
42.53,17
72.24,129
86.37,409
8.47,3
71.56,127
74.38,103
91.3,106
211.48,276
254.72,331
56.74,157
55.86,228
14.36,5
45.6,58
35.82,8
79.62,142
103.81,108
13.7,10
12.44,5
158.6,170
52.99,31
39.52,46
90.52,70
94.5,327
35.52,42
66.11,42
37.93,27
147.23,305
70.54,110
61.84,18
136.76,81
85.35,92
42.82,79
18.94,9
27.83,11
13.2,5
39.93,49
35.67,47
70.76,39
52.15,104
39.52,10
100.2,87
7.08,1
20.88,17
101.53,56
56.23,45
82.76,198
3.97,1
85.19,93
21.5,5
59.49,34
33.29,20
12.72,6
57.43,42
86.34,261
54.95,45
96.27,51
98.67,141
27.62,18
77.44,27
136.75,381
144.07,193
34.68,20
48.21,40
51.43,25
71.73,156
35.93,33
58.71,171
44.73,70
46.76,45
141.44,131
48.56,33
95.96,256
16.45,9
17.19,8
74.18,69
69,163
33.11,17
165.95,260
10.17,6
86.78,63
158.82,324
72.26,148
42.52,49
86.31,156
97.65,133
164.76,190
80.46,168
10.56,6
18.4,8
95.03,159
54.14,37
130.42,322
57.57,34
76.14,61
67.39,46
82.98,346
82.41,176
23.82,8
37.88,44
127.1,162
30.77,8
57.91,24
83.51,122
82.61,239
126.25,93
5.59,2
6.26,1
100.82,265
31.32,38
4.07,1
91.07,71
75.54,103
22.99,15
41.97,35
165.04,203
90.24,282
27.6,6
103.96,172
30.87,26
120.68,175
11.08,8
26.04,12
48.61,68
13.93,9
157.29,384
68.47,259
25.5,22
78.12,111
77.49,371
137.57,434
103.44,81
83.58,250
62.58,171
66.02,50
67.71,94
18.77,18
87.64,207
2.54,1
86.16,125
47.12,49
128.05,325
90.64,177
68.3,131
53.37,45
88.49,228
86,44
83.89,81
12.45,14
27.16,17
93.28,124
47.1,155
78.72,134
8.29,4
51.53,21
41.2,44
220.72,286
12.07,4
81.76,142
85.92,146
60.47,87
48.5,24
156.35,292
111.22,339
16.04,10
35.58,34
105.46,155
107.85,283
51.56,49
33.35,31
77.82,141
74.8,181
35.61,25
27.99,6
149.48,136
67.91,72
48.56,50
44.75,28
32.83,10
87.94,209
1.49,1
56.3,63
24.96,19
155.13,191
16.72,3
49.02,118
82.7,173
8.93,4
50.96,53
9.06,3
60.17,25
20.12,10
25.39,16
27.18,6
40.08,99
55.41,49
79.73,73
22.41,18
21.49,12
58.12,49
137.72,180
37.12,87
117.83,215
83.72,61
59.24,64
15.23,7
39.34,36
74.59,75
101.31,161
56.51,39
35.72,24
62.17,82
28.17,14
33.65,65
82.04,125
61.7,101
80.75,156
15.84,5
75.32,111
31.69,35
20.02,9
227.69,245
60.95,42
93.23,74
17.78,9
73.82,69
52.51,116
26.4,33
25.72,29
73.52,49
123.66,136
57.22,23
65.61,80
37.21,59
68.14,152
11.17,2
41.54,43
70.82,293
6.97,1
91.07,257
42.06,35
119.21,274
74.12,144
37.87,68
124.86,126
55.68,54
28.65,10
7.58,1
174.18,342
83.18,36
40.41,52
18.19,3
73.96,214
56.99,36
99.2,43
5.35,1
77.74,72
178.45,158
171.69,388
58.99,61
50.49,62
132.96,121
60.57,124
61.87,97
57.37,25
39.62,103
15.44,8
38.52,9
7.27,2
59.8,90
145.95,649
85.92,101
12.86,7
86.13,117
22.2,14
70.39,106
33.19,25
13.2,3
187.52,374
127.2,96
14.8,8
33.69,37
73.85,188
13.21,4
210.15,320
69.33,92
30.64,27
52.02,74
98.52,326
136.99,304
31.57,21
79.12,138
32.01,12
18.26,3
131.18,175
109.55,204
86.8,98
5.6,1
115.68,254
125.14,317
108.77,75
108.07,134
72.15,81
4.41,1
107.22,59
6.81,1
76.65,74
45.45,60
97.14,89
88.31,83
21.75,10
24,17
70.65,45
24.15,6
85.35,202
10.09,6
70.04,90
48.48,59
88,132
42.73,49
78.92,120
46.3,31
91.49,178
99.34,90
149.56,127
16.69,19
95.55,226
67.88,31
64.38,38
128,248
106.29,94
54.13,41
76.49,24
152.35,366
14.58,17
197.88,406
52.47,60
124.57,427
132.82,529
41.76,34
9.88,2
46.63,25
53.9,48
6.6,3
8.95,3
83.11,59
27.66,20
59.5,62
79.24,131
33.47,22
79.48,119
20.47,14
105.62,70
125.1,370
72.86,191
155.73,256
28.89,52
40.03,12
136.1,330
14.28,11
10.2,5
66.43,121
76.26,56
77.49,102
96.51,63
84.51,123
37.5,13
42.67,37
20.66,5
125.1,168
94.05,112
38.89,24
52.06,49
6.26,3
33.22,19
58.5,39
57.17,76
21.19,13
8.57,8
34.3,38
92.68,402
136.14,358
25.05,7
10.17,2
95.64,420
66.59,99
68.34,179
37.15,19
93.23,91
33.03,46
61.43,85
31,34
36.15,17
73.04,77
67.92,151
40.64,54
85.46,91
43.24,24
62.59,45
63.04,176
113.87,130
5.5,2
62.47,91
54.21,44
242.66,505
48.46,47
91.24,182
33.52,13
75.76,84
110.54,235
9.47,5
8.51,2
64.84,118
82.58,148
46.66,73
87.16,60
49.57,29
2.76,1
128.06,425
54.92,82
69.69,48
43.83,48
14.51,6
16.8,2
87.17,109
75.39,221
90.4,217
21.65,15
25.79,40
19.26,11
104.73,114
35,63
99.93,50
71.49,176
27.81,12
106.53,102
16.68,5
94.58,155
121.59,200
66.64,65
145.78,496
42.97,84
120.32,224
28.71,47
13.43,2
2.4,1
63.89,98
73.04,177
49.03,21
76.49,64
42.56,41
37.28,26
49.29,103
121.5,203
126.71,500
5.05,1
93.05,185
2.79,1
40.34,32
55.7,23
39.53,66
60.66,46
149.13,243
105.12,211
7.26,2
36.07,27
6.13,2
63.06,49
67.85,145
41.29,41
75.24,56
63.43,50
79.56,164
108.63,326
32.8,28
27.63,20
6.43,2
175.4,298
64.87,66
70.61,103
95.66,96
37.83,82
6.77,1
9.75,5
169.25,256
80.61,140
144.84,202
59.92,35
59.47,96
36.25,47
53.14,34
16.43,6
49.81,16
128.45,433
46.97,53
17.34,7
76.21,199
27.74,24
114.13,330
65.4,195
91.66,163
21.81,9
110.33,141
55.69,205
132.18,506
52.52,55
122.08,188
136.03,430
192.99,396
5.25,1
50.73,57
13.92,2
36.87,39
72.45,69
74.57,372
109.55,381
16.4,12
9.17,7
39.23,34
5.34,3
155.28,163
12.26,4
86.29,208
33.65,25
25.32,62
26.62,38
9.22,2
179.56,574
7.96,1
83.81,233
67.53,67
17.19,4
192.46,664
36.58,79
51.12,153
25.57,8
52.36,52
50.32,47
132.16,320
101.22,71
59.81,28
131.32,312
155.04,122
12.01,5
36.26,36
17.92,9
78.73,102
100,181
81.84,93
14.87,6
43.65,45
20.96,26
29.27,32
35.69,15
77.45,151
27.48,45
124,353
175.42,370
103.06,124
56.36,84
62.17,80
112.36,129
16.92,20
128.72,214
3.49,1
114.51,210
118.03,197
7.25,2
33.06,5
58.74,43
102.42,121
57.95,49
91.6,57
47.6,58
87.18,230
173.66,556
6.12,1
104.58,135
165.15,249
92.88,619
71.69,84
29.23,43
127.78,428
39.13,33
7.71,5
45.7,21
33.44,43
51.87,18
7.53,6
92.32,111
16.9,7
59.43,140
41.42,47
77.11,84
65.37,103
11.9,4
75.39,95
80.81,217
38.94,41
46.86,37
125.36,251
1.84,1
240.88,335
9.42,3
144.39,249
47.25,18
53.19,42
97.52,108
150.71,442
123.11,234
69.2,89
6.03,1
72.77,84
76.46,65
105.43,222
54.71,49
36.67,14
33.3,8
70.34,34
100.27,152
90.97,156
41.48,21
11.6,3
118.06,296
44.9,64
72.41,98
98.01,83
61.29,140
67.82,104
28.26,28
44.42,24
31.23,23
59.49,82
14.49,7
97.73,124
29.5,22
61.46,57
91.28,125
23.78,9
78.39,105
60.24,120
40.98,19
122.69,223
24.01,11
99.05,216
20.62,19
63.43,35
47.47,34
119.76,458
78.94,54
60.76,123
42.72,69
35.04,22
3.44,1
79.18,146
89.68,190
44.76,35
158.4,366
150.37,183
4.77,1
28.65,30
105.69,115
71.58,196
123.34,153
35.39,22
44.81,35
8.19,3
7.2,3
6.59,1
39.32,25
94.11,247
9.54,3
130.48,404
73.26,100
97.25,104
23.1,31
78.99,33
148.33,125
61.36,59
149.78,247
87.59,342
36.29,109
107.3,144
25.07,34
57.49,44
14.22,5
66.1,102
57.32,43
35.67,27
52.54,44
84.79,207
53.16,67
13.51,9
16.17,8
69.19,81
28.01,19
12.89,4
65.67,119
68.74,111
135.29,286
78.37,223
72.84,140
25.16,28
74.62,146
47.61,90
66.27,85
129.97,550
46.9,70
98.32,231
8.05,2
13.04,7
177.53,234
57.77,45
163.07,244
105.39,101
34.79,32
60.02,46
23.14,10
83.05,198
35.83,25
130.91,121
65.12,67
25.45,23
47.61,58
102.05,156
39.07,58
100.86,127
124.85,349
8.72,2
49.75,47
81.93,83
8.15,5
50.23,17
78.14,79
128.22,298
69.4,216
109.38,251
21.94,34
37.51,7
103.8,115
65.34,68
46.3,35
10.84,5
3.32,1
59.14,73
89.99,152
58.04,134
10.05,1
28.18,10
95.93,66
75.16,248
107.89,82
4.14,1
12.27,7
69,111
63.68,123
7.13,1
92.58,218
75.93,181
13.75,5
74.29,64
16.24,3
24.98,13
32.19,36
11.61,10
129.72,306
23.1,11
81.96,41
52,80
99.83,289
24.84,19
31.66,65
137.37,150
19.62,16
111.69,138
47.25,48
61.78,74
26.92,12
46.4,26
23.53,6
53.93,116
165.7,230
106.68,196
21.12,11
114.96,84
32.54,14
14.85,7
46.48,98
196.13,252
74.29,169
56.38,38
14.72,3
75.18,86
37.08,41
117.23,180
105.3,73
74.01,249
36.5,42
16.74,5
109.46,226
131.79,170
63.24,51
69.99,44
65.37,62
73.59,52
76.47,96
63.27,155
107.09,145
31.31,11
5.11,1
9.33,3
41.94,140
20.99,21
54.2,69
31.03,30
31.31,24
106.66,173
25.63,27
55.83,28
45.47,89
66.02,35
19.93,11
172.33,633
116.82,65
81.55,90
122.37,280
77.26,84
151.51,261
88.43,139
83.85,140
45.98,23
23.01,30
56.79,96
67.05,59
110.89,633
21.19,8
64.23,82
26.74,18
26.09,25
90.81,49
51.21,27
55.14,84
34.94,24
69.25,127
75.11,120
29.8,38
10.73,3
107.47,100
81.42,82
33.85,81
52.81,85
194.46,468
19.16,9
26.47,5
83.79,355
139.78,233
28.32,37
41.37,46
54.96,74
59.62,139
99.68,315
80.9,124
3.19,1
165.24,959
27.13,16
113.1,540
77.3,189
114.9,148
120.63,112
139.88,552
42.07,50
106.75,179
79.81,116
12.48,10
80.23,205
89.67,103
102.7,125
33.57,17
63.4,141
25.09,20
127.41,122
13.35,7
23.56,22
15.76,12
67.57,205
95.45,105
32.84,10
43.17,37
77.39,142
30.56,28
26.09,17
86.88,65
40.55,24
48.32,46
76.91,72
25.66,15
17.51,9
111.1,271
106.58,175
125.42,422
116.59,109
53.42,59
94.38,308
228.48,464
51.5,76
77.66,154
62.81,49
62.28,167
74.08,62
178.87,370
65.98,70
64.93,40
71.66,117
47.77,21
144.75,172
16.04,16
65.18,94
57.62,46
35.45,26
35.67,33
23.52,8
70.62,118
92.18,196
142.85,86
94.3,418
20.62,27
172.91,246
53.35,74
23.94,20
211.7,297
56.95,52
66.76,175
39.58,94
60.25,71
26.77,31
16.28,19
9.64,5
49.5,74
44.15,48
136.58,437
131.92,305
63.8,41
129.25,244
59.91,101
120.18,99
83.34,135
40.56,26
233.82,717
95.99,309
100.41,144
66.79,69
125.08,129
129.48,190
36.95,14
30.07,50
30.09,38
82.47,94
72.13,226
84.32,183
123.97,283
59.92,84
46.09,42
179.05,327
51.73,49
16.13,5
29.6,49
74.67,67
71.27,120
39.88,20
59.73,124
68,209
86.07,193
42.8,76
55.04,104
134.94,485
101.27,119
173.67,281
126.09,258
37.76,21
44.15,25
28.8,27
78.95,259
2.07,1
9.73,6
14.36,11
45.26,99
5.38,4
111.09,165
137.22,199
44.8,105
59.51,253
35.91,22
66.98,60
158.27,396
80.57,75
49.89,62
41.25,12
89.51,124
21.63,18
7.8,2
53.66,27
76.44,63
71.61,29
49.04,48
152.04,401
15.64,4
64.62,46
3.86,1
55.2,48
123.2,263
167.41,211
80.77,89
40.03,47
25.94,27
11.73,9
21.24,12
51.69,56
15.69,9
75.69,74
91.63,284
91.8,618
114.88,228
61.39,62
42.88,22
47.83,18
101.39,179
57.28,37
42.58,73
5.26,1
69.96,47
75.11,100
75.84,136
52.24,58
78,52
25.4,29
46.79,70
22.83,11
38.43,32
21.13,10
25.6,30
39.51,26
58.19,78
35.11,20
25.23,24
47.11,22
23.45,8
63.38,80
18.15,8
47.86,30
99.29,148
48.95,49
213.1,159
28.92,24
55.45,116
31.88,20
4.33,1
6.51,2
39.25,23
140.54,218
72.51,60
76.97,79
146.39,233
184.34,397
171.59,187
2.18,1
28.8,28
5.62,2
23.21,8
54.03,82
45.52,35
114.04,215
34.08,58
15.21,11
50.98,26
90.91,212
26.53,11
45.84,51
28.37,18
95.8,212
42.37,74
160.44,119
91.35,102
78.62,147
142.89,187
80.01,128
37.73,37
167.79,143
77.76,40
54.55,151
30.44,52
153.25,296
31.98,18
16,4
48.83,51
66.42,225
51.85,45
52.82,68
131.95,165
32.74,16
45.19,92
74.11,108
110.93,283
81.04,115
115.68,305
41.26,29
38.99,44
66.47,56
98.88,103
4.41,1
59.27,145
114.56,482
66.73,107
79.14,189
77.04,35
42.61,27
55.41,114
136.29,104
68.12,112
10.27,3
40.45,38
26.74,8
121.98,138
85.74,110
96.58,50
12.83,4
42.6,26
73.84,262
58.9,203
45.44,28
16.26,9
60.05,48
83.53,142
150.97,221
123.21,185
115.57,209
68.62,54
13.68,14
115.62,96
13.71,3
13.14,5
128.01,316
44.87,79
69.17,32
79.56,55
72.79,183
6.2,2
61.01,73
40.04,18
5.97,3
93.85,77
102.99,333
60.96,25
24.82,7
47.48,88
40.93,37
82.93,58
128.22,106
46.71,41
89.92,177
32.71,30
28.96,30
74.56,93
114.85,112
189.77,264
69.14,51
114.81,104
30.25,16
37,9
9.79,1
16.47,3
63.68,122
57.24,65
36.45,49
63.99,52
55.81,127
34.59,58
24.4,16
6.5,1
56.19,112
78.01,38
51.34,41
33.69,38
81.64,92
10.25,4
25.14,9
26.46,13
81.49,183
22.04,12
114.15,395
2.53,1
149.44,216
47.72,51
76.13,150
87.6,53
78.87,114
89.98,139
54.08,42
144.62,273
40.89,41
27.05,10
62.35,78
54.32,96
175.63,163
14.64,3
80.43,68
18.14,10
227.31,231
62.15,86
71.91,59
71.82,46
98.6,226
59.5,139
139.37,244
84.9,136
48.66,17
14.8,5
36.8,40
82.73,164
49.19,37
99.61,273
91,144
102.65,210
17.53,9
31.38,33
10.35,4
56.51,36
115.36,192
121.94,305
122.86,52
30.66,13
15.54,8
53.7,61
44.83,24
106.97,288
103.75,224
81.85,204
51.41,51
55.24,35
38.28,17
41.95,13
25.29,6
128.48,344
12.59,11
5.75,2
46.08,14
36.43,81
117.34,127
15.38,7
107.98,251
109.24,132
42.13,58
77.69,176
77.42,200
19.98,5
125.72,200
124.24,306
143.43,269
42.4,30
33.37,52
62.58,99
107.96,121
68.12,47
73.3,52
108.31,210
75.32,206
37.87,17
18.37,13
43.42,89
43.48,47
13.52,4
72.3,138
126.09,58
49.98,49
18.56,9
74.13,196
33.52,40
122.53,166
116.19,184
59.42,110
95.04,226
3.12,1
43.85,53
20.89,16
71.08,132
115.67,104
24.93,13
23.22,14
96.01,65
82.86,155
11.8,4
39.66,40
72.95,219
38.2,9
72.47,120
85.69,274
12.57,9
46.1,20
90.53,196
36.91,33
48.99,27
28.42,25
25.18,18
34.52,75
75.54,120
133.09,246
60.57,39
30.17,39
24.12,4
70.95,113
150.04,441
45.35,55
93.04,64
22.47,9
53.76,60
55.83,21
46.51,71
6.04,3
23.19,6
44.14,41
53.21,131
36.2,35
66.81,117
4.07,2
20.45,12
26.2,20
55.34,34
58.71,134
27.33,7
83.59,64
81.12,389
3.7,2
29.05,18
78.48,91
30.56,45
58.53,43
105.11,311
82.5,214
139.18,182
60.26,139
35.61,15
140.29,97
119.39,354
65.4,156
35.05,25
49.1,45
45.78,79
12.75,4
17.92,2
37.13,28
102.68,114
83.39,33
31.43,23
91.88,161
158.71,350
162.94,269
21.71,10
162.37,263
124.75,245
54.6,64
99.49,61
57.94,137
81.88,474
63.3,40
179.38,255
18.71,5
80.85,123
68.98,207
12.44,3
67.59,187
126.84,76
44.93,13
16.78,9
48.61,58
54.2,93
112.72,249
6.55,2
103.78,232
31.81,29
110.17,102
73.43,153
36.29,27
41.29,90
101.23,166
23.31,9
26.14,15
51.41,66
48.99,80
75.27,132
105.42,122
96.28,102
91.1,89
55.03,148
44.54,62
10.66,6
96.04,125
121.08,244
59.88,48
21.3,12
38.11,33
21.04,5
78.04,146
84.99,274
56.04,53
20.75,27
27.08,24
57.86,30
45,142
54.29,67
55.51,53
21.95,9
24.6,8
38.48,41
229.63,560
61,122
99.25,64
134.25,257
128.53,200
57.38,138
119,230
32.56,40
76.37,69
132.33,177
59.81,118
58.58,100
81.15,85
92.98,78
79.65,261
63.99,129
4.85,2
52.44,66
42.91,108
47.96,28
144.45,376
196.46,344
77.96,348
76.18,42
77.39,267
12.98,5
15.96,6
98.86,95
38.12,41
58.58,46
115.33,71
101.61,142
49.51,79
86.02,294
140.11,130
79.82,73
13.2,6
84.46,318
75.09,44
45.91,51
81.24,218
11.09,2
63.83,138
101.58,142
80.95,73
87.86,54
45.78,17
49,14
180.34,182
55.75,46
57.15,85
50.8,30
77.33,179
96.05,98
47.66,16
83.3,61
104.72,189
102.81,356
58.59,50
163.06,761
17.51,10
62.8,86
78.17,131
118.82,116
22.75,14
72.39,48
54.72,201
110.15,120
19.72,16
3.59,1
28.53,27
32.03,52
37.05,18
36.59,21
65.82,22
8.62,5
47.67,146
38,33
42.51,41
31.3,23
21.13,5
38.01,20
71.56,253
30.15,40
62.81,40
27.08,15
46.34,88
90.61,65
78.96,120
28.8,28
82.17,61
37.92,25
60.41,120
60.56,53
62.34,96
90.36,239
140.93,92
68.64,116
33.9,24
33.08,21
17.1,20
63.03,141
57.32,21
95.72,251
18.04,13
6.08,2
13.07,9
25.44,7
96.14,220
16.76,13
56.59,74
40.56,14
70.63,34
107.65,127
28.48,21
50.54,19
50.76,32
127.9,132
8.13,2
11.55,5
77.18,36
99.52,134
88.2,279
34.81,19
63.43,101
117.56,151
75.63,149
78.58,256
69.57,31
62.25,64
153.05,259
27.11,52
151.36,697
11.12,7
74,58
52.58,74
56.58,16
36.75,36
43.88,27
37.68,38
74.5,147
61.12,94
68.8,33
14.55,1
69.73,36
14.25,7
27.58,11
112.04,217
58.25,37
63.33,217
199,245
15.15,4
108.06,122
50.38,24
32.41,10
111.78,514
83.93,95
47.3,42
125.33,110
107.49,110
123.42,222
120.12,204
38.74,15
46.45,25
100.62,330
116.39,255
30.95,13
59.65,66
55.67,25
33.97,29
69.87,97
44.04,43
82.48,109
29.65,9
76.66,55
45.21,40
17.43,10
42.01,173
110.21,400
90.22,139
57.59,164
235.41,329
45.93,50
124.04,145
7.48,1
38.89,37
130.56,314
35.78,11
31.71,12
65.02,57
12.89,14
90.54,78
96.37,323
130.94,326
31.9,24
82.32,331
51.81,43
36.07,10
20.62,15
8.26,2
27.7,19
29.32,24
46.45,56
80.31,238
5.05,3
47.63,24
41.14,56
21.05,6
47.36,102
115.54,161
25.38,9
7.93,2
29.84,12
80.3,88
44.04,76
46.82,119
59.12,32
206.22,666
105.7,177
105.23,165
13.9,9
88.42,155
19.07,15
27.63,17
46.15,45
41.8,21
17.06,2
14.43,8
11.95,2
19.99,19
73.98,90
205,461
22.66,16
81.97,122
110.65,202
26.42,24
43.51,57
12.31,5
48.14,59
43.01,21
43.68,56
149.64,138
69.8,60
142.41,287
87.52,80
45.94,52
29.07,10
45.55,19
21.53,9
32.01,28
41.37,77
77.05,170
13.72,8
51.21,45
36.53,43
98.92,122
9.48,8
113.53,144
103.16,161
48.56,22
72.49,119
19.95,12
60.56,85
33.78,29
81.44,135
12.38,8
12.18,3
90.12,118
38.65,64
7.88,1
69.01,162
17.82,3
32.21,15
35.27,19
37.14,24
39.92,30
54.33,88
167.66,183
50.4,184
37.41,46
68.68,105
66.48,32
14.68,5
120.73,62
13.13,10
12.19,3
39.19,44
94.17,138
121.89,142
70.32,70
35.21,16
19.9,6
13.1,6
122.26,241
5.17,1
97.7,226
156.96,215
38.34,21
49.29,24
97.59,83
20.34,27
79.93,246
110.72,112
33.31,21
74.76,292
44.46,74
7.39,4
50.54,36
10.72,3
99.89,127
79.97,64
97.61,256
64.44,74
72.43,88
68.81,149
32.31,19
46.15,12
71.58,70
110.1,226
143.68,91
16.35,5
103.64,155
126.08,180
55.68,94
35.4,55
60.73,118
15.91,19
56.53,81
51.28,63
30.18,29
61.88,69
40.68,45
98.73,152
59.85,57
89.29,281
105.16,637
62.38,131
39.73,36
87.68,89
64.45,56
86.83,287
99.81,176
160.71,258
53.41,33
41.55,104
112.16,269
172.87,206
76.23,154
17.52,7
83.81,225
52.62,82
193.61,613
35.28,29
130.66,164
40.06,21
40.2,19
40.18,55
12.3,8
81.86,115
82.36,242
112.54,64
64.93,302
18.1,13
10.32,2
111.84,198
13.71,6
84.28,149
88.81,24
71.08,99
43.52,83
93.51,234
18.7,35
37.52,57
197.54,572
41.39,95
54.18,90
106.55,209
11.06,2
93.87,160
56.58,83
17,7
69.05,75
98.13,291
148.7,273
19.18,15
88.77,170
6.35,1
59.41,76
111.16,339
97.16,118
35.86,13
151.35,349
43.38,61
118.65,147
87.23,119
75.95,278
87.77,261
89.09,45
54.31,151
106.92,290
18.31,7
104.59,67
131.66,136
100.77,143
51.72,95
14.31,3
108.77,210
155.01,184
103.81,283
37.51,55
49.8,69
37.83,11
75.47,100
19.55,10
9.57,7
20.12,16
42.87,25
104.41,143
33.76,23
67.5,48
46.51,50
117.94,85
65.88,75
73.4,76
74.43,162
87.57,193
12.47,2
56.17,117
38.35,58
114.24,238
13.84,4
51.53,38
8.3,2
70.45,105
20.68,7
100.83,475
50.57,99
59.48,73
29.2,14
97.15,148
127.07,312
85.89,256
58.5,23
77.58,107
10.96,7
170.7,154
68.71,117
32.43,14
89.86,73
19.37,4
38.03,26
129.31,270
33.21,39
39.15,31
120.59,184
75.79,175
177.24,446
9.73,3
31.5,20
25.69,23
37.61,38
66.73,37
5.43,2
61.48,55
60.36,90
73.95,214
42.91,43
30.79,15
64.36,142
50.63,91
11.78,5
46.85,93
3,1
46.9,34
3.27,1
33.59,16
18.74,22
55.47,48
23.02,29
64.83,47
55.24,26
43.39,30
85.12,271
20.7,15
126.5,104
178.18,144
59.21,49
29.83,9
68.85,189
71.59,104
22.95,4
70.47,175
39.94,54
109.62,340
11.13,5
15.94,4
37.75,43
33.41,19
76.78,163
38.15,60
110.62,237
65.16,147
118.7,141
8.06,5
112.54,257
58.38,22
136.21,296
45.8,44
83.17,417
75.33,87
72.13,215
121.64,260
101.21,112
39.24,77
41.6,55
43.2,14
19.06,7
79.37,357
88.53,154
45.29,33
28.84,30
52.79,97
63.85,181
199.83,314
118.32,87
82.54,92
52.3,73
41.92,27
83.23,99
59.45,33
60.2,176
40.21,26
45.03,38
50.23,89
51.24,32
15.96,10
97.14,81
170.91,399
103.97,74
36.54,41
121.4,354
9.79,3
107.98,119
52.26,94
88.55,215
117.18,247
55.21,38
62.61,69
56.84,63
163.12,168
7.66,1
47.77,27
208.93,626
96.96,555
35.7,32
52.29,57
4.5,1
56.21,58
5.29,1
44.42,11
63.82,114
25.11,16
40.88,50
28.89,25
49.61,56
32.9,27
59.45,82
193.45,858
94.8,104
178.27,285
21.87,7
48.6,33
83.85,97
13.1,5
70.09,41
81.98,97
61.75,76
127.48,466
44.04,29
165.62,448
15.79,4
100.25,56
132.11,190
24.77,10
22.59,17
167.43,186
103.83,91
6.25,2
160.54,127
42.89,19
158.36,134
43.47,17
28.01,41
37.19,36
6.28,2
26.57,8
39.71,45
136.18,256
28.07,55
47.84,85
49.15,11
83.91,210
59.99,55
77.53,63
37,11
5.73,1
7.48,2
37.05,20
122.67,111
83.22,70
26.82,10
23.63,47
55.16,81
33.32,34
55.98,155
116.45,264
30.74,32
35.98,37
21.36,6
9.08,5
63.18,44
66.06,127
89.05,88
37.87,64
57.88,64
14.72,4
59.14,136
46.2,37
9.4,3
173.45,310
5.86,1
25.25,25
48.66,99
56.41,37
85.09,66
146.29,397
161.34,116
65.84,57
51.08,91
9.25,1
161.59,296
26.09,20
35.18,13
56.64,112
45.55,63
83.54,213
52.3,18
79.02,199
112.18,392
89.64,141
7.8,2
67.02,105
23.8,18
21.73,7
51.02,54
27.28,23
73.89,157
56.96,130
104.92,82
88.38,179
25.92,36
27.93,28
26.97,5
92.31,296
39.75,47
27.53,25
201.82,156
162.42,128
88.47,65
5.17,1
145.73,149
103.14,181
47.88,58
5.82,1
39.16,46
54.42,21
118.3,446
90.32,129
71.77,112
12.4,14
10.73,5
43.97,33
72.65,64
31.2,26
15.92,7
124.89,107
13.94,11
4.39,1
125.74,123
141.05,237
41.57,99
48.71,26
247.55,456
26.27,48
52.03,28
222.11,479
14.69,7
84.92,309
29.63,23
87.99,115
46.73,37
20.26,20
121.47,139
102.75,227
79.9,131
85.63,97
61.16,132
117.98,247
79.98,95
125.18,144
72.41,156
157.17,359
143.56,103
81.92,433
82.72,149
40.05,46
74.69,38
124.2,193
75.71,288
18.38,8
26.58,13
93.97,98
93.82,77
16.91,8
95.14,227
109.02,123
14.35,6
37.18,21
69.26,86
7.85,2
138.36,326
38.58,105
191.24,163
60.11,36
46.77,66
28.4,16
52.9,41
187.68,158
47.43,63
59.51,120
72.29,17
74.4,241
77.95,197
31.88,25
154.32,237
102.27,253
121.53,168
72.87,99
45.94,30
25.97,5
6,1
40.69,35
18.45,5
73.75,74
58.82,104
108.8,399
136.05,270
93.94,152
35.68,29
100.23,101
44.09,64
87.02,82
158.63,540
78.43,124
43.5,54
73.66,238
78.58,43
199.66,229
31.4,23
44,46
23.69,39
83.53,192
74.26,124
39.11,44
17.19,3
12.46,9
114.43,537
31.27,11
40.9,32
3.1,1
20.18,14
113.9,219
109.43,228
48.1,70
23.49,8
206.59,336
85.3,329
67.42,85
10.79,8
80,69
31.08,39
59.97,73
133.36,189
40.84,29
65.46,68
89.96,139
3.76,1
40.64,82
35.28,45
139.52,77
29.26,6
167.91,312
114.44,99
9.3,5
43.44,33
50.5,139
105.9,287
19.87,19
11.86,4
109.94,123
4.53,1
40.64,37
112.22,284
153.4,319
1.47,1
18.9,7
109.05,129
75.78,86
282.32,604
64.18,87
114.58,81
62.17,54
57.17,62
90.96,220
31.49,26
54.86,38
1.44,1
53.65,106
13.88,3
145.7,230
32.85,12
80.93,52
30.64,14
107.56,92
159.67,360
11.73,10
98.24,76
17.7,9
23.92,21
31.7,29
130.14,206
54.57,90
68.97,253
65.11,111
65.5,73
59.15,60
165.53,156
94.74,269
61.91,98
49.57,127
112.69,207
35.02,44
28.29,26
23.46,13
26.33,73
56.98,69
81.35,97
73.27,75
61.88,68
28.83,30
108.57,360
123.96,340
6.07,4
27.77,46
5.55,2
29.37,25
148.42,196
43.23,52
170.64,428
20.03,4
203.63,374
6.31,2
69.56,52
15.92,17
96.81,61
39.36,82
12.49,6
51.62,22
9.62,4
123.74,262
46.75,49
91.12,53
120.53,110
187.78,892
123.13,211
114.2,113
277.2,326
79.28,91
75.88,82
125.23,357
85.26,131
1.93,1
40.86,28
86.09,48
28.43,65
18.77,8
78.17,185
87.16,79
135.59,134
63.14,100
3.74,1
25.29,35
17.68,7
72.02,134
90.02,144
88.3,195
8.95,4
6.23,2
30.22,9
3.49,1
5.87,1
21.98,8
73.78,34
211.48,230
74.23,97
61.59,107
128.54,183
122.57,299
33.87,18
47.4,15
86.68,82
45.29,66
34.84,37
65.14,81
128.42,182
101.14,119
52.46,57
37.11,27
31.57,27
121.53,103
94.47,327
35.54,97
23.32,7
163.69,150
116.52,225
71.54,134
31.12,19
90.58,233
14.84,9
45.03,93
32.47,29
44.41,73
98.85,450
27.09,39
66.59,87
7.8,2
5.23,1
2.87,1
15.68,10
91.47,272
12.97,7
78.82,119
51.54,106
51.46,37
79.02,105
169.53,532
89.5,94
72.38,59
45.26,42
81.17,113
17.39,5
45.35,18
128.42,304
57.51,66
89.29,188
17.48,6
217.26,756
66.99,199
59.81,179
25.18,25
19.79,18
18.26,16
79.67,224
67.58,35
18.93,14
67.33,25
34.72,38
115.51,165
23.1,8
18.79,8
95.68,117
182.86,763
5.13,1
158.77,202
73.03,209
76.17,56
109.91,442
92.28,88
74.77,115
34.18,53
71.34,24
110.53,143
11.1,4
177.78,269
42.77,79
80,138
50.21,47
96.48,379
41.31,41
87.67,79
54.33,69
65.23,107
69.88,247
44.75,32
78.69,291
85.39,194
126.84,247
120.83,583
56.26,29
202.63,317
78.65,66
13.23,10
53.86,103
240.02,331
66.63,28
81.47,183
9.31,4
151.42,425
8.66,3
86.98,46
146.63,258
79.13,173
44.6,32
52.7,93
56.92,88
40.02,32
20.41,9
134.72,281
73.34,32
29.36,19
31.53,10
15.14,14
187.62,163
12.55,4
100.47,161
50.59,117
29.32,17
14.75,8
184.95,892
86.63,81
40.46,85
90.93,94
77.56,200
41.41,40
29.2,9
97.49,137
5.11,1
5.01,1
45.15,45
107.73,480
90.8,84
4.15,1
61.63,61
98.41,758
104.78,97
11.78,4
119.64,113
120.15,145
72.35,109
135.3,842
29.54,17
87.76,100
97.96,202
87.83,254
38.94,30
15.05,14
57.75,46
108.45,197
31.57,39
55.31,63
23.72,18
142.41,306
82.33,337
123.86,255
55.72,37
86.73,221
93.85,105
97.32,368
48.55,47
103.26,204
4.08,1
63.71,71
52.04,103
73.36,169
23.4,13
53.47,99
24.33,12
116.65,333
80.93,51
37.36,42
131.73,171
84.17,377
63.32,61
56.29,143
16.32,10
42.4,8
87.5,133
50.8,49
29.69,12
83.9,516
4.34,1
136.9,305
130.93,179
22.49,20
63.37,29
16.25,10
97.59,227
6.44,3
25.92,13
80.45,97
20.76,24
13.1,12
48.25,107
87.74,185
44.67,68
59.12,67
84.73,97
47.23,66
5,1
45.62,85
67.5,75
42.76,30
74.85,88
79.92,94
99.09,110
39.6,15
9.39,4
62.9,69
35.67,55
8.03,1
48.02,75
3.33,1
58.91,40
4.75,1
7.19,3
76.76,129
91.5,82
30.37,16
55.11,86
136.63,90
37.33,114
55.33,37
96.7,137
154.85,122
45.78,34
21.26,7
62.41,45
33.42,15
72.99,341
75.03,192
78.44,155
96.12,83
52.11,63
57.39,62
40.45,60
52.07,68
8.2,3
43.43,151
81.94,104
18.18,17
119.71,302
30.12,16
88.5,133
95.01,165
48.98,50
87.06,365
45.55,28
15.68,16
32.28,20
59.34,171
68.95,97
63.62,121
29.7,22
24.68,19
137.81,722
14.77,3
63.86,98
67.16,83
38.76,18
59.26,87
35.87,64
168.22,278
13.38,3
108.45,346
22,6
142.07,231
92.57,237
28.34,16
73.76,75
80.82,196
52.1,25
76.81,67
61.49,81
4.45,2
124.97,211
32.15,57
56.08,37
60.92,58
60.75,67
21.67,8
83.81,42
48.1,30
132.4,94
45,51
49.7,80
73.38,79
26.8,80
217.05,322
48.77,42
52.93,67
106.1,90
118.85,181
76.31,90
116.08,296
84.48,67
68.02,85
63.13,67
145.38,425
50.21,54
25.62,8
71.87,114
88.54,200
90.89,96
20.55,17
86.93,51
33.74,33
19.85,16
23.38,7
19.21,16
18.14,2
36.31,64
144.09,157
100.01,75
24.36,9
14.83,4
59.96,163
15.73,3
26.05,26
36.44,34
68.1,76
70.41,27
172.78,856
99.02,283
106.32,210
47.23,38
38.04,20
50.69,34
114.66,261
43.02,52
95.95,147
24.36,10
40.06,24
61,29
70.44,148
44.52,41
193.05,351
94.26,195
101.89,68
14.71,8
21.12,11
31.07,23
61.26,131
72.08,65
87.62,107
89.38,182
21.1,5
101.78,347
62.82,89
47.82,57
6.88,1
24.52,9
29.4,20
48.89,27
18.85,5
50.5,145
5.28,1
33.6,84
28.54,16
52.46,42
93.41,132
25.2,22
108.97,257
14.17,3
75.07,129
53.68,70
52.01,58
71.24,217
31.62,10
179.84,299
37.42,24
224,416
72.11,248
48.37,109
6.7,2
21.24,24
122.87,665
70.44,56
19.74,12
80.69,310
74.93,129
43.01,37
86.93,245
107.54,47
11.4,1
49.96,31
87.18,94
57.96,32
91.03,49
129.07,591
11.66,7
55.91,74
57,28
73.32,90
48.58,46
80.66,39
110.27,175
82.4,117
20.4,25
177.3,626
26.82,20
115.02,123
21.98,7
68.89,137
71.25,130
53.58,114
132.28,224
179.82,323
11.75,5
96.78,82
55.03,35
262.85,317
67.37,82
36.34,36
78.9,81
5.41,3
35.8,16
105.55,150
16.12,7
25.97,20
134.9,142
133.91,299
92.51,183
82.67,173
59.76,55
83.73,126
62.36,125
58.3,61
119.06,163
45,136
78.5,184
44.12,76
38.16,33
51.04,46
109.71,198
71.87,127
64.31,81
134.63,274
109.22,110
63.16,129
81.68,64
74.9,231
38.44,9
126.29,220
55.31,74
37.64,28
44.77,78
10.28,3
134.88,136
55.26,37
98.78,75
63.66,62
18.75,16
47.56,34
115.33,182
25.69,29
100.32,58
22.23,9
37.59,34
17.94,5
18.88,11
36.56,38
133.09,156
27.43,19
114.43,96
251.25,427
90.68,125
18.29,32
16.5,6
131.92,107
105.38,94
173.67,255
44.75,16
16.55,6
83.85,122
37.29,17
307.51,324
65.58,105
9.07,3
70.05,151
116.5,415
55.99,64
128.62,134
94.77,445
134.65,145
29.07,38
56.48,146
6.25,4
151.3,166
74.07,59
5.83,3
14.22,6
6.36,3
22.92,17
62.99,124
61.48,62
13.61,7
80.39,191
26.4,18
60.84,56
47.64,111
93.53,64
52.87,49
104.07,289
74.96,189
96.03,89
133.55,180
75.97,208
66.76,119
233.67,210
75.34,68
29.16,22
26.84,18
52.57,44
35.38,19
126.84,312
28.23,18
28.34,5
212.73,275
80.72,99
71.71,162
93.92,163
142.17,405
146.01,242
74.05,221
63.75,106
103.25,170
46.94,36
49.23,34
174.77,153
22.21,33
190.09,261
43.63,54
47.4,96
51.13,63
69.73,94
34.35,20
29.07,27
4.36,2
11.33,5
114.74,180
50.19,30
107.18,482
22.58,6
148.62,353
72.54,253
83.31,95
80.57,199
33.97,31
12.87,2
91.23,122
97.61,305
53.89,53
91.85,181
11.6,3
180.75,98
45.69,115
71.12,41
99.35,178
5.28,1
45.06,33
109.61,178
58.43,96
87.83,136
38.45,25
90.64,29
20.72,27
127.65,116
97.14,137
81.58,18
91.88,99
51.62,86
6.41,3
95.76,280
10.49,5
97.84,152
88.78,179
3.39,1
135.87,219
123.98,467
23.1,24
61.76,81
30.2,10
42.9,54
29.93,21
30.3,10
93.08,96
125.24,91
48.21,47
39.54,56
49.23,85
11.06,4
107.45,176
109.93,276
45.98,131
27.37,25
73.15,84
50.22,82
81.44,103
53.01,45
82.45,131
51.83,82
37.71,36
85.36,169
44.44,35
47.08,30
84.97,94
49.51,53
90.9,53
94.85,257
81.42,40
56.41,52
71.05,65
102.15,183
19.87,14
153.01,108
31.68,18
138.97,383
33.21,16
77.6,41
46.05,38
122.31,193
52.8,139
11.09,3
36.68,23
92.37,46
10.75,2
13.01,3
42.53,70
80.25,69
32.63,33
77.92,182
66.44,124
49.27,100
40.13,53
136.02,700
81.61,161
114.33,261
60.28,87
59.64,149
62.69,103
89.51,26
59.34,56
93,176
58.82,112
37.96,47
125.61,90
25.47,38
28.32,15
82.55,132
43.99,51
63.41,86
49.06,30
93.9,75
39.83,22
47.51,68
76.83,94
74.7,105
124.02,338
54.02,78
17.44,12
29.59,5
28.9,41
45.68,149
97.68,121
86.81,228
86.64,109
140.52,206
47.32,80
6.57,2
84.95,169
54.39,47
137.76,186
110.66,189
93.48,292
113.68,394
114.67,167
63.86,232
59.63,176
27.15,16
45.39,70
30.26,27
80.55,51
217.2,346
73.63,42
124.59,212
83.31,78
26.08,16
3.78,1
25.2,13
3.54,2
44.74,52
122.57,153
134.28,169
62.98,107
78.07,223
111.3,592
79.68,343
69.21,99
35,14
80.46,148
136.88,105
15.11,13
12.56,3
46.7,27
7.32,5
69.74,82
65.49,95
145.25,189
24.25,13
81.18,289
128.56,98
44.58,60
14,7
8.58,4
5.98,2
154.63,497
47.6,69
20.72,7
114.39,112
178.03,204
67.2,82
20.24,12
45.9,53
70.89,159
31.93,42
34.43,57
45.57,28
21.72,8
54.65,66
100.84,204
95.35,174
108.01,430
48.52,28
59.04,77
26.27,23
91.04,85
94.87,135
53.9,35
81.82,91
87.18,66
59.46,182
45.23,117
45.04,33
34.21,85
80.04,338
73.26,27
101.37,119
54.07,28
34.55,55
73.51,110
53.14,62
17.69,8
104.58,74
4.36,1
94.2,100
87.37,157
17.03,7
94.74,277
182.2,615
48.36,43
100.34,224
81.53,138
2.21,1
55.69,112
13.91,8
56.69,191
55.09,54
22.19,18
48.3,63
31.43,30
92.38,136
157.35,265
18.93,10
93.41,80
74.76,76
99.61,46
25.12,25
40.69,30
37.21,23
55.54,173
115.27,71
74.96,297
41.46,47
43.33,61
101.68,311
65.36,168
24.68,48
77.77,68
33.81,73
84.11,148
65.48,103
48.49,26
70.9,120
49.43,26
55.13,48
209.03,381
49,34
108.52,453
70.65,131
20.31,13
44.99,33
119.3,110
27.36,16
100.29,94
11.76,6
91.71,110
51.63,49
9.38,3
76.78,65
12.48,3
37.66,59
117.65,251
79.66,96
4.84,4
44.85,22
77.83,158
18.25,7
43.89,77
123.23,130
75.69,241
104.16,333
69.6,55
30.53,31
108.51,214
44.94,102
53.66,26
20.38,15
85.9,100
58.47,35
119.01,180
47.15,36
91.15,132
34.37,44
141.35,192
70.35,210
156.69,343
33.74,24
111.53,62
22.25,11
9.62,10
49.09,38
70.59,247
39.51,50
7.43,4
294.99,232
23.63,12
249.39,332
105.02,45
35.35,27
16.53,14
114.92,154
47.58,28
71.15,136
18.41,7
27.78,34
94.96,158
4.21,1
43.77,39
38.12,68
83.52,182
39.21,60
29.35,20
129.16,220
102.57,178
119.98,241
64.01,116
62.98,29
35.39,22
106.64,281
115.07,252
14.94,5
167.64,408
22.8,9
73.04,70
26.69,30
80.57,63
56.91,88
133.93,317
7.44,3
46.05,15
53.22,22
125.85,195
51.91,34
7.53,2
75.07,152
92.26,120
104.55,57
39.88,47
78.12,75
79,27
142.13,228
102.88,139
49.54,53
46.57,48
37.62,32
44.19,19
52.31,25
26.48,8
60.61,56
25,13
105.45,125
7.71,2
63.35,97
92.84,80
17.77,6
61.59,152
79.3,232
8.72,8
55.68,59
74.53,95
91.69,312
146,174
16.8,11
76.41,151
134.46,254
38.62,44
76.62,55
69.17,74
101.54,114
38.25,66
36.9,16
31.51,40
42.03,41
83.33,188
17.88,6
83.13,125
44.5,33
47,29
103.37,410
70.67,79
15.94,14
7.67,2
109.66,172
44.61,32
27.34,24
39.5,38
61.11,31
139.11,232
103.05,218
61.99,38
42.77,42
90.38,129
44.86,56
43.22,38
30.9,17
79.73,264
96.9,131
27.32,8
51.22,108
11.73,9
96.57,172
124.63,275
53.41,34
95.74,144
20.48,8
83.83,143
11.49,4
31.14,12
54.57,37
81.64,181
70.35,265
14.27,18
44.97,20
75.59,72
76.81,75
86.25,122
29.98,26
19.4,3
107.89,171
173.92,450
169.31,834
17.38,7
59.53,24
55.59,26
76.93,151
21.79,11
70.35,96
80.92,186
80.77,154
24.27,30
37.47,26
78.77,91
103.27,245
3.86,1
83.78,72
111.01,162
8.34,5
68.01,23
69.87,170
69.07,134
45.16,55
91.43,234
70.16,165
80.44,90
162.55,461
19.16,14
36.1,43
23.13,17
80.52,77
14.98,2
22.29,9
116.81,220
48.69,24
73.77,69
52.51,16
3.33,1
61.92,45
52.16,60
4.38,1
66.4,90
17.01,4
52.79,101
29.01,35
23.95,8
26.26,5
73.24,23
112.53,207
70.13,57
112.55,285
65.31,92
67,83
55.7,26
154.37,193
81.77,202
102.76,160
150.81,213
14.84,5
11.05,5
43.5,37
31.35,19
16.43,4
71.29,208
96.02,320
91.96,102
13.35,8
83.26,119
34.77,18
191.12,314
89.62,418
79.28,176
27.32,30
41.88,28
51.49,26
8.9,6
35.11,33
73.03,138
70.55,124
74.16,41
87.21,180
21.69,23
80.03,91
9.24,2
161.75,450
7.84,4
127.76,255
32.47,45
71.49,44
8.72,1
75.63,64
32.03,16
33.56,20
79.38,120
52.96,95
62.73,63
79.45,97
70.1,101
124.46,153
47.24,14
223.28,543
86.34,124
65.27,34
69.88,70
62.92,100
58.82,42
64.65,172
72.69,137
11.68,3
118.14,232
77.21,108
6.3,2
40.82,25
54.8,70
49.81,131
139.12,210
24.69,11
41.83,42
124.97,356
15.31,19
10.75,5
67.81,69
16.14,5
106.04,45
83.78,134
138.06,91
43.12,52
119.3,44
66.48,133
9.63,2
52.34,129
85.23,392
105.04,88
6.65,2
49.03,101
144.53,395
95.37,55
121.46,117
8.38,2
92.84,183
60.55,65
91.93,220
88.49,150
32.36,22
59.85,55
102.88,372
27.73,10
26.72,15
148.31,264
11.67,3
92.95,136
16.22,6
161.52,424
92.46,415
125.7,119
68.4,36
54.37,80
50.43,38
61.93,236
13.99,5
59.35,124
4.13,1
182.97,231
25.01,20
36.21,27
36.34,52
50.55,34
50.08,21
16.79,6
78.34,164
158.23,465
47.7,97
83.51,98
87.12,170
84.62,210
27.45,16
73.59,129
29.97,17
26.15,26
111.11,59
10.25,5
55.39,86
77.79,567
34.72,21
94.89,224
8.16,1
78.25,217
26.57,11
22.27,20
45.44,93
4.5,1
68.25,89
168.26,708
57.84,101
27.3,3
20.14,9
154.11,126
140.52,230
92.34,118
248.43,272
85.26,78
5.63,3
5.49,4
64.85,52
67.26,324
107.77,388
129.61,50
135.95,449
113.45,118
93.37,373
81.97,60
83.55,243
123.77,84
125.28,283
61.97,119
80.13,72
33.96,14
39.14,73
203.53,213
44.02,48
73.26,53
48.8,17
51.5,40
60.64,27
23.03,16
67.29,62
55.83,53
11.86,4
37.5,40
32.61,16
76.91,230
91.17,186
26.9,22
70.7,213
112.14,279
90.52,150
165.69,209
52.88,48
198.64,205
17.58,7
81.94,75
84.23,175
94.35,105
14.22,8
51.86,58
19.58,6
112.49,556
21.32,5
7.66,2
38.38,27
37.41,22
16.01,9
34.48,31
7.08,2
96.78,116
41.24,14
44.51,114
65.78,115
125.79,209
60.87,321
96.08,467
45.85,167
55.13,45
136.95,454
36.91,44
140.39,275
138.71,358
164.59,396
58.12,60
59.76,89
197.54,296
55.26,47
139.75,379
113.17,486
31.39,56
44.81,25
100.23,162
12.05,10
83.19,127
14.87,9
64.21,95
105.42,207
45.88,24
111.51,113
176.39,314
21.29,5
14.91,10
36.38,25
71.6,39
54.78,26
124.19,126
15.67,15
72.67,44
103.83,364
10.14,3
13.94,11
100.35,332
71.86,108
72.67,39
33.7,26
118.13,96
129.02,379
92.15,185
189,96
35.23,25
70.27,51
100.63,140
12.09,4
23.93,21
30.43,49
22.9,8
40.48,33
7.17,2
53.77,79
79.04,49
45.57,55
23.13,14
52.54,34
100.6,276
20.05,13
44.26,31
103.14,203
8.07,3
175.16,215
46.18,24
43.16,26
71.66,139
62.96,95
79.33,46
52.08,65
62.81,81
104.57,65
68.82,78
24.05,38
66.74,68
6.68,3
72.12,164
8.87,4
49.23,29
39.54,38
5.38,2
106,234
55.09,45
48.77,28
163.57,555
44.63,38
83.12,269
51.35,100
103.92,133
27.35,29
7.56,2
18.54,8
105.47,112
26.17,25
13.52,4
92.84,54
31.34,28
70.79,37
30.52,5
43.03,16
66.92,38
90.38,431
120.25,132
23.41,8
119.99,584
3.71,1
71.89,89
70.28,99
70.63,85
17.55,6
70.12,274
66.39,47
97.6,345
53.27,25
143.88,147
110.08,170
37,59
10.81,8
10.88,2
66.13,110
76.26,82
64.14,38
209.43,197
74.33,21
78.94,81
64.81,35
44.16,31
106.03,107
92.29,200
81.39,117
39.37,150
105.53,134
19.43,19
41.69,18
78,82
15.24,10
38.39,30
38.48,18
121.66,241
9.75,3
22.19,8
127.71,303
98.36,213
48.87,31
2.92,1
44.47,13
72.61,53
55.32,77
89.68,202
116.6,167
87.62,240
125.08,206
28.22,51
97.88,104
46.1,108
133.38,157
89.6,284
156.78,219
10.47,10
37.51,21
25.68,24
12.64,3
47.33,81
59.72,56
67.52,70
239.11,456
8.03,2
78.77,47
59.46,68
33.38,48
25.42,72
78.45,99
65.6,152
22.99,4
112.06,239
20.97,3
49.51,17
96.8,94
62.53,88
65.13,180
57.03,66
31.38,10
57.5,53
195.33,290
116.91,203
6.17,1
119.17,60
58.47,143
41.34,24
14.55,9
95.01,214
87.13,133
86.5,144
8.6,2
10.68,1
85.14,68
45.4,19
36.73,39
16.77,14
78.37,149
51.85,58
32.6,13
87.67,270
73.19,102
90.26,41
10.88,2
62.29,87
16.46,4
4.12,1
49.46,72
108.92,118
45.28,54
12.28,4
98.11,197
52.02,49
141.49,268
152.85,76
103.49,366
61.78,95
29.18,39
42.28,15
30.7,36
74.39,181
62.96,92
36.65,29
87.67,126
49.03,71
34.97,19
104.15,242
45.5,83
51.35,41
87.82,380
129.88,318
86.17,334
30.93,20
141.64,184
70.81,210
20.84,7
146.87,312
32.88,27
58.67,56
32.67,13
108.84,110
173.03,317
38.26,23
43.02,15
25.2,12
36.14,44
59.82,56
111,118
24.87,11
69.32,51
34.88,17
107.97,397
102.11,112
23.64,18
51.47,126
98.38,96
75.86,305
8.53,5
86.08,92
33.43,25
46.13,58
50.71,81
21.01,22
47.13,26
49.02,24
16.71,15
68.27,120
43.46,28
35.67,26
65.9,56
99.01,105
91.73,495
20.86,11
48.03,54
35.57,32
88.73,41
39.96,31
39.73,23
16.71,23
85.06,152
80.02,78
34.85,43
34.07,76
24.17,20
65.02,105
42.13,14
92.82,222
24.88,10
64.4,123
57.07,72
45.01,40
84.74,89
56.61,56
107.83,476
77.58,223
117.67,159
60.54,56
103.46,187
56.55,21
69.16,55
8.35,3
162,450
55.44,40
43.4,45
83.98,116
6.59,2
11.51,5
59.08,46
67.93,106
79.38,211
90.1,241
37.55,55
16.91,18
12.1,10
103.53,292
68.11,26
59.43,44
23.71,7
73.26,45
212.15,310
38.68,9
35.76,64
48.34,29
72.58,231
78.55,36
105.23,140
75.11,52
41.31,62
110.49,290
97.64,112
69.79,29
83.25,432
121.34,291
51.92,38
82.44,65
75.8,52
68.68,121
34.08,14
56.85,34
21.94,13
141.6,77
6.53,3
72.96,72
24.6,18
41.9,88
54.26,157
119.96,241
84.18,219
78.39,48
263.97,744
68.71,77
111.16,189
6.2,1
71.74,61
83.62,146
29,15
89.2,83
56.3,48
70.02,73
119.84,205
20.41,10
54.65,76
26.4,10
78.41,124
48.18,44
112.56,125
123.14,347
72,85
36.41,11
140.55,127
57.64,44
281.47,343
89.52,151
99.47,169
48.55,44
150.71,156
9.4,4
93.37,119
53.51,57
60.51,140
20.39,11
84.93,67
67.41,121
38.92,29
56.41,72
10.37,5
50.04,32
39.43,21
78.81,51
17.52,9
55.19,142
9.62,3
63.39,64
45.27,13
89.1,493
118.46,449
32.67,19
81.48,46
80.26,107
153.83,101
115.32,233
53.56,140
57.27,102
108.88,170
58.28,49
56.89,85
67.7,162
15.3,15
144.49,183
49.75,40
104.7,91
24.49,25
65.65,79
8.29,3
41.06,75
9.08,3
66.21,72
4.68,1
22.88,51
4.91,2
57.98,19
20.03,16
40.77,36
44.79,47
20.47,20
16.8,10
69.67,60
73.62,143
40.61,33
27.13,24
86.22,84
168.92,124
106.6,105
162.74,534
94.99,72
15.19,5
117.77,236
64.24,73
64.92,43
80.34,30
85.49,184
83.6,131
106.26,247
129.37,216
89.83,238
38.95,28
93.22,71
47.63,77
43.55,14
76.03,95
7.96,5
30.09,54
23.91,8
13.65,10
64.99,91
14.56,8
116.52,487
29.87,21
87.81,79
11.9,4
125.38,134
65.07,51
116.81,69
42.56,65
36.14,10
46.41,54
75.25,84
77.15,259
50.26,94
33.47,13
93.51,311
32.51,15
60.34,131
44.94,53
37.17,23
17.6,4
53.26,85
31.06,11
4.64,1
122.86,237
191.28,262
33.36,33
93.3,85
53.26,35
46.82,110
93.58,142
168.34,159
21.8,14
143.65,433
64.97,121
143.48,621
50.2,33
89.46,203
59.2,38
66.55,90
19.37,6
22.63,10
15.88,5
51.47,43
13.24,14
74.18,55
13.49,6
15.56,3
32.14,41
4.05,1
57.71,52
44.06,89
30.1,40
33.26,23
122.31,65
28.49,25
33.87,35
17.7,4
46.15,90
94.03,75
9.14,1
30.7,24
79.5,110
107.52,102
188.66,272
70.5,172
147.12,246
32.41,31
34.35,18
10.45,3
90.48,313
59.13,129
28.69,24
35.15,39
15.33,6
43.48,49
13.45,10
9.85,2
157.41,355
62.55,33
13.61,11
102.47,205
114.52,284
13.96,8
55.24,75
71.35,104
64.35,86
46.17,19
24.8,20
69.46,30
86.68,126
122.32,317
58.66,46
134.52,294
124.08,69
45.67,81
23.84,14
8.52,3
107.77,159
177.93,187
18.66,12
101.7,106
203.97,530
22.1,5
91.42,188
16.61,5
50.85,39
48.64,29
96.87,137
49.37,95
166.31,165
38.16,11
91.93,324
98.26,287
77.98,105
76.37,51
93.36,238
3.34,1
111.96,50
11.65,4
27.8,34
25.36,25
47.16,31
75.35,87
89.52,423
38.03,25
78.79,44
63.57,168
76.85,76
59.34,30
90.24,202
67.66,55
119.12,120
73.81,119
84.18,172
175.15,500
89.03,190
36.35,57
68.4,159
55.11,22
99.46,373
91.78,170
98.54,421
64.43,60
15.67,6
67.44,133
78.17,78
78.96,136
52.42,92
94.01,197
14.1,3
54.06,64
97.49,62
35.73,15
149.67,151
80.24,405
24.53,12
333.93,378
33.9,15
34.49,22
12.37,10
70.59,126
97.69,262
3.69,1
67.68,113
33.11,26
91.28,125
83.15,30
121.14,85
84.94,89
19.6,12
61.97,42
104.54,45
147.71,180
161.06,199
92.46,398
119.29,149
111.25,69
11.08,7
42.89,41
71.1,43
87.67,146
45.81,86
9.07,5
26.03,11
5.74,1
54.02,31
41.95,98
128.85,245
104.34,359
73.71,158
115.31,130
78.72,178
191.1,282
55.16,21
7.39,2
68.22,50
151.07,199
159.31,312
18.92,6
56.38,65
93.5,62
50.54,143
14.03,4
7.82,4
79.88,275
166.17,141
83.49,357
58.17,102
45.3,46
46.29,39
80.68,161
57.85,47
75.96,218
41.38,42
25.72,25
4.64,1
80.92,267
51.05,87
80.25,192
18.41,13
66.38,56
21.32,9
64.88,56
33.94,26
129.46,332
10.54,10
104.98,396
11.91,10
79.23,73
15.15,6
116.72,91
44.92,81
30.91,17
55.99,37
114.59,263
87.85,60
82.91,106
129.34,154
79.05,75
97.75,139
78.13,63
62.49,55
11.46,6
65.59,32
80.24,161
19.51,11
80.27,59
63.86,102
62.9,29
36.44,64
9.87,3
30.31,15
92.84,99
70.41,132
84.83,207
51.71,97
97.58,93
115.07,120
133.33,311
12.15,13
52.69,69
29.3,6
204.3,228
22.28,7
12.16,5
58.99,33
86.66,132
39.66,33
15.31,10
90.12,51
85.96,54
27.74,21
153.91,354
121.98,231
47.57,69
20.34,26
3.71,2
100.84,159
6.6,3
50.73,60
53.04,86
150.31,834
59.11,154
18.46,24
28.96,14
25.9,14
41.64,48
89.24,235
79.41,64
28.79,17
122.43,108
111.8,157
120.68,233
78.47,101
75.28,115
94.16,47
70.81,54
69.05,40
10.3,2
146.87,649
44.76,61
39.51,33
44.51,69
85.89,122
49.09,27
7.35,4
69.45,57
71.23,38
57.49,70
59.75,66
36.01,18
122.21,98
5.39,1
108.56,83
75.18,66
59.11,119
31.53,54
18.72,3
50.39,74
113.3,99
26.93,17
129.51,53
92.77,67
120.64,185
69.88,128
26.86,27
77.25,93
48.69,96
47.89,20
70.17,41
31.83,17
120.52,263
13.87,5
66.94,91
40.86,92
45.65,36
98.15,159
79.28,131
54.19,71
60.82,81
100.52,210
43.45,29
91.67,78
167.1,280
64.52,34
102.12,99
90.91,126
79.04,38
77.64,248
35.81,17
122.79,183
109.24,273
105.85,178
21.13,7
20.39,21
51.43,37
21.77,6
58.58,86
38.83,41
60.88,31
18.62,18
71.12,187
60.3,96
37.83,14
46.33,45
5.42,2
110.77,279
90.07,71
36.53,18
58.88,20
13.83,4
165.03,421
160.39,256
68.98,70
69.61,121
58.22,75
68.17,123
43.88,84
67.2,265
75.8,94
21.71,15
57.71,98
30.38,46
121.34,379
46.98,27
72.65,134
56.37,76
158.19,346
23.45,19
79.7,68
185.48,188
132.15,337
11.9,4
44.17,70
21.27,19
5.13,1
88.95,373
24.09,16
39.04,19
88.54,261
88.62,59
136.77,234
36.34,29
64.9,34
39.98,39
53.25,36
113.95,218
29.86,49
45.09,75
92.2,110
63.89,73
70.84,202
99.83,191
21.34,8
80.35,149
4.41,1
44.69,31
24.15,13
45,37
88.26,142
139.11,106
29.95,24
51.58,75
57.63,114
17.87,15
100.41,79
75.78,41
31.77,39
38.07,44
41.19,26
10.91,6
11.12,3
55.25,118
50.67,28
14.69,5
87.58,262
53.17,47
100.92,89
28.44,48
61.53,195
8.54,3
47.22,33
19.49,20
7.96,2
31.89,13
10.21,7
66.64,81
38.32,15
5.09,2
26.64,36
82.33,50
108.78,180
36.46,13
66.45,46
5.89,1
21.65,15
16.61,5
21.28,11
27.19,21
163.23,637
9.99,3
246.98,343
52.03,85
31.47,24
42.96,102
27.21,16
40.42,20
46.85,68
89.73,120
47.26,38
84.19,77
31.75,16
53.87,122
67.07,57
50.62,28
32.48,43
44.72,60
11.1,4
9.75,5
77.31,54
53.97,89
59.52,62
46.41,32
62.06,40
22.4,5
48.38,27
4.51,2
74.15,117
33.17,12
98.43,69
130.21,208
49.11,54
110.7,101
44.35,21
167.64,205
22.83,26
151.77,230
104.69,134
78.37,94
28.59,14
46.12,28
21.55,9
4.57,1
14.52,7
4.08,1
30.4,11
12.55,4
9.97,1
51.4,90
60.62,89
107.4,48
45.4,63
11.09,8
81.34,53
119.42,85
78.78,51
60.47,55
59.19,66
39.86,30
59.92,27
28.51,15
121.36,631
47.28,47
45.7,59
25.16,13
20.72,34
61.18,32
69.74,114
61.33,39
55.74,38
59.98,20
65.96,126
63.61,101
33.76,18
89.38,128
27.62,41
47.79,72
65.97,127
49.7,37
16,11
128.21,256
38.37,44
26.84,15
63,27
78.08,39
84.7,239
77.77,210
50.93,55
85.91,66
56.84,38
40.3,37
51.31,23
43.95,145
46.47,21
20.63,30
144.72,113
7.57,2
112.64,67
57.37,94
31.73,29
61.57,81
29.96,15
41.42,46
130.18,69
10.87,6
31.49,38
32.72,34
42.36,49
115.17,227
112.22,103
40.42,53
105.23,189
95.44,166
103.88,262
4.47,3
133.75,245
150.81,133
184.26,238
17.96,24
44.47,77
82.57,109
102.23,204
54.42,188
40.89,70
101.82,351
170,222
64.98,74
14.76,8
28.26,26
42.87,57
43.26,58
75.25,39
71.55,68
69.12,26
93.94,289
60.16,102
35.89,44
5.45,3
47.87,101
41.76,109
67.38,235
39.09,57
3.57,1
53.72,36
19.22,9
14.71,9
83.59,65
48.58,60
109.56,225
65.34,61
101.09,336
77.35,69
74.5,73
55.78,49
47.44,21
42.74,53
75.56,223
113.96,403
3.92,2
78.29,197
72.09,99
56.89,48
36.47,53
45.03,48
44.7,45
80.67,94
31.56,32
13.27,10
6.3,2
131.24,443
34.44,38
8.7,2
31.25,15
90.35,254
136.07,466
32.29,41
23.84,28
13.21,4
20.06,9
102.24,129
29.12,21
4.58,1
52.89,96
26.05,23
40.16,28
49.3,80
80.46,189
24.79,10
127.6,221
69.42,202
56.27,123
13.34,2
63.07,52
72.92,134
14.16,12
52.64,68
82.27,303
28.33,41
21.91,7
9.57,5
30.45,26
67.03,75
85.99,177
2.21,1
8.89,5
47.68,130
57.42,13
31.43,54
21.45,4
26.94,7
15.51,5
116.05,89
70.11,134
29.66,47
163.02,180
91.76,249
87.11,41
113.96,158
41.65,88
8.23,8
135.07,342
154.91,152
6.58,2
24.35,32
48.03,24
128.01,387
112.7,142
96.06,73
16.16,4
41.32,40
12.86,8
83.86,182
90.2,82
14,12
147.68,214
