0,1
1,1
2,1
3,1
4,1
5,1
6,2
7,2
8,3
9,4
10,4
11,4
12,4
13,6
14,8
15,8
16,10
17,14
18,16
19,17
20,17
21,18
22,19
23,22
24,23
25,26
26,30
27,33
28,42
29,46
30,49
31,54
32,60
33,64
34,73
35,77
36,86
37,90
38,99
39,104
40,107
41,118
42,126
43,132
44,140
45,148
46,156
47,165
48,177
49,190
50,201
51,205
52,217
53,226
54,242
55,250
56,270
57,285
58,301
59,311
60,330
61,357
62,378
63,409
64,438
65,465
66,496
67,525
68,566
69,603
70,639
71,676
72,719
73,769
74,820
75,883
76,939
77,1014
78,1096
79,1180
80,1268
