0,1
1,1
2,1
3,1
4,2
5,3
6,3
7,4
8,5
9,7
10,8
11,8
12,9
13,9
14,9
15,13
16,15
17,16
18,23
19,29
20,31
21,35
22,37
23,42
24,44
25,48
26,53
27,53
28,61
29,65
30,69
31,73
32,77
33,83
34,88
35,93
36,97
37,100
38,102
39,107
40,111
41,113
42,118
43,119
44,120
45,122
46,127
47,133
48,137
49,142
50,148
51,153
52,160
53,163
54,171
55,175
56,182
57,195
58,199
59,211
60,220
61,229
62,244
63,249
64,262
65,271
66,295
67,315
68,320
69,336
70,364
71,386
72,404
73,431
74,449
75,489
76,513
77,545
78,568
79,594
80,616
