0,1
1,1
2,1
3,2
4,2
5,2
6,3
7,3
8,5
9,8
10,9
11,10
12,11
13,13
14,15
15,16
16,18
17,20
18,21
19,25
20,26
21,29
22,30
23,31
24,34
25,37
26,41
27,42
28,44
29,48
30,52
31,55
32,59
33,66
34,70
35,74
36,87
37,90
38,99
39,109
40,123
41,138
42,151
43,162
44,167
45,186
46,205
47,225
48,238
49,258
50,279
51,298
52,315
53,328
54,353
55,381
56,403
57,429
58,457
59,489
60,517
61,543
62,580
63,627
64,666
65,711
66,757
67,792
68,846
69,886
70,935
71,1006
72,1060
73,1128
74,1196
75,1255
76,1338
77,1413
78,1489
79,1569
80,1652
