0,1
1,1
2,1
3,2
4,3
5,3
6,4
7,7
8,7
9,8
10,11
11,11
12,11
13,12
14,14
15,15
16,15
17,16
18,20
19,22
20,22
21,22
22,22
23,23
24,25
25,25
26,27
27,27
28,27
29,28
30,28
31,28
32,29
33,29
34,29
35,30
36,30
37,30
38,31
39,31
40,31
41,31
42,31
43,32
44,32
45,32
46,33
47,34
48,34
49,34
50,35
51,35
52,37
53,38
54,39
55,41
56,43
57,46
58,47
59,48
60,50
61,53
62,53
63,54
64,55
65,56
66,57
67,58
68,59
69,65
70,65
71,66
72,67
73,68
74,68
75,72
76,76
77,77
78,79
79,82
80,86
