0,1
1,1
2,1
3,1
4,2
5,2
6,4
7,5
8,5
9,6
10,6
11,7
12,8
13,13
14,15
15,19
16,19
17,21
18,26
19,29
20,37
21,39
22,42
23,48
24,54
25,59
26,62
27,66
28,72
29,77
30,84
31,88
32,96
33,102
34,110
35,118
36,127
37,132
38,137
39,144
40,150
41,166
42,170
43,180
44,187
45,194
46,204
47,212
48,218
49,227
50,245
51,261
52,272
53,286
54,306
55,321
56,345
57,359
58,371
59,395
60,417
61,441
62,465
63,487
64,527
65,559
66,587
67,619
68,647
69,691
70,723
71,763
72,805
73,860
74,902
75,953
76,1005
77,1073
78,1127
79,1183
80,1238
