0,1
1,1
2,1
3,1
4,3
5,5
6,5
7,5
8,5
9,6
10,6
11,7
12,10
13,11
14,11
15,12
16,12
17,14
18,14
19,16
20,17
21,19
22,21
23,24
24,27
25,27
26,30
27,30
28,31
29,33
30,35
31,38
32,39
33,43
34,46
35,51
36,53
37,58
38,59
39,66
40,71
41,80
42,85
43,91
44,94
45,101
46,107
47,114
48,121
49,128
50,135
51,143
52,150
53,160
54,170
55,177
56,190
57,204
58,217
59,227
60,243
61,267
62,290
63,310
64,322
65,344
66,376
67,403
68,420
69,449
70,478
71,508
72,537
73,592
74,621
75,657
76,693
77,732
78,771
79,810
80,862
