0,1
1,1
2,1
3,1
4,3
5,4
6,6
7,7
8,7
9,7
10,9
11,10
12,12
13,13
14,13
15,15
16,16
17,17
18,18
19,23
20,24
21,26
22,27
23,31
24,32
25,35
26,36
27,39
28,40
29,42
30,43
31,44
32,48
33,48
34,50
35,55
36,61
37,61
38,65
39,73
40,79
41,81
42,87
43,98
44,104
45,111
46,117
47,122
48,135
49,141
50,149
51,157
52,163
53,176
54,188
55,196
56,202
57,214
58,229
59,241
60,256
61,272
62,285
63,304
64,330
65,354
66,370
67,400
68,431
69,469
70,499
71,529
72,557
73,588
74,628
75,663
76,704
77,746
78,797
79,846
80,893
