0,1
1,1
2,1
3,1
4,1
5,1
6,2
7,3
8,3
9,3
10,3
11,3
12,4
13,4
14,5
15,5
16,5
17,6
18,6
19,7
20,7
21,8
22,8
23,8
24,8
25,9
26,9
27,9
28,9
29,10
30,11
31,13
32,13
33,14
34,14
35,14
36,15
37,15
38,16
39,16
40,19
41,19
42,19
43,20
44,21
45,22
46,24
47,24
48,25
49,26
50,28
51,29
52,30
53,30
54,31
55,38
56,39
57,42
58,47
59,51
60,51
61,56
62,57
63,59
64,60
65,60
66,63
67,65
68,67
69,69
70,69
71,73
72,80
73,88
74,93
75,97
76,102
77,114
78,121
79,130
80,140
