0,1
1,1
2,1
3,1
4,2
5,2
6,2
7,2
8,3
9,3
10,3
11,3
12,6
13,7
14,8
15,10
16,11
17,12
18,14
19,15
20,16
21,17
22,18
23,18
24,19
25,21
26,22
27,23
28,25
29,26
30,26
31,29
32,32
33,33
34,35
35,39
36,40
37,42
38,43
39,43
40,44
41,47
42,50
43,52
44,54
45,56
46,56
47,57
48,59
49,61
50,62
51,62
52,63
53,65
54,67
55,69
56,71
57,72
58,75
59,78
60,82
61,85
62,86
63,89
64,92
65,95
66,97
67,97
68,102
69,105
70,107
71,113
72,116
73,116
74,117
75,118
76,121
77,128
78,131
79,134
80,138
