0,1
1,1
2,1
3,1
4,3
5,4
6,5
7,8
8,9
9,10
10,12
11,13
12,14
13,16
14,19
15,22
16,27
17,28
18,32
19,32
20,35
21,36
22,38
23,38
24,40
25,42
26,43
27,44
28,45
29,45
30,46
31,47
32,47
33,50
34,52
35,54
36,55
37,56
38,58
39,59
40,60
41,60
42,61
43,62
44,62
45,65
46,66
47,67
48,68
49,68
50,72
51,72
52,73
53,74
54,75
55,77
56,79
57,80
58,82
59,82
60,83
61,84
62,84
63,84
64,84
65,84
66,84
67,85
68,85
69,85
70,86
71,87
72,88
73,89
74,91
75,93
76,95
77,96
78,96
79,99
80,103
