0,1
1,1
2,1
3,2
4,3
5,3
6,5
7,5
8,7
9,8
10,10
11,13
12,13
13,16
14,21
15,25
16,27
17,30
18,34
19,38
20,43
21,47
22,53
23,59
24,61
25,64
26,70
27,78
28,85
29,89
30,100
31,109
32,117
33,124
34,137
35,152
36,160
37,172
38,183
39,198
40,215
41,222
42,238
43,246
44,261
45,273
46,287
47,302
48,322
49,347
50,363
51,384
52,401
53,417
54,439
55,450
56,469
57,496
58,526
59,546
60,569
61,595
62,622
63,649
64,674
65,698
66,729
67,765
68,803
69,841
70,873
71,912
72,949
73,991
74,1025
75,1074
76,1124
77,1171
78,1225
79,1272
80,1325
