0,1
1,1
2,1
3,2
4,2
5,2
6,2
7,3
8,3
9,5
10,6
11,7
12,7
13,8
14,13
15,13
16,15
17,20
18,24
19,28
20,28
21,32
22,38
23,41
24,46
25,55
26,59
27,60
28,63
29,71
30,73
31,80
32,84
33,89
34,93
35,98
36,101
37,106
38,107
39,111
40,115
41,118
42,121
43,124
44,127
45,129
46,134
47,139
48,144
49,149
50,151
51,154
52,164
53,166
54,170
55,175
56,179
57,184
58,190
59,196
60,201
61,205
62,210
63,217
64,221
65,224
66,237
67,241
68,245
69,250
70,258
71,266
72,270
73,281
74,292
75,299
76,307
77,311
78,321
79,328
80,343
