0,1
1,1
2,1
3,2
4,2
5,2
6,2
7,2
8,2
9,2
10,2
11,3
12,3
13,3
14,3
15,3
16,3
17,3
18,5
19,5
20,5
21,5
22,5
23,6
24,9
25,12
26,12
27,15
28,20
29,26
30,33
31,39
32,44
33,51
34,57
35,65
36,70
37,75
38,80
39,89
40,95
41,101
42,115
43,127
44,141
45,150
46,153
47,166
48,180
49,197
50,211
51,227
52,245
53,265
54,288
55,304
56,323
57,355
58,384
59,415
60,445
61,474
62,510
63,544
64,581
65,617
66,650
67,692
68,734
69,777
70,816
71,871
72,916
73,972
74,1031
75,1092
76,1158
77,1221
78,1285
79,1350
80,1441
