0,1
1,1
2,1
3,1
4,1
5,1
6,1
7,2
8,2
9,2
10,2
11,2
12,2
13,3
14,3
15,3
16,4
17,4
18,5
19,5
20,5
21,6
22,8
23,9
24,10
25,11
26,13
27,13
28,16
29,17
30,17
31,17
32,20
33,23
34,26
35,28
36,33
37,36
38,43
39,48
40,51
41,54
42,58
43,64
44,74
45,78
46,80
47,82
48,92
49,97
50,100
51,109
52,117
53,122
54,128
55,135
56,148
57,158
58,163
59,172
60,178
61,190
62,195
63,200
64,215
65,225
66,231
67,241
68,248
69,260
70,273
71,290
72,303
73,320
74,333
75,347
76,363
77,373
78,395
79,409
80,431
