0,1
1,1
2,1
3,1
4,3
5,3
6,4
7,4
8,6
9,9
10,11
11,12
12,12
13,13
14,16
15,16
16,16
17,17
18,17
19,19
20,19
21,19
22,21
23,23
24,24
25,24
26,25
27,25
28,28
29,31
30,31
31,32
32,33
33,39
34,41
35,43
36,49
37,52
38,57
39,61
40,65
41,70
42,74
43,76
44,79
45,84
46,88
47,93
48,100
49,106
50,110
51,117
52,125
53,129
54,132
55,136
56,140
57,148
58,156
59,161
60,166
61,170
62,176
63,181
64,188
65,192
66,200
67,212
68,222
69,227
70,234
71,242
72,250
73,263
74,273
75,281
76,289
77,302
78,311
79,321
80,334
