0,1
1,1
2,1
3,1
4,1
5,1
6,1
7,1
8,1
9,2
10,2
11,2
12,2
13,3
14,3
15,3
16,5
17,6
18,6
19,6
20,8
21,9
22,11
23,11
24,12
25,14
26,16
27,18
28,21
29,23
30,27
31,31
32,33
33,41
34,44
35,49
36,50
37,58
38,64
39,69
40,74
41,78
42,80
43,85
44,89
45,94
46,99
47,99
48,101
49,103
50,106
51,111
52,113
53,117
54,125
55,129
56,131
57,132
58,137
59,140
60,142
61,143
62,147
63,156
64,159
65,163
66,168
67,171
68,173
69,175
70,181
71,184
72,188
73,193
74,200
75,208
76,214
77,218
78,223
79,228
80,240
