0,1
1,1
2,1
3,1
4,2
5,2
6,2
7,2
8,2
9,2
10,3
11,4
12,4
13,4
14,7
15,8
16,9
17,11
18,12
19,15
20,16
21,19
22,22
23,26
24,28
25,30
26,36
27,38
28,47
29,51
30,54
31,61
32,65
33,67
34,75
35,84
36,88
37,95
38,101
39,109
40,127
41,137
42,143
43,153
44,163
45,176
46,186
47,196
48,215
49,231
50,246
51,261
52,280
53,296
54,317
55,338
56,356
57,371
58,384
59,401
60,433
61,458
62,477
63,508
64,537
65,564
66,592
67,618
68,646
69,673
70,701
71,736
72,774
73,803
74,841
75,883
76,917
77,961
78,1000
79,1054
80,1112
