0,1
1,1
2,1
3,1
4,1
5,2
6,2
7,2
8,3
9,3
10,3
11,3
12,3
13,4
14,4
15,4
16,4
17,4
18,4
19,5
20,5
21,5
22,5
23,6
24,7
25,7
26,7
27,9
28,11
29,11
30,12
31,12
32,12
33,13
34,13
35,14
36,15
37,17
38,18
39,21
40,23
41,24
42,25
43,29
44,31
45,35
46,38
47,39
48,41
49,43
50,51
51,56
52,62
53,69
54,78
55,83
56,92
57,97
58,105
59,111
60,122
61,136
62,149
63,162
64,178
65,189
66,199
67,212
68,223
69,235
70,245
71,263
72,276
73,287
74,300
75,314
76,330
77,345
78,360
79,376
80,397
