0,1
1,1
2,1
3,1
4,2
5,2
6,2
7,4
8,5
9,5
10,5
11,7
12,8
13,9
14,11
15,12
16,12
17,13
18,15
19,15
20,17
21,17
22,20
23,22
24,23
25,25
26,27
27,31
28,35
29,39
30,42
31,46
32,51
33,58
34,63
35,69
36,75
37,83
38,89
39,99
40,104
41,112
42,115
43,125
44,134
45,142
46,150
47,156
48,163
49,177
50,185
51,198
52,207
53,224
54,233
55,256
56,279
57,304
58,322
59,346
60,367
61,395
62,422
63,450
64,478
65,519
66,559
67,588
68,621
69,657
70,704
71,747
72,798
73,845
74,895
75,942
76,1007
77,1064
78,1124
79,1182
80,1249
