0,1
1,1
2,1
3,1
4,1
5,1
6,2
7,2
8,2
9,3
10,4
11,5
12,5
13,7
14,7
15,8
16,9
17,11
18,11
19,11
20,11
21,13
22,15
23,15
24,15
25,16
26,16
27,16
28,16
29,17
30,17
31,17
32,18
33,19
34,20
35,20
36,23
37,26
38,28
39,30
40,34
41,41
42,46
43,54
44,60
45,70
46,77
47,86
48,97
49,104
50,115
51,123
52,132
53,143
54,156
55,165
56,181
57,194
58,204
59,216
60,230
61,247
62,268
63,282
64,304
65,324
66,347
67,373
68,406
69,433
70,458
71,492
72,514
73,543
74,577
75,616
76,648
77,682
78,714
79,749
80,794
