0,1
1,1
2,1
3,1
4,1
5,2
6,4
7,5
8,5
9,5
10,5
11,7
12,9
13,10
14,10
15,12
16,14
17,14
18,16
19,17
20,18
21,21
22,24
23,26
24,26
25,31
26,34
27,35
28,37
29,41
30,48
31,50
32,53
33,59
34,66
35,69
36,74
37,78
38,85
39,90
40,98
41,102
42,107
43,112
44,121
45,133
46,140
47,149
48,167
49,177
50,186
51,194
52,213
53,229
54,244
55,263
56,283
57,303
58,315
59,340
60,361
61,375
62,417
63,448
64,471
65,514
66,548
67,579
68,622
69,661
70,701
71,748
72,793
73,828
74,881
75,936
76,989
77,1041
78,1101
79,1166
80,1230
