0,1
1,1
2,1
3,1
4,1
5,1
6,2
7,2
8,2
9,3
10,3
11,3
12,4
13,4
14,4
15,4
16,6
17,8
18,9
19,12
20,12
21,12
22,15
23,16
24,17
25,18
26,20
27,20
28,21
29,22
30,25
31,26
32,29
33,31
34,32
35,34
36,34
37,36
38,39
39,41
40,42
41,43
42,45
43,47
44,52
45,54
46,55
47,58
48,59
49,60
50,66
51,68
52,70
53,70
54,73
55,76
56,77
57,81
58,85
59,88
60,90
61,95
62,99
63,106
64,111
65,113
66,120
67,122
68,126
69,134
70,143
71,147
72,152
73,158
74,167
75,174
76,177
77,192
78,199
79,210
80,224
