0,1
1,1
2,1
3,1
4,1
5,2
6,3
7,4
8,4
9,5
10,6
11,7
12,7
13,7
14,9
15,10
16,11
17,12
18,14
19,16
20,18
21,20
22,22
23,24
24,24
25,28
26,35
27,41
28,44
29,48
30,52
31,59
32,64
33,74
34,79
35,84
36,97
37,108
38,121
39,132
40,140
41,149
42,156
43,173
44,183
45,194
46,204
47,211
48,217
49,230
50,235
51,241
52,255
53,267
54,277
55,288
56,300
57,311
58,323
59,329
60,345
61,361
62,380
63,391
64,415
65,429
66,447
67,466
68,487
69,513
70,532
71,555
72,587
73,614
74,641
75,664
76,693
77,724
78,756
79,789
80,826
