0,1
1,1
2,1
3,1
4,1
5,1
6,1
7,1
8,2
9,2
10,2
11,2
12,2
13,3
14,3
15,3
16,6
17,6
18,7
19,7
20,7
21,9
22,9
23,11
24,12
25,13
26,16
27,18
28,20
29,24
30,25
31,27
32,31
33,32
34,36
35,41
36,48
37,52
38,60
39,61
40,67
41,74
42,75
43,81
44,87
45,97
46,105
47,113
48,119
49,125
50,133
51,139
52,146
53,156
54,163
55,169
56,182
57,194
58,204
59,214
60,234
61,250
62,268
63,282
64,296
65,306
66,321
67,341
68,357
69,370
70,399
71,418
72,429
73,449
74,465
75,479
76,502
77,520
78,554
79,578
80,603
