0,1
1,1
2,1
3,2
4,2
5,2
6,3
7,3
8,4
9,4
10,6
11,6
12,8
13,10
14,10
15,10
16,10
17,11
18,11
19,13
20,13
21,13
22,13
23,15
24,15
25,16
26,17
27,20
28,20
29,20
30,20
31,22
32,23
33,24
34,28
35,29
36,30
37,31
38,31
39,33
40,34
41,34
42,35
43,36
44,38
45,42
46,42
47,44
48,45
49,48
50,49
51,51
52,52
53,54
54,58
55,61
56,67
57,74
58,75
59,82
60,87
61,94
62,101
63,106
64,112
65,115
66,131
67,141
68,154
69,157
70,169
71,184
72,193
73,204
74,211
75,223
76,238
77,253
78,266
79,282
80,305
