0,1
1,1
2,1
3,1
4,2
5,3
6,4
7,4
8,4
9,6
10,6
11,7
12,8
13,8
14,10
15,10
16,11
17,13
18,13
19,15
20,17
21,18
22,18
23,18
24,18
25,19
26,20
27,21
28,21
29,22
30,23
31,23
32,24
33,24
34,25
35,26
36,29
37,30
38,33
39,36
40,39
41,40
42,42
43,43
44,47
45,47
46,50
47,53
48,57
49,58
50,61
51,65
52,74
53,76
54,82
55,85
56,90
57,99
58,103
59,113
60,117
61,120
62,127
63,137
64,144
65,152
66,160
67,169
68,183
69,201
70,210
71,222
72,236
73,247
74,260
75,271
76,284
77,300
78,318
79,337
80,352
