0,1
1,1
2,1
3,1
4,1
5,2
6,2
7,4
8,4
9,5
10,7
11,8
12,8
13,8
14,9
15,9
16,12
17,13
18,15
19,15
20,16
21,18
22,19
23,22
24,22
25,25
26,27
27,30
28,34
29,38
30,41
31,44
32,47
33,52
34,54
35,56
36,62
37,67
38,71
39,79
40,87
41,90
42,94
43,99
44,109
45,118
46,122
47,129
48,143
49,155
50,166
51,179
52,190
53,205
54,222
55,239
56,253
57,278
58,300
59,330
60,361
61,394
62,433
63,468
64,512
65,548
66,587
67,635
68,697
69,744
70,808
71,862
72,920
73,987
74,1049
75,1110
76,1172
77,1253
78,1331
79,1405
80,1509
