0,1
1,1
2,1
3,3
4,3
5,4
6,4
7,5
8,8
9,8
10,8
11,10
12,11
13,12
14,13
15,16
16,16
17,20
18,21
19,26
20,28
21,29
22,30
23,32
24,34
25,35
26,35
27,36
28,41
29,46
30,48
31,50
32,53
33,57
34,59
35,67
36,75
37,85
38,87
39,95
40,106
41,120
42,124
43,128
44,136
45,148
46,155
47,166
48,171
49,177
50,197
51,200
52,208
53,217
54,236
55,251
56,263
57,276
58,292
59,306
60,322
61,335
62,367
63,388
64,407
65,434
66,456
67,476
68,502
69,525
70,547
71,581
72,603
73,631
74,663
75,696
76,734
77,768
78,800
79,834
80,879
