0,1
1,1
2,1
3,1
4,1
5,2
6,2
7,4
8,4
9,7
10,9
11,10
12,11
13,16
14,20
15,21
16,22
17,25
18,29
19,31
20,38
21,40
22,43
23,49
24,58
25,62
26,67
27,70
28,72
29,76
30,83
31,87
32,90
33,95
34,96
35,101
36,101
37,110
38,117
39,119
40,121
41,125
42,128
43,132
44,136
45,139
46,143
47,146
48,149
49,152
50,155
51,158
52,161
53,165
54,167
55,168
56,170
57,171
58,172
59,176
60,178
61,181
62,181
63,185
64,190
65,195
66,198
67,202
68,204
69,209
70,210
71,217
72,220
73,224
74,230
75,235
76,237
77,241
78,249
79,258
80,265
