0,1
1,1
2,1
3,1
4,2
5,2
6,3
7,5
8,5
9,7
10,8
11,9
12,11
13,17
14,20
15,23
16,25
17,27
18,30
19,33
20,36
21,39
22,40
23,41
24,45
25,48
26,50
27,52
28,54
29,59
30,60
31,62
32,66
33,66
34,72
35,72
36,80
37,84
38,89
39,91
40,96
41,101
42,104
43,110
44,115
45,118
46,120
47,122
48,126
49,130
50,133
51,134
52,136
53,140
54,144
55,146
56,149
57,160
58,165
59,170
60,173
61,186
62,192
63,205
64,209
65,222
66,233
67,241
68,249
69,261
70,275
71,291
72,306
73,322
74,336
75,362
76,382
77,405
78,433
79,457
80,485
