0,1
1,1
2,2
3,2
4,2
5,4
6,5
7,7
8,8
9,12
10,14
11,14
12,15
13,18
14,20
15,25
16,26
17,29
18,30
19,32
20,33
21,34
22,35
23,36
24,38
25,41
26,42
27,46
28,47
29,50
30,55
31,57
32,58
33,59
34,61
35,66
36,68
37,70
38,71
39,74
40,77
41,79
42,83
43,85
44,88
45,92
46,95
47,98
48,100
49,101
50,103
51,103
52,104
53,104
54,104
55,104
56,104
57,104
58,104
59,104
60,105
61,105
62,105
63,106
64,106
65,106
66,107
67,107
68,107
69,107
70,107
71,109
72,109
73,110
74,111
75,115
76,116
77,117
78,118
79,118
80,120
