0,1
1,1
2,1
3,2
4,2
5,3
6,5
7,6
8,9
9,10
10,11
11,13
12,17
13,17
14,18
15,20
16,23
17,28
18,30
19,31
20,38
21,42
22,45
23,53
24,58
25,71
26,85
27,97
28,107
29,122
30,139
31,150
32,173
33,192
34,216
35,236
36,253
37,277
38,307
39,324
40,351
41,379
42,402
43,426
44,448
45,483
46,519
47,547
48,578
49,614
50,647
51,687
52,730
53,766
54,810
55,852
56,894
57,950
58,999
59,1052
60,1109
61,1161
62,1227
63,1286
64,1336
65,1411
66,1508
67,1591
68,1663
69,1748
70,1831
71,1921
72,2035
73,2153
74,2257
75,2392
76,2505
77,2634
78,2783
79,2941
80,3081
