0,1
1,1
2,1
3,1
4,1
5,2
6,3
7,5
8,5
9,5
10,5
11,9
12,10
13,12
14,13
15,14
16,19
17,22
18,23
19,25
20,28
21,29
22,34
23,40
24,45
25,49
26,52
27,54
28,58
29,63
30,68
31,70
32,77
33,89
34,99
35,103
36,108
37,117
38,129
39,139
40,145
41,157
42,166
43,181
44,190
45,216
46,228
47,242
48,259
49,272
50,289
51,302
52,317
53,339
54,355
55,370
56,393
57,413
58,434
59,456
60,484
61,508
62,538
63,572
64,602
65,643
66,682
67,709
68,749
69,795
70,846
71,899
72,947
73,1013
74,1081
75,1147
76,1209
77,1284
78,1389
79,1474
80,1556
