0,1
1,1
2,1
3,1
4,1
5,3
6,3
7,3
8,3
9,3
10,5
11,5
12,6
13,9
14,9
15,9
16,9
17,10
18,10
19,10
20,10
21,10
22,10
23,10
24,11
25,11
26,11
27,11
28,11
29,12
30,12
31,13
32,14
33,15
34,16
35,18
36,19
37,20
38,21
39,22
40,22
41,23
42,24
43,24
44,24
45,25
46,25
47,27
48,27
49,27
50,27
51,27
52,27
53,31
54,31
55,31
56,32
57,34
58,34
59,35
60,39
61,40
62,41
63,43
64,44
65,47
66,50
67,50
68,51
69,53
70,56
71,57
72,58
73,60
74,61
75,63
76,65
77,66
78,67
79,70
80,71
