0,1
1,1
2,1
3,1
4,2
5,4
6,4
7,4
8,5
9,5
10,5
11,5
12,7
13,8
14,9
15,9
16,9
17,9
18,11
19,13
20,16
21,18
22,19
23,24
24,29
25,32
26,36
27,39
28,45
29,48
30,53
31,57
32,62
33,67
34,72
35,74
36,83
37,90
38,96
39,99
40,113
41,123
42,134
43,147
44,162
45,173
46,188
47,206
48,225
49,247
50,265
51,284
52,313
53,338
54,356
55,378
56,410
57,443
58,477
59,513
60,552
61,579
62,614
63,655
64,686
65,735
66,775
67,825
68,878
69,927
70,974
71,1017
72,1065
73,1123
74,1181
75,1226
76,1290
77,1346
78,1432
79,1513
80,1591
