0,1
1,1
2,1
3,1
4,1
5,2
6,3
7,3
8,3
9,3
10,4
11,4
12,5
13,5
14,5
15,6
16,7
17,7
18,7
19,8
20,8
21,9
22,10
23,10
24,12
25,12
26,12
27,14
28,15
29,16
30,18
31,18
32,22
33,24
34,25
35,25
36,28
37,35
38,41
39,47
40,50
41,53
42,56
43,62
44,69
45,81
46,88
47,102
48,119
49,128
50,143
51,156
52,167
53,184
54,199
55,215
56,228
57,246
58,264
59,287
60,310
61,331
62,348
63,376
64,404
65,435
66,464
67,497
68,539
69,577
70,606
71,651
72,701
73,754
74,810
75,865
76,912
77,964
78,1037
79,1108
80,1182
