0,1
1,1
2,1
3,1
4,1
5,1
6,1
7,2
8,2
9,2
10,2
11,2
12,2
13,2
14,2
15,2
16,3
17,3
18,3
19,3
20,3
21,3
22,4
23,5
24,7
25,8
26,10
27,11
28,12
29,13
30,16
31,16
32,16
33,16
34,17
35,18
36,20
37,21
38,23
39,24
40,24
41,25
42,29
43,30
44,31
45,33
46,35
47,38
48,40
49,44
50,47
51,48
52,55
53,57
54,60
55,63
56,65
57,70
58,74
59,81
60,87
61,89
62,94
63,102
64,113
65,116
66,126
67,131
68,143
69,148
70,156
71,163
72,164
73,165
74,174
75,177
76,186
77,189
78,196
79,203
80,214
