0,1
1,1
2,1
3,1
4,1
5,6
6,6
7,6
8,7
9,10
10,11
11,12
12,13
13,19
14,22
15,26
16,29
17,36
18,37
19,43
20,47
21,50
22,52
23,55
24,58
25,59
26,66
27,69
28,73
29,78
30,84
31,90
32,99
33,105
34,110
35,122
36,135
37,151
38,165
39,177
40,192
41,214
42,239
43,257
44,273
45,290
46,309
47,343
48,361
49,382
50,405
51,441
52,464
53,500
54,530
55,564
56,604
57,642
58,687
59,733
60,766
61,809
62,862
63,918
64,978
65,1036
66,1091
67,1170
68,1243
69,1318
70,1396
71,1487
72,1566
73,1664
74,1758
75,1881
76,2003
77,2094
78,2235
79,2343
80,2487
