0,1
1,1
2,1
3,1
4,2
5,3
6,3
7,4
8,4
9,5
10,7
11,8
12,10
13,10
14,14
15,15
16,19
17,21
18,24
19,27
20,36
21,41
22,45
23,51
24,58
25,66
26,72
27,78
28,83
29,88
30,102
31,111
32,121
33,125
34,133
35,139
36,146
37,161
38,168
39,185
40,192
41,210
42,222
43,233
44,250
45,277
46,294
47,307
48,329
49,346
50,379
51,402
52,422
53,440
54,465
55,490
56,515
57,540
58,564
59,602
60,622
61,663
62,709
63,743
64,779
65,823
66,873
67,930
68,974
69,1028
70,1082
71,1149
72,1198
73,1262
74,1328
75,1409
76,1473
77,1556
78,1636
79,1728
80,1831
