0,1
1,1
2,1
3,1
4,1
5,2
6,2
7,3
8,3
9,4
10,4
11,5
12,5
13,6
14,7
15,7
16,9
17,9
18,9
19,11
20,12
21,13
22,16
23,20
24,23
25,26
26,32
27,33
28,36
29,42
30,50
31,57
32,60
33,67
34,72
35,76
36,83
37,90
38,98
39,103
40,107
41,111
42,123
43,129
44,131
45,134
46,142
47,148
48,158
49,162
50,169
51,177
52,180
53,187
54,196
55,198
56,206
57,212
58,220
59,224
60,231
61,240
62,248
63,255
64,264
65,280
66,288
67,292
68,304
69,316
70,325
71,334
72,345
73,360
74,367
75,383
76,406
77,419
78,433
79,454
80,463
