0,1
1,1
2,1
3,2
4,3
5,3
6,5
7,5
8,7
9,7
10,7
11,8
12,10
13,11
14,11
15,11
16,11
17,12
18,12
19,13
20,13
21,13
22,14
23,15
24,17
25,18
26,20
27,22
28,25
29,26
30,27
31,28
32,33
33,38
34,40
35,41
36,43
37,45
38,47
39,51
40,51
41,53
42,54
43,56
44,59
45,61
46,66
47,71
48,74
49,75
50,80
51,85
52,93
53,98
54,103
55,107
56,121
57,131
58,140
59,145
60,160
61,173
62,186
63,204
64,222
65,241
66,255
67,275
68,299
69,321
70,351
71,372
72,394
73,430
74,461
75,487
76,524
77,560
78,593
79,635
80,662
