0,1
1,1
2,1
3,1
4,1
5,1
6,1
7,2
8,2
9,2
10,3
11,3
12,4
13,4
14,4
15,4
16,4
17,4
18,4
19,4
20,4
21,5
22,5
23,5
24,6
25,6
26,8
27,9
28,10
29,14
30,15
31,16
32,18
33,23
34,25
35,28
36,31
37,34
38,40
39,44
40,49
41,52
42,54
43,55
44,61
45,65
46,71
47,77
48,81
49,86
50,90
51,99
52,102
53,111
54,116
55,120
56,127
57,127
58,134
59,140
60,147
61,151
62,156
63,164
64,176
65,182
66,188
67,200
68,206
69,221
70,231
71,246
72,261
73,281
74,293
75,309
76,328
77,340
78,367
79,388
80,405
