0,1
1,1
2,1
3,1
4,1
5,1
6,2
7,3
8,3
9,4
10,4
11,4
12,4
13,4
14,5
15,5
16,6
17,6
18,6
19,6
20,6
21,6
22,7
23,7
24,7
25,7
26,7
27,7
28,8
29,8
30,8
31,8
32,9
33,9
34,9
35,9
36,10
37,11
38,11
39,12
40,12
41,13
42,14
43,15
44,15
45,18
46,21
47,22
48,26
49,27
50,29
51,33
52,36
53,38
54,39
55,44
56,48
57,51
58,56
59,58
60,60
61,63
62,67
63,69
64,73
65,75
66,77
67,80
68,84
69,87
70,92
71,95
72,99
73,103
74,107
75,111
76,115
77,118
78,124
79,130
80,134
