0,1
1,1
2,1
3,1
4,2
5,3
6,3
7,3
8,4
9,4
10,6
11,7
12,8
13,8
14,9
15,10
16,12
17,13
18,14
19,15
20,16
21,16
22,19
23,22
24,22
25,24
26,25
27,26
28,28
29,29
30,32
31,36
32,36
33,37
34,40
35,45
36,49
37,52
38,54
39,56
40,56
41,58
42,59
43,69
44,73
45,77
46,84
47,92
48,96
49,106
50,116
51,122
52,127
53,134
54,146
55,151
56,155
57,165
58,174
59,181
60,188
61,199
62,207
63,214
64,223
65,235
66,246
67,260
68,268
69,277
70,294
71,304
72,318
73,341
74,353
75,372
76,389
77,409
78,429
79,450
80,469
