0,1
1,1
2,1
3,1
4,1
5,1
6,1
7,1
8,2
9,2
10,2
11,2
12,2
13,4
14,5
15,5
16,6
17,7
18,8
19,8
20,9
21,9
22,11
23,12
24,13
25,14
26,16
27,18
28,19
29,20
30,21
31,24
32,25
33,31
34,32
35,36
36,36
37,39
38,41
39,44
40,47
41,47
42,50
43,53
44,55
45,58
46,59
47,60
48,63
49,67
50,69
51,70
52,72
53,73
54,74
55,77
56,82
57,82
58,85
59,91
60,95
61,96
62,99
63,105
64,113
65,118
66,123
67,129
68,133
69,134
70,142
71,149
72,151
73,155
74,161
75,165
76,175
77,180
78,187
79,192
80,199
