0,1
1,1
2,1
3,1
4,1
5,2
6,2
7,2
8,2
9,3
10,3
11,3
12,4
13,4
14,5
15,5
16,5
17,6
18,6
19,7
20,8
21,9
22,10
23,11
24,13
25,13
26,13
27,13
28,15
29,16
30,16
31,17
32,17
33,18
34,19
35,21
36,22
37,24
38,24
39,25
40,26
41,28
42,30
43,30
44,30
45,30
46,33
47,33
48,34
49,36
50,37
51,39
52,40
53,42
54,45
55,45
56,47
57,48
58,49
59,53
60,55
61,57
62,57
63,57
64,60
65,63
66,64
67,64
68,67
69,70
70,73
71,78
72,84
73,87
74,89
75,93
76,99
77,102
78,107
79,112
80,118
