0,1
1,1
2,1
3,1
4,1
5,1
6,2
7,2
8,2
9,3
10,5
11,6
12,6
13,6
14,8
15,12
16,14
17,15
18,17
19,18
20,19
21,21
22,24
23,25
24,28
25,33
26,35
27,39
28,41
29,48
30,52
31,53
32,57
33,60
34,69
35,74
36,76
37,82
38,87
39,91
40,95
41,104
42,111
43,118
44,127
45,139
46,143
47,151
48,163
49,179
50,188
51,210
52,231
53,247
54,258
55,281
56,314
57,343
58,365
59,389
60,420
61,448
62,477
63,500
64,538
65,580
66,615
67,654
68,687
69,732
70,780
71,832
72,874
73,926
74,979
75,1041
76,1099
77,1147
78,1209
79,1285
80,1347
