0,1
1,1
2,1
3,1
4,2
5,3
6,4
7,4
8,5
9,5
10,5
11,6
12,7
13,9
14,10
15,12
16,12
17,12
18,14
19,20
20,22
21,24
22,28
23,31
24,31
25,35
26,41
27,43
28,45
29,52
30,56
31,61
32,68
33,74
34,80
35,83
36,89
37,94
38,98
39,106
40,110
41,120
42,125
43,128
44,134
45,139
46,142
47,152
48,158
49,166
50,173
51,181
52,188
53,197
54,206
55,213
56,225
57,238
58,247
59,269
60,287
61,306
62,319
63,336
64,361
65,381
66,399
67,416
68,433
69,465
70,499
71,523
72,554
73,584
74,616
75,656
76,696
77,743
78,775
79,818
80,856
