0,1
1,1
2,1
3,1
4,2
5,4
6,5
7,6
8,8
9,11
10,12
11,16
12,19
13,22
14,26
15,31
16,39
17,43
18,49
19,56
20,60
21,65
22,71
23,75
24,83
25,86
26,89
27,98
28,110
29,116
30,130
31,137
32,146
33,151
34,161
35,167
36,176
37,179
38,186
39,197
40,205
41,209
42,217
43,228
44,237
45,252
46,260
47,265
48,277
49,283
50,293
51,300
52,311
53,317
54,329
55,345
56,349
57,354
58,362
59,364
60,373
61,383
62,389
63,393
64,402
65,407
66,417
67,429
68,437
69,445
70,456
71,472
72,487
73,500
74,516
75,537
76,552
77,562
78,580
79,597
80,613
