0,1
1,1
2,1
3,1
4,2
5,3
6,3
7,4
8,4
9,4
10,4
11,4
12,4
13,5
14,6
15,6
16,7
17,8
18,8
19,8
20,9
21,9
22,10
23,10
24,12
25,12
26,13
27,14
28,15
29,15
30,18
31,20
32,20
33,21
34,22
35,27
36,28
37,30
38,34
39,36
40,40
41,46
42,51
43,54
44,61
45,68
46,73
47,79
48,85
49,89
50,97
51,107
52,118
53,122
54,129
55,137
56,152
57,163
58,173
59,181
60,188
61,195
62,206
63,215
64,218
65,228
66,240
67,247
68,255
69,268
70,278
71,291
72,301
73,313
74,331
75,344
76,365
77,379
78,387
79,398
80,418
