0,1
1,1
2,1
3,1
4,1
5,1
6,2
7,2
8,2
9,2
10,3
11,3
12,3
13,3
14,4
15,4
16,4
17,4
18,6
19,6
20,6
21,7
22,9
23,10
24,11
25,12
26,15
27,18
28,22
29,26
30,30
31,33
32,34
33,41
34,47
35,50
36,52
37,55
38,56
39,60
40,62
41,62
42,64
43,71
44,75
45,77
46,84
47,86
48,94
49,95
50,103
51,109
52,112
53,117
54,124
55,131
56,138
57,141
58,147
59,159
60,168
61,173
62,183
63,197
64,207
65,217
66,229
67,245
68,257
69,267
70,278
71,288
72,302
73,320
74,337
75,351
76,369
77,386
78,401
79,418
80,438
