0,1
1,1
2,1
3,1
4,1
5,2
6,2
7,2
8,2
9,2
10,2
11,3
12,3
13,3
14,3
15,3
16,3
17,4
18,4
19,4
20,4
21,4
22,4
23,5
24,6
25,6
26,6
27,7
28,7
29,8
30,8
31,8
32,10
33,10
34,10
35,12
36,12
37,14
38,14
39,14
40,15
41,16
42,18
43,18
44,18
45,20
46,23
47,25
48,28
49,29
50,34
51,38
52,41
53,46
54,50
55,61
56,67
57,71
58,79
59,82
60,88
61,95
62,98
63,100
64,108
65,115
66,119
67,123
68,129
69,134
70,142
71,149
72,160
73,171
74,183
75,198
76,207
77,225
78,238
79,257
80,274
