0,1
1,1
2,1
3,1
4,2
5,3
6,3
7,3
8,4
9,4
10,6
11,7
12,7
13,7
14,8
15,9
16,11
17,13
18,14
19,19
20,21
21,23
22,27
23,29
24,30
25,32
26,36
27,37
28,42
29,45
30,45
31,50
32,54
33,59
34,62
35,64
36,69
37,74
38,78
39,85
40,88
41,93
42,96
43,107
44,111
45,114
46,124
47,132
48,136
49,148
50,159
51,168
52,180
53,196
54,207
55,220
56,226
57,245
58,256
59,272
60,288
61,302
62,321
63,336
64,359
65,379
66,406
67,433
68,464
69,488
70,521
71,547
72,576
73,610
74,655
75,692
76,724
77,765
78,825
79,877
80,923
