0,1
1,1
2,1
3,1
4,2
5,2
6,2
7,3
8,3
9,5
10,5
11,5
12,5
13,5
14,6
15,6
16,7
17,7
18,7
19,7
20,8
21,8
22,10
23,11
24,11
25,11
26,13
27,17
28,17
29,19
30,24
31,29
32,30
33,38
34,43
35,45
36,52
37,56
38,61
39,71
40,76
41,78
42,84
43,94
44,98
45,107
46,111
47,120
48,129
49,137
50,147
51,155
52,162
53,165
54,173
55,182
56,191
57,207
58,214
59,221
60,226
61,237
62,253
63,264
64,278
65,299
66,312
67,326
68,343
69,352
70,371
71,393
72,415
73,441
74,456
75,476
76,489
77,508
78,529
79,548
80,572
