0,1
1,1
2,1
3,1
4,1
5,2
6,2
7,2
8,3
9,4
10,5
11,6
12,7
13,8
14,8
15,10
16,14
17,16
18,18
19,22
20,27
21,31
22,36
23,38
24,44
25,47
26,53
27,59
28,63
29,71
30,77
31,79
32,83
33,84
34,91
35,96
36,99
37,103
38,115
39,129
40,138
41,143
42,156
43,168
44,183
45,191
46,199
47,211
48,222
49,237
50,247
51,266
52,279
53,297
54,311
55,329
56,342
57,368
58,391
59,419
60,433
61,455
62,483
63,508
64,532
65,554
66,586
67,613
68,648
69,683
70,705
71,747
72,782
73,824
74,869
75,909
76,960
77,1013
78,1062
79,1115
80,1167
