0,1
1,1
2,1
3,1
4,1
5,4
6,4
7,4
8,6
9,7
10,7
11,7
12,7
13,9
14,9
15,9
16,9
17,10
18,11
19,11
20,11
21,11
22,11
23,11
24,12
25,12
26,12
27,13
28,15
29,16
30,16
31,17
32,18
33,19
34,20
35,20
36,20
37,21
38,21
39,21
40,21
41,21
42,21
43,24
44,25
45,26
46,27
47,28
48,29
49,33
50,33
51,38
52,39
53,41
54,44
55,49
56,50
57,54
58,59
59,64
60,69
61,72
62,75
63,79
64,87
65,91
66,96
67,99
68,105
69,111
70,119
71,126
72,133
73,141
74,153
75,158
76,166
77,175
78,179
79,198
80,207
