0,1
1,1
2,1
3,1
4,2
5,4
6,8
7,9
8,9
9,13
10,14
11,15
12,18
13,19
14,20
15,21
16,25
17,27
18,28
19,29
20,33
21,36
22,39
23,41
24,44
25,48
26,51
27,53
28,60
29,62
30,67
31,70
32,76
33,79
34,85
35,86
36,90
37,97
38,101
39,103
40,108
41,114
42,119
43,127
44,133
45,144
46,153
47,160
48,167
49,170
50,174
51,180
52,189
53,198
54,204
55,208
56,214
57,222
58,224
59,233
60,237
61,242
62,246
63,253
64,261
65,264
66,268
67,272
68,283
69,290
70,294
71,300
72,305
73,313
74,322
75,330
76,338
77,350
78,359
79,370
80,382
