0,1
1,1
2,1
3,1
4,2
5,3
6,4
7,4
8,5
9,5
10,6
11,10
12,13
13,15
14,18
15,20
16,20
17,23
18,26
19,29
20,36
21,38
22,40
23,46
24,53
25,59
26,65
27,70
28,73
29,82
30,88
31,93
32,99
33,111
34,116
35,122
36,132
37,138
38,144
39,155
40,165
41,173
42,182
43,190
44,200
45,210
46,221
47,227
48,235
49,246
50,254
51,266
52,280
53,293
54,297
55,313
56,325
57,341
58,352
59,367
60,379
61,389
62,399
63,405
64,420
65,441
66,454
67,467
68,485
69,496
70,520
71,544
72,570
73,586
74,604
75,624
76,673
77,694
78,720
79,739
80,770
