0,1
1,1
2,1
3,1
4,1
5,2
6,2
7,3
8,4
9,4
10,4
11,4
12,4
13,5
14,5
15,5
16,6
17,9
18,10
19,10
20,12
21,16
22,18
23,19
24,23
25,25
26,28
27,29
28,34
29,40
30,43
31,46
32,50
33,56
34,60
35,63
36,64
37,66
38,80
39,85
40,94
41,97
42,100
43,107
44,116
45,123
46,129
47,136
48,149
49,155
50,163
51,177
52,194
53,204
54,216
55,224
56,235
57,249
58,263
59,277
60,289
61,306
62,313
63,340
64,356
65,374
66,402
67,426
68,448
69,462
70,490
71,511
72,538
73,565
74,593
75,617
76,648
77,668
78,697
79,730
80,758
