0,1
1,1
2,1
3,1
4,2
5,2
6,2
7,2
8,2
9,2
10,3
11,3
12,3
13,3
14,3
15,3
16,4
17,6
18,6
19,6
20,6
21,7
22,8
23,8
24,10
25,11
26,12
27,15
28,15
29,18
30,18
31,24
32,26
33,26
34,29
35,32
36,33
37,36
38,37
39,40
40,44
41,46
42,52
43,55
44,58
45,60
46,66
47,73
48,78
49,83
50,86
51,92
52,97
53,112
54,130
55,138
56,147
57,158
58,171
59,190
60,203
61,226
62,236
63,258
64,281
65,309
66,328
67,372
68,391
69,424
70,453
71,490
72,528
73,559
74,598
75,634
76,672
77,702
78,746
79,774
80,828
