0,1
1,1
2,1
3,2
4,2
5,6
6,6
7,6
8,7
9,8
10,10
11,10
12,10
13,11
14,11
15,13
16,14
17,15
18,16
19,18
20,21
21,24
22,28
23,31
24,36
25,36
26,41
27,44
28,46
29,48
30,54
31,57
32,65
33,69
34,73
35,75
36,79
37,89
38,97
39,101
40,112
41,127
42,128
43,141
44,156
45,168
46,184
47,197
48,206
49,227
50,246
51,259
52,273
53,290
54,303
55,315
56,338
57,358
58,375
59,388
60,404
61,422
62,448
63,470
64,489
65,505
66,527
67,556
68,580
69,603
70,625
71,656
72,679
73,703
74,735
75,761
76,798
77,833
78,870
79,910
80,957
