0,1
1,1
2,1
3,1
4,1
5,1
6,1
7,1
8,1
9,2
10,2
11,3
12,3
13,3
14,7
15,9
16,11
17,12
18,13
19,13
20,14
21,15
22,20
23,21
24,23
25,23
26,23
27,24
28,27
29,29
30,30
31,31
32,33
33,33
34,36
35,36
36,36
37,36
38,38
39,41
40,42
41,45
42,45
43,49
44,51
45,54
46,57
47,60
48,63
49,67
50,71
51,74
52,78
53,83
54,87
55,92
56,98
57,103
58,107
59,115
60,126
61,134
62,140
63,150
64,160
65,169
66,179
67,195
68,202
69,215
70,236
71,249
72,265
73,279
74,300
75,320
76,346
77,367
78,390
79,420
80,446
