0,1
1,1
2,1
3,1
4,2
5,2
6,2
7,4
8,4
9,5
10,8
11,8
12,11
13,12
14,13
15,13
16,16
17,17
18,18
19,18
20,18
21,19
22,21
23,21
24,23
25,23
26,24
27,25
28,25
29,27
30,27
31,29
32,31
33,31
34,31
35,32
36,32
37,33
38,33
39,35
40,37
41,38
42,38
43,38
44,39
45,40
46,42
47,42
48,43
49,44
50,45
51,47
52,47
53,49
54,49
55,52
56,54
57,57
58,59
59,62
60,66
61,71
62,74
63,77
64,83
65,88
66,92
67,99
68,103
69,106
70,111
71,118
72,123
73,124
74,128
75,138
76,142
77,147
78,147
79,156
80,160
