0,1
1,1
2,1
3,1
4,2
5,3
6,5
7,8
8,8
9,8
10,8
11,10
12,12
13,12
14,13
15,14
16,16
17,19
18,19
19,20
20,20
21,22
22,24
23,27
24,28
25,29
26,30
27,33
28,34
29,35
30,37
31,40
32,42
33,45
34,45
35,49
36,56
37,63
38,68
39,74
40,79
41,82
42,89
43,93
44,98
45,105
46,113
47,121
48,123
49,133
50,142
51,150
52,166
53,176
54,181
55,199
56,218
57,236
58,249
59,263
60,283
61,302
62,331
63,355
64,376
65,394
66,426
67,453
68,491
69,525
70,552
71,595
72,636
73,668
74,716
75,750
76,802
77,839
78,889
79,936
80,998
