0,1
1,1
2,1
3,3
4,4
5,4
6,6
7,6
8,8
9,9
10,9
11,11
12,15
13,15
14,17
15,20
16,22
17,24
18,29
19,30
20,39
21,41
22,47
23,52
24,60
25,68
26,75
27,79
28,89
29,99
30,111
31,121
32,131
33,136
34,142
35,156
36,165
37,174
38,179
39,189
40,199
41,206
42,215
43,231
44,239
45,250
46,262
47,277
48,290
49,300
50,317
51,331
52,342
53,354
54,366
55,398
56,418
57,439
58,463
59,481
60,504
61,531
62,550
63,573
64,595
65,622
66,651
67,685
68,708
69,735
70,772
71,804
72,835
73,867
74,892
75,931
76,970
77,1009
78,1053
79,1099
80,1140
