0,1
1,1
2,1
3,1
4,1
5,2
6,2
7,5
8,5
9,6
10,8
11,8
12,9
13,11
14,15
15,16
16,16
17,18
18,21
19,24
20,26
21,26
22,29
23,30
24,30
25,32
26,33
27,36
28,36
29,38
30,40
31,43
32,45
33,46
34,48
35,48
36,53
37,60
38,61
39,62
40,64
41,71
42,74
43,77
44,80
45,82
46,92
47,98
48,101
49,104
50,108
51,114
52,124
53,127
54,133
55,147
56,159
57,170
58,180
59,190
60,200
61,213
62,224
63,244
64,254
65,271
66,290
67,308
68,319
69,338
70,361
71,385
72,407
73,429
74,457
75,479
76,506
77,535
78,554
79,584
80,615
