0,1
1,1
2,1
3,1
4,1
5,3
6,4
7,6
8,7
9,7
10,8
11,9
12,9
13,11
14,13
15,15
16,18
17,20
18,22
19,24
20,24
21,30
22,33
23,34
24,35
25,40
26,43
27,46
28,48
29,51
30,57
31,57
32,61
33,61
34,62
35,66
36,68
37,73
38,74
39,77
40,79
41,79
42,81
43,84
44,85
45,86
46,90
47,91
48,93
49,95
50,100
51,105
52,110
53,114
54,117
55,119
56,123
57,131
58,135
59,139
60,144
61,149
62,151
63,155
64,157
65,165
66,172
67,174
68,186
69,192
70,200
71,213
72,221
73,236
74,251
75,260
76,273
77,290
78,305
79,319
80,333
