0,1
1,1
2,1
3,1
4,3
5,4
6,5
7,6
8,6
9,9
10,10
11,10
12,11
13,14
14,17
15,24
16,24
17,29
18,31
19,33
20,35
21,42
22,48
23,52
24,55
25,60
26,71
27,73
28,81
29,87
30,93
31,103
32,117
33,130
34,140
35,150
36,172
37,186
38,199
39,222
40,243
41,264
42,284
43,298
44,320
45,337
46,359
47,390
48,417
49,446
50,473
51,507
52,533
53,576
54,603
55,625
56,661
57,713
58,745
59,786
60,820
61,867
62,900
63,946
64,990
65,1039
66,1089
67,1143
68,1209
69,1270
70,1327
71,1391
72,1464
73,1532
74,1623
75,1711
76,1780
77,1875
78,1968
79,2078
80,2167
