0,1
1,1
2,1
3,3
4,4
5,4
6,4
7,5
8,6
9,6
10,6
11,6
12,7
13,7
14,7
15,7
16,7
17,7
18,8
19,9
20,9
21,9
22,9
23,11
24,11
25,12
26,12
27,13
28,15
29,16
30,17
31,19
32,20
33,21
34,21
35,23
36,24
37,26
38,27
39,28
40,29
41,30
42,31
43,32
44,32
45,32
46,34
47,35
48,38
49,39
50,39
51,42
52,42
53,45
54,47
55,48
56,51
57,52
58,54
59,55
60,61
61,66
62,70
63,75
64,77
65,85
66,91
67,96
68,102
69,110
70,119
71,125
72,131
73,138
74,145
75,153
76,160
77,165
78,171
79,178
80,185
