0,1
1,1
2,1
3,1
4,1
5,1
6,1
7,1
8,1
9,3
10,4
11,4
12,4
13,4
14,4
15,4
16,6
17,6
18,6
19,8
20,9
21,10
22,10
23,10
24,10
25,13
26,13
27,14
28,14
29,14
30,14
31,15
32,16
33,18
34,18
35,18
36,19
37,20
38,20
39,21
40,21
41,22
42,23
43,25
44,26
45,27
46,30
47,32
48,32
49,32
50,37
51,40
52,44
53,46
54,51
55,53
56,61
57,65
58,70
59,76
60,89
61,101
62,108
63,118
64,126
65,134
66,150
67,167
68,180
69,192
70,202
71,219
72,242
73,266
74,281
75,311
76,326
77,350
78,374
79,396
80,429
