0,1
1,1
2,1
3,1
4,2
5,3
6,3
7,4
8,4
9,5
10,5
11,5
12,5
13,6
14,6
15,6
16,6
17,6
18,6
19,7
20,7
21,7
22,8
23,8
24,9
25,9
26,9
27,9
28,9
29,9
30,9
31,10
32,10
33,10
34,10
35,11
36,11
37,11
38,11
39,11
40,11
41,12
42,13
43,13
44,15
45,16
46,16
47,16
48,17
49,19
50,20
51,20
52,23
53,24
54,25
55,27
56,28
57,30
58,32
59,37
60,37
61,39
62,41
63,44
64,48
65,50
66,51
67,53
68,58
69,61
70,62
71,65
72,68
73,73
74,78
75,81
76,90
77,100
78,104
79,111
80,116
