0,1
1,1
2,1
3,1
4,1
5,2
6,2
7,2
8,2
9,3
10,5
11,5
12,6
13,6
14,9
15,13
16,13
17,15
18,17
19,17
20,19
21,21
22,23
23,24
24,27
25,28
26,32
27,33
28,36
29,37
30,42
31,43
32,45
33,47
34,51
35,54
36,55
37,57
38,61
39,67
40,72
41,76
42,79
43,82
44,84
45,88
46,96
47,100
48,104
49,105
50,109
51,115
52,124
53,125
54,129
55,137
56,143
57,147
58,148
59,154
60,159
61,164
62,170
63,183
64,189
65,202
66,212
67,225
68,236
69,250
70,257
71,267
72,278
73,289
74,300
75,313
76,318
77,334
78,353
79,366
80,380
