0,1
1,1
2,1
3,2
4,2
5,2
6,3
7,4
8,4
9,6
10,7
11,10
12,12
13,13
14,16
15,19
16,22
17,25
18,27
19,33
20,37
21,42
22,44
23,53
24,61
25,67
26,74
27,83
28,90
29,92
30,98
31,106
32,114
33,119
34,124
35,130
36,138
37,150
38,159
39,170
40,181
41,196
42,209
43,222
44,238
45,262
46,284
47,302
48,325
49,351
50,381
51,399
52,427
53,455
54,486
55,516
56,551
57,584
58,617
59,656
60,709
61,751
62,789
63,836
64,882
65,928
66,985
67,1047
68,1108
69,1164
70,1249
71,1331
72,1419
73,1493
74,1585
75,1682
76,1774
77,1884
78,1989
79,2088
80,2211
