0,1
1,1
2,1
3,1
4,1
5,2
6,2
7,2
8,2
9,3
10,3
11,3
12,3
13,3
14,3
15,4
16,5
17,5
18,6
19,7
20,8
21,10
22,11
23,12
24,13
25,16
26,17
27,17
28,18
29,19
30,19
31,20
32,21
33,23
34,23
35,24
36,24
37,26
38,26
39,27
40,27
41,29
42,33
43,35
44,39
45,40
46,42
47,44
48,46
49,51
50,52
51,54
52,58
53,67
54,73
55,79
56,90
57,97
58,107
59,112
60,119
61,130
62,138
63,145
64,152
65,159
66,166
67,180
68,188
69,194
70,202
71,206
72,217
73,220
74,227
75,233
76,241
77,248
78,251
79,258
80,265
