0,1
1,1
2,1
3,1
4,1
5,1
6,1
7,2
8,3
9,3
10,3
11,4
12,4
13,4
14,4
15,6
16,6
17,7
18,7
19,7
20,8
21,8
22,8
23,8
24,8
25,9
26,9
27,9
28,10
29,10
30,10
31,10
32,10
33,10
34,10
35,10
36,10
37,11
38,11
39,12
40,12
41,12
42,12
43,12
44,13
45,13
46,13
47,13
48,13
49,14
50,15
51,16
52,16
53,16
54,18
55,18
56,19
57,19
58,20
59,20
60,20
61,20
62,21
63,22
64,22
65,23
66,24
67,24
68,24
69,24
70,27
71,29
72,30
73,34
74,34
75,36
76,36
77,37
78,38
79,39
80,39
