0,1
1,1
2,1
3,1
4,1
5,1
6,2
7,2
8,3
9,3
10,4
11,6
12,8
13,10
14,11
15,15
16,16
17,18
18,19
19,24
20,24
21,28
22,28
23,31
24,34
25,42
26,46
27,51
28,53
29,62
30,68
31,71
32,76
33,81
34,85
35,89
36,94
37,97
38,100
39,105
40,109
41,113
42,124
43,128
44,129
45,136
46,147
47,152
48,159
49,165
50,173
51,182
52,189
53,192
54,194
55,198
56,202
57,206
58,208
59,213
60,220
61,221
62,230
63,234
64,244
65,252
66,255
67,260
68,266
69,270
70,275
71,283
72,292
73,298
74,305
75,314
76,322
77,326
78,334
79,343
80,351
