0,1
1,1
2,2
3,3
4,3
5,3
6,4
7,4
8,6
9,7
10,9
11,10
12,10
13,10
14,10
15,12
16,14
17,15
18,18
19,19
20,23
21,27
22,31
23,34
24,36
25,37
26,42
27,44
28,48
29,55
30,59
31,61
32,63
33,67
34,70
35,72
36,77
37,80
38,84
39,88
40,92
41,99
42,105
43,112
44,120
45,131
46,140
47,155
48,172
49,184
50,195
51,207
52,219
53,236
54,252
55,269
56,284
57,300
58,320
59,334
60,357
61,384
62,402
63,424
64,446
65,467
66,506
67,530
68,564
69,589
70,610
71,640
72,671
73,720
74,765
75,802
76,843
77,886
78,930
79,977
80,1021
