0,1
1,1
2,1
3,1
4,1
5,2
6,2
7,2
8,3
9,4
10,4
11,5
12,5
13,5
14,6
15,6
16,8
17,8
18,8
19,9
20,9
21,13
22,15
23,16
24,17
25,19
26,19
27,19
28,21
29,22
30,23
31,24
32,25
33,27
34,27
35,27
36,30
37,32
38,33
39,33
40,35
41,36
42,38
43,39
44,40
45,41
46,42
47,42
48,44
49,46
50,46
51,46
52,46
53,47
54,49
55,50
56,50
57,51
58,51
59,52
60,54
61,56
62,57
63,58
64,59
65,59
66,61
67,65
68,66
69,67
70,69
71,73
72,75
73,75
74,81
75,84
76,87
77,89
78,95
79,98
80,102
