0,1
1,1
2,1
3,1
4,1
5,1
6,2
7,2
8,3
9,3
10,3
11,3
12,4
13,4
14,5
15,5
16,6
17,7
18,7
19,8
20,9
21,9
22,11
23,12
24,12
25,14
26,16
27,17
28,18
29,20
30,23
31,26
32,26
33,28
34,32
35,35
36,35
37,37
38,41
39,44
40,44
41,45
42,47
43,48
44,52
45,52
46,53
47,53
48,55
49,56
50,58
51,59
52,60
53,61
54,61
55,61
56,63
57,65
58,65
59,68
60,70
61,72
62,74
63,76
64,77
65,81
66,85
67,86
68,89
69,94
70,100
71,106
72,110
73,120
74,131
75,141
76,149
77,157
78,162
79,173
80,183
