0,1
1,1
2,1
3,1
4,2
5,3
6,3
7,3
8,3
9,5
10,6
11,6
12,8
13,9
14,9
15,10
16,11
17,13
18,17
19,19
20,19
21,19
22,23
23,24
24,25
25,26
26,27
27,29
28,32
29,36
30,39
31,41
32,41
33,47
34,48
35,49
36,51
37,54
38,54
39,54
40,54
41,57
42,58
43,60
44,61
45,63
46,64
47,64
48,66
49,66
50,68
51,69
52,71
53,72
54,73
55,73
56,75
57,77
58,77
59,81
60,81
61,84
62,85
63,86
64,90
65,92
66,95
67,95
68,96
69,96
70,96
71,97
72,98
73,100
74,102
75,102
76,104
77,108
78,109
79,109
80,111
