0,1
1,1
2,1
3,1
4,1
5,1
6,2
7,3
8,4
9,5
10,5
11,6
12,6
13,6
14,6
15,6
16,7
17,7
18,7
19,9
20,9
21,9
22,9
23,9
24,10
25,11
26,12
27,12
28,14
29,14
30,15
31,17
32,17
33,19
34,21
35,23
36,24
37,26
38,27
39,30
40,31
41,34
42,34
43,35
44,35
45,37
46,40
47,41
48,42
49,43
50,46
51,46
52,47
53,48
54,49
55,51
56,52
57,53
58,54
59,58
60,61
61,64
62,68
63,71
64,73
65,74
66,78
67,79
68,82
69,84
70,86
71,87
72,89
73,92
74,94
75,97
76,100
77,105
78,107
79,112
80,115
