0,1
1,1
2,1
3,1
4,1
5,3
6,4
7,4
8,6
9,10
10,12
11,13
12,14
13,18
14,19
15,21
16,24
17,29
18,36
19,42
20,45
21,49
22,60
23,68
24,77
25,91
26,103
27,120
28,142
29,154
30,167
31,189
32,208
33,225
34,244
35,277
36,303
37,324
38,348
39,376
40,400
41,428
42,459
43,501
44,530
45,557
46,601
47,637
48,674
49,708
50,760
51,809
52,855
53,910
54,956
55,1022
56,1096
57,1162
58,1218
59,1291
60,1369
61,1446
62,1522
63,1618
64,1711
65,1831
66,1950
67,2060
68,2189
69,2324
70,2453
71,2598
72,2771
73,2946
74,3106
75,3295
76,3496
77,3723
78,3946
79,4206
80,4449
