0,1
1,1
2,1
3,1
4,2
5,3
6,4
7,4
8,4
9,5
10,6
11,6
12,6
13,7
14,7
15,9
16,9
17,11
18,11
19,13
20,16
21,20
22,25
23,30
24,33
25,38
26,46
27,55
28,64
29,69
30,79
31,89
32,100
33,110
34,117
35,130
36,143
37,155
38,175
39,193
40,210
41,222
42,246
43,265
44,282
45,307
46,327
47,353
48,374
49,397
50,420
51,438
52,472
53,502
54,524
55,547
56,566
57,582
58,607
59,638
60,669
61,705
62,741
63,767
64,798
65,829
66,877
67,931
68,964
69,999
70,1042
71,1091
72,1141
73,1187
74,1243
75,1304
76,1353
77,1403
78,1470
79,1522
80,1580
