0,1
1,1
2,1
3,1
4,2
5,2
6,2
7,2
8,4
9,4
10,5
11,8
12,10
13,12
14,14
15,16
16,17
17,18
18,20
19,23
20,27
21,28
22,33
23,38
24,44
25,51
26,55
27,59
28,65
29,69
30,77
31,81
32,88
33,94
34,109
35,120
36,134
37,148
38,158
39,166
40,180
41,192
42,206
43,223
44,232
45,245
46,255
47,270
48,276
49,290
50,301
51,313
52,325
53,336
54,346
55,366
56,376
57,388
58,400
59,417
60,442
61,453
62,467
63,494
64,517
65,543
66,562
67,587
68,614
69,646
70,675
71,706
72,748
73,794
74,845
75,878
76,927
77,975
78,1041
79,1101
80,1168
