0,1
1,1
2,1
3,2
4,5
5,7
6,7
7,11
8,17
9,23
10,28
11,32
12,35
13,41
14,48
15,56
16,65
17,67
18,72
19,81
20,89
21,96
22,106
23,114
24,118
25,126
26,131
27,141
28,153
29,163
30,169
31,175
32,187
33,197
34,209
35,221
36,231
37,248
38,258
39,274
40,295
41,312
42,330
43,355
44,384
45,410
46,442
47,468
48,502
49,540
50,563
51,607
52,644
53,675
54,712
55,753
56,791
57,835
58,879
59,919
60,983
61,1030
62,1086
63,1152
64,1213
65,1278
66,1350
67,1426
68,1508
69,1597
70,1681
71,1770
72,1867
73,1981
74,2095
75,2215
76,2316
77,2426
78,2552
79,2669
80,2804
