0,1
1,1
2,1
3,1
4,2
5,3
6,3
7,3
8,3
9,3
10,5
11,5
12,5
13,5
14,7
15,7
16,8
17,10
18,10
19,11
20,15
21,17
22,18
23,20
24,23
25,24
26,29
27,31
28,34
29,35
30,37
31,40
32,43
33,44
34,44
35,45
36,47
37,47
38,47
39,50
40,50
41,52
42,52
43,54
44,55
45,56
46,59
47,62
48,67
49,69
50,70
51,72
52,75
53,78
54,82
55,85
56,86
57,89
58,91
59,95
60,97
61,100
62,100
63,104
64,106
65,106
66,107
67,111
68,119
69,120
70,123
71,126
72,130
73,134
74,137
75,145
76,153
77,158
78,162
79,166
80,174
