0,1
1,1
2,1
3,1
4,1
5,2
6,2
7,2
8,2
9,2
10,3
11,4
12,5
13,5
14,5
15,5
16,6
17,6
18,7
19,8
20,9
21,10
22,10
23,10
24,11
25,12
26,13
27,13
28,13
29,14
30,14
31,15
32,15
33,15
34,16
35,16
36,17
37,17
38,17
39,17
40,17
41,17
42,18
43,18
44,18
45,18
46,18
47,19
48,19
49,19
50,20
51,22
52,22
53,22
54,24
55,26
56,28
57,29
58,31
59,36
60,41
61,44
62,44
63,48
64,53
65,58
66,61
67,66
68,74
69,81
70,92
71,100
72,114
73,122
74,134
75,144
76,160
77,177
78,186
79,204
80,218
