0,1
1,1
2,1
3,2
4,2
5,3
6,5
7,6
8,10
9,11
10,12
11,16
12,18
13,21
14,26
15,31
16,39
17,42
18,44
19,47
20,51
21,55
22,65
23,70
24,71
25,77
26,80
27,87
28,93
29,102
30,110
31,120
32,132
33,147
34,167
35,176
36,191
37,203
38,222
39,248
40,278
41,300
42,323
43,352
44,376
45,403
46,436
47,475
48,498
49,539
50,570
51,613
52,661
53,701
54,739
55,787
56,843
57,900
58,945
59,992
60,1043
61,1114
62,1167
63,1244
64,1314
65,1379
66,1446
67,1528
68,1609
69,1691
70,1773
71,1857
72,1962
73,2072
74,2193
75,2314
76,2430
77,2554
78,2680
79,2826
80,2987
