0,1
1,1
2,1
3,1
4,1
5,2
6,3
7,4
8,5
9,6
10,6
11,8
12,9
13,12
14,13
15,13
16,13
17,13
18,13
19,15
20,17
21,17
22,17
23,19
24,19
25,19
26,19
27,20
28,21
29,21
30,21
31,23
32,27
33,29
34,30
35,33
36,39
37,44
38,47
39,49
40,52
41,57
42,58
43,62
44,63
45,65
46,69
47,69
48,71
49,72
50,73
51,78
52,80
53,84
54,89
55,92
56,93
57,97
58,102
59,105
60,105
61,110
62,114
63,120
64,125
65,133
66,138
67,142
68,148
69,157
70,167
71,172
72,178
73,182
74,192
75,199
76,212
77,219
78,229
79,240
80,249
