0,1
1,1
2,1
3,1
4,1
5,2
6,3
7,4
8,4
9,6
10,7
11,9
12,9
13,10
14,13
15,14
16,15
17,17
18,21
19,24
20,27
21,30
22,30
23,32
24,36
25,38
26,41
27,44
28,46
29,48
30,49
31,50
32,52
33,53
34,56
35,58
36,62
37,66
38,66
39,68
40,72
41,73
42,73
43,75
44,83
45,84
46,86
47,87
48,93
49,95
50,102
51,107
52,108
53,111
54,115
55,117
56,124
57,127
58,128
59,133
60,136
61,138
62,145
63,152
64,154
65,156
66,159
67,164
68,167
69,170
70,176
71,180
72,189
73,197
74,201
75,207
76,210
77,226
78,242
79,253
80,260
