0,1
1,1
2,1
3,1
4,2
5,2
6,3
7,5
8,7
9,7
10,7
11,10
12,11
13,12
14,15
15,16
16,17
17,20
18,20
19,22
20,25
21,26
22,28
23,31
24,34
25,37
26,40
27,45
28,49
29,50
30,51
31,55
32,58
33,63
34,67
35,71
36,73
37,80
38,82
39,86
40,87
41,91
42,93
43,96
44,101
45,104
46,107
47,116
48,119
49,124
50,134
51,139
52,144
53,149
54,160
55,169
56,178
57,188
58,198
59,210
60,218
61,232
62,250
63,269
64,287
65,307
66,330
67,353
68,377
69,388
70,407
71,439
72,459
73,481
74,509
75,522
76,539
77,560
78,592
79,610
80,630
