0,1
1,1
2,1
3,1
4,1
5,1
6,1
7,1
8,1
9,2
10,2
11,2
12,3
13,4
14,4
15,4
16,5
17,9
18,10
19,13
20,16
21,17
22,20
23,24
24,26
25,28
26,31
27,34
28,39
29,44
30,48
31,54
32,57
33,63
34,68
35,71
36,77
37,83
38,90
39,96
40,108
41,118
42,122
43,133
44,142
45,158
46,172
47,191
48,203
49,224
50,245
51,271
52,298
53,330
54,347
55,375
56,405
57,434
58,463
59,500
60,533
61,564
62,602
63,630
64,671
65,713
66,750
67,806
68,853
69,891
70,945
71,995
72,1042
73,1091
74,1149
75,1209
76,1265
77,1342
78,1408
79,1484
80,1564
