0,1
1,1
2,1
3,3
4,5
5,8
6,8
7,11
8,13
9,15
10,16
11,20
12,22
13,27
14,28
15,28
16,28
17,29
18,32
19,33
20,33
21,34
22,35
23,35
24,36
25,39
26,41
27,43
28,44
29,46
30,49
31,52
32,58
33,59
34,62
35,65
36,74
37,78
38,81
39,82
40,88
41,92
42,95
43,98
44,108
45,112
46,121
47,124
48,131
49,132
50,135
51,138
52,145
53,151
54,156
55,161
56,167
57,171
58,172
59,178
60,187
61,192
62,200
63,205
64,212
65,222
66,234
67,244
68,257
69,270
70,275
71,287
72,304
73,317
74,327
75,344
76,364
77,376
78,390
79,401
80,413
