0,1
1,1
2,1
3,1
4,1
5,1
6,1
7,1
8,3
9,4
10,4
11,4
12,4
13,5
14,5
15,7
16,7
17,7
18,8
19,9
20,11
21,11
22,12
23,13
24,13
25,14
26,17
27,18
28,20
29,20
30,23
31,24
32,25
33,26
34,26
35,27
36,31
37,32
38,33
39,35
40,36
41,39
42,40
43,41
44,43
45,44
46,45
47,45
48,47
49,48
50,48
51,48
52,51
53,52
54,54
55,54
56,57
57,60
58,63
59,65
60,66
61,66
62,71
63,72
64,75
65,77
66,80
67,86
68,88
69,89
70,93
71,97
72,98
73,105
74,107
75,111
76,114
77,126
78,132
79,135
80,140
