0,1
1,1
2,1
3,1
4,2
5,3
6,3
7,3
8,4
9,4
10,4
11,4
12,5
13,5
14,5
15,5
16,5
17,5
18,5
19,6
20,6
21,6
22,6
23,7
24,9
25,11
26,11
27,11
28,11
29,13
30,14
31,14
32,14
33,15
34,16
35,18
36,18
37,20
38,21
39,25
40,27
41,31
42,35
43,38
44,43
45,49
46,49
47,50
48,58
49,66
50,70
51,77
52,83
53,88
54,95
55,102
56,105
57,113
58,122
59,131
60,138
61,154
62,164
63,174
64,187
65,194
66,210
67,225
68,244
69,258
70,268
71,289
72,313
73,335
74,351
75,382
76,412
77,442
78,469
79,497
80,527
