0,1
1,1
2,1
3,1
4,1
5,1
6,1
7,1
8,2
9,3
10,3
11,5
12,6
13,6
14,6
15,7
16,12
17,13
18,13
19,15
20,20
21,22
22,24
23,28
24,32
25,35
26,38
27,42
28,46
29,51
30,58
31,62
32,69
33,80
34,86
35,94
36,97
37,111
38,126
39,136
40,154
41,172
42,186
43,197
44,218
45,236
46,253
47,276
48,295
49,322
50,350
51,374
52,401
53,426
54,453
55,481
56,521
57,549
58,584
59,628
60,676
61,716
62,762
63,816
64,868
65,911
66,957
67,1021
68,1102
69,1161
70,1236
71,1298
72,1370
73,1457
74,1556
75,1652
76,1741
77,1846
78,1953
79,2064
80,2179
