0,1
1,1
2,1
3,1
4,1
5,1
6,1
7,1
8,1
9,2
10,2
11,2
12,3
13,5
14,6
15,7
16,7
17,9
18,10
19,12
20,16
21,16
22,18
23,23
24,27
25,31
26,34
27,36
28,43
29,51
30,54
31,65
32,68
33,73
34,79
35,91
36,105
37,118
38,122
39,130
40,142
41,156
42,163
43,174
44,193
45,211
46,221
47,233
48,251
49,263
50,282
51,295
52,315
53,338
54,344
55,366
56,383
57,402
58,418
59,441
60,464
61,483
62,503
63,529
64,550
65,581
66,606
67,634
68,663
69,693
70,736
71,771
72,813
73,848
74,892
75,938
76,982
77,1026
78,1076
79,1131
80,1182
