0,1
1,1
2,1
3,1
4,1
5,2
6,3
7,3
8,4
9,6
10,6
11,7
12,7
13,8
14,8
15,10
16,11
17,12
18,13
19,18
20,19
21,21
22,23
23,26
24,27
25,29
26,31
27,34
28,34
29,38
30,40
31,42
32,43
33,45
34,47
35,49
36,51
37,53
38,57
39,63
40,66
41,68
42,71
43,73
44,79
45,81
46,85
47,87
48,90
49,96
50,99
51,103
52,106
53,113
54,122
55,127
56,137
57,150
58,160
59,170
60,178
61,188
62,203
63,214
64,223
65,232
66,246
67,260
68,273
69,286
70,300
71,327
72,332
73,353
74,370
75,395
76,419
77,432
78,453
79,475
80,500
