0,1
1,1
2,1
3,1
4,3
5,3
6,4
7,5
8,6
9,7
10,10
11,15
12,17
13,22
14,26
15,29
16,33
17,35
18,45
19,47
20,51
21,55
22,68
23,79
24,85
25,91
26,108
27,120
28,134
29,145
30,157
31,175
32,193
33,215
34,237
35,261
36,282
37,305
38,337
39,362
40,394
41,417
42,446
43,470
44,498
45,539
46,570
47,607
48,642
49,668
50,703
51,737
52,769
53,801
54,838
55,869
56,909
57,942
58,989
59,1026
60,1074
61,1111
62,1150
63,1207
64,1275
65,1340
66,1391
67,1461
68,1526
69,1591
70,1669
71,1757
72,1844
73,1925
74,2008
75,2095
76,2202
77,2316
78,2421
79,2537
80,2658
