0,1
1,1
2,1
3,2
4,2
5,3
6,4
7,4
8,4
9,4
10,4
11,5
12,5
13,6
14,7
15,8
16,9
17,9
18,11
19,12
20,13
21,13
22,14
23,17
24,17
25,18
26,19
27,19
28,21
29,22
30,23
31,23
32,23
33,24
34,24
35,24
36,25
37,25
38,26
39,26
40,28
41,28
42,28
43,29
44,31
45,31
46,31
47,31
48,32
49,32
50,33
51,33
52,34
53,34
54,34
55,34
56,35
57,35
58,35
59,36
60,37
61,39
62,40
63,40
64,40
65,44
66,47
67,48
68,51
69,53
70,60
71,63
72,65
73,66
74,70
75,73
76,76
77,76
78,76
79,77
80,78
