0,1
1,1
2,1
3,1
4,1
5,2
6,2
7,2
8,2
9,2
10,3
11,3
12,3
13,3
14,3
15,4
16,4
17,4
18,5
19,5
20,5
21,5
22,7
23,9
24,9
25,9
26,9
27,10
28,12
29,12
30,12
31,14
32,14
33,19
34,20
35,21
36,23
37,25
38,28
39,30
40,30
41,33
42,34
43,40
44,44
45,50
46,58
47,62
48,66
49,71
50,76
51,88
52,98
53,106
54,113
55,123
56,129
57,133
58,142
59,147
60,153
61,162
62,172
63,176
64,185
65,199
66,207
67,216
68,230
69,243
70,258
71,271
72,289
73,306
74,329
75,353
76,367
77,385
78,408
79,426
80,451
