0,1
1,1
2,1
3,1
4,2
5,3
6,4
7,6
8,6
9,6
10,11
11,12
12,13
13,15
14,16
15,20
16,21
17,23
18,26
19,27
20,28
21,34
22,34
23,38
24,39
25,41
26,43
27,45
28,48
29,50
30,53
31,60
32,63
33,67
34,75
35,76
36,80
37,83
38,90
39,93
40,99
41,103
42,105
43,106
44,108
45,110
46,116
47,119
48,122
49,127
50,131
51,137
52,139
53,144
54,149
55,153
56,158
57,163
58,173
59,176
60,180
61,187
62,191
63,195
64,199
65,206
66,214
67,221
68,225
69,236
70,250
71,259
72,271
73,276
74,291
75,307
76,325
77,342
78,359
79,370
80,386
