0,1
1,1
2,1
3,1
4,2
5,2
6,2
7,3
8,3
9,5
10,6
11,6
12,6
13,7
14,7
15,8
16,8
17,9
18,9
19,9
20,10
21,10
22,10
23,11
24,12
25,12
26,12
27,14
28,15
29,16
30,17
31,18
32,18
33,19
34,23
35,23
36,25
37,28
38,28
39,31
40,34
41,37
42,39
43,40
44,41
45,42
46,45
47,48
48,49
49,50
50,51
51,56
52,58
53,66
54,74
55,74
56,76
57,79
58,83
59,89
60,96
61,105
62,109
63,114
64,121
65,131
66,140
67,146
68,154
69,162
70,167
71,179
72,193
73,198
74,209
75,214
76,227
77,234
78,245
79,253
80,264
