0,1
1,1
2,2
3,2
4,2
5,2
6,4
7,6
8,8
9,8
10,8
11,8
12,8
13,13
14,15
15,15
16,15
17,15
18,16
19,17
20,18
21,18
22,20
23,23
24,23
25,24
26,25
27,29
28,32
29,34
30,35
31,40
32,45
33,48
34,54
35,57
36,58
37,64
38,72
39,81
40,88
41,94
42,98
43,100
44,113
45,121
46,125
47,131
48,138
49,149
50,151
51,159
52,168
53,175
54,187
55,196
56,204
57,214
58,225
59,240
60,252
61,260
62,272
63,290
64,306
65,324
66,338
67,356
68,376
69,385
70,405
71,418
72,435
73,459
74,479
75,505
76,524
77,548
78,583
79,608
80,644
