0,1
1,1
2,1
3,1
4,1
5,2
6,3
7,3
8,4
9,4
10,4
11,5
12,5
13,6
14,6
15,8
16,9
17,11
18,11
19,11
20,15
21,16
22,19
23,20
24,21
25,23
26,25
27,26
28,29
29,35
30,39
31,45
32,50
33,50
34,53
35,58
36,64
37,68
38,72
39,79
40,84
41,91
42,95
43,100
44,109
45,119
46,127
47,133
48,141
49,149
50,155
51,161
52,168
53,177
54,189
55,195
56,200
57,209
58,214
59,219
60,227
61,232
62,245
63,253
64,260
65,267
66,275
67,287
68,305
69,318
70,335
71,352
72,364
73,382
74,397
75,416
76,436
77,463
78,489
79,525
80,563
