0,1
1,1
2,1
3,1
4,3
5,5
6,5
7,5
8,6
9,7
10,7
11,8
12,8
13,9
14,10
15,10
16,11
17,11
18,14
19,14
20,14
21,16
22,16
23,16
24,16
25,18
26,18
27,19
28,19
29,19
30,19
31,22
32,23
33,23
34,24
35,25
36,25
37,26
38,27
39,27
40,27
41,28
42,28
43,32
44,34
45,35
46,36
47,37
48,39
49,40
50,41
51,41
52,41
53,44
54,46
55,46
56,48
57,48
58,51
59,51
60,51
61,53
62,56
63,58
64,61
65,61
66,61
67,65
68,70
69,70
70,72
71,74
72,78
73,79
74,81
75,82
76,83
77,87
78,88
79,88
80,88
