0,1
1,1
2,1
3,2
4,2
5,2
6,5
7,7
8,7
9,9
10,9
11,9
12,9
13,9
14,9
15,11
16,11
17,11
18,11
19,11
20,13
21,13
22,13
23,13
24,17
25,20
26,20
27,22
28,26
29,28
30,31
31,32
32,34
33,37
34,39
35,40
36,42
37,44
38,48
39,50
40,53
41,55
42,57
43,61
44,65
45,67
46,71
47,75
48,76
49,81
50,81
51,86
52,89
53,90
54,95
55,99
56,100
57,105
58,106
59,110
60,110
61,113
62,117
63,119
64,120
65,122
66,126
67,128
68,130
69,131
70,134
71,137
72,138
73,142
74,144
75,148
76,149
77,152
78,156
79,157
80,160
