0,1
1,1
2,1
3,1
4,2
5,2
6,5
7,5
8,6
9,6
10,7
11,7
12,8
13,11
14,13
15,14
16,14
17,16
18,20
19,21
20,23
21,28
22,28
23,30
24,31
25,33
26,35
27,35
28,37
29,39
30,39
31,42
32,44
33,47
34,47
35,49
36,50
37,54
38,56
39,59
40,63
41,66
42,67
43,72
44,75
45,78
46,81
47,82
48,86
49,92
50,93
51,97
52,98
53,100
54,103
55,107
56,113
57,118
58,124
59,129
60,135
61,137
62,145
63,155
64,160
65,164
66,168
67,172
68,178
69,185
70,190
71,195
72,203
73,208
74,217
75,223
76,231
77,242
78,256
79,261
80,268
