0,1
1,1
2,1
3,1
4,1
5,1
6,2
7,4
8,4
9,4
10,5
11,5
12,5
13,7
14,8
15,9
16,10
17,11
18,13
19,16
20,17
21,18
22,20
23,22
24,27
25,32
26,35
27,40
28,43
29,45
30,52
31,58
32,61
33,65
34,72
35,76
36,81
37,90
38,96
39,107
40,116
41,126
42,135
43,150
44,169
45,182
46,192
47,206
48,227
49,246
50,263
51,280
52,302
53,323
54,338
55,360
56,388
57,407
58,433
59,455
60,481
61,505
62,535
63,563
64,586
65,605
66,635
67,677
68,718
69,752
70,788
71,831
72,872
73,914
74,966
75,1026
76,1066
77,1103
78,1164
79,1227
80,1276
