0,1
1,1
2,1
3,1
4,1
5,1
6,2
7,2
8,2
9,2
10,4
11,4
12,5
13,7
14,7
15,10
16,14
17,16
18,17
19,19
20,24
21,26
22,28
23,31
24,32
25,33
26,36
27,36
28,37
29,38
30,39
31,41
32,42
33,43
34,46
35,47
36,47
37,49
38,50
39,51
40,53
41,55
42,56
43,57
44,59
45,64
46,68
47,68
48,69
49,71
50,75
51,77
52,80
53,84
54,86
55,89
56,93
57,97
58,100
59,105
60,111
61,112
62,116
63,119
64,126
65,129
66,137
67,140
68,146
69,149
70,159
71,163
72,170
73,179
74,187
75,195
76,202
77,214
78,223
79,233
80,247
