0,1
1,1
2,1
3,1
4,2
5,4
6,4
7,6
8,7
9,10
10,11
11,11
12,12
13,12
14,12
15,12
16,13
17,13
18,15
19,16
20,17
21,17
22,18
23,19
24,19
25,21
26,22
27,22
28,23
29,25
30,25
31,27
32,28
33,28
34,30
35,30
36,30
37,31
38,31
39,32
40,32
41,33
42,34
43,34
44,35
45,36
46,38
47,39
48,42
49,42
50,45
51,46
52,47
53,49
54,50
55,53
56,55
57,56
58,58
59,59
60,61
61,61
62,64
63,65
64,65
65,67
66,67
67,71
68,74
69,78
70,79
71,84
72,89
73,93
74,97
75,103
76,107
77,115
78,119
79,131
80,138
