0,1
1,1
2,1
3,2
4,5
5,8
6,10
7,11
8,13
9,17
10,21
11,25
12,27
13,27
14,32
15,36
16,43
17,49
18,55
19,59
20,66
21,75
22,89
23,95
24,103
25,117
26,124
27,131
28,143
29,150
30,159
31,162
32,171
33,183
34,186
35,198
36,211
37,219
38,231
39,246
40,259
41,268
42,281
43,296
44,311
45,328
46,343
47,361
48,376
49,396
50,419
51,438
52,451
53,473
54,500
55,527
56,549
57,569
58,601
59,643
60,674
61,705
62,749
63,791
64,832
65,878
66,931
67,972
68,1026
69,1096
70,1173
71,1256
72,1342
73,1429
74,1523
75,1629
76,1743
77,1836
78,1946
79,2059
80,2198
