0,1
1,1
2,1
3,2
4,5
5,5
6,5
7,5
8,7
9,9
10,12
11,12
12,15
13,16
14,18
15,22
16,24
17,25
18,29
19,32
20,36
21,39
22,42
23,45
24,48
25,51
26,54
27,59
28,60
29,61
30,68
31,73
32,75
33,83
34,86
35,95
36,96
37,99
38,105
39,113
40,120
41,127
42,135
43,145
44,152
45,160
46,166
47,173
48,180
49,192
50,201
51,208
52,214
53,226
54,237
55,244
56,253
57,260
58,271
59,281
60,302
61,310
62,329
63,341
64,356
65,367
66,381
67,392
68,404
69,416
70,434
71,450
72,463
73,475
74,493
75,510
76,526
77,541
78,559
79,574
80,602
