0,1
1,1
2,1
3,1
4,4
5,6
6,6
7,8
8,12
9,16
10,21
11,24
12,28
13,29
14,34
15,38
16,42
17,49
18,55
19,59
20,60
21,69
22,78
23,86
24,94
25,102
26,116
27,126
28,136
29,143
30,157
31,168
32,177
33,188
34,206
35,214
36,224
37,238
38,254
39,268
40,289
41,309
42,326
43,354
44,383
45,423
46,450
47,481
48,517
49,560
50,604
51,646
52,690
53,750
54,812
55,853
56,907
57,971
58,1035
59,1102
60,1167
61,1230
62,1308
63,1383
64,1468
65,1550
66,1613
67,1709
68,1805
69,1901
70,2001
71,2107
72,2247
73,2362
74,2475
75,2617
76,2765
77,2904
78,3061
79,3262
80,3421
