0,1
1,1
2,1
3,1
4,1
5,1
6,2
7,2
8,3
9,4
10,6
11,8
12,9
13,10
14,12
15,13
16,16
17,17
18,19
19,19
20,19
21,22
22,24
23,26
24,26
25,29
26,29
27,31
28,33
29,35
30,41
31,44
32,48
33,48
34,52
35,55
36,58
37,62
38,64
39,67
40,71
41,72
42,80
43,88
44,90
45,97
46,103
47,105
48,109
49,112
50,115
51,119
52,124
53,125
54,126
55,130
56,133
57,136
58,139
59,145
60,147
61,152
62,154
63,169
64,174
65,179
66,187
67,198
68,206
69,216
70,226
71,234
72,249
73,261
74,270
75,279
76,291
77,301
78,313
79,325
80,346
