0,1
1,1
2,1
3,1
4,1
5,2
6,2
7,2
8,2
9,2
10,3
11,3
12,3
13,5
14,7
15,8
16,8
17,10
18,11
19,11
20,17
21,20
22,22
23,22
24,28
25,29
26,31
27,34
28,36
29,39
30,43
31,45
32,47
33,51
34,56
35,60
36,60
37,62
38,65
39,70
40,71
41,75
42,77
43,78
44,83
45,89
46,94
47,100
48,110
49,118
50,122
51,135
52,142
53,145
54,152
55,168
56,186
57,195
58,209
59,221
60,232
61,242
62,257
63,269
64,292
65,311
66,324
67,340
68,358
69,381
70,399
71,430
72,460
73,493
74,532
75,559
76,598
77,639
78,687
79,723
80,768
