0,1
1,1
2,1
3,1
4,1
5,2
6,2
7,4
8,5
9,5
10,5
11,5
12,6
13,9
14,10
15,10
16,10
17,11
18,11
19,13
20,13
21,18
22,21
23,23
24,23
25,25
26,26
27,28
28,30
29,32
30,32
31,32
32,34
33,37
34,37
35,39
36,39
37,42
38,44
39,46
40,50
41,57
42,64
43,68
44,71
45,78
46,86
47,93
48,100
49,106
50,117
51,128
52,138
53,148
54,162
55,170
56,181
57,193
58,209
59,226
60,241
61,250
62,269
63,284
64,302
65,323
66,338
67,348
68,372
69,391
70,414
71,432
72,444
73,469
74,493
75,511
76,533
77,560
78,590
79,617
80,643
