0,1
1,1
2,1
3,2
4,3
5,5
6,5
7,7
8,7
9,7
10,8
11,9
12,11
13,11
14,11
15,11
16,12
17,15
18,18
19,18
20,19
21,21
22,21
23,21
24,22
25,25
26,26
27,28
28,29
29,30
30,31
31,33
32,33
33,35
34,39
35,39
36,40
37,42
38,48
39,50
40,54
41,58
42,61
43,65
44,71
45,74
46,76
47,79
48,80
49,82
50,84
51,86
52,89
53,92
54,94
55,94
56,96
57,99
58,103
59,104
60,104
61,105
62,110
63,111
64,113
65,117
66,118
67,119
68,122
69,128
70,133
71,135
72,138
73,144
74,150
75,155
76,161
77,169
78,176
79,186
80,196
