0,1
1,1
2,1
3,1
4,1
5,1
6,1
7,1
8,3
9,4
10,4
11,5
12,7
13,7
14,8
15,11
16,14
17,17
18,19
19,21
20,24
21,32
22,36
23,40
24,41
25,50
26,55
27,60
28,62
29,64
30,73
31,82
32,86
33,91
34,95
35,100
36,105
37,110
38,115
39,117
40,129
41,134
42,141
43,148
44,153
45,163
46,170
47,178
48,183
49,187
50,199
51,213
52,223
53,228
54,242
55,257
56,271
57,283
58,295
59,311
60,323
61,336
62,354
63,374
64,382
65,406
66,431
67,453
68,493
69,517
70,546
71,590
72,640
73,669
74,707
75,758
76,804
77,851
78,890
79,930
80,988
