0,1
1,1
2,1
3,1
4,1
5,1
6,1
7,2
8,3
9,5
10,5
11,6
12,7
13,8
14,9
15,12
16,14
17,19
18,21
19,21
20,23
21,27
22,29
23,32
24,35
25,41
26,44
27,46
28,52
29,55
30,60
31,65
32,68
33,72
34,76
35,81
36,86
37,90
38,91
39,99
40,100
41,107
42,113
43,120
44,126
45,133
46,136
47,144
48,145
49,156
50,165
51,171
52,183
53,186
54,193
55,198
56,205
57,211
58,217
59,225
60,228
61,233
62,237
63,244
64,248
65,253
66,260
67,262
68,271
69,279
70,287
71,293
72,297
73,309
74,316
75,333
76,349
77,362
78,370
79,387
80,398
