0,1
1,1
2,1
3,1
4,1
5,1
6,3
7,3
8,3
9,3
10,3
11,3
12,4
13,4
14,4
15,4
16,4
17,4
18,4
19,4
20,5
21,5
22,5
23,5
24,7
25,7
26,8
27,10
28,10
29,14
30,14
31,15
32,17
33,24
34,25
35,29
36,35
37,40
38,42
39,49
40,56
41,62
42,71
43,80
44,85
45,94
46,102
47,114
48,123
49,133
50,139
51,159
52,174
53,190
54,205
55,216
56,230
57,246
58,258
59,279
60,301
61,322
62,344
63,363
64,385
65,414
66,445
67,470
68,512
69,548
70,584
71,617
72,658
73,699
74,740
75,784
76,827
77,876
78,932
79,983
80,1047
