0,1
1,1
2,1
3,2
4,2
5,2
6,3
7,4
8,4
9,4
10,5
11,5
12,5
13,6
14,6
15,6
16,8
17,8
18,10
19,12
20,12
21,12
22,13
23,16
24,17
25,17
26,20
27,23
28,24
29,28
30,28
31,31
32,33
33,38
34,42
35,46
36,53
37,57
38,68
39,76
40,83
41,87
42,95
43,100
44,110
45,121
46,130
47,143
48,151
49,162
50,171
51,185
52,195
53,207
54,221
55,236
56,248
57,264
58,280
59,297
60,312
61,325
62,339
63,359
64,373
65,392
66,407
67,420
68,435
69,449
70,475
71,491
72,510
73,534
74,557
75,578
76,600
77,636
78,659
79,689
80,729
