0,1
1,1
2,1
3,1
4,2
5,3
6,3
7,3
8,3
9,4
10,4
11,5
12,6
13,7
14,8
15,9
16,10
17,11
18,13
19,15
20,15
21,16
22,16
23,20
24,21
25,24
26,26
27,27
28,28
29,29
30,29
31,30
32,32
33,34
34,37
35,38
36,39
37,41
38,44
39,46
40,49
41,49
42,49
43,50
44,52
45,53
46,54
47,56
48,59
49,60
50,65
51,67
52,70
53,76
54,80
55,81
56,87
57,92
58,101
59,109
60,114
61,122
62,129
63,140
64,146
65,155
66,166
67,170
68,180
69,187
70,196
71,212
72,226
73,240
74,256
75,264
76,281
77,297
78,315
79,326
80,354
