0,1
1,1
2,1
3,1
4,2
5,3
6,3
7,4
8,4
9,4
10,4
11,4
12,4
13,5
14,5
15,5
16,5
17,5
18,6
19,6
20,8
21,9
22,9
23,10
24,12
25,13
26,14
27,19
28,19
29,23
30,24
31,27
32,28
33,29
34,29
35,33
36,37
37,38
38,41
39,46
40,49
41,51
42,55
43,57
44,58
45,59
46,59
47,62
48,65
49,68
50,70
51,71
52,72
53,74
54,78
55,78
56,84
57,87
58,90
59,93
60,96
61,101
62,105
63,112
64,119
65,121
66,126
67,134
68,139
69,148
70,156
71,161
72,169
73,182
74,192
75,205
76,221
77,236
78,245
79,261
80,285
