0,1
1,1
2,1
3,1
4,1
5,1
6,2
7,3
8,3
9,3
10,3
11,3
12,3
13,4
14,5
15,5
16,5
17,6
18,6
19,6
20,6
21,6
22,6
23,7
24,7
25,7
26,8
27,11
28,11
29,12
30,12
31,12
32,14
33,15
34,15
35,16
36,17
37,19
38,21
39,21
40,21
41,22
42,23
43,23
44,23
45,25
46,25
47,26
48,27
49,27
50,31
51,31
52,32
53,34
54,35
55,36
56,40
57,41
58,41
59,41
60,42
61,42
62,42
63,44
64,45
65,45
66,45
67,46
68,46
69,46
70,46
71,48
72,49
73,49
74,50
75,51
76,51
77,52
78,53
79,53
80,53
