0,1
1,1
2,1
3,1
4,3
5,5
6,5
7,5
8,6
9,9
10,11
11,12
12,12
13,15
14,16
15,17
16,18
17,21
18,24
19,24
20,26
21,28
22,28
23,34
24,36
25,40
26,43
27,45
28,46
29,52
30,58
31,61
32,68
33,70
34,73
35,79
36,86
37,94
38,99
39,105
40,119
41,128
42,132
43,145
44,152
45,162
46,169
47,173
48,185
49,196
50,208
51,217
52,228
53,243
54,253
55,275
56,285
57,304
58,323
59,337
60,363
61,382
62,410
63,430
64,456
65,473
66,502
67,528
68,547
69,571
70,604
71,638
72,660
73,696
74,721
75,747
76,791
77,823
78,862
79,899
80,937
