0,1
1,1
2,1
3,1
4,2
5,2
6,3
7,4
8,4
9,5
10,5
11,6
12,6
13,7
14,9
15,10
16,10
17,12
18,12
19,12
20,13
21,13
22,13
23,15
24,17
25,17
26,19
27,20
28,22
29,23
30,23
31,24
32,26
33,29
34,33
35,34
36,37
37,40
38,41
39,41
40,45
41,47
42,50
43,53
44,54
45,58
46,58
47,66
48,68
49,74
50,78
51,79
52,84
53,87
54,92
55,99
56,106
57,111
58,117
59,125
60,140
61,154
62,165
63,171
64,182
65,192
66,203
67,217
68,231
69,241
70,260
71,273
72,296
73,314
74,331
75,362
76,374
77,404
78,442
79,473
80,503
