0,1
1,1
2,1
3,3
4,4
5,5
6,9
7,11
8,14
9,16
10,22
11,24
12,29
13,35
14,38
15,44
16,46
17,55
18,59
19,64
20,74
21,81
22,90
23,104
24,115
25,125
26,135
27,147
28,155
29,172
30,191
31,206
32,221
33,243
34,265
35,284
36,310
37,331
38,351
39,376
40,400
41,426
42,464
43,493
44,522
45,555
46,589
47,640
48,678
49,726
50,773
51,824
52,884
53,930
54,988
55,1047
56,1104
57,1183
58,1258
59,1331
60,1414
61,1497
62,1575
63,1666
64,1776
65,1872
66,1985
67,2093
68,2197
69,2319
70,2453
71,2575
72,2716
73,2861
74,3016
75,3189
76,3368
77,3562
78,3749
79,3942
80,4196
