0,1
1,1
2,1
3,1
4,2
5,2
6,2
7,2
8,3
9,4
10,5
11,5
12,5
13,6
14,11
15,12
16,14
17,15
18,16
19,17
20,19
21,22
22,24
23,26
24,29
25,31
26,34
27,37
28,40
29,41
30,42
31,43
32,45
33,49
34,50
35,51
36,54
37,55
38,57
39,64
40,69
41,72
42,77
43,80
44,88
45,92
46,100
47,109
48,120
49,126
50,139
51,145
52,160
53,171
54,175
55,190
56,202
57,218
58,234
59,249
60,262
61,280
62,302
63,324
64,350
65,373
66,405
67,438
68,470
69,496
70,516
71,555
72,584
73,620
74,675
75,710
76,755
77,807
78,851
79,909
80,968
