0,1
1,1
2,1
3,1
4,1
5,2
6,2
7,4
8,5
9,6
10,6
11,7
12,9
13,10
14,10
15,10
16,10
17,11
18,12
19,12
20,16
21,18
22,18
23,19
24,19
25,21
26,24
27,26
28,26
29,26
30,28
31,30
32,31
33,31
34,37
35,38
36,39
37,41
38,44
39,45
40,46
41,47
42,52
43,52
44,53
45,55
46,55
47,57
48,59
49,61
50,61
51,63
52,65
53,65
54,66
55,68
56,71
57,76
58,80
59,86
60,87
61,93
62,95
63,103
64,111
65,119
66,128
67,138
68,152
69,163
70,175
71,190
72,201
73,208
74,220
75,239
76,251
77,263
78,274
79,291
80,308
