0,1
1,1
2,1
3,2
4,3
5,3
6,3
7,4
8,4
9,5
10,6
11,8
12,9
13,9
14,10
15,13
16,17
17,18
18,20
19,20
20,21
21,21
22,23
23,25
24,25
25,25
26,29
27,31
28,31
29,32
30,33
31,35
32,36
33,36
34,37
35,37
36,38
37,38
38,38
39,38
40,40
41,40
42,41
43,41
44,42
45,42
46,42
47,44
48,44
49,45
50,46
51,48
52,49
53,53
54,55
55,56
56,59
57,61
58,62
59,66
60,69
61,71
62,74
63,79
64,84
65,88
66,90
67,94
68,100
69,102
70,104
71,107
72,112
73,115
74,118
75,121
76,124
77,125
78,130
79,135
80,139
