0,1
1,1
2,2
3,3
4,3
5,4
6,5
7,5
8,7
9,10
10,10
11,10
12,11
13,12
14,18
15,21
16,22
17,26
18,31
19,33
20,37
21,41
22,44
23,48
24,53
25,59
26,65
27,68
28,76
29,79
30,88
31,92
32,102
33,109
34,114
35,120
36,128
37,142
38,152
39,161
40,167
41,183
42,189
43,202
44,213
45,226
46,242
47,253
48,273
49,289
50,309
51,325
52,351
53,370
54,397
55,420
56,442
57,474
58,503
59,538
60,567
61,600
62,635
63,674
64,707
65,744
66,785
67,828
68,864
69,899
70,941
71,987
72,1030
73,1077
74,1143
75,1198
76,1262
77,1323
78,1398
79,1472
80,1546
