0,1
1,1
2,2
3,2
4,3
5,3
6,3
7,4
8,6
9,8
10,10
11,11
12,11
13,13
14,13
15,16
16,19
17,23
18,25
19,26
20,30
21,35
22,38
23,43
24,50
25,53
26,55
27,59
28,64
29,67
30,71
31,75
32,79
33,85
34,88
35,95
36,100
37,104
38,116
39,120
40,130
41,138
42,150
43,158
44,168
45,174
46,185
47,198
48,207
49,218
50,228
51,237
52,247
53,260
54,268
55,276
56,288
57,299
58,315
59,328
60,344
61,367
62,389
63,407
64,422
65,433
66,454
67,482
68,509
69,530
70,568
71,592
72,622
73,652
74,699
75,726
76,773
77,802
78,858
79,907
80,943
