0,1
1,1
2,1
3,1
4,1
5,1
6,3
7,4
8,5
9,5
10,5
11,6
12,6
13,6
14,7
15,7
16,8
17,8
18,8
19,8
20,8
21,9
22,11
23,11
24,12
25,12
26,13
27,14
28,15
29,16
30,17
31,18
32,19
33,20
34,22
35,23
36,23
37,23
38,24
39,24
40,24
41,26
42,26
43,27
44,27
45,28
46,28
47,29
48,30
49,30
50,30
51,30
52,31
53,32
54,32
55,32
56,33
57,33
58,34
59,34
60,36
61,36
62,38
63,39
64,41
65,45
66,47
67,49
68,50
69,54
70,55
71,55
72,57
73,57
74,58
75,61
76,63
77,65
78,67
79,69
80,70
