0,1
1,1
2,1
3,1
4,1
5,1
6,1
7,3
8,3
9,4
10,4
11,4
12,5
13,6
14,6
15,6
16,6
17,9
18,10
19,10
20,11
21,13
22,13
23,13
24,14
25,16
26,17
27,18
28,20
29,20
30,21
31,23
32,24
33,25
34,25
35,26
36,26
37,27
38,28
39,29
40,30
41,31
42,32
43,36
44,36
45,36
46,36
47,39
48,41
49,42
50,44
51,46
52,50
53,54
54,60
55,67
56,70
57,76
58,80
59,83
60,90
61,99
62,112
63,118
64,128
65,132
66,141
67,150
68,156
69,165
70,174
71,187
72,200
73,211
74,230
75,244
76,255
77,266
78,286
79,297
80,310
