0,1
1,1
2,1
3,2
4,3
5,3
6,5
7,6
8,8
9,9
10,12
11,15
12,15
13,21
14,29
15,31
16,36
17,38
18,44
19,47
20,52
21,59
22,65
23,71
24,76
25,80
26,86
27,93
28,101
29,107
30,116
31,124
32,127
33,136
34,142
35,151
36,164
37,169
38,178
39,183
40,190
41,210
42,222
43,230
44,239
45,257
46,272
47,287
48,302
49,318
50,332
51,354
52,376
53,393
54,410
55,427
56,452
57,485
58,508
59,531
60,559
61,597
62,622
63,649
64,683
65,717
66,751
67,792
68,831
69,875
70,908
71,946
72,983
73,1027
74,1071
75,1108
76,1171
77,1232
78,1295
79,1369
80,1428
