0,1
1,1
2,1
3,1
4,2
5,2
6,7
7,8
8,9
9,11
10,13
11,13
12,17
13,21
14,25
15,29
16,31
17,37
18,44
19,49
20,51
21,54
22,61
23,69
24,76
25,85
26,94
27,100
28,108
29,116
30,125
31,130
32,140
33,150
34,157
35,164
36,175
37,182
38,193
39,204
40,220
41,232
42,248
43,258
44,280
45,295
46,306
47,328
48,357
49,376
50,397
51,423
52,442
53,467
54,498
55,528
56,555
57,574
58,608
59,641
60,685
61,713
62,738
63,772
64,810
65,842
66,888
67,929
68,973
69,1018
70,1067
71,1120
72,1181
73,1239
74,1296
75,1360
76,1426
77,1493
78,1553
79,1628
80,1697
