0,1
1,1
2,1
3,1
4,2
5,2
6,2
7,2
8,2
9,2
10,5
11,6
12,6
13,10
14,11
15,14
16,18
17,24
18,27
19,29
20,36
21,41
22,45
23,56
24,65
25,70
26,78
27,95
28,100
29,113
30,127
31,141
32,152
33,169
34,181
35,203
36,231
37,240
38,253
39,275
40,289
41,300
42,318
43,349
44,377
45,395
46,425
47,452
48,476
49,510
50,546
51,573
52,602
53,637
54,672
55,712
56,748
57,795
58,837
59,877
60,929
61,981
62,1040
63,1100
64,1159
65,1235
66,1308
67,1384
68,1467
69,1545
70,1640
71,1737
72,1848
73,1948
74,2040
75,2157
76,2262
77,2383
78,2515
79,2649
80,2766
