0,1
1,1
2,1
3,2
4,2
5,6
6,11
7,15
8,20
9,23
10,27
11,31
12,35
13,42
14,46
15,49
16,57
17,63
18,73
19,81
20,88
21,93
22,97
23,108
24,118
25,128
26,135
27,148
28,159
29,171
30,184
31,191
32,208
33,219
34,233
35,254
36,264
37,281
38,303
39,329
40,351
41,375
42,407
43,432
44,455
45,493
46,530
47,562
48,600
49,644
50,696
51,735
52,776
53,816
54,867
55,913
56,961
57,1019
58,1065
59,1124
60,1184
61,1276
62,1353
63,1426
64,1503
65,1594
66,1693
67,1777
68,1857
69,1963
70,2072
71,2184
72,2289
73,2397
74,2505
75,2661
76,2798
77,2957
78,3110
79,3257
80,3444
