0,1
1,1
2,2
3,2
4,2
5,5
6,5
7,5
8,6
9,7
10,8
11,11
12,13
13,15
14,18
15,23
16,25
17,26
18,29
19,38
20,41
21,46
22,51
23,57
24,57
25,60
26,63
27,68
28,72
29,76
30,82
31,85
32,88
33,91
34,94
35,98
36,102
37,104
38,108
39,113
40,119
41,123
42,126
43,127
44,131
45,139
46,144
47,150
48,154
49,164
50,170
51,174
52,185
53,193
54,201
55,208
56,215
57,225
58,232
59,236
60,243
61,251
62,260
63,272
64,278
65,291
66,305
67,312
68,326
69,340
70,353
71,368
72,384
73,398
74,416
75,424
76,438
77,446
78,465
79,480
80,498
