0,1
1,1
2,1
3,1
4,1
5,1
6,2
7,2
8,2
9,2
10,2
11,3
12,3
13,5
14,5
15,6
16,6
17,6
18,7
19,7
20,8
21,9
22,10
23,10
24,11
25,12
26,12
27,13
28,15
29,15
30,17
31,22
32,27
33,29
34,29
35,32
36,36
37,38
38,39
39,43
40,43
41,48
42,49
43,52
44,55
45,57
46,62
47,67
48,73
49,76
50,80
51,87
52,89
53,93
54,98
55,103
56,106
57,112
58,117
59,124
60,133
61,141
62,144
63,162
64,167
65,177
66,182
67,194
68,205
69,222
70,232
71,244
72,258
73,276
74,303
75,327
76,343
77,363
78,391
79,417
80,447
