0,1
1,1
2,1
3,1
4,2
5,2
6,4
7,4
8,4
9,8
10,9
11,11
12,11
13,14
14,18
15,21
16,22
17,27
18,33
19,33
20,37
21,40
22,45
23,50
24,55
25,60
26,65
27,68
28,68
29,72
30,76
31,81
32,84
33,89
34,98
35,105
36,108
37,111
38,115
39,124
40,133
41,138
42,153
43,161
44,169
45,181
46,193
47,204
48,209
49,213
50,224
51,232
52,235
53,244
54,253
55,262
56,267
57,277
58,292
59,303
60,317
61,331
62,347
63,366
64,385
65,403
66,425
67,446
68,474
69,501
70,529
71,548
72,578
73,608
74,637
75,672
76,709
77,741
78,774
79,804
80,862
