0,1
1,1
2,1
3,1
4,2
5,2
6,3
7,4
8,4
9,4
10,6
11,6
12,7
13,9
14,12
15,15
16,19
17,21
18,23
19,28
20,31
21,35
22,38
23,42
24,44
25,45
26,53
27,58
28,59
29,62
30,72
31,77
32,79
33,84
34,87
35,90
36,99
37,105
38,107
39,109
40,116
41,123
42,134
43,138
44,143
45,154
46,165
47,175
48,184
49,192
50,207
51,217
52,233
53,248
54,264
55,288
56,300
57,318
58,338
59,359
60,376
61,388
62,418
63,447
64,478
65,504
66,545
67,582
68,626
69,669
70,701
71,749
72,798
73,842
74,902
75,958
76,1013
77,1062
78,1139
79,1204
80,1285
