0,1
1,1
2,1
3,1
4,1
5,3
6,3
7,4
8,4
9,6
10,6
11,8
12,8
13,8
14,10
15,11
16,13
17,16
18,18
19,19
20,20
21,23
22,24
23,25
24,28
25,28
26,31
27,32
28,33
29,35
30,35
31,35
32,39
33,41
34,42
35,46
36,47
37,48
38,53
39,56
40,58
41,61
42,63
43,66
44,72
45,75
46,76
47,80
48,84
49,88
50,92
51,96
52,102
53,103
54,107
55,111
56,116
57,119
58,125
59,132
60,138
61,146
62,152
63,159
64,167
65,177
66,182
67,190
68,193
69,201
70,207
71,217
72,223
73,231
74,237
75,241
76,247
77,251
78,258
79,261
80,265
