0,1
1,1
2,1
3,1
4,2
5,2
6,3
7,5
8,5
9,5
10,5
11,6
12,8
13,9
14,9
15,10
16,12
17,13
18,13
19,13
20,16
21,19
22,21
23,24
24,26
25,29
26,31
27,33
28,38
29,41
30,48
31,54
32,55
33,59
34,64
35,71
36,77
37,81
38,84
39,94
40,98
41,103
42,108
43,120
44,124
45,131
46,137
47,139
48,144
49,151
50,155
51,158
52,166
53,173
54,178
55,184
56,192
57,201
58,211
59,220
60,233
61,253
62,266
63,281
64,301
65,323
66,345
67,371
68,396
69,418
70,443
71,467
72,497
73,528
74,557
75,584
76,619
77,660
78,707
79,743
80,779
