0,1
1,1
2,1
3,2
4,2
5,2
6,3
7,4
8,6
9,8
10,8
11,10
12,12
13,13
14,17
15,18
16,20
17,23
18,27
19,30
20,32
21,38
22,38
23,43
24,46
25,50
26,56
27,63
28,64
29,66
30,72
31,77
32,83
33,89
34,94
35,100
36,112
37,120
38,130
39,136
40,139
41,148
42,160
43,165
44,171
45,179
46,188
47,197
48,204
49,215
50,222
51,232
52,246
53,257
54,272
55,286
56,301
57,314
58,334
59,354
60,372
61,390
62,406
63,432
64,469
65,490
66,520
67,546
68,580
69,625
70,669
71,719
72,762
73,803
74,855
75,901
76,954
77,1009
78,1059
79,1117
80,1175
