0,1
1,1
2,1
3,1
4,4
5,4
6,6
7,6
8,8
9,8
10,12
11,16
12,17
13,18
14,21
15,21
16,25
17,26
18,30
19,33
20,36
21,38
22,43
23,45
24,46
25,48
26,49
27,51
28,52
29,52
30,55
31,58
32,58
33,59
34,61
35,63
36,68
37,70
38,72
39,74
40,77
41,77
42,84
43,86
44,90
45,93
46,98
47,101
48,107
49,111
50,115
51,118
52,126
53,130
54,138
55,146
56,155
57,159
58,166
59,178
60,183
61,195
62,202
63,210
64,211
65,226
66,242
67,253
68,260
69,269
70,287
71,294
72,304
73,320
74,328
75,339
76,349
77,364
78,374
79,388
80,409
