0,1
1,1
2,1
3,1
4,2
5,4
6,5
7,6
8,6
9,6
10,9
11,10
12,11
13,13
14,14
15,15
16,17
17,19
18,20
19,21
20,24
21,28
22,31
23,33
24,36
25,39
26,41
27,45
28,48
29,48
30,53
31,57
32,65
33,69
34,73
35,79
36,83
37,85
38,89
39,97
40,106
41,112
42,119
43,125
44,134
45,142
46,152
47,159
48,167
49,180
50,191
51,198
52,210
53,220
54,227
55,241
56,247
57,263
58,274
59,291
60,305
61,320
62,334
63,349
64,364
65,383
66,398
67,417
68,433
69,444
70,468
71,493
72,509
73,535
74,561
75,589
76,618
77,640
78,675
79,717
80,751
