0,1
1,1
2,1
3,1
4,1
5,2
6,2
7,2
8,3
9,3
10,3
11,4
12,4
13,6
14,7
15,8
16,9
17,9
18,11
19,12
20,15
21,18
22,19
23,22
24,22
25,24
26,29
27,32
28,35
29,36
30,38
31,39
32,43
33,48
34,51
35,52
36,54
37,57
38,63
39,64
40,68
41,71
42,77
43,82
44,86
45,88
46,96
47,98
48,107
49,110
50,113
51,121
52,132
53,139
54,145
55,147
56,157
57,165
58,169
59,180
60,187
61,200
62,208
63,218
64,231
65,245
66,261
67,281
68,291
69,310
70,325
71,346
72,364
73,385
74,415
75,431
76,476
77,499
78,517
79,552
80,585
