0,1
1,1
2,1
3,1
4,2
5,2
6,3
7,4
8,4
9,4
10,4
11,6
12,7
13,8
14,8
15,10
16,12
17,13
18,14
19,15
20,18
21,20
22,21
23,23
24,25
25,26
26,30
27,33
28,36
29,38
30,41
31,46
32,48
33,48
34,50
35,54
36,55
37,57
38,60
39,65
40,69
41,75
42,77
43,79
44,83
45,86
46,92
47,96
48,100
49,106
50,110
51,116
52,120
53,125
54,133
55,134
56,136
57,145
58,150
59,154
60,162
61,166
62,170
63,176
64,181
65,183
66,193
67,198
68,207
69,211
70,215
71,222
72,231
73,238
74,246
75,256
76,268
77,275
78,282
79,289
80,297
