0,1
1,1
2,1
3,2
4,3
5,4
6,5
7,6
8,7
9,7
10,8
11,8
12,8
13,9
14,10
15,12
16,12
17,14
18,16
19,16
20,17
21,18
22,18
23,20
24,21
25,21
26,21
27,21
28,22
29,22
30,23
31,23
32,23
33,25
34,25
35,25
36,26
37,28
38,29
39,29
40,29
41,30
42,31
43,31
44,33
45,33
46,33
47,34
48,37
49,39
50,41
51,44
52,45
53,46
54,47
55,49
56,51
57,51
58,54
59,56
60,57
61,58
62,59
63,59
64,60
65,61
66,63
67,63
68,64
69,64
70,65
71,65
72,66
73,67
74,67
75,68
76,69
77,69
78,70
79,70
80,70
