0,1
1,1
2,1
3,3
4,3
5,3
6,6
7,7
8,7
9,9
10,12
11,12
12,13
13,13
14,13
15,18
16,18
17,19
18,19
19,20
20,23
21,25
22,27
23,28
24,34
25,38
26,43
27,45
28,50
29,53
30,54
31,60
32,63
33,72
34,78
35,88
36,98
37,105
38,116
39,127
40,141
41,151
42,164
43,180
44,195
45,210
46,228
47,248
48,264
49,287
50,306
51,322
52,343
53,368
54,382
55,406
56,432
57,450
58,472
59,498
60,518
61,536
62,559
63,590
64,615
65,645
66,670
67,687
68,709
69,742
70,768
71,799
72,838
73,878
74,918
75,967
76,1017
77,1064
78,1103
79,1168
80,1235
