0,1
1,1
2,1
3,1
4,1
5,1
6,1
7,1
8,2
9,3
10,3
11,3
12,3
13,5
14,6
15,8
16,8
17,8
18,9
19,9
20,9
21,12
22,12
23,12
24,12
25,14
26,15
27,17
28,17
29,18
30,19
31,22
32,23
33,25
34,28
35,30
36,30
37,32
38,35
39,36
40,38
41,41
42,43
43,45
44,47
45,49
46,54
47,61
48,63
49,70
50,73
51,77
52,84
53,90
54,99
55,105
56,114
57,127
58,135
59,147
60,155
61,171
62,181
63,196
64,210
65,224
66,236
67,252
68,273
69,291
70,306
71,327
72,350
73,377
74,406
75,426
76,460
77,488
78,520
79,546
80,591
