0,1
1,1
2,1
3,1
4,2
5,2
6,2
7,3
8,3
9,3
10,5
11,7
12,8
13,10
14,12
15,16
16,17
17,19
18,20
19,25
20,31
21,31
22,37
23,41
24,45
25,48
26,56
27,64
28,74
29,78
30,86
31,92
32,100
33,103
34,109
35,121
36,128
37,135
38,142
39,152
40,161
41,175
42,190
43,200
44,210
45,220
46,235
47,251
48,276
49,292
50,306
51,334
52,367
53,387
54,408
55,429
56,452
57,474
58,501
59,525
60,552
61,577
62,611
63,639
64,665
65,693
66,729
67,761
68,792
69,828
70,865
71,905
72,937
73,972
74,1020
75,1067
76,1114
77,1163
78,1215
79,1277
80,1336
