0,1
1,1
2,1
3,1
4,1
5,2
6,3
7,4
8,4
9,4
10,5
11,7
12,8
13,8
14,12
15,12
16,12
17,15
18,17
19,17
20,18
21,19
22,21
23,22
24,25
25,25
26,28
27,30
28,31
29,32
30,33
31,33
32,35
33,36
34,37
35,37
36,37
37,39
38,39
39,40
40,40
41,41
42,42
43,44
44,44
45,44
46,49
47,49
48,50
49,50
50,52
51,53
52,53
53,55
54,56
55,59
56,61
57,66
58,68
59,71
60,74
61,85
62,94
63,99
64,105
65,109
66,117
67,127
68,146
69,159
70,178
71,194
72,209
73,226
74,249
75,269
76,284
77,301
78,318
79,338
80,354
