0,1
1,1
2,1
3,1
4,2
5,2
6,2
7,2
8,3
9,3
10,3
11,3
12,3
13,4
14,4
15,5
16,5
17,5
18,6
19,7
20,10
21,10
22,11
23,13
24,14
25,15
26,18
27,20
28,22
29,24
30,26
31,28
32,29
33,34
34,37
35,38
36,42
37,46
38,48
39,51
40,52
41,57
42,60
43,65
44,68
45,74
46,80
47,83
48,91
49,92
50,98
51,105
52,110
53,118
54,124
55,129
56,136
57,142
58,146
59,154
60,157
61,159
62,168
63,172
64,176
65,182
66,187
67,195
68,207
69,218
70,224
71,229
72,240
73,246
74,258
75,269
76,279
77,289
78,300
79,310
80,322
