0,1
1,1
2,1
3,1
4,2
5,2
6,2
7,2
8,2
9,3
10,4
11,4
12,4
13,5
14,7
15,8
16,10
17,12
18,13
19,13
20,18
21,21
22,24
23,26
24,30
25,30
26,35
27,36
28,39
29,43
30,45
31,51
32,55
33,60
34,65
35,69
36,72
37,75
38,78
39,80
40,87
41,89
42,92
43,97
44,99
45,102
46,103
47,109
48,119
49,128
50,135
51,144
52,148
53,154
54,167
55,172
56,180
57,189
58,200
59,212
60,222
61,235
62,249
63,264
64,275
65,292
66,309
67,331
68,345
69,366
70,397
71,415
72,431
73,469
74,492
75,515
76,543
77,569
78,597
79,635
80,667
