0,1
1,1
2,1
3,1
4,1
5,1
6,1
7,1
8,1
9,2
10,2
11,2
12,2
13,4
14,5
15,5
16,5
17,6
18,6
19,7
20,8
21,8
22,9
23,10
24,11
25,11
26,14
27,16
28,18
29,18
30,18
31,19
32,22
33,22
34,23
35,23
36,26
37,28
38,28
39,29
40,30
41,33
42,36
43,41
44,43
45,44
46,47
47,50
48,52
49,55
50,56
51,58
52,59
53,61
54,65
55,71
56,71
57,73
58,76
59,85
60,92
61,99
62,103
63,112
64,114
65,119
66,127
67,135
68,138
69,150
70,155
71,165
72,177
73,188
74,203
75,215
76,234
77,248
78,265
79,280
80,297
