0,1
1,1
2,1
3,2
4,2
5,3
6,3
7,4
8,5
9,7
10,8
11,10
12,13
13,14
14,15
15,18
16,18
17,19
18,21
19,23
20,24
21,29
22,30
23,31
24,37
25,41
26,43
27,47
28,51
29,55
30,60
31,64
32,67
33,71
34,74
35,78
36,84
37,91
38,95
39,99
40,102
41,112
42,119
43,129
44,142
45,153
46,164
47,175
48,187
49,200
50,217
51,231
52,242
53,255
54,277
55,290
56,307
57,326
58,346
59,363
60,380
61,401
62,421
63,442
64,463
65,484
66,513
67,532
68,551
69,586
70,613
71,639
72,677
73,706
74,734
75,765
76,807
77,833
78,876
79,907
80,945
