0,1
1,1
2,1
3,2
4,2
5,2
6,3
7,4
8,4
9,4
10,5
11,5
12,5
13,7
14,9
15,11
16,11
17,14
18,17
19,22
20,25
21,29
22,34
23,37
24,40
25,44
26,50
27,56
28,63
29,69
30,71
31,82
32,87
33,91
34,96
35,103
36,113
37,125
38,132
39,140
40,153
41,166
42,182
43,197
44,208
45,224
46,242
47,258
48,277
49,298
50,318
51,341
52,378
53,402
54,430
55,460
56,498
57,538
58,588
59,623
60,667
61,719
62,769
63,821
64,875
65,929
66,979
67,1041
68,1113
69,1168
70,1230
71,1301
72,1375
73,1444
74,1518
75,1597
76,1675
77,1740
78,1824
79,1923
80,2042
