0,1
1,1
2,1
3,1
4,2
5,2
6,2
7,2
8,3
9,3
10,4
11,4
12,4
13,5
14,7
15,8
16,11
17,16
18,19
19,21
20,23
21,25
22,27
23,31
24,36
25,40
26,46
27,49
28,57
29,62
30,68
31,74
32,86
33,96
34,103
35,110
36,113
37,120
38,131
39,140
40,147
41,164
42,170
43,175
44,182
45,193
46,206
47,220
48,232
49,240
50,250
51,267
52,277
53,290
54,311
55,338
56,365
57,378
58,402
59,420
60,443
61,471
62,495
63,518
64,550
65,587
66,614
67,645
68,678
69,721
70,769
71,807
72,854
73,903
74,949
75,1010
76,1089
77,1132
78,1199
79,1261
80,1339
