0,1
1,1
2,2
3,2
4,2
5,3
6,5
7,6
8,6
9,7
10,10
11,10
12,10
13,10
14,13
15,14
16,15
17,18
18,19
19,20
20,21
21,22
22,24
23,25
24,26
25,29
26,31
27,31
28,33
29,33
30,36
31,37
32,38
33,40
34,41
35,44
36,49
37,49
38,53
39,56
40,58
41,61
42,65
43,65
44,69
45,74
46,79
47,81
48,85
49,89
50,92
51,98
52,102
53,104
54,107
55,113
56,116
57,123
58,129
59,133
60,136
61,140
62,146
63,150
64,159
65,166
66,169
67,179
68,188
69,192
70,206
71,218
72,227
73,238
74,249
75,262
76,279
77,291
78,306
79,324
80,344
