0,1
1,1
2,1
3,1
4,1
5,2
6,2
7,2
8,3
9,3
10,5
11,5
12,6
13,8
14,8
15,10
16,10
17,11
18,13
19,14
20,14
21,16
22,17
23,19
24,19
25,22
26,23
27,24
28,24
29,24
30,25
31,26
32,27
33,28
34,29
35,31
36,33
37,33
38,34
39,34
40,35
41,38
42,40
43,41
44,42
45,47
46,50
47,51
48,52
49,59
50,62
51,71
52,72
53,75
54,75
55,80
56,84
57,88
58,90
59,91
60,98
61,103
62,108
63,110
64,114
65,118
66,123
67,128
68,138
69,143
70,158
71,164
72,176
73,180
74,200
75,210
76,219
77,232
78,245
79,264
80,273
