0,1
1,1
2,2
3,4
4,4
5,4
6,8
7,9
8,9
9,11
10,12
11,13
12,14
13,15
14,16
15,17
16,19
17,19
18,21
19,22
20,24
21,24
22,27
23,28
24,30
25,32
26,35
27,39
28,43
29,47
30,49
31,51
32,53
33,56
34,58
35,64
36,67
37,73
38,78
39,85
40,91
41,100
42,106
43,110
44,117
45,119
46,125
47,131
48,139
49,150
50,155
51,162
52,165
53,172
54,180
55,191
56,199
57,205
58,215
59,222
60,234
61,242
62,246
63,257
64,267
65,273
66,286
67,295
68,305
69,317
70,330
71,344
72,355
73,363
74,375
75,390
76,406
77,419
78,437
79,455
80,475
