0,1
1,1
2,1
3,1
4,1
5,1
6,2
7,2
8,2
9,2
10,3
11,3
12,3
13,3
14,6
15,6
16,6
17,6
18,6
19,7
20,7
21,7
22,8
23,9
24,9
25,10
26,11
27,13
28,15
29,17
30,17
31,20
32,21
33,25
34,28
35,30
36,33
37,35
38,41
39,42
40,46
41,48
42,52
43,55
44,64
45,65
46,68
47,75
48,86
49,90
50,96
51,103
52,109
53,120
54,129
55,137
56,141
57,151
58,160
59,169
60,178
61,185
62,197
63,201
64,208
65,219
66,227
67,235
68,246
69,256
70,271
71,289
72,299
73,318
74,335
75,351
76,375
77,394
78,416
79,436
80,461
