0,1
1,1
2,2
3,2
4,2
5,2
6,2
7,2
8,3
9,3
10,4
11,4
12,4
13,4
14,4
15,4
16,5
17,7
18,7
19,7
20,7
21,7
22,7
23,8
24,9
25,10
26,10
27,11
28,12
29,12
30,13
31,15
32,15
33,15
34,15
35,16
36,18
37,19
38,19
39,19
40,20
41,20
42,20
43,20
44,22
45,22
46,22
47,23
48,24
49,25
50,25
51,26
52,27
53,28
54,28
55,28
56,30
57,31
58,31
59,32
60,33
61,35
62,36
63,37
64,37
65,39
66,42
67,43
68,43
69,44
70,45
71,48
72,48
73,48
74,49
75,49
76,50
77,52
78,53
79,53
80,53
