0,1
1,1
2,1
3,1
4,1
5,1
6,1
7,1
8,5
9,7
10,7
11,8
12,10
13,13
14,14
15,16
16,19
17,21
18,24
19,27
20,31
21,34
22,37
23,43
24,50
25,57
26,61
27,69
28,81
29,88
30,95
31,105
32,116
33,129
34,139
35,155
36,172
37,177
38,188
39,203
40,220
41,244
42,263
43,290
44,312
45,350
46,384
47,412
48,440
49,474
50,513
51,552
52,585
53,625
54,674
55,730
56,770
57,827
58,888
59,948
60,1005
61,1070
62,1132
63,1200
64,1278
65,1353
66,1435
67,1512
68,1605
69,1710
70,1801
71,1920
72,2033
73,2138
74,2267
75,2402
76,2549
77,2720
78,2875
79,3041
80,3229
