0,1
1,1
2,1
3,1
4,1
5,1
6,1
7,1
8,1
9,1
10,2
11,2
12,2
13,2
14,2
15,2
16,2
17,2
18,2
19,3
20,4
21,4
22,4
23,4
24,4
25,5
26,5
27,5
28,5
29,5
30,6
31,6
32,6
33,6
34,6
35,7
36,7
37,7
38,7
39,7
40,7
41,9
42,10
43,10
44,10
45,10
46,10
47,11
48,12
49,12
50,13
51,14
52,14
53,15
54,16
55,16
56,16
57,16
58,17
59,17
60,19
61,19
62,20
63,20
64,20
65,21
66,23
67,24
68,25
69,25
70,25
71,26
72,28
73,29
74,29
75,32
76,32
77,33
78,33
79,33
80,33
