0,1
1,1
2,1
3,2
4,2
5,2
6,2
7,3
8,3
9,4
10,4
11,4
12,6
13,7
14,7
15,8
16,10
17,10
18,15
19,18
20,19
21,20
22,22
23,25
24,26
25,28
26,29
27,30
28,35
29,36
30,39
31,43
32,45
33,51
34,55
35,62
36,66
37,78
38,79
39,89
40,94
41,101
42,108
43,116
44,122
45,131
46,136
47,144
48,155
49,166
50,182
51,186
52,193
53,207
54,214
55,218
56,230
57,239
58,250
59,260
60,267
61,273
62,282
63,291
64,300
65,311
66,325
67,335
68,342
69,351
70,363
71,372
72,377
73,392
74,409
75,421
76,437
77,453
78,474
79,500
80,517
