0,1
1,1
2,1
3,2
4,2
5,2
6,3
7,5
8,7
9,8
10,9
11,9
12,13
13,14
14,16
15,19
16,21
17,22
18,26
19,28
20,30
21,35
22,37
23,43
24,45
25,48
26,50
27,54
28,61
29,68
30,73
31,79
32,84
33,92
34,101
35,108
36,113
37,119
38,128
39,132
40,135
41,142
42,148
43,153
44,155
45,165
46,172
47,173
48,186
49,191
50,199
51,211
52,224
53,229
54,235
55,242
56,255
57,266
58,275
59,293
60,304
61,318
62,329
63,346
64,362
65,376
66,387
67,403
68,417
69,432
70,454
71,475
72,498
73,526
74,549
75,572
76,599
77,632
78,662
79,691
80,725
