0,1
1,1
2,1
3,1
4,2
5,2
6,3
7,4
8,4
9,4
10,5
11,7
12,8
13,8
14,12
15,17
16,21
17,22
18,26
19,28
20,32
21,36
22,40
23,46
24,48
25,52
26,58
27,59
28,61
29,63
30,66
31,72
32,80
33,83
34,85
35,91
36,95
37,102
38,103
39,107
40,112
41,116
42,119
43,120
44,126
45,129
46,133
47,138
48,139
49,147
50,152
51,158
52,161
53,166
54,171
55,175
56,183
57,188
58,195
59,204
60,211
61,216
62,224
63,231
64,240
65,248
66,258
67,269
68,285
69,291
70,301
71,309
72,323
73,330
74,341
75,349
76,358
77,370
78,378
79,383
80,396
