0,1
1,1
2,1
3,1
4,1
5,2
6,3
7,3
8,3
9,4
10,6
11,7
12,8
13,10
14,11
15,11
16,11
17,12
18,15
19,16
20,18
21,20
22,22
23,23
24,27
25,28
26,30
27,32
28,33
29,37
30,38
31,40
32,42
33,44
34,48
35,49
36,49
37,52
38,52
39,55
40,55
41,55
42,58
43,58
44,59
45,59
46,64
47,66
48,67
49,67
50,70
51,71
52,74
53,75
54,77
55,79
56,82
57,85
58,88
59,89
60,93
61,94
62,100
63,105
64,108
65,109
66,115
67,121
68,125
69,128
70,137
71,143
72,152
73,161
74,169
75,177
76,184
77,189
78,195
79,202
80,212
