0,1
1,1
2,1
3,1
4,1
5,3
6,3
7,4
8,5
9,6
10,8
11,10
12,12
13,13
14,16
15,19
16,20
17,21
18,25
19,26
20,28
21,31
22,35
23,37
24,39
25,44
26,46
27,51
28,55
29,57
30,60
31,65
32,68
33,72
34,77
35,80
36,84
37,88
38,93
39,94
40,99
41,109
42,114
43,120
44,126
45,129
46,137
47,148
48,158
49,168
50,176
51,185
52,196
53,211
54,220
55,237
56,248
57,257
58,267
59,278
60,296
61,310
62,325
63,346
64,359
65,368
66,380
67,402
68,423
69,448
70,461
71,487
72,517
73,541
74,567
75,591
76,631
77,662
78,692
79,731
80,773
