0,1
1,1
2,1
3,1
4,1
5,1
6,1
7,2
8,2
9,2
10,3
11,3
12,3
13,3
14,3
15,4
16,4
17,4
18,4
19,4
20,4
21,5
22,5
23,6
24,6
25,6
26,6
27,6
28,6
29,7
30,8
31,8
32,12
33,12
34,12
35,13
36,15
37,18
38,18
39,19
40,21
41,21
42,22
43,22
44,23
45,24
46,26
47,28
48,31
49,34
50,35
51,36
52,38
53,41
54,43
55,47
56,51
57,56
58,59
59,66
60,69
61,76
62,78
63,85
64,97
65,104
66,109
67,115
68,122
69,129
70,139
71,145
72,157
73,167
74,172
75,188
76,200
77,216
78,230
79,255
80,265
