0,1
1,1
2,1
3,1
4,1
5,1
6,2
7,2
8,2
9,4
10,4
11,4
12,4
13,4
14,5
15,7
16,7
17,8
18,9
19,10
20,10
21,13
22,14
23,15
24,15
25,18
26,21
27,25
28,28
29,30
30,32
31,32
32,36
33,37
34,39
35,42
36,44
37,48
38,53
39,56
40,56
41,63
42,64
43,68
44,76
45,79
46,84
47,92
48,94
49,99
50,107
51,112
52,123
53,131
54,143
55,150
56,154
57,162
58,171
59,178
60,182
61,192
62,199
63,206
64,221
65,236
66,247
67,258
68,269
69,286
70,302
71,330
72,343
73,361
74,371
75,393
76,417
77,438
78,458
79,478
80,504
