0,1
1,1
2,2
3,2
4,2
5,2
6,2
7,2
8,2
9,2
10,3
11,3
12,4
13,4
14,4
15,4
16,4
17,4
18,5
19,5
20,5
21,5
22,5
23,5
24,5
25,5
26,6
27,6
28,6
29,6
30,6
31,7
32,7
33,7
34,8
35,8
36,9
37,9
38,10
39,11
40,11
41,11
42,12
43,12
44,12
45,18
46,18
47,20
48,24
49,28
50,31
51,35
52,39
53,41
54,44
55,45
56,54
57,58
58,63
59,66
60,70
61,76
62,83
63,90
64,93
65,98
66,106
67,111
68,116
69,126
70,139
71,147
72,153
73,160
74,167
75,181
76,186
77,199
78,213
79,227
80,234
