0,1
1,1
2,1
3,1
4,1
5,1
6,3
7,4
8,6
9,6
10,7
11,11
12,11
13,13
14,17
15,20
16,24
17,28
18,33
19,41
20,47
21,53
22,61
23,66
24,72
25,79
26,86
27,99
28,109
29,116
30,126
31,133
32,145
33,162
34,174
35,197
36,208
37,218
38,230
39,245
40,259
41,279
42,292
43,313
44,326
45,343
46,360
47,385
48,404
49,422
50,447
51,466
52,499
53,530
54,557
55,587
56,621
57,657
58,694
59,731
60,770
61,801
62,839
63,881
64,925
65,983
66,1040
67,1101
68,1148
69,1210
70,1279
71,1352
72,1432
73,1507
74,1609
75,1681
76,1771
77,1862
78,1951
79,2064
80,2176
