0,1
1,1
2,1
3,1
4,2
5,2
6,2
7,2
8,2
9,3
10,3
11,6
12,7
13,7
14,8
15,9
16,10
17,10
18,10
19,12
20,12
21,12
22,15
23,18
24,18
25,19
26,21
27,24
28,25
29,25
30,27
31,27
32,29
33,30
34,32
35,35
36,38
37,39
38,41
39,44
40,45
41,45
42,47
43,52
44,56
45,59
46,61
47,64
48,71
49,72
50,76
51,83
52,88
53,94
54,98
55,100
56,104
57,111
58,117
59,123
60,129
61,134
62,137
63,145
64,152
65,161
66,168
67,175
68,183
69,189
70,199
71,207
72,217
73,232
74,249
75,257
76,275
77,290
78,309
79,321
80,347
