0,1
1,1
2,1
3,1
4,3
5,3
6,3
7,3
8,4
9,5
10,5
11,6
12,7
13,9
14,9
15,9
16,10
17,11
18,12
19,12
20,13
21,15
22,17
23,19
24,22
25,22
26,23
27,24
28,26
29,28
30,29
31,30
32,30
33,32
34,32
35,32
36,35
37,36
38,37
39,40
40,42
41,47
42,48
43,51
44,56
45,61
46,64
47,66
48,67
49,74
50,79
51,81
52,83
53,84
54,91
55,95
56,100
57,106
58,112
59,115
60,118
61,126
62,138
63,144
64,147
65,152
66,155
67,163
68,171
69,176
70,181
71,194
72,201
73,212
74,217
75,224
76,237
77,248
78,267
79,273
80,290
