0,1
1,1
2,1
3,1
4,2
5,3
6,4
7,5
8,6
9,8
10,8
11,9
12,9
13,10
14,11
15,11
16,12
17,12
18,14
19,14
20,17
21,17
22,20
23,23
24,24
25,26
26,29
27,34
28,41
29,45
30,51
31,53
32,58
33,61
34,66
35,71
36,79
37,87
38,97
39,103
40,114
41,121
42,133
43,150
44,166
45,181
46,201
47,215
48,234
49,258
50,283
51,306
52,331
53,365
54,390
55,421
56,450
57,483
58,519
59,541
60,567
61,612
62,639
63,677
64,721
65,774
66,815
67,863
68,895
69,943
70,987
71,1045
72,1099
73,1181
74,1243
75,1317
76,1393
77,1485
78,1570
79,1661
80,1758
