0,1
1,1
2,1
3,2
4,3
5,5
6,6
7,6
8,8
9,8
10,8
11,12
12,13
13,13
14,15
15,15
16,18
17,18
18,22
19,24
20,24
21,24
22,26
23,26
24,26
25,27
26,28
27,29
28,31
29,33
30,33
31,33
32,33
33,34
34,37
35,39
36,39
37,39
38,39
39,40
40,43
41,44
42,45
43,48
44,48
45,48
46,50
47,52
48,56
49,56
50,59
51,60
52,60
53,61
54,62
55,64
56,66
57,69
58,72
59,76
60,78
61,84
62,91
63,98
64,100
65,101
66,108
67,112
68,118
69,126
70,129
71,136
72,142
73,147
74,156
75,163
76,166
77,175
78,182
79,187
80,194
