0,1
1,1
2,1
3,1
4,1
5,2
6,2
7,3
8,4
9,7
10,7
11,8
12,9
13,14
14,18
15,18
16,20
17,21
18,26
19,29
20,32
21,35
22,36
23,38
24,41
25,48
26,52
27,53
28,58
29,61
30,65
31,69
32,76
33,84
34,90
35,99
36,110
37,120
38,131
39,137
40,149
41,161
42,172
43,183
44,197
45,209
46,222
47,234
48,247
49,266
50,275
51,289
52,303
53,325
54,342
55,365
56,381
57,406
58,430
59,452
60,477
61,520
62,546
63,575
64,604
65,650
66,693
67,732
68,770
69,810
70,856
71,915
72,966
73,1024
74,1079
75,1126
76,1188
77,1249
78,1310
79,1368
80,1439
