0,1
1,1
2,1
3,1
4,2
5,2
6,2
7,4
8,5
9,5
10,6
11,6
12,6
13,6
14,6
15,7
16,7
17,8
18,10
19,11
20,11
21,11
22,13
23,17
24,19
25,20
26,22
27,26
28,28
29,31
30,32
31,33
32,39
33,44
34,48
35,50
36,54
37,57
38,63
39,66
40,68
41,72
42,76
43,79
44,87
45,93
46,100
47,103
48,106
49,115
50,119
51,126
52,128
53,134
54,142
55,148
56,155
57,164
58,171
59,178
60,190
61,195
62,209
63,215
64,221
65,229
66,245
67,257
68,269
69,278
70,294
71,305
72,315
73,336
74,359
75,374
76,391
77,414
78,433
79,447
80,471
