0,1
1,1
2,1
3,1
4,2
5,4
6,5
7,5
8,5
9,6
10,6
11,6
12,6
13,8
14,8
15,8
16,9
17,9
18,9
19,12
20,14
21,16
22,17
23,19
24,20
25,23
26,24
27,26
28,27
29,32
30,35
31,37
32,42
33,45
34,47
35,50
36,56
37,58
38,60
39,62
40,67
41,71
42,74
43,75
44,77
45,79
46,82
47,86
48,88
49,92
50,93
51,95
52,97
53,104
54,110
55,114
56,116
57,121
58,121
59,123
60,131
61,135
62,143
63,146
64,151
65,161
66,168
67,172
68,179
69,183
70,194
71,199
72,207
73,213
74,218
75,227
76,236
77,241
78,250
79,260
80,269
