0,1
1,1
2,1
3,1
4,2
5,2
6,2
7,2
8,4
9,4
10,4
11,5
12,5
13,8
14,9
15,10
16,12
17,13
18,17
19,18
20,20
21,22
22,23
23,24
24,25
25,26
26,30
27,30
28,30
29,32
30,34
31,35
32,37
33,38
34,38
35,39
36,40
37,40
38,42
39,43
40,44
41,47
42,48
43,49
44,50
45,52
46,55
47,57
48,58
49,60
50,63
51,65
52,66
53,69
54,70
55,72
56,76
57,78
58,83
59,86
60,89
61,95
62,99
63,105
64,108
65,113
66,121
67,125
68,129
69,131
70,142
71,150
72,152
73,159
74,169
75,173
76,178
77,183
78,195
79,198
80,203
