0,1
1,1
2,1
3,1
4,1
5,2
6,2
7,2
8,2
9,3
10,3
11,3
12,3
13,3
14,3
15,4
16,4
17,4
18,4
19,5
20,7
21,7
22,7
23,7
24,10
25,12
26,16
27,18
28,19
29,21
30,24
31,25
32,29
33,33
34,36
35,38
36,40
37,48
38,50
39,56
40,63
41,70
42,79
43,82
44,91
45,98
46,105
47,118
48,124
49,133
50,145
51,157
52,163
53,177
54,191
55,199
56,208
57,222
58,234
59,250
60,258
61,272
62,285
63,301
64,323
65,337
66,356
67,382
68,400
69,417
70,441
71,466
72,487
73,515
74,543
75,569
76,604
77,626
78,655
79,693
80,725
