0,1
1,1
2,1
3,1
4,2
5,2
6,3
7,3
8,4
9,4
10,5
11,6
12,8
13,9
14,10
15,12
16,15
17,16
18,17
19,17
20,18
21,19
22,19
23,20
24,21
25,22
26,22
27,25
28,29
29,31
30,32
31,34
32,39
33,43
34,48
35,54
36,61
37,64
38,70
39,74
40,82
41,88
42,98
43,113
44,131
45,139
46,149
47,162
48,170
49,179
50,191
51,209
52,222
53,239
54,257
55,270
56,288
57,304
58,327
59,359
60,372
61,399
62,422
63,443
64,460
65,482
66,510
67,538
68,571
69,595
70,626
71,650
72,684
73,716
74,754
75,790
76,818
77,855
78,882
79,923
80,964
