0,1
1,1
2,1
3,2
4,2
5,4
6,5
7,7
8,8
9,8
10,9
11,11
12,12
13,12
14,12
15,12
16,14
17,14
18,14
19,15
20,15
21,16
22,18
23,19
24,20
25,20
26,23
27,24
28,28
29,29
30,31
31,32
32,33
33,35
34,36
35,37
36,37
37,40
38,42
39,44
40,44
41,45
42,48
43,48
44,51
45,54
46,56
47,56
48,56
49,57
50,59
51,60
52,61
53,62
54,63
55,64
56,65
57,65
58,66
59,67
60,68
61,69
62,69
63,69
64,70
65,71
66,71
67,72
68,72
69,74
70,74
71,74
72,74
73,74
74,75
75,75
76,76
77,76
78,76
79,76
80,76
