0,1
1,1
2,1
3,3
4,3
5,4
6,5
7,7
8,9
9,11
10,13
11,15
12,18
13,21
14,24
15,27
16,30
17,36
18,38
19,41
20,45
21,50
22,55
23,59
24,62
25,66
26,68
27,69
28,73
29,76
30,76
31,77
32,79
33,80
34,80
35,81
36,82
37,87
38,89
39,90
40,92
41,93
42,95
43,96
44,97
45,99
46,102
47,105
48,106
49,108
50,111
51,113
52,115
53,119
54,123
55,129
56,135
57,140
58,143
59,151
60,156
61,157
62,165
63,170
64,173
65,177
66,185
67,190
68,200
69,204
70,212
71,220
72,227
73,235
74,243
75,248
76,258
77,267
78,274
79,283
80,290
