0,1
1,1
2,1
3,1
4,2
5,2
6,2
7,3
8,4
9,4
10,5
11,5
12,5
13,8
14,8
15,8
16,8
17,8
18,10
19,10
20,10
21,10
22,12
23,14
24,16
25,17
26,17
27,20
28,24
29,25
30,26
31,28
32,29
33,31
34,34
35,37
36,41
37,43
38,45
39,48
40,49
41,55
42,60
43,61
44,66
45,69
46,71
47,72
48,75
49,77
50,78
51,83
52,87
53,88
54,91
55,91
56,96
57,98
58,105
59,106
60,108
61,112
62,117
63,121
64,123
65,125
66,129
67,134
68,138
69,141
70,149
71,153
72,158
73,166
74,171
75,182
76,192
77,203
78,217
79,231
80,250
