0,1
1,1
2,1
3,2
4,3
5,3
6,4
7,5
8,8
9,8
10,8
11,10
12,11
13,12
14,13
15,13
16,13
17,14
18,15
19,15
20,15
21,16
22,16
23,19
24,19
25,20
26,21
27,23
28,23
29,25
30,28
31,30
32,33
33,33
34,36
35,36
36,36
37,37
38,38
39,43
40,45
41,46
42,50
43,50
44,53
45,54
46,57
47,58
48,62
49,64
50,67
51,68
52,70
53,77
54,84
55,87
56,96
57,100
58,106
59,111
60,116
61,124
62,135
63,150
64,160
65,174
66,184
67,192
68,209
69,220
70,241
71,255
72,270
73,296
74,326
75,352
76,385
77,419
78,456
79,492
80,518
