0,1
1,1
2,1
3,1
4,1
5,1
6,1
7,2
8,2
9,2
10,2
11,2
12,3
13,3
14,3
15,4
16,4
17,6
18,7
19,7
20,8
21,8
22,9
23,9
24,9
25,9
26,10
27,10
28,10
29,11
30,12
31,12
32,12
33,14
34,16
35,18
36,19
37,19
38,19
39,22
40,23
41,25
42,25
43,27
44,29
45,30
46,30
47,31
48,33
49,34
50,35
51,35
52,36
53,37
54,39
55,42
56,42
57,42
58,44
59,45
60,47
61,51
62,52
63,55
64,58
65,61
66,67
67,69
68,72
69,74
70,80
71,81
72,87
73,95
74,102
75,106
76,109
77,111
78,119
79,123
80,125
