0,1
1,1
2,1
3,1
4,1
5,2
6,5
7,6
8,8
9,13
10,15
11,17
12,18
13,24
14,28
15,32
16,32
17,37
18,41
19,44
20,46
21,48
22,52
23,57
24,62
25,67
26,69
27,72
28,77
29,85
30,89
31,94
32,99
33,103
34,111
35,118
36,126
37,138
38,144
39,151
40,166
41,172
42,182
43,195
44,211
45,225
46,233
47,237
48,248
49,263
50,273
51,285
52,294
53,303
54,312
55,323
56,335
57,346
58,356
59,370
60,377
61,384
62,402
63,411
64,427
65,435
66,448
67,462
68,474
69,488
70,508
71,528
72,546
73,563
74,577
75,588
76,609
77,636
78,657
79,684
80,707
