0,1
1,1
2,1
3,1
4,1
5,2
6,2
7,2
8,3
9,3
10,4
11,4
12,4
13,4
14,4
15,4
16,5
17,5
18,5
19,5
20,6
21,6
22,6
23,6
24,6
25,6
26,6
27,8
28,8
29,8
30,9
31,9
32,9
33,10
34,10
35,13
36,13
37,14
38,14
39,15
40,15
41,15
42,18
43,18
44,18
45,19
46,20
47,20
48,20
49,21
50,21
51,22
52,24
53,26
54,28
55,29
56,30
57,32
58,32
59,34
60,36
61,36
62,37
63,39
64,39
65,39
66,42
67,44
68,44
69,44
70,47
71,54
72,56
73,60
74,65
75,72
76,77
77,80
78,86
79,91
80,97
