0,1
1,1
2,1
3,2
4,2
5,2
6,3
7,3
8,3
9,3
10,4
11,5
12,5
13,5
14,5
15,7
16,7
17,7
18,9
19,9
20,9
21,10
22,11
23,12
24,13
25,13
26,14
27,14
28,14
29,17
30,21
31,22
32,25
33,28
34,31
35,33
36,35
37,39
38,44
39,45
40,47
41,49
42,51
43,57
44,59
45,62
46,63
47,66
48,70
49,77
50,83
51,84
52,88
53,91
54,96
55,104
56,113
57,117
58,125
59,139
60,149
61,164
62,173
63,192
64,206
65,220
66,248
67,264
68,284
69,303
70,326
71,353
72,389
73,414
74,444
75,472
76,500
77,528
78,562
79,588
80,625
