0,1
1,1
2,1
3,2
4,2
5,2
6,2
7,3
8,4
9,6
10,6
11,7
12,9
13,10
14,11
15,14
16,16
17,18
18,22
19,26
20,28
21,30
22,34
23,36
24,38
25,40
26,43
27,49
28,50
29,51
30,58
31,60
32,68
33,70
34,76
35,87
36,94
37,100
38,114
39,128
40,137
41,146
42,162
43,174
44,187
45,201
46,212
47,230
48,244
49,255
50,274
51,288
52,300
53,308
54,326
55,342
56,355
57,372
58,392
59,407
60,425
61,444
62,463
63,483
64,502
65,529
66,554
67,577
68,600
69,635
70,660
71,689
72,712
73,749
74,786
75,812
76,849
77,891
78,922
79,969
80,1006
