0,1
1,1
2,2
3,3
4,3
5,5
6,5
7,5
8,5
9,7
10,7
11,7
12,8
13,8
14,8
15,8
16,9
17,10
18,11
19,11
20,11
21,12
22,12
23,12
24,13
25,15
26,16
27,16
28,18
29,19
30,19
31,20
32,20
33,22
34,24
35,24
36,25
37,27
38,28
39,29
40,30
41,31
42,34
43,36
44,38
45,40
46,41
47,45
48,46
49,52
50,58
51,61
52,63
53,65
54,74
55,76
56,82
57,85
58,92
59,95
60,100
61,109
62,121
63,127
64,131
65,140
66,146
67,157
68,167
69,184
70,197
71,214
72,230
73,245
74,260
75,276
76,291
77,307
78,330
79,345
80,368
