0,1
1,1
2,1
3,1
4,2
5,2
6,3
7,3
8,5
9,5
10,5
11,6
12,7
13,8
14,9
15,9
16,9
17,11
18,12
19,14
20,14
21,16
22,16
23,17
24,18
25,21
26,21
27,22
28,22
29,23
30,28
31,31
32,32
33,34
34,36
35,41
36,44
37,44
38,47
39,49
40,52
41,55
42,56
43,60
44,65
45,67
46,69
47,72
48,78
49,82
50,86
51,88
52,91
53,92
54,96
55,98
56,99
57,99
58,102
59,105
60,110
61,116
62,118
63,120
64,121
65,123
66,126
67,133
68,138
69,142
70,144
71,145
72,153
73,160
74,164
75,170
76,174
77,181
78,191
79,200
80,210
