0,1
1,1
2,1
3,2
4,2
5,2
6,2
7,2
8,2
9,3
10,3
11,3
12,3
13,3
14,4
15,4
16,4
17,5
18,6
19,7
20,8
21,11
22,12
23,13
24,15
25,17
26,19
27,20
28,21
29,25
30,27
31,31
32,32
33,37
34,41
35,42
36,45
37,53
38,58
39,65
40,71
41,79
42,81
43,92
44,97
45,105
46,110
47,119
48,129
49,135
50,142
51,146
52,156
53,162
54,174
55,187
56,197
57,210
58,216
59,231
60,246
61,261
62,269
63,285
64,294
65,309
66,326
67,342
68,355
69,373
70,387
71,407
72,420
73,436
74,455
75,472
76,496
77,526
78,553
79,575
80,600
