0,1
1,1
2,1
3,1
4,2
5,2
6,2
7,2
8,2
9,3
10,4
11,6
12,6
13,6
14,7
15,11
16,13
17,16
18,18
19,22
20,24
21,30
22,35
23,38
24,50
25,57
26,64
27,68
28,77
29,81
30,86
31,93
32,99
33,106
34,114
35,119
36,124
37,138
38,146
39,156
40,164
41,179
42,197
43,212
44,224
45,238
46,252
47,273
48,301
49,320
50,336
51,365
52,393
53,434
54,455
55,491
56,529
57,569
58,610
59,649
60,687
61,734
62,772
63,823
64,868
65,920
66,972
67,1027
68,1089
69,1143
70,1210
71,1275
72,1338
73,1402
74,1478
75,1559
76,1633
77,1702
78,1796
79,1877
80,1990
