0,1
1,1
2,1
3,1
4,1
5,1
6,1
7,1
8,2
9,2
10,2
11,2
12,2
13,2
14,4
15,5
16,5
17,6
18,7
19,12
20,12
21,13
22,15
23,17
24,19
25,23
26,26
27,29
28,32
29,34
30,35
31,37
32,39
33,41
34,43
35,47
36,49
37,56
38,59
39,63
40,69
41,75
42,83
43,89
44,94
45,101
46,107
47,115
48,121
49,126
50,134
51,140
52,151
53,160
54,167
55,175
56,186
57,194
58,198
59,206
60,214
61,227
62,238
63,257
64,267
65,286
66,302
67,314
68,329
69,344
70,365
71,385
72,400
73,417
74,438
75,459
76,487
77,504
78,526
79,549
80,569
