0,1
1,1
2,2
3,2
4,2
5,2
6,2
7,2
8,2
9,2
10,2
11,2
12,3
13,3
14,3
15,4
16,4
17,5
18,5
19,5
20,7
21,7
22,8
23,9
24,11
25,11
26,12
27,14
28,15
29,15
30,15
31,16
32,17
33,18
34,18
35,18
36,18
37,18
38,18
39,19
40,19
41,20
42,20
43,21
44,23
45,24
46,25
47,25
48,25
49,25
50,27
51,28
52,29
53,32
54,33
55,33
56,33
57,34
58,35
59,36
60,36
61,37
62,38
63,40
64,41
65,41
66,44
67,48
68,48
69,50
70,51
71,52
72,53
73,55
74,55
75,55
76,55
77,55
78,56
79,56
80,56
