0,1
1,1
2,1
3,1
4,2
5,2
6,4
7,4
8,4
9,6
10,8
11,8
12,9
13,13
14,15
15,21
16,23
17,26
18,32
19,36
20,43
21,49
22,57
23,66
24,75
25,82
26,87
27,101
28,113
29,126
30,136
31,147
32,153
33,164
34,185
35,203
36,221
37,231
38,245
39,253
40,274
41,293
42,304
43,341
44,360
45,383
46,409
47,430
48,459
49,488
50,516
51,547
52,588
53,624
54,651
55,686
56,730
57,762
58,794
59,838
60,882
61,922
62,979
63,1036
64,1085
65,1135
66,1195
67,1251
68,1313
69,1374
70,1438
71,1521
72,1594
73,1669
74,1760
75,1859
76,1973
77,2093
78,2208
79,2340
80,2454
