0,1
1,1
2,1
3,1
4,3
5,3
6,4
7,4
8,5
9,6
10,6
11,7
12,9
13,10
14,12
15,12
16,13
17,13
18,16
19,18
20,19
21,22
22,23
23,25
24,31
25,32
26,33
27,35
28,41
29,48
30,50
31,58
32,61
33,67
34,73
35,78
36,84
37,93
38,98
39,107
40,111
41,121
42,131
43,138
44,145
45,159
46,172
47,178
48,187
49,198
50,211
51,227
52,238
53,251
54,264
55,272
56,287
57,301
58,317
59,329
60,340
61,357
62,370
63,388
64,407
65,424
66,441
67,463
68,481
69,499
70,525
71,546
72,561
73,588
74,617
75,643
76,673
77,713
78,745
79,781
80,829
