0,1
1,1
2,1
3,1
4,2
5,2
6,2
7,2
8,3
9,3
10,3
11,4
12,4
13,5
14,5
15,5
16,5
17,6
18,6
19,6
20,6
21,6
22,7
23,8
24,8
25,9
26,10
27,11
28,12
29,13
30,14
31,15
32,16
33,20
34,22
35,23
36,27
37,31
38,37
39,43
40,47
41,54
42,61
43,74
44,80
45,86
46,95
47,106
48,114
49,127
50,138
51,151
52,163
53,170
54,182
55,203
56,217
57,239
58,258
59,278
60,302
61,332
62,360
63,387
64,420
65,448
66,492
67,539
68,572
69,618
70,662
71,708
72,767
73,806
74,851
75,926
76,987
77,1055
78,1108
79,1154
80,1218
