0,1
1,1
2,1
3,2
4,3
5,5
6,7
7,9
8,11
9,14
10,15
11,18
12,23
13,26
14,29
15,32
16,40
17,44
18,48
19,58
20,64
21,75
22,81
23,90
24,99
25,107
26,119
27,131
28,141
29,158
30,171
31,188
32,202
33,217
34,230
35,241
36,263
37,293
38,319
39,343
40,376
41,391
42,417
43,438
44,457
45,494
46,522
47,544
48,579
49,614
50,647
51,680
52,730
53,772
54,806
55,850
56,901
57,950
58,1004
59,1048
60,1100
61,1166
62,1228
63,1290
64,1356
65,1431
66,1520
67,1604
68,1680
69,1761
70,1840
71,1939
72,2052
73,2142
74,2248
75,2364
76,2481
77,2591
78,2699
79,2819
80,2970
