0,1
1,1
2,1
3,1
4,1
5,2
6,2
7,2
8,2
9,2
10,3
11,3
12,3
13,3
14,4
15,4
16,4
17,4
18,4
19,5
20,5
21,5
22,6
23,7
24,7
25,8
26,8
27,8
28,8
29,8
30,9
31,9
32,9
33,9
34,10
35,10
36,11
37,12
38,13
39,14
40,15
41,15
42,16
43,17
44,18
45,18
46,20
47,22
48,24
49,25
50,26
51,28
52,29
53,32
54,33
55,35
56,36
57,41
58,44
59,47
60,48
61,50
62,55
63,58
64,60
65,60
66,63
67,68
68,72
69,73
70,74
71,77
72,81
73,85
74,89
75,91
76,93
77,97
78,100
79,102
80,103
