0,1
1,1
2,1
3,2
4,2
5,3
6,3
7,3
8,3
9,3
10,5
11,5
12,6
13,7
14,8
15,8
16,9
17,9
18,9
19,11
20,12
21,12
22,12
23,12
24,13
25,13
26,13
27,13
28,15
29,16
30,16
31,16
32,16
33,16
34,16
35,16
36,17
37,17
38,17
39,17
40,18
41,19
42,19
43,19
44,19
45,20
46,20
47,21
48,21
49,21
50,22
51,22
52,22
53,22
54,23
55,23
56,24
57,25
58,26
59,27
60,27
61,28
62,28
63,29
64,30
65,31
66,32
67,32
68,35
69,36
70,37
71,39
72,42
73,43
74,43
75,43
76,43
77,44
78,45
79,45
80,47
