0,1
1,1
2,1
3,1
4,1
5,1
6,3
7,3
8,4
9,5
10,6
11,8
12,9
13,9
14,13
15,16
16,17
17,19
18,21
19,24
20,30
21,33
22,36
23,38
24,43
25,47
26,51
27,55
28,63
29,72
30,77
31,81
32,90
33,103
34,112
35,126
36,133
37,148
38,161
39,179
40,192
41,209
42,225
43,237
44,252
45,274
46,308
47,327
48,346
49,379
50,409
51,443
52,478
53,515
54,559
55,602
56,643
57,679
58,737
59,788
60,832
61,893
62,955
63,1016
64,1081
65,1154
66,1230
67,1323
68,1403
69,1499
70,1586
71,1668
72,1763
73,1871
74,1981
75,2094
76,2200
77,2342
78,2479
79,2619
80,2768
