0,1
1,1
2,2
3,2
4,3
5,4
6,4
7,5
8,7
9,9
10,12
11,15
12,18
13,19
14,20
15,21
16,23
17,26
18,26
19,28
20,29
21,29
22,30
23,32
24,35
25,36
26,38
27,39
28,41
29,41
30,43
31,44
32,44
33,45
34,47
35,47
36,48
37,50
38,50
39,51
40,51
41,53
42,53
43,53
44,53
45,53
46,55
47,55
48,55
49,58
50,58
51,59
52,60
53,60
54,60
55,64
56,67
57,69
58,72
59,77
60,79
61,82
62,87
63,93
64,94
65,96
66,101
67,104
68,109
69,110
70,115
71,115
72,120
73,124
74,134
75,138
76,145
77,149
78,155
79,158
80,165
