0,1
1,1
2,1
3,1
4,2
5,2
6,3
7,3
8,5
9,5
10,5
11,6
12,7
13,8
14,10
15,10
16,10
17,11
18,12
19,12
20,13
21,14
22,14
23,14
24,15
25,15
26,16
27,17
28,17
29,18
30,19
31,20
32,20
33,20
34,22
35,23
36,24
37,25
38,29
39,30
40,32
41,33
42,37
43,39
44,41
45,44
46,46
47,48
48,51
49,54
50,58
51,60
52,62
53,64
54,70
55,72
56,75
57,79
58,86
59,87
60,91
61,93
62,98
63,101
64,105
65,109
66,115
67,122
68,129
69,134
70,142
71,151
72,159
73,169
74,179
75,190
76,199
77,212
78,227
79,239
80,248
