0,1
1,1
2,1
3,1
4,1
5,1
6,1
7,1
8,3
9,3
10,3
11,4
12,4
13,4
14,5
15,7
16,7
17,7
18,8
19,8
20,8
21,9
22,10
23,10
24,11
25,11
26,14
27,15
28,15
29,18
30,21
31,23
32,25
33,27
34,30
35,32
36,33
37,36
38,38
39,39
40,40
41,45
42,46
43,46
44,49
45,52
46,53
47,56
48,60
49,62
50,64
51,66
52,68
53,72
54,73
55,75
56,79
57,79
58,83
59,89
60,91
61,92
62,94
63,96
64,98
65,98
66,105
67,107
68,108
69,111
70,117
71,124
72,126
73,132
74,138
75,141
76,148
77,156
78,168
79,177
80,188
