0,1
1,1
2,1
3,1
4,1
5,1
6,1
7,2
8,2
9,2
10,2
11,2
12,2
13,3
14,3
15,4
16,4
17,4
18,4
19,4
20,4
21,5
22,5
23,5
24,5
25,5
26,5
27,6
28,6
29,6
30,7
31,7
32,7
33,7
34,7
35,8
36,8
37,8
38,8
39,9
40,9
41,9
42,9
43,10
44,10
45,10
46,10
47,11
48,12
49,12
50,13
51,13
52,13
53,14
54,15
55,17
56,19
57,19
58,21
59,23
60,24
61,27
62,29
63,30
64,32
65,33
66,33
67,34
68,38
69,43
70,43
71,47
72,47
73,48
74,56
75,57
76,58
77,61
78,65
79,66
80,71
