0,1
1,1
2,1
3,1
4,1
5,1
6,1
7,1
8,2
9,2
10,2
11,2
12,3
13,5
14,5
15,5
16,5
17,6
18,6
19,6
20,6
21,7
22,8
23,9
24,9
25,9
26,12
27,14
28,14
29,15
30,16
31,17
32,19
33,21
34,25
35,26
36,28
37,29
38,29
39,31
40,33
41,36
42,40
43,41
44,41
45,42
46,43
47,44
48,45
49,45
50,45
51,46
52,47
53,47
54,47
55,50
56,51
57,51
58,51
59,54
60,57
61,59
62,62
63,62
64,63
65,63
66,66
67,70
68,73
69,76
70,79
71,80
72,84
73,87
74,89
75,95
76,96
77,99
78,103
79,107
80,109
