0,1
1,1
2,1
3,1
4,1
5,1
6,1
7,1
8,2
9,2
10,2
11,2
12,3
13,5
14,5
15,6
16,7
17,10
18,12
19,14
20,17
21,18
22,21
23,24
24,25
25,29
26,29
27,29
28,29
29,30
30,33
31,34
32,34
33,35
34,35
35,36
36,38
37,39
38,39
39,39
40,40
41,41
42,42
43,42
44,43
45,43
46,44
47,46
48,47
49,47
50,51
51,52
52,52
53,53
54,55
55,56
56,57
57,59
58,59
59,59
60,62
61,62
62,63
63,65
64,68
65,69
66,71
67,72
68,73
69,73
70,74
71,77
72,77
73,77
74,78
75,78
76,79
77,80
78,80
79,80
80,80
