0,1
1,1
2,2
3,2
4,2
5,3
6,3
7,3
8,4
9,5
10,5
11,5
12,5
13,5
14,6
15,7
16,7
17,8
18,8
19,9
20,10
21,10
22,11
23,11
24,11
25,11
26,11
27,12
28,12
29,13
30,14
31,14
32,14
33,15
34,15
35,16
36,17
37,17
38,17
39,18
40,18
41,19
42,19
43,19
44,20
45,20
46,24
47,28
48,28
49,30
50,34
51,34
52,38
53,38
54,40
55,45
56,50
57,52
58,57
59,62
60,64
61,66
62,71
63,81
64,83
65,85
66,92
67,97
68,103
69,105
70,108
71,114
72,120
73,127
74,132
75,138
76,143
77,152
78,159
79,162
80,171
