0,1
1,1
2,1
3,1
4,3
5,5
6,7
7,9
8,12
9,17
10,20
11,24
12,28
13,34
14,39
15,44
16,49
17,57
18,58
19,62
20,65
21,68
22,75
23,78
24,91
25,94
26,99
27,106
28,113
29,127
30,133
31,147
32,156
33,167
34,176
35,187
36,205
37,220
38,236
39,258
40,276
41,295
42,313
43,331
44,364
45,380
46,404
47,431
48,461
49,488
50,518
51,546
52,588
53,616
54,664
55,713
56,757
57,812
58,874
59,928
60,982
61,1036
62,1103
63,1169
64,1238
65,1307
66,1399
67,1474
68,1560
69,1649
70,1737
71,1832
72,1936
73,2034
74,2156
75,2258
76,2408
77,2552
78,2682
79,2837
80,2989
