0,1
1,1
2,1
3,1
4,1
5,1
6,1
7,1
8,2
9,2
10,2
11,3
12,5
13,6
14,6
15,6
16,6
17,6
18,7
19,10
20,10
21,10
22,12
23,13
24,14
25,15
26,16
27,17
28,18
29,19
30,21
31,24
32,25
33,28
34,29
35,29
36,31
37,34
38,35
39,37
40,41
41,45
42,49
43,55
44,56
45,62
46,65
47,72
48,75
49,77
50,79
51,82
52,85
53,89
54,92
55,95
56,103
57,107
58,108
59,114
60,117
61,119
62,126
63,130
64,134
65,139
66,139
67,146
68,153
69,158
70,164
71,176
72,187
73,197
74,208
75,217
76,229
77,245
78,254
79,270
80,284
