0,1
1,1
2,1
3,2
4,2
5,2
6,2
7,3
8,3
9,3
10,3
11,4
12,4
13,4
14,4
15,4
16,4
17,4
18,4
19,5
20,5
21,5
22,5
23,6
24,6
25,6
26,7
27,7
28,7
29,7
30,7
31,9
32,10
33,10
34,10
35,10
36,12
37,13
38,14
39,17
40,17
41,19
42,19
43,21
44,25
45,27
46,31
47,32
48,33
49,34
50,36
51,37
52,38
53,41
54,41
55,42
56,43
57,45
58,45
59,45
60,45
61,47
62,47
63,47
64,47
65,47
66,47
67,47
68,47
69,47
70,48
71,48
72,48
73,48
74,48
75,48
76,48
77,48
78,49
79,49
80,49
