0,1
1,1
2,1
3,1
4,2
5,2
6,2
7,4
8,4
9,6
10,7
11,7
12,7
13,8
14,8
15,9
16,9
17,10
18,10
19,10
20,12
21,12
22,13
23,13
24,13
25,13
26,14
27,14
28,14
29,16
30,17
31,18
32,19
33,24
34,24
35,26
36,26
37,26
38,28
39,29
40,30
41,31
42,31
43,32
44,34
45,35
46,37
47,39
48,39
49,42
50,44
51,49
52,56
53,62
54,68
55,71
56,82
57,92
58,100
59,108
60,117
61,128
62,135
63,145
64,161
65,168
66,182
67,192
68,211
69,226
70,242
71,266
72,279
73,304
74,318
75,339
76,370
77,391
78,417
79,438
80,463
