0,1
1,1
2,1
3,2
4,4
5,4
6,4
7,8
8,9
9,12
10,14
11,14
12,18
13,21
14,23
15,27
16,30
17,33
18,38
19,39
20,44
21,49
22,52
23,58
24,63
25,71
26,80
27,88
28,93
29,99
30,110
31,126
32,137
33,145
34,155
35,163
36,174
37,184
38,195
39,203
40,221
41,230
42,246
43,262
44,276
45,296
46,314
47,326
48,341
49,357
50,365
51,378
52,400
53,413
54,427
55,447
56,460
57,478
58,497
59,516
60,527
61,550
62,569
63,586
64,605
65,633
66,656
67,681
68,713
69,733
70,761
71,793
72,826
73,859
74,892
75,940
76,986
77,1035
78,1085
79,1136
80,1185
