0,1
1,1
2,1
3,1
4,1
5,1
6,3
7,3
8,3
9,4
10,5
11,8
12,9
13,10
14,11
15,13
16,13
17,14
18,15
19,17
20,20
21,20
22,22
23,24
24,24
25,28
26,30
27,31
28,34
29,37
30,40
31,45
32,47
33,51
34,57
35,61
36,65
37,68
38,69
39,73
40,77
41,82
42,84
43,88
44,90
45,100
46,103
47,107
48,114
49,119
50,126
51,131
52,137
53,140
54,149
55,158
56,165
57,173
58,180
59,188
60,204
61,207
62,221
63,234
64,246
65,261
66,277
67,294
68,307
69,325
70,347
71,367
72,392
73,409
74,430
75,452
76,485
77,512
78,537
79,570
80,600
