0,1
1,1
2,1
3,2
4,2
5,2
6,2
7,2
8,2
9,2
10,2
11,2
12,3
13,3
14,4
15,5
16,6
17,7
18,7
19,9
20,9
21,11
22,13
23,13
24,15
25,16
26,19
27,20
28,21
29,23
30,24
31,26
32,28
33,31
34,32
35,35
36,36
37,37
38,38
39,40
40,42
41,44
42,46
43,49
44,54
45,56
46,61
47,67
48,72
49,77
50,80
51,90
52,96
53,99
54,112
55,122
56,135
57,147
58,160
59,172
60,186
61,208
62,227
63,243
64,261
65,285
66,312
67,334
68,368
69,388
70,411
71,449
72,489
73,526
74,555
75,601
76,643
77,695
78,734
79,791
80,842
