0,1
1,1
2,1
3,1
4,2
5,2
6,2
7,2
8,2
9,2
10,2
11,3
12,3
13,3
14,3
15,3
16,5
17,5
18,5
19,5
20,6
21,8
22,9
23,9
24,9
25,10
26,11
27,12
28,12
29,12
30,12
31,13
32,13
33,13
34,13
35,14
36,14
37,14
38,14
39,14
40,15
41,15
42,15
43,16
44,17
45,17
46,18
47,21
48,23
49,23
50,25
51,30
52,31
53,33
54,35
55,39
56,42
57,47
58,51
59,53
60,63
61,64
62,72
63,74
64,78
65,86
66,90
67,96
68,104
69,109
70,116
71,119
72,124
73,132
74,140
75,151
76,158
77,165
78,176
79,189
80,198
