0,1
1,1
2,1
3,1
4,2
5,2
6,3
7,4
8,5
9,6
10,7
11,7
12,9
13,12
14,12
15,12
16,14
17,17
18,20
19,25
20,27
21,27
22,34
23,41
24,47
25,49
26,52
27,57
28,70
29,77
30,86
31,92
32,102
33,113
34,119
35,132
36,142
37,158
38,176
39,196
40,215
41,225
42,240
43,262
44,282
45,304
46,323
47,344
48,363
49,385
50,411
51,435
52,461
53,488
54,509
55,530
56,557
57,583
58,618
59,644
60,675
61,703
62,735
63,779
64,823
65,867
66,905
67,954
68,1001
69,1052
70,1109
71,1163
72,1205
73,1260
74,1320
75,1388
76,1454
77,1548
78,1620
79,1685
80,1771
