0,1
1,1
2,2
3,2
4,3
5,3
6,4
7,5
8,5
9,6
10,7
11,9
12,9
13,9
14,9
15,9
16,9
17,10
18,11
19,11
20,12
21,13
22,13
23,15
24,16
25,18
26,20
27,23
28,24
29,24
30,25
31,27
32,29
33,30
34,30
35,31
36,33
37,36
38,39
39,42
40,42
41,46
42,49
43,50
44,53
45,53
46,55
47,56
48,62
49,63
50,69
51,70
52,77
53,79
54,86
55,93
56,96
57,102
58,107
59,112
60,119
61,129
62,135
63,143
64,150
65,158
66,165
67,176
68,197
69,207
70,212
71,219
72,225
73,238
74,249
75,262
76,277
77,293
78,302
79,315
80,338
