0,1
1,1
2,1
3,1
4,1
5,2
6,2
7,2
8,3
9,3
10,3
11,4
12,4
13,4
14,7
15,7
16,8
17,9
18,9
19,10
20,10
21,10
22,10
23,10
24,10
25,10
26,11
27,11
28,11
29,11
30,11
31,12
32,12
33,12
34,12
35,12
36,13
37,13
38,13
39,13
40,14
41,16
42,17
43,18
44,20
45,20
46,21
47,24
48,27
49,33
50,35
51,38
52,39
53,40
54,42
55,44
56,45
57,48
58,52
59,55
60,56
61,60
62,65
63,67
64,70
65,71
66,74
67,79
68,81
69,87
70,90
71,94
72,99
73,105
74,110
75,115
76,122
77,127
78,134
79,143
80,153
