0,1
1,1
2,1
3,2
4,2
5,2
6,4
7,5
8,5
9,5
10,6
11,6
12,8
13,8
14,8
15,10
16,13
17,14
18,16
19,18
20,22
21,24
22,26
23,30
24,32
25,34
26,36
27,43
28,45
29,49
30,50
31,52
32,53
33,55
34,59
35,63
36,68
37,71
38,76
39,76
40,82
41,84
42,91
43,94
44,99
45,104
46,105
47,111
48,115
49,118
50,123
51,126
52,131
53,133
54,140
55,144
56,150
57,158
58,164
59,167
60,172
61,176
62,182
63,190
64,198
65,205
66,211
67,222
68,227
69,234
70,243
71,249
72,257
73,261
74,265
75,270
76,277
77,285
78,291
79,296
80,310
