0,1
1,1
2,1
3,1
4,3
5,3
6,4
7,5
8,8
9,9
10,10
11,10
12,11
13,12
14,16
15,17
16,18
17,20
18,20
19,23
20,29
21,33
22,37
23,42
24,45
25,49
26,52
27,58
28,63
29,69
30,75
31,85
32,88
33,95
34,100
35,107
36,115
37,119
38,129
39,137
40,146
41,156
42,166
43,175
44,180
45,191
46,201
47,210
48,220
49,227
50,239
51,255
52,271
53,279
54,291
55,308
56,333
57,339
58,357
59,373
60,390
61,397
62,412
63,432
64,458
65,480
66,500
67,523
68,543
69,562
70,592
71,616
72,643
73,668
74,691
75,721
76,767
77,802
78,833
79,865
80,900
