0,1
1,1
2,1
3,2
4,2
5,4
6,4
7,6
8,6
9,7
10,8
11,9
12,9
13,9
14,11
15,12
16,12
17,13
18,14
19,15
20,18
21,19
22,23
23,23
24,24
25,27
26,29
27,30
28,32
29,36
30,39
31,42
32,46
33,47
34,49
35,53
36,56
37,64
38,69
39,70
40,76
41,81
42,89
43,94
44,103
45,110
46,119
47,132
48,143
49,160
50,174
51,179
52,185
53,194
54,208
55,225
56,232
57,250
58,257
59,273
60,294
61,313
62,324
63,340
64,356
65,372
66,392
67,415
68,439
69,460
70,483
71,499
72,519
73,543
74,566
75,585
76,616
77,640
78,667
79,699
80,722
