0,1
1,1
2,1
3,1
4,1
5,1
6,2
7,2
8,2
9,2
10,2
11,3
12,6
13,6
14,7
15,8
16,8
17,11
18,13
19,15
20,17
21,18
22,18
23,19
24,27
25,27
26,28
27,29
28,33
29,37
30,41
31,43
32,44
33,47
34,50
35,52
36,55
37,59
38,61
39,63
40,66
41,70
42,72
43,73
44,74
45,75
46,79
47,80
48,83
49,84
50,84
51,90
52,92
53,97
54,102
55,105
56,110
57,112
58,117
59,118
60,128
61,135
62,143
63,151
64,158
65,166
66,179
67,193
68,205
69,217
70,226
71,237
72,255
73,270
74,279
75,292
76,307
77,325
78,339
79,353
80,373
