0,1
1,1
2,1
3,1
4,1
5,1
6,1
7,1
8,1
9,1
10,2
11,2
12,2
13,2
14,4
15,6
16,6
17,9
18,9
19,11
20,11
21,12
22,13
23,14
24,14
25,16
26,16
27,19
28,20
29,20
30,21
31,23
32,24
33,25
34,26
35,28
36,29
37,31
38,34
39,37
40,40
41,42
42,50
43,53
44,55
45,59
46,66
47,67
48,68
49,71
50,80
51,84
52,89
53,95
54,103
55,117
56,128
57,138
58,149
59,158
60,168
61,182
62,198
63,213
64,227
65,238
66,253
67,271
68,283
69,305
70,326
71,345
72,370
73,396
74,422
75,449
76,477
77,504
78,539
79,561
80,583
