0,1
1,1
2,1
3,1
4,2
5,3
6,3
7,5
8,5
9,5
10,7
11,7
12,7
13,7
14,7
15,7
16,8
17,8
18,8
19,9
20,9
21,9
22,9
23,9
24,12
25,12
26,12
27,12
28,13
29,13
30,13
31,14
32,15
33,16
34,16
35,17
36,17
37,17
38,17
39,17
40,17
41,18
42,18
43,18
44,18
45,18
46,18
47,18
48,19
49,19
50,20
51,20
52,20
53,21
54,22
55,23
56,24
57,24
58,25
59,25
60,26
61,26
62,26
63,26
64,26
65,27
66,27
67,29
68,30
69,30
70,30
71,30
72,30
73,32
74,34
75,35
76,36
77,36
78,38
79,38
80,43
