0,1
1,1
2,1
3,1
4,1
5,1
6,3
7,3
8,5
9,5
10,5
11,7
12,7
13,8
14,8
15,8
16,8
17,10
18,11
19,11
20,11
21,11
22,11
23,12
24,13
25,13
26,14
27,15
28,17
29,19
30,19
31,20
32,21
33,21
34,23
35,24
36,24
37,25
38,26
39,27
40,28
41,31
42,32
43,33
44,36
45,38
46,40
47,41
48,44
49,46
50,48
51,51
52,52
53,52
54,55
55,59
56,60
57,60
58,61
59,64
60,68
61,70
62,74
63,78
64,79
65,82
66,89
67,94
68,97
69,99
70,102
71,104
72,108
73,109
74,115
75,117
76,120
77,123
78,129
79,137
80,141
