0,1
1,1
2,1
3,1
4,1
5,1
6,1
7,1
8,1
9,3
10,3
11,3
12,4
13,5
14,7
15,7
16,8
17,8
18,9
19,9
20,11
21,11
22,14
23,16
24,18
25,24
26,27
27,30
28,31
29,33
30,33
31,35
32,36
33,36
34,37
35,37
36,37
37,39
38,39
39,40
40,40
41,42
42,47
43,47
44,47
45,49
46,50
47,54
48,55
49,56
50,60
51,66
52,68
53,71
54,79
55,82
56,85
57,92
58,100
59,108
60,112
61,119
62,126
63,129
64,134
65,137
66,142
67,145
68,150
69,157
70,163
71,170
72,179
73,185
74,193
75,198
76,209
77,217
78,221
79,229
80,239
