0,1
1,1
2,1
3,1
4,1
5,2
6,2
7,2
8,2
9,2
10,2
11,3
12,4
13,4
14,6
15,9
16,9
17,9
18,9
19,9
20,11
21,11
22,12
23,12
24,12
25,13
26,13
27,13
28,13
29,13
30,14
31,16
32,16
33,16
34,17
35,17
36,17
37,19
38,19
39,21
40,22
41,22
42,24
43,26
44,27
45,28
46,28
47,31
48,32
49,34
50,34
51,35
52,37
53,39
54,41
55,43
56,46
57,49
58,51
59,51
60,51
61,52
62,52
63,56
64,56
65,60
66,61
67,64
68,68
69,73
70,75
71,80
72,80
73,84
74,93
75,97
76,104
77,109
78,115
79,125
80,134
