0,1
1,1
2,1
3,2
4,2
5,2
6,2
7,4
8,5
9,5
10,5
11,7
12,9
13,10
14,10
15,11
16,17
17,19
18,22
19,25
20,32
21,33
22,36
23,41
24,43
25,48
26,51
27,56
28,62
29,68
30,74
31,82
32,92
33,100
34,107
35,120
36,128
37,137
38,147
39,165
40,180
41,201
42,208
43,218
44,229
45,248
46,261
47,275
48,290
49,304
50,322
51,334
52,351
53,375
54,396
55,421
56,448
57,467
58,494
59,522
60,553
61,580
62,600
63,623
64,660
65,690
66,723
67,752
68,783
69,829
70,875
71,924
72,965
73,1007
74,1054
75,1108
76,1167
77,1232
78,1291
79,1340
80,1411
