0,1
1,1
2,1
3,2
4,2
5,3
6,4
7,5
8,6
9,8
10,13
11,16
12,17
13,20
14,27
15,32
16,37
17,39
18,44
19,49
20,56
21,65
22,68
23,71
24,76
25,85
26,89
27,92
28,98
29,105
30,113
31,121
32,124
33,131
34,136
35,138
36,146
37,154
38,162
39,168
40,176
41,189
42,199
43,208
44,219
45,227
46,244
47,259
48,271
49,286
50,301
51,312
52,318
53,335
54,351
55,372
56,386
57,406
58,421
59,447
60,464
61,478
62,498
63,522
64,544
65,568
66,606
67,629
68,665
69,700
70,734
71,758
72,803
73,846
74,882
75,922
76,963
77,1006
78,1055
79,1120
80,1160
