0,1
1,1
2,1
3,2
4,3
5,3
6,3
7,4
8,4
9,5
10,5
11,6
12,6
13,8
14,8
15,8
16,8
17,9
18,10
19,11
20,13
21,13
22,14
23,14
24,15
25,16
26,19
27,19
28,21
29,22
30,26
31,28
32,29
33,31
34,34
35,35
36,35
37,37
38,40
39,41
40,44
41,46
42,47
43,48
44,51
45,54
46,55
47,62
48,64
49,64
50,71
51,75
52,78
53,79
54,82
55,88
56,95
57,98
58,102
59,105
60,112
61,115
62,120
63,127
64,128
65,134
66,138
67,146
68,147
69,149
70,152
71,154
72,157
73,161
74,165
75,169
76,171
77,177
78,181
79,183
80,188
