0,1
1,1
2,1
3,1
4,1
5,2
6,4
7,5
8,6
9,6
10,8
11,10
12,10
13,10
14,11
15,12
16,12
17,12
18,13
19,14
20,14
21,16
22,18
23,18
24,18
25,18
26,19
27,19
28,20
29,20
30,22
31,25
32,29
33,30
34,31
35,31
36,31
37,36
38,40
39,42
40,44
41,44
42,46
43,47
44,48
45,48
46,49
47,51
48,53
49,56
50,56
51,60
52,60
53,64
54,65
55,67
56,70
57,73
58,75
59,77
60,83
61,86
62,88
63,89
64,91
65,97
66,98
67,100
68,105
69,107
70,110
71,114
72,115
73,118
74,127
75,132
76,138
77,146
78,151
79,164
80,176
