0,1
1,1
2,1
3,1
4,1
5,1
6,1
7,2
8,2
9,2
10,2
11,2
12,2
13,3
14,4
15,4
16,4
17,4
18,5
19,6
20,6
21,8
22,9
23,11
24,11
25,11
26,15
27,15
28,19
29,20
30,20
31,21
32,21
33,21
34,23
35,23
36,26
37,28
38,28
39,30
40,31
41,31
42,33
43,34
44,35
45,36
46,36
47,36
48,36
49,37
50,37
51,37
52,39
53,39
54,42
55,44
56,47
57,54
58,60
59,68
60,73
61,76
62,83
63,92
64,99
65,110
66,121
67,131
68,136
69,141
70,149
71,167
72,182
73,197
74,206
75,220
76,232
77,248
78,259
79,282
80,299
