0,1
1,1
2,1
3,1
4,1
5,3
6,3
7,5
8,6
9,8
10,9
11,10
12,10
13,12
14,14
15,14
16,16
17,18
18,19
19,19
20,20
21,20
22,20
23,22
24,22
25,23
26,25
27,26
28,26
29,28
30,29
31,30
32,31
33,31
34,33
35,35
36,37
37,39
38,39
39,42
40,43
41,45
42,46
43,46
44,47
45,48
46,48
47,49
48,49
49,51
50,53
51,55
52,55
53,57
54,59
55,59
56,60
57,63
58,66
59,70
60,71
61,74
62,77
63,81
64,86
65,89
66,93
67,95
68,96
69,100
70,106
71,113
72,123
73,131
74,141
75,148
76,155
77,170
78,183
79,192
80,207
