0,1
1,1
2,1
3,1
4,3
5,3
6,4
7,4
8,5
9,6
10,8
11,8
12,9
13,9
14,10
15,13
16,14
17,14
18,15
19,17
20,20
21,21
22,25
23,32
24,40
25,42
26,49
27,53
28,61
29,66
30,72
31,77
32,85
33,89
34,94
35,101
36,106
37,112
38,120
39,124
40,131
41,139
42,152
43,162
44,173
45,179
46,193
47,216
48,241
49,254
50,265
51,288
52,305
53,332
54,362
55,390
56,414
57,441
58,477
59,521
60,557
61,592
62,636
63,682
64,731
65,792
66,845
67,905
68,949
69,1025
70,1095
71,1178
72,1249
73,1327
74,1403
75,1484
76,1573
77,1658
78,1760
79,1836
80,1944
