0,1
1,1
2,1
3,1
4,2
5,3
6,5
7,6
8,7
9,7
10,9
11,11
12,13
13,13
14,15
15,15
16,16
17,17
18,19
19,20
20,22
21,23
22,23
23,25
24,25
25,25
26,26
27,27
28,28
29,29
30,29
31,33
32,34
33,34
34,34
35,34
36,34
37,34
38,34
39,35
40,35
41,36
42,36
43,37
44,37
45,37
46,37
47,38
48,38
49,38
50,39
51,41
52,41
53,42
54,43
55,46
56,47
57,48
58,50
59,50
60,53
61,55
62,57
63,62
64,64
65,68
66,68
67,73
68,77
69,78
70,79
71,81
72,84
73,88
74,92
75,94
76,97
77,101
78,105
79,106
80,110
