0,1
1,1
2,1
3,1
4,2
5,3
6,3
7,4
8,7
9,8
10,8
11,10
12,12
13,13
14,14
15,19
16,22
17,26
18,28
19,29
20,31
21,36
22,40
23,45
24,52
25,55
26,63
27,69
28,75
29,83
30,94
31,108
32,114
33,125
34,140
35,146
36,154
37,166
38,183
39,195
40,207
41,222
42,237
43,249
44,264
45,277
46,295
47,308
48,334
49,367
50,381
51,410
52,432
53,466
54,500
55,525
56,558
57,599
58,648
59,704
60,755
61,808
62,861
63,912
64,984
65,1049
66,1121
67,1209
68,1296
69,1386
70,1459
71,1552
72,1646
73,1744
74,1832
75,1957
76,2063
77,2155
78,2274
79,2405
80,2545
