0,1
1,1
2,1
3,1
4,1
5,1
6,1
7,1
8,2
9,3
10,4
11,4
12,6
13,10
14,11
15,14
16,17
17,21
18,21
19,24
20,26
21,27
22,30
23,34
24,37
25,37
26,39
27,42
28,45
29,47
30,52
31,57
32,63
33,69
34,74
35,81
36,84
37,88
38,96
39,102
40,111
41,120
42,125
43,142
44,151
45,165
46,178
47,190
48,203
49,222
50,243
51,273
52,285
53,305
54,329
55,349
56,375
57,403
58,426
59,454
60,481
61,515
62,547
63,586
64,622
65,660
66,692
67,734
68,768
69,821
70,858
71,901
72,954
73,1003
74,1063
75,1125
76,1179
77,1259
78,1337
79,1396
80,1470
