0,1
1,1
2,1
3,1
4,1
5,1
6,1
7,1
8,1
9,2
10,2
11,2
12,2
13,3
14,3
15,3
16,5
17,5
18,5
19,5
20,5
21,7
22,7
23,7
24,8
25,11
26,11
27,12
28,12
29,12
30,12
31,14
32,15
33,16
34,17
35,17
36,17
37,18
38,21
39,23
40,24
41,25
42,25
43,27
44,31
45,32
46,34
47,39
48,40
49,41
50,44
51,48
52,49
53,53
54,59
55,64
56,70
57,73
58,80
59,84
60,90
61,99
62,108
63,116
64,122
65,132
66,144
67,154
68,160
69,170
70,182
71,194
72,208
73,220
74,230
75,253
76,272
77,284
78,297
79,317
80,334
