0,1
1,1
2,1
3,2
4,3
5,3
6,5
7,6
8,6
9,8
10,8
11,8
12,9
13,10
14,10
15,11
16,12
17,13
18,16
19,18
20,19
21,23
22,26
23,28
24,29
25,32
26,36
27,39
28,43
29,50
30,54
31,56
32,57
33,62
34,65
35,68
36,70
37,74
38,77
39,84
40,88
41,91
42,95
43,96
44,100
45,101
46,103
47,106
48,106
49,106
50,108
51,109
52,111
53,114
54,122
55,128
56,133
57,134
58,139
59,144
60,150
61,153
62,159
63,165
64,169
65,175
66,183
67,190
68,195
69,204
70,215
71,217
72,229
73,240
74,250
75,261
76,268
77,279
78,293
79,303
80,313
