0,1
1,1
2,1
3,1
4,2
5,3
6,3
7,4
8,4
9,9
10,9
11,11
12,13
13,15
14,20
15,24
16,28
17,34
18,40
19,50
20,54
21,61
22,68
23,75
24,81
25,98
26,103
27,116
28,121
29,130
30,141
31,151
32,157
33,169
34,189
35,201
36,212
37,225
38,236
39,243
40,259
41,271
42,279
43,295
44,307
45,328
46,349
47,380
48,399
49,427
50,465
51,494
52,532
53,573
54,606
55,646
56,692
57,744
58,791
59,845
60,897
61,972
62,1036
63,1096
64,1169
65,1257
66,1330
67,1408
68,1512
69,1619
70,1707
71,1802
72,1920
73,2045
74,2171
75,2303
76,2439
77,2603
78,2772
79,2924
80,3107
