0,1
1,1
2,1
3,1
4,1
5,2
6,3
7,4
8,4
9,8
10,9
11,9
12,11
13,14
14,16
15,21
16,23
17,27
18,31
19,36
20,42
21,50
22,52
23,54
24,57
25,63
26,64
27,65
28,68
29,73
30,77
31,81
32,85
33,91
34,94
35,100
36,104
37,106
38,110
39,118
40,123
41,131
42,134
43,146
44,151
45,160
46,169
47,182
48,193
49,206
50,225
51,241
52,256
53,276
54,303
55,319
56,340
57,371
58,397
59,416
60,431
61,456
62,480
63,503
64,528
65,555
66,587
67,610
68,646
69,684
70,731
71,765
72,809
73,853
74,896
75,951
76,1001
77,1045
78,1100
79,1150
80,1213
