0,1
1,1
2,1
3,1
4,1
5,1
6,2
7,2
8,3
9,4
10,5
11,7
12,8
13,8
14,8
15,9
16,10
17,13
18,16
19,19
20,25
21,26
22,28
23,31
24,32
25,36
26,40
27,42
28,49
29,54
30,56
31,61
32,66
33,72
34,73
35,81
36,85
37,87
38,90
39,96
40,106
41,111
42,116
43,123
44,129
45,135
46,139
47,148
48,156
49,165
50,176
51,189
52,197
53,205
54,214
55,234
56,246
57,256
58,270
59,282
60,296
61,308
62,324
63,333
64,351
65,368
66,381
67,392
68,405
69,423
70,434
71,446
72,467
73,489
74,503
75,522
76,540
77,560
78,580
79,600
80,629
