0,1
1,1
2,1
3,1
4,2
5,3
6,3
7,3
8,3
9,4
10,5
11,5
12,5
13,5
14,6
15,7
16,7
17,8
18,9
19,10
20,13
21,14
22,15
23,15
24,15
25,17
26,19
27,20
28,22
29,25
30,29
31,30
32,33
33,36
34,37
35,39
36,41
37,43
38,44
39,47
40,50
41,53
42,55
43,56
44,60
45,62
46,67
47,72
48,74
49,77
50,82
51,90
52,91
53,96
54,102
55,111
56,119
57,125
58,135
59,140
60,147
61,155
62,166
63,175
64,180
65,192
66,200
67,209
68,218
69,222
70,231
71,236
72,249
73,258
74,266
75,280
76,287
77,299
78,311
79,321
80,339
