0,1
1,1
2,1
3,2
4,4
5,5
6,5
7,7
8,7
9,10
10,10
11,10
12,11
13,12
14,12
15,13
16,13
17,13
18,14
19,15
20,15
21,15
22,17
23,17
24,17
25,18
26,19
27,19
28,21
29,22
30,23
31,24
32,27
33,29
34,30
35,32
36,35
37,36
38,40
39,41
40,44
41,47
42,50
43,53
44,54
45,59
46,62
47,65
48,69
49,72
50,73
51,74
52,78
53,80
54,82
55,86
56,88
57,88
58,90
59,93
60,96
61,97
62,100
63,103
64,104
65,105
66,105
67,109
68,112
69,114
70,115
71,118
72,120
73,122
74,128
75,131
76,135
77,141
78,147
79,151
80,158
