0,1
1,1
2,1
3,2
4,4
5,7
6,7
7,11
8,11
9,15
10,19
11,23
12,23
13,27
14,28
15,30
16,31
17,34
18,39
19,42
20,45
21,54
22,60
23,62
24,65
25,71
26,72
27,76
28,81
29,84
30,88
31,97
32,103
33,112
34,119
35,129
36,142
37,154
38,165
39,178
40,189
41,203
42,218
43,235
44,246
45,258
46,274
47,291
48,306
49,317
50,344
51,365
52,375
53,395
54,419
55,441
56,468
57,494
58,514
59,538
60,572
61,602
62,624
63,656
64,690
65,721
66,749
67,775
68,797
69,840
70,881
71,924
72,962
73,999
74,1050
75,1092
76,1151
77,1195
78,1250
79,1314
80,1385
