0,1
1,1
2,1
3,1
4,1
5,2
6,2
7,2
8,2
9,3
10,4
11,4
12,6
13,7
14,10
15,12
16,12
17,19
18,20
19,22
20,22
21,23
22,26
23,31
24,34
25,36
26,36
27,37
28,38
29,40
30,40
31,42
32,44
33,45
34,46
35,47
36,48
37,49
38,49
39,51
40,52
41,55
42,55
43,56
44,56
45,56
46,58
47,58
48,59
49,61
50,62
51,63
52,66
53,69
54,71
55,72
56,74
57,75
58,79
59,84
60,87
61,91
62,95
63,99
64,104
65,109
66,119
67,123
68,128
69,132
70,137
71,142
72,151
73,157
74,163
75,177
76,192
77,199
78,210
79,221
80,235
