0,1
1,1
2,1
3,1
4,1
5,1
6,1
7,3
8,3
9,3
10,4
11,4
12,6
13,8
14,8
15,9
16,11
17,11
18,14
19,14
20,14
21,14
22,16
23,17
24,19
25,20
26,21
27,21
28,22
29,22
30,24
31,26
32,26
33,27
34,27
35,29
36,30
37,32
38,32
39,35
40,37
41,37
42,39
43,44
44,47
45,49
46,50
47,55
48,59
49,69
50,74
51,79
52,89
53,97
54,105
55,114
56,121
57,134
58,145
59,159
60,167
61,181
62,194
63,208
64,222
65,240
66,256
67,269
68,298
69,325
70,346
71,362
72,390
73,417
74,450
75,477
76,509
77,544
78,577
79,620
80,658
