0,1
1,1
2,1
3,1
4,2
5,2
6,5
7,5
8,5
9,5
10,9
11,9
12,12
13,13
14,15
15,18
16,21
17,25
18,26
19,28
20,32
21,33
22,38
23,41
24,45
25,46
26,49
27,52
28,55
29,60
30,62
31,68
32,72
33,74
34,82
35,87
36,95
37,97
38,103
39,109
40,114
41,120
42,132
43,142
44,153
45,166
46,181
47,192
48,207
49,227
50,246
51,261
52,284
53,308
54,336
55,359
56,389
57,413
58,440
59,477
60,520
61,559
62,614
63,655
64,695
65,745
66,801
67,852
68,921
69,990
70,1063
71,1121
72,1193
73,1276
74,1358
75,1446
76,1516
77,1599
78,1685
79,1773
80,1864
