0,1
1,1
2,1
3,1
4,2
5,3
6,3
7,3
8,3
9,4
10,5
11,6
12,7
13,8
14,8
15,8
16,13
17,13
18,14
19,15
20,17
21,18
22,19
23,20
24,23
25,27
26,27
27,29
28,32
29,36
30,42
31,46
32,47
33,50
34,52
35,57
36,66
37,70
38,76
39,85
40,90
41,94
42,99
43,105
44,112
45,118
46,126
47,134
48,139
49,143
50,160
51,167
52,172
53,180
54,191
55,208
56,216
57,225
58,240
59,253
60,262
61,274
62,289
63,307
64,322
65,337
66,360
67,380
68,393
69,415
70,442
71,465
72,497
73,521
74,551
75,580
76,615
77,652
78,689
79,727
80,764
