0,1
1,1
2,1
3,1
4,2
5,2
6,3
7,3
8,5
9,8
10,12
11,13
12,15
13,18
14,20
15,21
16,24
17,24
18,29
19,30
20,31
21,37
22,40
23,41
24,41
25,45
26,47
27,51
28,55
29,61
30,61
31,65
32,72
33,77
34,82
35,85
36,88
37,91
38,93
39,94
40,98
41,101
42,107
43,111
44,116
45,120
46,123
47,126
48,131
49,133
50,141
51,145
52,151
53,153
54,160
55,166
56,169
57,172
58,179
59,180
60,182
61,188
62,190
63,192
64,198
65,200
66,204
67,208
68,213
69,217
70,220
71,226
72,229
73,230
74,234
75,240
76,246
77,252
78,258
79,266
80,277
