0,1
1,1
2,1
3,1
4,1
5,3
6,3
7,4
8,4
9,4
10,5
11,7
12,9
13,12
14,13
15,14
16,15
17,15
18,16
19,19
20,21
21,25
22,25
23,26
24,28
25,29
26,32
27,33
28,35
29,36
30,41
31,44
32,50
33,55
34,58
35,58
36,62
37,69
38,77
39,84
40,87
41,93
42,101
43,105
44,113
45,120
46,130
47,138
48,146
49,163
50,176
51,188
52,200
53,211
54,221
55,231
56,243
57,257
58,271
59,291
60,312
61,330
62,351
63,379
64,409
65,436
66,459
67,498
68,535
69,568
70,594
71,631
72,672
73,726
74,776
75,829
76,885
77,926
78,994
79,1046
80,1118
