0,1
1,1
2,1
3,1
4,1
5,1
6,1
7,1
8,1
9,1
10,1
11,1
12,2
13,2
14,2
15,3
16,3
17,3
18,3
19,4
20,4
21,4
22,5
23,5
24,5
25,6
26,6
27,7
28,11
29,11
30,11
31,12
32,14
33,16
34,18
35,22
36,25
37,27
38,29
39,32
40,35
41,38
42,41
43,43
44,46
45,51
46,56
47,58
48,62
49,64
50,67
51,70
52,80
53,83
54,88
55,90
56,94
57,101
58,107
59,109
60,112
61,119
62,123
63,126
64,130
65,135
66,138
67,145
68,147
69,158
70,158
71,163
72,168
73,173
74,186
75,198
76,209
77,214
78,219
79,236
80,245
