0,1
1,1
2,1
3,1
4,1
5,1
6,1
7,1
8,2
9,3
10,3
11,4
12,5
13,9
14,10
15,10
16,15
17,17
18,18
19,21
20,26
21,32
22,32
23,36
24,41
25,44
26,47
27,50
28,55
29,59
30,65
31,68
32,71
33,79
34,82
35,83
36,88
37,92
38,94
39,101
40,103
41,108
42,119
43,124
44,135
45,141
46,149
47,156
48,164
49,178
50,189
51,201
52,214
53,224
54,236
55,244
56,255
57,273
58,288
59,301
60,316
61,328
62,345
63,358
64,373
65,387
66,407
67,427
68,451
69,473
70,497
71,517
72,541
73,563
74,586
75,611
76,633
77,659
78,680
79,720
80,754
