0,1
1,1
2,1
3,1
4,1
5,2
6,3
7,4
8,5
9,5
10,8
11,8
12,11
13,17
14,21
15,21
16,23
17,25
18,28
19,35
20,37
21,41
22,46
23,49
24,56
25,60
26,66
27,72
28,74
29,92
30,100
31,105
32,115
33,120
34,129
35,136
36,144
37,159
38,168
39,171
40,176
41,185
42,197
43,207
44,213
45,219
46,228
47,233
48,243
49,253
50,259
51,270
52,277
53,290
54,294
55,301
56,312
57,328
58,343
59,349
60,359
61,380
62,391
63,406
64,417
65,428
66,448
67,468
68,481
69,503
70,526
71,548
72,582
73,601
74,625
75,649
76,679
77,714
78,742
79,768
80,806
