0,1
1,1
2,1
3,1
4,1
5,3
6,3
7,4
8,4
9,5
10,5
11,7
12,7
13,7
14,7
15,8
16,8
17,9
18,9
19,10
20,11
21,13
22,14
23,15
24,16
25,17
26,21
27,22
28,23
29,24
30,28
31,30
32,32
33,35
34,37
35,41
36,46
37,49
38,51
39,51
40,58
41,62
42,64
43,71
44,76
45,82
46,84
47,91
48,95
49,103
50,113
51,119
52,126
53,137
54,147
55,155
56,166
57,173
58,180
59,193
60,204
61,213
62,228
63,246
64,258
65,274
66,287
67,301
68,316
69,331
70,346
71,362
72,380
73,401
74,423
75,433
76,445
77,454
78,476
79,497
80,514
