0,1
1,1
2,1
3,1
4,1
5,1
6,1
7,1
8,2
9,2
10,2
11,3
12,3
13,3
14,3
15,4
16,4
17,4
18,4
19,5
20,5
21,5
22,5
23,6
24,6
25,6
26,6
27,7
28,8
29,9
30,9
31,10
32,15
33,20
34,23
35,25
36,31
37,34
38,40
39,45
40,47
41,56
42,59
43,64
44,66
45,73
46,81
47,85
48,88
49,94
50,95
51,99
52,103
53,109
54,114
55,124
56,128
57,139
58,146
59,160
60,165
61,179
62,186
63,202
64,216
65,226
66,236
67,248
68,265
69,281
70,299
71,319
72,335
73,360
74,373
75,385
76,399
77,419
78,441
79,455
80,481
