0,1
1,1
2,1
3,1
4,1
5,1
6,1
7,2
8,2
9,2
10,3
11,3
12,3
13,4
14,4
15,6
16,7
17,7
18,8
19,8
20,9
21,9
22,11
23,11
24,12
25,14
26,14
27,17
28,17
29,17
30,19
31,20
32,21
33,21
34,25
35,25
36,27
37,27
38,29
39,32
40,38
41,38
42,39
43,40
44,42
45,47
46,47
47,49
48,53
49,63
50,64
51,69
52,74
53,77
54,80
55,83
56,90
57,96
58,101
59,105
60,109
61,114
62,123
63,125
64,128
65,133
66,140
67,149
68,159
69,165
70,172
71,178
72,184
73,191
74,197
75,206
76,221
77,233
78,247
79,256
80,276
