0,1
1,1
2,1
3,1
4,1
5,3
6,3
7,4
8,5
9,7
10,8
11,9
12,10
13,11
14,13
15,16
16,16
17,17
18,20
19,22
20,23
21,25
22,27
23,29
24,30
25,31
26,35
27,35
28,37
29,38
30,45
31,47
32,49
33,55
34,62
35,68
36,78
37,83
38,91
39,100
40,115
41,122
42,136
43,142
44,155
45,170
46,181
47,196
48,208
49,222
50,241
51,258
52,270
53,282
54,300
55,311
56,323
57,341
58,356
59,368
60,388
61,397
62,421
63,437
64,459
65,485
66,511
67,537
68,559
69,583
70,608
71,634
72,665
73,696
74,719
75,757
76,799
77,828
78,865
79,907
80,941
