0,1
1,1
2,1
3,1
4,1
5,1
6,1
7,2
8,2
9,2
10,2
11,2
12,2
13,2
14,3
15,3
16,3
17,3
18,3
19,5
20,5
21,6
22,8
23,9
24,11
25,11
26,12
27,12
28,14
29,15
30,17
31,18
32,20
33,20
34,20
35,22
36,24
37,24
38,24
39,25
40,26
41,28
42,29
43,29
44,30
45,33
46,34
47,38
48,43
49,47
50,51
51,52
52,59
53,63
54,69
55,73
56,75
57,82
58,84
59,88
60,92
61,97
62,105
63,115
64,126
65,132
66,136
67,144
68,152
69,162
70,168
71,173
72,180
73,191
74,199
75,206
76,215
77,223
78,234
79,239
80,253
