0,1
1,1
2,1
3,3
4,4
5,6
6,9
7,10
8,11
9,12
10,14
11,15
12,19
13,21
14,23
15,26
16,26
17,29
18,39
19,42
20,42
21,46
22,54
23,56
24,60
25,66
26,70
27,76
28,83
29,92
30,102
31,110
32,116
33,128
34,138
35,146
36,158
37,172
38,190
39,212
40,229
41,248
42,270
43,292
44,313
45,342
46,374
47,402
48,432
49,465
50,500
51,537
52,579
53,613
54,649
55,697
56,740
57,788
58,836
59,895
60,959
61,1012
62,1079
63,1153
64,1235
65,1325
66,1414
67,1514
68,1605
69,1714
70,1821
71,1928
72,2055
73,2192
74,2332
75,2506
76,2670
77,2818
78,3004
79,3206
80,3399
