0,1
1,1
2,1
3,2
4,2
5,2
6,2
7,2
8,3
9,4
10,4
11,4
12,5
13,7
14,7
15,9
16,11
17,11
18,13
19,16
20,18
21,19
22,20
23,20
24,23
25,25
26,29
27,33
28,37
29,40
30,43
31,48
32,55
33,59
34,67
35,74
36,78
37,84
38,92
39,99
40,103
41,111
42,128
43,136
44,149
45,165
46,183
47,198
48,217
49,234
50,257
51,266
52,278
53,301
54,321
55,332
56,360
57,383
58,403
59,417
60,440
61,459
62,478
63,505
64,534
65,559
66,590
67,619
68,654
69,690
70,718
71,753
72,796
73,846
74,900
75,947
76,1019
77,1061
78,1126
79,1190
80,1263
