0,1
1,1
2,1
3,1
4,2
5,2
6,2
7,3
8,3
9,4
10,4
11,4
12,5
13,5
14,7
15,7
16,7
17,10
18,11
19,12
20,12
21,14
22,17
23,17
24,19
25,20
26,24
27,25
28,27
29,33
30,34
31,38
32,40
33,49
34,54
35,57
36,59
37,59
38,63
39,68
40,68
41,69
42,70
43,75
44,79
45,81
46,83
47,86
48,88
49,90
50,92
51,94
52,95
53,96
54,97
55,100
56,101
57,102
58,104
59,108
60,110
61,114
62,115
63,116
64,119
65,125
66,127
67,129
68,133
69,137
70,138
71,142
72,147
73,152
74,157
75,159
76,162
77,166
78,173
79,181
80,186
