0,1
1,1
2,1
3,1
4,1
5,2
6,2
7,2
8,3
9,3
10,3
11,3
12,5
13,6
14,6
15,6
16,8
17,9
18,10
19,11
20,11
21,13
22,15
23,15
24,19
25,21
26,22
27,23
28,26
29,26
30,28
31,29
32,34
33,35
34,38
35,41
36,43
37,44
38,44
39,46
40,46
41,46
42,46
43,48
44,49
45,50
46,50
47,51
48,53
49,54
50,54
51,54
52,55
53,55
54,55
55,56
56,56
57,57
58,58
59,58
60,59
61,59
62,59
63,60
64,60
65,61
66,64
67,65
68,65
69,67
70,72
71,74
72,77
73,78
74,82
75,84
76,88
77,92
78,96
79,102
80,104
