0,1
1,1
2,1
3,1
4,1
5,3
6,3
7,4
8,5
9,5
10,5
11,7
12,8
13,9
14,9
15,10
16,10
17,11
18,11
19,11
20,12
21,12
22,12
23,14
24,15
25,16
26,16
27,16
28,19
29,20
30,20
31,21
32,22
33,23
34,24
35,25
36,26
37,28
38,28
39,29
40,32
41,33
42,33
43,35
44,37
45,42
46,45
47,45
48,46
49,48
50,52
51,55
52,57
53,58
54,61
55,62
56,63
57,66
58,67
59,72
60,74
61,75
62,77
63,78
64,81
65,86
66,86
67,89
68,89
69,91
70,95
71,98
72,103
73,103
74,107
75,107
76,109
77,112
78,114
79,117
80,119
