0,1
1,1
2,1
3,2
4,4
5,5
6,6
7,8
8,10
9,12
10,15
11,17
12,18
13,23
14,25
15,25
16,25
17,27
18,29
19,31
20,31
21,32
22,33
23,35
24,35
25,36
26,37
27,38
28,38
29,39
30,41
31,44
32,44
33,44
34,45
35,46
36,46
37,46
38,47
39,48
40,49
41,51
42,54
43,55
44,57
45,58
46,60
47,61
48,63
49,63
50,64
51,66
52,67
53,68
54,69
55,72
56,73
57,76
58,76
59,77
60,78
61,81
62,82
63,84
64,87
65,89
66,90
67,92
68,95
69,97
70,98
71,98
72,99
73,99
74,101
75,103
76,103
77,107
78,110
79,115
80,119
