0,1
1,1
2,1
3,1
4,3
5,4
6,4
7,4
8,6
9,6
10,7
11,12
12,14
13,17
14,19
15,22
16,24
17,27
18,28
19,31
20,38
21,44
22,50
23,53
24,59
25,66
26,70
27,74
28,79
29,81
30,86
31,87
32,92
33,93
34,98
35,101
36,106
37,110
38,114
39,121
40,126
41,129
42,137
43,138
44,140
45,142
46,147
47,152
48,154
49,157
50,159
51,166
52,173
53,174
54,180
55,182
56,186
57,192
58,194
59,200
60,204
61,206
62,209
63,217
64,221
65,226
66,229
67,232
68,237
69,245
70,249
71,255
72,262
73,265
74,277
75,284
76,294
77,298
78,306
79,313
80,317
