0,1
1,1
2,1
3,1
4,2
5,3
6,3
7,4
8,7
9,9
10,11
11,12
12,15
13,20
14,28
15,33
16,36
17,39
18,49
19,58
20,64
21,72
22,79
23,94
24,105
25,115
26,128
27,144
28,164
29,179
30,204
31,225
32,247
33,271
34,298
35,328
36,356
37,388
38,426
39,466
40,510
41,544
42,590
43,643
44,693
45,743
46,800
47,861
48,917
49,980
50,1059
51,1114
52,1196
53,1275
54,1343
55,1417
56,1503
57,1585
58,1676
59,1782
60,1885
61,2008
62,2127
63,2240
64,2363
65,2514
66,2677
67,2816
68,2988
69,3184
70,3395
71,3580
72,3789
73,4014
74,4270
75,4471
76,4737
77,4988
78,5268
79,5597
80,5894
