0,1
1,1
2,1
3,1
4,2
5,2
6,2
7,3
8,4
9,4
10,4
11,5
12,5
13,6
14,7
15,7
16,7
17,7
18,7
19,8
20,9
21,9
22,11
23,13
24,13
25,16
26,18
27,19
28,21
29,23
30,27
31,27
32,32
33,38
34,40
35,45
36,49
37,53
38,59
39,64
40,70
41,77
42,83
43,89
44,93
45,100
46,109
47,123
48,131
49,143
50,153
51,162
52,174
53,181
54,199
55,209
56,215
57,236
58,244
59,255
60,266
61,282
62,298
63,311
64,335
65,340
66,358
67,377
68,398
69,416
70,436
71,451
72,479
73,507
74,529
75,554
76,590
77,613
78,632
79,676
80,710
