0,1
1,1
2,1
3,1
4,1
5,2
6,4
7,4
8,5
9,5
10,5
11,5
12,5
13,5
14,5
15,6
16,6
17,6
18,6
19,7
20,8
21,10
22,10
23,15
24,18
25,21
26,28
27,32
28,36
29,38
30,44
31,46
32,51
33,58
34,65
35,71
36,80
37,86
38,98
39,115
40,124
41,129
42,137
43,144
44,154
45,167
46,177
47,186
48,199
49,215
50,232
51,248
52,264
53,277
54,298
55,310
56,325
57,342
58,367
59,386
60,411
61,435
62,456
63,487
64,519
65,546
66,575
67,606
68,640
69,675
70,712
71,760
72,808
73,861
74,919
75,966
76,1037
77,1100
78,1171
79,1241
80,1318
