0,1
1,1
2,1
3,1
4,1
5,1
6,2
7,2
8,2
9,2
10,3
11,5
12,8
13,9
14,13
15,18
16,25
17,29
18,32
19,37
20,44
21,53
22,59
23,62
24,70
25,75
26,82
27,90
28,99
29,102
30,110
31,114
32,126
33,136
34,145
35,153
36,159
37,161
38,177
39,186
40,198
41,204
42,215
43,223
44,236
45,246
46,255
47,271
48,284
49,302
50,321
51,333
52,351
53,364
54,379
55,390
56,410
57,423
58,437
59,451
60,469
61,487
62,505
63,513
64,535
65,545
66,557
67,571
68,582
69,596
70,606
71,625
72,646
73,660
74,677
75,701
76,723
77,747
78,769
79,792
80,819
