0,1
1,1
2,1
3,1
4,1
5,2
6,2
7,2
8,2
9,2
10,3
11,3
12,4
13,5
14,5
15,5
16,5
17,5
18,6
19,7
20,7
21,8
22,8
23,9
24,9
25,9
26,11
27,11
28,12
29,13
30,16
31,18
32,20
33,24
34,27
35,28
36,29
37,31
38,38
39,39
40,40
41,45
42,48
43,52
44,56
45,65
46,72
47,79
48,87
49,98
50,106
51,113
52,124
53,136
54,148
55,164
56,181
57,200
58,215
59,232
60,256
61,286
62,309
63,331
64,358
65,384
66,407
67,442
68,478
69,509
70,533
71,558
72,592
73,625
74,669
75,723
76,750
77,787
78,842
79,893
80,940
