0,1
1,1
2,1
3,1
4,2
5,2
6,2
7,2
8,4
9,4
10,5
11,6
12,9
13,9
14,11
15,13
16,14
17,18
18,20
19,22
20,26
21,28
22,32
23,35
24,39
25,44
26,45
27,50
28,55
29,59
30,64
31,65
32,68
33,76
34,78
35,82
36,84
37,95
38,104
39,108
40,114
41,124
42,137
43,147
44,157
45,173
46,186
47,196
48,213
49,230
50,257
51,276
52,297
53,316
54,339
55,354
56,387
57,408
58,431
59,466
60,500
61,531
62,554
63,584
64,620
65,663
66,700
67,744
68,788
69,828
70,876
71,920
72,978
73,1030
74,1090
75,1153
76,1221
77,1291
78,1360
79,1445
80,1515
