0,1
1,1
2,1
3,1
4,1
5,3
6,3
7,4
8,4
9,4
10,5
11,5
12,6
13,6
14,7
15,7
16,7
17,7
18,8
19,8
20,9
21,9
22,9
23,11
24,11
25,11
26,11
27,11
28,11
29,11
30,12
31,12
32,12
33,14
34,14
35,14
36,17
37,18
38,19
39,20
40,24
41,25
42,27
43,29
44,34
45,39
46,45
47,49
48,52
49,59
50,64
51,73
52,79
53,83
54,90
55,103
56,107
57,113
58,119
59,128
60,138
61,150
62,163
63,174
64,191
65,211
66,225
67,245
68,263
69,290
70,312
71,343
72,383
73,423
74,449
75,478
76,532
77,577
78,623
79,666
80,723
