0,1
1,1
2,1
3,1
4,1
5,1
6,1
7,1
8,1
9,2
10,2
11,2
12,3
13,3
14,4
15,5
16,6
17,8
18,9
19,13
20,13
21,20
22,25
23,32
24,37
25,42
26,46
27,50
28,55
29,58
30,61
31,69
32,75
33,89
34,102
35,112
36,122
37,136
38,148
39,159
40,173
41,183
42,196
43,205
44,220
45,233
46,245
47,255
48,268
49,282
50,302
51,316
52,333
53,360
54,380
55,402
56,426
57,449
58,467
59,514
60,546
61,574
62,597
63,627
64,662
65,693
66,729
67,764
68,807
69,843
70,881
71,921
72,971
73,1005
74,1047
75,1103
76,1154
77,1207
78,1263
79,1323
80,1383
