0,1
1,1
2,1
3,1
4,1
5,1
6,1
7,1
8,1
9,2
10,3
11,3
12,3
13,4
14,6
15,6
16,6
17,7
18,8
19,8
20,8
21,9
22,12
23,13
24,13
25,13
26,14
27,16
28,20
29,20
30,22
31,23
32,30
33,34
34,37
35,40
36,42
37,50
38,52
39,55
40,56
41,63
42,68
43,72
44,75
45,77
46,81
47,85
48,89
49,92
50,98
51,106
52,111
53,117
54,128
55,132
56,142
57,149
58,158
59,164
60,181
61,186
62,190
63,195
64,201
65,212
66,223
67,233
68,246
69,254
70,272
71,280
72,301
73,314
74,332
75,359
76,372
77,398
78,421
79,450
80,469
