0,1
1,1
2,1
3,1
4,1
5,1
6,1
7,2
8,2
9,2
10,3
11,3
12,3
13,3
14,3
15,4
16,4
17,4
18,4
19,5
20,5
21,6
22,6
23,6
24,8
25,8
26,8
27,10
28,10
29,10
30,12
31,12
32,12
33,13
34,14
35,14
36,16
37,17
38,17
39,17
40,19
41,19
42,19
43,20
44,21
45,23
46,25
47,26
48,26
49,27
50,28
51,28
52,29
53,30
54,31
55,34
56,35
57,38
58,39
59,39
60,44
61,48
62,52
63,56
64,57
65,61
66,63
67,66
68,69
69,73
70,77
71,80
72,85
73,94
74,102
75,110
76,114
77,121
78,134
79,148
80,158
