0,1
1,1
2,1
3,2
4,2
5,2
6,3
7,3
8,3
9,3
10,5
11,7
12,9
13,9
14,11
15,14
16,17
17,18
18,18
19,19
20,22
21,24
22,25
23,26
24,29
25,32
26,32
27,32
28,33
29,34
30,37
31,37
32,40
33,40
34,43
35,44
36,45
37,48
38,50
39,53
40,56
41,58
42,60
43,60
44,63
45,64
46,68
47,71
48,78
49,81
50,84
51,87
52,92
53,97
54,98
55,104
56,109
57,113
58,119
59,124
60,129
61,142
62,147
63,151
64,161
65,167
66,174
67,184
68,197
69,212
70,224
71,238
72,254
73,267
74,286
75,306
76,330
77,353
78,383
79,405
80,432
