0,1
1,1
2,1
3,1
4,1
5,1
6,1
7,1
8,1
9,2
10,2
11,2
12,3
13,3
14,3
15,4
16,4
17,4
18,4
19,5
20,5
21,6
22,7
23,7
24,8
25,10
26,11
27,11
28,11
29,12
30,15
31,15
32,15
33,17
34,19
35,20
36,21
37,22
38,23
39,23
40,26
41,28
42,28
43,28
44,32
45,35
46,35
47,37
48,40
49,42
50,43
51,44
52,47
53,50
54,55
55,56
56,59
57,61
58,66
59,67
60,71
61,76
62,80
63,83
64,84
65,87
66,90
67,92
68,95
69,97
70,100
71,101
72,109
73,113
74,121
75,122
76,126
77,130
78,135
79,139
80,152
