0,1
1,1
2,1
3,1
4,1
5,1
6,2
7,2
8,2
9,2
10,3
11,3
12,4
13,6
14,8
15,9
16,12
17,13
18,14
19,18
20,18
21,21
22,23
23,24
24,24
25,25
26,29
27,30
28,32
29,35
30,35
31,39
32,40
33,42
34,43
35,44
36,44
37,46
38,50
39,53
40,54
41,56
42,57
43,63
44,64
45,66
46,68
47,71
48,71
49,74
50,78
51,81
52,81
53,82
54,83
55,85
56,94
57,95
58,98
59,99
60,103
61,104
62,104
63,105
64,107
65,110
66,112
67,114
68,117
69,120
70,127
71,133
72,135
73,142
74,151
75,161
76,166
77,173
78,178
79,184
80,194
