0,1
1,1
2,1
3,1
4,1
5,1
6,2
7,2
8,2
9,3
10,3
11,4
12,5
13,6
14,10
15,13
16,13
17,15
18,17
19,25
20,29
21,32
22,34
23,36
24,42
25,44
26,50
27,53
28,56
29,64
30,72
31,76
32,86
33,92
34,99
35,113
36,123
37,138
38,143
39,160
40,179
41,206
42,220
43,239
44,255
45,279
46,298
47,324
48,345
49,372
50,394
51,428
52,464
53,488
54,522
55,554
56,595
57,634
58,676
59,715
60,757
61,801
62,850
63,905
64,951
65,1008
66,1053
67,1122
68,1191
69,1261
70,1341
71,1419
72,1501
73,1603
74,1686
75,1784
76,1882
77,2006
78,2099
79,2203
80,2329
