0,1
1,1
2,1
3,1
4,2
5,2
6,2
7,2
8,4
9,4
10,5
11,6
12,7
13,7
14,8
15,10
16,11
17,11
18,11
19,12
20,13
21,13
22,14
23,14
24,14
25,16
26,17
27,18
28,19
29,19
30,19
31,20
32,23
33,24
34,25
35,25
36,25
37,29
38,29
39,32
40,33
41,33
42,37
43,40
44,40
45,43
46,48
47,49
48,54
49,58
50,61
51,63
52,65
53,68
54,71
55,74
56,76
57,83
58,86
59,87
60,88
61,90
62,91
63,92
64,93
65,95
66,95
67,95
68,95
69,95
70,98
71,99
72,101
73,101
74,103
75,104
76,104
77,104
78,106
79,107
80,110
