0,1
1,1
2,1
3,2
4,2
5,2
6,2
7,3
8,3
9,3
10,4
11,5
12,5
13,5
14,6
15,6
16,6
17,6
18,7
19,8
20,8
21,9
22,9
23,10
24,12
25,14
26,18
27,18
28,21
29,23
30,25
31,26
32,28
33,30
34,30
35,34
36,35
37,41
38,46
39,46
40,48
41,52
42,53
43,55
44,59
45,62
46,65
47,67
48,68
49,71
50,77
51,85
52,91
53,96
54,98
55,102
56,111
57,119
58,125
59,131
60,138
61,142
62,151
63,162
64,172
65,175
66,183
67,201
68,211
69,220
70,231
71,242
72,256
73,270
74,281
75,296
76,317
77,337
78,350
79,369
80,391
