0,1
1,1
2,1
3,1
4,1
5,1
6,1
7,3
8,3
9,3
10,3
11,9
12,9
13,13
14,17
15,19
16,21
17,23
18,27
19,28
20,33
21,37
22,41
23,47
24,49
25,51
26,55
27,60
28,64
29,68
30,73
31,74
32,77
33,82
34,92
35,99
36,104
37,113
38,122
39,130
40,143
41,149
42,162
43,171
44,183
45,191
46,208
47,216
48,232
49,243
50,255
51,279
52,291
53,306
54,316
55,327
56,349
57,365
58,381
59,405
60,424
61,448
62,475
63,499
64,538
65,565
66,605
67,641
68,681
69,722
70,768
71,821
72,873
73,932
74,993
75,1050
76,1103
77,1191
78,1259
79,1337
80,1404
