0,1
1,1
2,1
3,1
4,1
5,2
6,3
7,3
8,3
9,3
10,3
11,3
12,3
13,3
14,4
15,4
16,4
17,4
18,4
19,5
20,5
21,5
22,6
23,6
24,6
25,7
26,8
27,9
28,9
29,9
30,9
31,11
32,12
33,13
34,13
35,13
36,15
37,15
38,16
39,16
40,17
41,18
42,19
43,20
44,23
45,26
46,31
47,34
48,35
49,36
50,37
51,39
52,40
53,40
54,43
55,45
56,46
57,47
58,48
59,53
60,54
61,56
62,59
63,60
64,63
65,66
66,72
67,75
68,81
69,85
70,87
71,92
72,94
73,98
74,105
75,111
76,113
77,118
78,125
79,128
80,130
