0,1
1,1
2,1
3,1
4,2
5,3
6,3
7,3
8,5
9,5
10,5
11,7
12,7
13,8
14,10
15,12
16,13
17,14
18,15
19,19
20,20
21,20
22,23
23,25
24,27
25,32
26,35
27,41
28,46
29,51
30,57
31,63
32,70
33,75
34,81
35,86
36,95
37,99
38,103
39,109
40,117
41,119
42,126
43,132
44,136
45,150
46,159
47,165
48,175
49,184
50,194
51,206
52,220
53,232
54,248
55,260
56,278
57,293
58,309
59,323
60,344
61,359
62,379
63,402
64,421
65,438
66,458
67,476
68,498
69,520
70,536
71,566
72,593
73,625
74,648
75,675
76,711
77,739
78,778
79,810
80,840
