0,1
1,1
2,1
3,1
4,1
5,2
6,2
7,2
8,2
9,2
10,2
11,2
12,3
13,3
14,3
15,4
16,4
17,6
18,6
19,6
20,8
21,9
22,9
23,13
24,14
25,16
26,18
27,22
28,28
29,30
30,31
31,34
32,40
33,46
34,49
35,51
36,56
37,64
38,71
39,77
40,84
41,93
42,106
43,119
44,124
45,136
46,148
47,156
48,175
49,187
50,196
51,211
52,225
53,238
54,257
55,269
56,288
57,311
58,326
59,351
60,377
61,410
62,438
63,466
64,501
65,529
66,562
67,606
68,640
69,675
70,716
71,760
72,800
73,852
74,914
75,974
76,1028
77,1091
78,1148
79,1208
80,1285
