0,1
1,1
2,1
3,1
4,1
5,3
6,5
7,5
8,5
9,5
10,7
11,7
12,7
13,7
14,8
15,8
16,8
17,8
18,8
19,9
20,9
21,11
22,12
23,12
24,12
25,14
26,14
27,15
28,15
29,16
30,17
31,18
32,19
33,19
34,19
35,19
36,19
37,19
38,20
39,20
40,20
41,20
42,20
43,20
44,20
45,21
46,21
47,21
48,21
49,23
50,23
51,25
52,25
53,26
54,26
55,28
56,30
57,32
58,32
59,34
60,40
61,42
62,43
63,44
64,46
65,50
66,51
67,55
68,56
69,58
70,59
71,60
72,65
73,66
74,66
75,66
76,67
77,71
78,71
79,71
80,72
