0,1
1,1
2,1
3,1
4,1
5,1
6,1
7,1
8,2
9,2
10,2
11,2
12,2
13,4
14,4
15,5
16,5
17,6
18,7
19,9
20,9
21,9
22,9
23,9
24,9
25,9
26,10
27,10
28,10
29,10
30,13
31,13
32,16
33,17
34,18
35,24
36,28
37,30
38,38
39,44
40,51
41,56
42,64
43,74
44,85
45,94
46,106
47,119
48,135
49,149
50,164
51,175
52,193
53,210
54,227
55,240
56,255
57,281
58,295
59,310
60,335
61,357
62,379
63,398
64,414
65,448
66,478
67,515
68,532
69,559
70,585
71,613
72,659
73,691
74,729
75,771
76,806
77,851
78,898
79,946
80,997
