0,1
1,1
2,1
3,1
4,2
5,3
6,4
7,5
8,6
9,7
10,9
11,9
12,12
13,13
14,15
15,15
16,15
17,17
18,18
19,20
20,21
21,22
22,22
23,24
24,24
25,24
26,25
27,26
28,27
29,28
30,28
31,28
32,29
33,29
34,29
35,32
36,33
37,34
38,36
39,37
40,38
41,41
42,44
43,45
44,51
45,56
46,58
47,60
48,63
49,65
50,67
51,68
52,70
53,71
54,73
55,74
56,77
57,79
58,81
59,83
60,85
61,86
62,87
63,90
64,91
65,91
66,94
67,95
68,99
69,100
70,102
71,104
72,105
73,106
74,107
75,110
76,110
77,112
78,114
79,116
80,118
