0,1
1,1
2,1
3,1
4,2
5,2
6,2
7,3
8,3
9,3
10,4
11,4
12,5
13,6
14,8
15,10
16,11
17,15
18,19
19,21
20,22
21,24
22,25
23,27
24,33
25,39
26,44
27,49
28,53
29,54
30,62
31,65
32,72
33,79
34,90
35,95
36,103
37,112
38,126
39,140
40,148
41,158
42,171
43,188
44,202
45,212
46,229
47,247
48,260
49,277
50,292
51,305
52,321
53,336
54,351
55,371
56,390
57,413
58,435
59,463
60,494
61,516
62,545
63,576
64,610
65,651
66,695
67,721
68,762
69,801
70,846
71,890
72,944
73,989
74,1048
75,1096
76,1150
77,1222
78,1283
79,1359
80,1419
