0,1
1,1
2,1
3,1
4,1
5,1
6,2
7,2
8,3
9,4
10,5
11,7
12,7
13,8
14,9
15,10
16,10
17,13
18,14
19,15
20,15
21,16
22,17
23,19
24,21
25,22
26,24
27,25
28,25
29,25
30,26
31,26
32,29
33,31
34,31
35,31
36,31
37,31
38,33
39,35
40,35
41,35
42,35
43,36
44,36
45,36
46,36
47,36
48,36
49,37
50,37
51,37
52,37
53,37
54,38
55,38
56,39
57,39
58,39
59,40
60,42
61,43
62,43
63,45
64,45
65,45
66,45
67,46
68,46
69,47
70,48
71,49
72,50
73,50
74,51
75,52
76,52
77,53
78,53
79,53
80,54
