0,1
1,1
2,1
3,1
4,1
5,1
6,1
7,2
8,2
9,2
10,2
11,2
12,2
13,2
14,2
15,3
16,3
17,3
18,3
19,4
20,4
21,4
22,4
23,5
24,5
25,5
26,6
27,6
28,7
29,9
30,10
31,10
32,11
33,13
34,14
35,14
36,15
37,15
38,15
39,16
40,16
41,17
42,17
43,17
44,19
45,20
46,21
47,22
48,24
49,24
50,25
51,25
52,28
53,28
54,28
55,29
56,29
57,30
58,35
59,38
60,39
61,40
62,42
63,42
64,44
65,44
66,45
67,46
68,48
69,50
70,50
71,51
72,53
73,55
74,56
75,57
76,59
77,62
78,64
79,67
80,68
