0,1
1,1
2,1
3,1
4,1
5,1
6,2
7,2
8,2
9,3
10,3
11,3
12,5
13,6
14,6
15,8
16,8
17,11
18,13
19,15
20,17
21,18
22,19
23,20
24,22
25,24
26,27
27,28
28,28
29,29
30,30
31,30
32,31
33,32
34,36
35,38
36,39
37,41
38,43
39,44
40,48
41,51
42,54
43,57
44,60
45,65
46,70
47,76
48,80
49,84
50,92
51,100
52,107
53,113
54,118
55,123
56,128
57,135
58,137
59,145
60,148
61,157
62,164
63,173
64,181
65,189
66,193
67,199
68,207
69,215
70,228
71,243
72,251
73,258
74,270
75,279
76,295
77,305
78,313
79,318
80,327
