0,1
1,1
2,1
3,1
4,1
5,1
6,1
7,1
8,1
9,2
10,2
11,2
12,2
13,3
14,5
15,5
16,5
17,5
18,5
19,6
20,7
21,8
22,9
23,9
24,10
25,11
26,12
27,13
28,16
29,17
30,19
31,21
32,22
33,26
34,29
35,32
36,38
37,45
38,49
39,51
40,55
41,61
42,67
43,74
44,84
45,90
46,97
47,104
48,109
49,119
50,126
51,134
52,147
53,152
54,155
55,167
56,178
57,191
58,203
59,211
60,223
61,238
62,251
63,265
64,276
65,286
66,298
67,305
68,321
69,335
70,347
71,363
72,376
73,392
74,403
75,420
76,439
77,451
78,475
79,491
80,517
