0,1
1,1
2,1
3,1
4,1
5,2
6,3
7,4
8,5
9,8
10,10
11,11
12,13
13,14
14,15
15,17
16,20
17,22
18,27
19,32
20,35
21,37
22,39
23,41
24,43
25,46
26,51
27,53
28,55
29,58
30,61
31,65
32,69
33,73
34,81
35,86
36,92
37,96
38,99
39,106
40,113
41,116
42,122
43,132
44,136
45,144
46,149
47,152
48,157
49,167
50,178
51,192
52,206
53,217
54,228
55,237
56,247
57,262
58,272
59,281
60,296
61,310
62,322
63,336
64,354
65,380
66,397
67,421
68,456
69,491
70,515
71,550
72,585
73,629
74,679
75,727
76,771
77,813
78,869
79,909
80,982
