0,1
1,1
2,1
3,1
4,1
5,2
6,2
7,2
8,2
9,3
10,4
11,5
12,5
13,6
14,6
15,7
16,8
17,12
18,13
19,16
20,18
21,21
22,26
23,28
24,31
25,34
26,37
27,39
28,42
29,46
30,52
31,56
32,59
33,65
34,71
35,78
36,82
37,88
38,96
39,102
40,110
41,117
42,124
43,140
44,151
45,164
46,171
47,185
48,196
49,211
50,222
51,238
52,260
53,283
54,301
55,325
56,345
57,360
58,376
59,398
60,426
61,450
62,485
63,515
64,544
65,583
66,613
67,652
68,691
69,724
70,758
71,803
72,842
73,886
74,943
75,1002
76,1071
77,1123
78,1178
79,1243
80,1297
