0,1
1,1
2,1
3,1
4,1
5,2
6,2
7,2
8,2
9,2
10,2
11,3
12,3
13,3
14,3
15,3
16,4
17,4
18,5
19,5
20,7
21,8
22,8
23,10
24,13
25,15
26,17
27,18
28,24
29,26
30,27
31,32
32,36
33,39
34,39
35,44
36,50
37,52
38,55
39,57
40,60
41,65
42,69
43,78
44,79
45,83
46,90
47,93
48,98
49,104
50,105
51,109
52,114
53,114
54,117
55,119
56,121
57,124
58,126
59,128
60,131
61,134
62,138
63,144
64,150
65,155
66,161
67,163
68,173
69,175
70,180
71,184
72,193
73,198
74,208
75,216
76,218
77,224
78,235
79,251
80,256
