0,1
1,1
2,1
3,1
4,2
5,2
6,3
7,3
8,5
9,5
10,9
11,10
12,12
13,14
14,15
15,16
16,20
17,23
18,25
19,29
20,33
21,43
22,52
23,59
24,63
25,70
26,86
27,97
28,102
29,116
30,129
31,143
32,156
33,178
34,206
35,220
36,240
37,263
38,291
39,323
40,351
41,378
42,409
43,441
44,466
45,502
46,533
47,569
48,610
49,648
50,680
51,721
52,754
53,810
54,849
55,911
56,985
57,1041
58,1096
59,1169
60,1245
61,1317
62,1407
63,1487
64,1576
65,1662
66,1752
67,1866
68,1974
69,2072
70,2186
71,2289
72,2432
73,2551
74,2660
75,2789
76,2941
77,3096
78,3254
79,3416
80,3594
