0,1
1,1
2,1
3,1
4,1
5,2
6,3
7,4
8,4
9,4
10,4
11,7
12,8
13,8
14,8
15,9
16,13
17,13
18,15
19,17
20,18
21,21
22,21
23,21
24,22
25,27
26,27
27,28
28,29
29,30
30,33
31,35
32,36
33,40
34,43
35,46
36,51
37,57
38,59
39,62
40,67
41,71
42,75
43,77
44,83
45,87
46,93
47,98
48,106
49,111
50,121
51,126
52,130
53,137
54,145
55,151
56,158
57,166
58,172
59,181
60,189
61,199
62,207
63,220
64,231
65,239
66,248
67,258
68,271
69,282
70,290
71,298
72,311
73,319
74,335
75,353
76,376
77,399
78,413
79,431
80,450
