0,1
1,1
2,1
3,1
4,2
5,3
6,3
7,3
8,3
9,5
10,6
11,6
12,6
13,7
14,7
15,8
16,8
17,10
18,13
19,14
20,16
21,17
22,18
23,20
24,22
25,24
26,27
27,29
28,30
29,34
30,37
31,37
32,38
33,40
34,40
35,42
36,46
37,50
38,50
39,55
40,55
41,58
42,66
43,69
44,75
45,79
46,84
47,96
48,102
49,115
50,123
51,137
52,147
53,157
54,165
55,175
56,184
57,193
58,202
59,214
60,229
61,241
62,256
63,274
64,298
65,317
66,335
67,352
68,366
69,379
70,409
71,427
72,451
73,473
74,497
75,528
76,559
77,611
78,641
79,681
80,713
