0,1
1,1
2,1
3,3
4,3
5,3
6,4
7,6
8,9
9,13
10,14
11,18
12,23
13,27
14,31
15,35
16,41
17,44
18,48
19,55
20,59
21,59
22,62
23,69
24,73
25,80
26,83
27,87
28,94
29,96
30,104
31,111
32,116
33,120
34,130
35,143
36,148
37,158
38,166
39,181
40,194
41,206
42,225
43,240
44,248
45,266
46,278
47,295
48,314
49,332
50,349
51,360
52,382
53,397
54,424
55,445
56,473
57,500
58,532
59,558
60,585
61,625
62,662
63,695
64,729
65,762
66,787
67,822
68,871
69,917
70,954
71,995
72,1059
73,1110
74,1153
75,1223
76,1289
77,1359
78,1425
79,1495
80,1585
