0,1
1,1
2,1
3,2
4,3
5,4
6,4
7,6
8,6
9,7
10,8
11,9
12,10
13,11
14,17
15,18
16,21
17,21
18,21
19,23
20,23
21,25
22,27
23,27
24,29
25,29
26,32
27,34
28,34
29,35
30,36
31,37
32,38
33,38
34,38
35,40
36,40
37,40
38,40
39,41
40,41
41,41
42,41
43,42
44,42
45,43
46,44
47,44
48,44
49,44
50,45
51,45
52,45
53,46
54,46
55,46
56,47
57,51
58,54
59,55
60,56
61,56
62,57
63,59
64,59
65,60
66,61
67,64
68,66
69,67
70,68
71,69
72,71
73,74
74,75
75,77
76,81
77,84
78,86
79,90
80,95
