0,1
1,1
2,1
3,1
4,1
5,1
6,2
7,2
8,2
9,2
10,4
11,5
12,7
13,7
14,9
15,9
16,10
17,11
18,12
19,15
20,15
21,17
22,18
23,19
24,22
25,27
26,27
27,32
28,35
29,38
30,41
31,43
32,45
33,52
34,58
35,63
36,64
37,72
38,76
39,82
40,91
41,97
42,103
43,110
44,113
45,121
46,131
47,138
48,150
49,161
50,165
51,171
52,184
53,197
54,208
55,217
56,226
57,238
58,251
59,265
60,277
61,294
62,316
63,334
64,351
65,373
66,391
67,413
68,432
69,463
70,492
71,519
72,550
73,596
74,623
75,651
76,684
77,717
78,746
79,781
80,825
