0,1
1,1
2,1
3,1
4,1
5,2
6,2
7,3
8,3
9,4
10,4
11,5
12,5
13,6
14,6
15,8
16,8
17,8
18,9
19,9
20,9
21,10
22,11
23,13
24,13
25,13
26,13
27,15
28,16
29,19
30,23
31,24
32,26
33,29
34,36
35,39
36,41
37,46
38,51
39,56
40,61
41,63
42,70
43,75
44,79
45,86
46,93
47,100
48,105
49,113
50,126
51,133
52,148
53,160
54,172
55,177
56,183
57,196
58,213
59,227
60,242
61,251
62,267
63,285
64,298
65,308
66,322
67,336
68,352
69,374
70,390
71,411
72,432
73,451
74,467
75,499
76,525
77,549
78,589
79,621
80,650
