0,1
1,1
2,1
3,1
4,2
5,3
6,3
7,3
8,4
9,6
10,10
11,12
12,14
13,15
14,18
15,21
16,23
17,25
18,31
19,33
20,38
21,41
22,49
23,57
24,60
25,72
26,77
27,85
28,94
29,104
30,113
31,120
32,127
33,134
34,143
35,156
36,166
37,176
38,187
39,201
40,209
41,223
42,233
43,249
44,260
45,272
46,288
47,304
48,322
49,345
50,372
51,397
52,419
53,437
54,459
55,492
56,517
57,547
58,573
59,613
60,652
61,682
62,724
63,775
64,813
65,867
66,910
67,960
68,1017
69,1087
70,1149
71,1214
72,1290
73,1368
74,1465
75,1556
76,1632
77,1732
78,1824
79,1937
80,2049
