0,1
1,1
2,1
3,1
4,1
5,1
6,1
7,1
8,2
9,2
10,2
11,2
12,2
13,3
14,3
15,4
16,5
17,7
18,7
19,8
20,9
21,13
22,18
23,19
24,19
25,24
26,27
27,32
28,33
29,37
30,43
31,46
32,52
33,55
34,58
35,63
36,65
37,73
38,77
39,84
40,88
41,94
42,99
43,105
44,109
45,115
46,117
47,122
48,132
49,141
50,145
51,152
52,157
53,168
54,180
55,189
56,202
57,214
58,224
59,235
60,246
61,256
62,270
63,282
64,300
65,316
66,339
67,356
68,378
69,397
70,423
71,442
72,463
73,497
74,532
75,550
76,577
77,606
78,631
79,665
80,699
