0,1
1,1
2,1
3,1
4,1
5,2
6,2
7,3
8,5
9,5
10,5
11,6
12,7
13,8
14,9
15,11
16,11
17,14
18,15
19,16
20,16
21,17
22,19
23,19
24,21
25,22
26,23
27,23
28,25
29,27
30,29
31,30
32,30
33,34
34,37
35,42
36,46
37,50
38,57
39,59
40,61
41,63
42,70
43,76
44,78
45,83
46,87
47,94
48,98
49,106
50,111
51,120
52,133
53,145
54,157
55,166
56,180
57,199
58,220
59,235
60,250
61,275
62,295
63,331
64,358
65,378
66,395
67,423
68,451
69,485
70,514
71,539
72,566
73,607
74,650
75,683
76,724
77,776
78,823
79,872
80,927
