0,1
1,1
2,1
3,1
4,1
5,1
6,2
7,2
8,2
9,2
10,2
11,2
12,3
13,4
14,4
15,4
16,4
17,4
18,4
19,4
20,4
21,5
22,5
23,5
24,5
25,5
26,5
27,5
28,5
29,5
30,6
31,6
32,6
33,7
34,7
35,7
36,8
37,9
38,9
39,10
40,11
41,13
42,13
43,14
44,16
45,17
46,17
47,20
48,21
49,25
50,27
51,28
52,31
53,32
54,38
55,41
56,45
57,47
58,51
59,55
60,59
61,62
62,64
63,66
64,71
65,73
66,77
67,80
68,84
69,88
70,92
71,93
72,100
73,107
74,112
75,120
76,128
77,135
78,141
79,149
80,158
