0,1
1,1
2,1
3,1
4,1
5,1
6,1
7,1
8,2
9,3
10,3
11,4
12,6
13,8
14,8
15,9
16,14
17,16
18,20
19,24
20,28
21,30
22,34
23,40
24,44
25,47
26,52
27,58
28,64
29,71
30,78
31,87
32,95
33,114
34,126
35,137
36,147
37,153
38,165
39,172
40,187
41,196
42,209
43,221
44,236
45,253
46,263
47,274
48,294
49,311
50,325
51,346
52,362
53,383
54,409
55,441
56,471
57,500
58,535
59,569
60,608
61,653
62,687
63,739
64,790
65,840
66,896
67,946
68,1014
69,1097
70,1171
71,1255
72,1340
73,1428
74,1533
75,1613
76,1706
77,1814
78,1932
79,2043
80,2162
