0,1
1,1
2,1
3,1
4,2
5,2
6,4
7,4
8,7
9,8
10,9
11,10
12,10
13,11
14,11
15,13
16,14
17,16
18,20
19,21
20,23
21,24
22,26
23,29
24,33
25,37
26,39
27,43
28,47
29,51
30,57
31,61
32,64
33,69
34,72
35,74
36,76
37,78
38,80
39,84
40,87
41,92
42,98
43,102
44,109
45,112
46,117
47,123
48,131
49,135
50,142
51,146
52,151
53,152
54,156
55,162
56,167
57,169
58,176
59,184
60,192
61,198
62,204
63,214
64,219
65,223
66,230
67,237
68,250
69,257
70,264
71,271
72,283
73,290
74,297
75,306
76,319
77,327
78,342
79,352
80,362
