0,1
1,1
2,1
3,1
4,1
5,1
6,4
7,4
8,6
9,9
10,10
11,12
12,14
13,16
14,18
15,20
16,21
17,25
18,26
19,26
20,29
21,30
22,34
23,36
24,37
25,39
26,39
27,40
28,42
29,46
30,48
31,51
32,55
33,56
34,60
35,63
36,66
37,68
38,73
39,81
40,83
41,88
42,94
43,98
44,104
45,111
46,119
47,122
48,125
49,132
50,136
51,142
52,147
53,152
54,154
55,170
56,181
57,189
58,198
59,209
60,225
61,237
62,255
63,269
64,288
65,306
66,329
67,348
68,366
69,386
70,416
71,445
72,477
73,514
74,559
75,602
76,655
77,717
78,773
79,817
80,878
