0,1
1,1
2,1
3,1
4,2
5,2
6,2
7,2
8,2
9,2
10,4
11,4
12,4
13,4
14,5
15,5
16,5
17,6
18,6
19,7
20,7
21,7
22,7
23,7
24,8
25,8
26,8
27,8
28,8
29,9
30,9
31,10
32,10
33,11
34,12
35,13
36,14
37,16
38,19
39,19
40,19
41,22
42,23
43,23
44,23
45,26
46,27
47,29
48,30
49,33
50,35
51,36
52,39
53,44
54,46
55,48
56,55
57,57
58,58
59,58
60,59
61,61
62,62
63,64
64,64
65,66
66,68
67,69
68,72
69,75
70,79
71,80
72,81
73,85
74,89
75,89
76,89
77,89
78,91
79,96
80,96
