0,1
1,1
2,1
3,1
4,2
5,4
6,5
7,6
8,7
9,10
10,11
11,14
12,17
13,18
14,21
15,25
16,29
17,34
18,43
19,45
20,51
21,55
22,58
23,60
24,65
25,75
26,81
27,83
28,89
29,96
30,102
31,111
32,124
33,131
34,137
35,146
36,161
37,166
38,178
39,196
40,213
41,229
42,244
43,261
44,283
45,310
46,344
47,373
48,393
49,421
50,455
51,483
52,513
53,549
54,599
55,653
56,696
57,735
58,791
59,855
60,915
61,986
62,1037
63,1118
64,1184
65,1271
66,1369
67,1469
68,1563
69,1666
70,1789
71,1925
72,2037
73,2170
74,2306
75,2439
76,2574
77,2717
78,2873
79,3036
80,3194
