0,1
1,1
2,1
3,1
4,2
5,2
6,2
7,2
8,3
9,3
10,4
11,4
12,4
13,4
14,4
15,4
16,5
17,5
18,5
19,5
20,5
21,5
22,6
23,6
24,6
25,6
26,7
27,7
28,7
29,7
30,7
31,8
32,9
33,10
34,10
35,12
36,13
37,14
38,16
39,18
40,21
41,22
42,23
43,25
44,28
45,30
46,30
47,34
48,35
49,38
50,39
51,40
52,42
53,46
54,49
55,52
56,59
57,63
58,68
59,74
60,77
61,86
62,89
63,95
64,104
65,111
66,118
67,126
68,137
69,146
70,159
71,178
72,191
73,209
74,223
75,235
76,255
77,270
78,294
79,319
80,352
