0,1
1,1
2,1
3,1
4,1
5,1
6,1
7,1
8,2
9,2
10,2
11,3
12,3
13,3
14,4
15,7
16,8
17,9
18,9
19,12
20,13
21,15
22,20
23,21
24,23
25,27
26,28
27,31
28,34
29,34
30,36
31,38
32,39
33,42
34,48
35,52
36,56
37,57
38,59
39,66
40,69
41,75
42,84
43,89
44,100
45,109
46,114
47,122
48,131
49,146
50,164
51,175
52,187
53,195
54,206
55,220
56,232
57,247
58,263
59,278
60,294
61,314
62,336
63,363
64,383
65,402
66,421
67,446
68,481
69,513
70,544
71,576
72,603
73,633
74,674
75,711
76,753
77,785
78,825
79,870
80,920
