0,1
1,1
2,1
3,2
4,3
5,3
6,3
7,3
8,5
9,6
10,7
11,9
12,11
13,12
14,12
15,14
16,18
17,20
18,20
19,23
20,24
21,28
22,31
23,33
24,35
25,36
26,43
27,48
28,54
29,59
30,67
31,74
32,80
33,88
34,99
35,106
36,116
37,122
38,135
39,144
40,154
41,165
42,177
43,193
44,210
45,225
46,245
47,258
48,277
49,289
50,300
51,313
52,335
53,353
54,370
55,393
56,412
57,428
58,451
59,481
60,502
61,534
62,565
63,595
64,616
65,647
66,687
67,733
68,773
69,802
70,844
71,892
72,932
73,988
74,1029
75,1089
76,1140
77,1189
78,1236
79,1289
80,1347
