0,1
1,1
2,1
3,1
4,1
5,1
6,3
7,3
8,3
9,3
10,4
11,4
12,6
13,6
14,8
15,9
16,11
17,12
18,13
19,13
20,13
21,13
22,14
23,14
24,14
25,14
26,15
27,15
28,15
29,16
30,16
31,16
32,18
33,19
34,19
35,19
36,20
37,20
38,21
39,23
40,23
41,24
42,24
43,24
44,24
45,25
46,26
47,26
48,26
49,26
50,26
51,26
52,26
53,27
54,27
55,27
56,28
57,31
58,31
59,32
60,32
61,33
62,37
63,37
64,39
65,40
66,41
67,44
68,45
69,47
70,49
71,51
72,54
73,57
74,61
75,62
76,63
77,65
78,66
79,68
80,68
