0,1
1,1
2,2
3,2
4,3
5,3
6,4
7,4
8,6
9,6
10,6
11,7
12,8
13,9
14,10
15,11
16,11
17,12
18,13
19,13
20,14
21,16
22,16
23,16
24,17
25,18
26,18
27,19
28,20
29,22
30,23
31,24
32,24
33,25
34,26
35,26
36,26
37,26
38,27
39,27
40,27
41,28
42,28
43,28
44,29
45,31
46,32
47,32
48,33
49,35
50,36
51,36
52,37
53,37
54,39
55,39
56,41
57,41
58,42
59,43
60,44
61,46
62,46
63,47
64,50
65,51
66,52
67,54
68,57
69,58
70,64
71,64
72,66
73,67
74,69
75,72
76,73
77,74
78,74
79,76
80,78
