0,1
1,1
2,1
3,1
4,1
5,3
6,4
7,4
8,5
9,7
10,8
11,9
12,10
13,10
14,11
15,11
16,11
17,11
18,14
19,16
20,16
21,17
22,18
23,18
24,19
25,19
26,21
27,23
28,24
29,26
30,28
31,30
32,32
33,33
34,36
35,37
36,38
37,43
38,46
39,48
40,49
41,50
42,52
43,53
44,55
45,60
46,63
47,66
48,67
49,68
50,71
51,75
52,81
53,83
54,87
55,91
56,91
57,95
58,101
59,107
60,110
61,117
62,119
63,123
64,128
65,136
66,152
67,164
68,168
69,174
70,181
71,187
72,197
73,210
74,218
75,225
76,235
77,243
78,247
79,258
80,262
