0,1
1,1
2,1
3,2
4,2
5,2
6,2
7,2
8,2
9,2
10,2
11,3
12,3
13,3
14,3
15,5
16,6
17,6
18,7
19,8
20,9
21,10
22,10
23,10
24,12
25,12
26,13
27,14
28,15
29,15
30,18
31,19
32,19
33,19
34,20
35,21
36,21
37,21
38,23
39,25
40,25
41,27
42,30
43,30
44,34
45,37
46,40
47,41
48,46
49,52
50,56
51,61
52,64
53,72
54,74
55,80
56,87
57,94
58,104
59,111
60,116
61,126
62,136
63,148
64,161
65,169
66,175
67,185
68,196
69,211
70,227
71,239
72,251
73,269
74,289
75,309
76,328
77,341
78,360
79,377
80,395
