0,1
1,1
2,1
3,1
4,2
5,3
6,3
7,3
8,4
9,6
10,6
11,6
12,7
13,8
14,10
15,12
16,12
17,13
18,16
19,17
20,18
21,20
22,23
23,26
24,28
25,29
26,31
27,33
28,37
29,38
30,39
31,44
32,47
33,49
34,55
35,62
36,65
37,70
38,72
39,75
40,81
41,84
42,91
43,96
44,101
45,107
46,115
47,123
48,128
49,134
50,141
51,157
52,164
53,176
54,190
55,200
56,210
57,224
58,237
59,254
60,266
61,287
62,312
63,328
64,350
65,372
66,399
67,428
68,458
69,482
70,512
71,537
72,580
73,612
74,640
75,668
76,711
77,745
78,775
79,801
80,860
