0,1
1,1
2,1
3,1
4,1
5,1
6,1
7,2
8,3
9,3
10,4
11,5
12,8
13,8
14,9
15,10
16,17
17,17
18,22
19,22
20,24
21,26
22,27
23,29
24,30
25,32
26,33
27,37
28,38
29,42
30,45
31,47
32,49
33,52
34,52
35,53
36,56
37,56
38,58
39,59
40,65
41,69
42,70
43,73
44,75
45,78
46,84
47,88
48,92
49,92
50,100
51,103
52,108
53,110
54,110
55,110
56,111
57,113
58,113
59,114
60,115
61,115
62,117
63,118
64,118
65,119
66,121
67,123
68,126
69,129
70,129
71,129
72,129
73,133
74,134
75,135
76,137
77,138
78,140
79,142
80,143
