0,1
1,1
2,1
3,3
4,6
5,7
6,7
7,8
8,8
9,8
10,9
11,9
12,11
13,14
14,15
15,17
16,18
17,18
18,21
19,21
20,23
21,23
22,26
23,28
24,31
25,36
26,38
27,40
28,46
29,49
30,51
31,56
32,57
33,61
34,63
35,68
36,72
37,73
38,76
39,83
40,86
41,92
42,95
43,102
44,110
45,116
46,122
47,127
48,138
49,143
50,161
51,168
52,181
53,189
54,197
55,210
56,219
57,230
58,240
59,256
60,263
61,278
62,288
63,300
64,316
65,333
66,353
67,375
68,401
69,418
70,446
71,496
72,525
73,556
74,600
75,629
76,670
77,720
78,766
79,813
80,872
