0,1
1,1
2,1
3,3
4,6
5,8
6,10
7,11
8,11
9,15
10,16
11,16
12,19
13,22
14,23
15,25
16,27
17,29
18,32
19,33
20,37
21,41
22,42
23,48
24,51
25,58
26,64
27,68
28,72
29,79
30,86
31,92
32,97
33,104
34,112
35,119
36,125
37,132
38,142
39,147
40,153
41,156
42,159
43,169
44,176
45,183
46,185
47,191
48,199
49,206
50,212
51,216
52,225
53,233
54,241
55,249
56,259
57,262
58,268
59,273
60,281
61,298
62,312
63,320
64,331
65,343
66,355
67,373
68,393
69,408
70,422
71,441
72,459
73,483
74,500
75,525
76,543
77,565
78,585
79,606
80,632
