0,1
1,1
2,1
3,1
4,1
5,3
6,4
7,5
8,5
9,6
10,7
11,7
12,8
13,9
14,10
15,11
16,12
17,12
18,12
19,15
20,18
21,18
22,19
23,22
24,22
25,25
26,26
27,30
28,34
29,34
30,35
31,37
32,38
33,39
34,41
35,42
36,43
37,44
38,45
39,46
40,46
41,46
42,47
43,47
44,47
45,48
46,48
47,49
48,49
49,51
50,51
51,55
52,61
53,64
54,66
55,70
56,75
57,82
58,89
59,97
60,104
61,110
62,113
63,125
64,132
65,141
66,150
67,162
68,172
69,186
70,204
71,218
72,233
73,250
74,277
75,306
76,327
77,355
78,387
79,417
80,443
