0,1
1,1
2,1
3,1
4,2
5,3
6,4
7,6
8,6
9,6
10,6
11,6
12,6
13,7
14,7
15,7
16,7
17,9
18,11
19,11
20,12
21,14
22,16
23,25
24,26
25,26
26,27
27,32
28,34
29,35
30,38
31,38
32,39
33,42
34,46
35,47
36,50
37,52
38,57
39,60
40,61
41,63
42,63
43,69
44,72
45,72
46,76
47,76
48,79
49,80
50,82
51,83
52,85
53,86
54,87
55,90
56,93
57,94
58,96
59,98
60,100
61,102
62,102
63,103
64,106
65,107
66,107
67,107
68,111
69,115
70,117
71,117
72,118
73,119
74,123
75,126
76,127
77,129
78,132
79,133
80,136
