0,1
1,1
2,1
3,1
4,2
5,3
6,3
7,3
8,3
9,5
10,5
11,5
12,6
13,6
14,6
15,7
16,7
17,7
18,8
19,8
20,8
21,8
22,8
23,9
24,10
25,10
26,10
27,11
28,13
29,14
30,15
31,16
32,18
33,18
34,18
35,18
36,18
37,19
38,19
39,20
40,21
41,22
42,22
43,23
44,24
45,25
46,25
47,27
48,28
49,30
50,30
51,30
52,33
53,35
54,36
55,39
56,43
57,46
58,51
59,55
60,60
61,63
62,70
63,76
64,79
65,87
66,95
67,101
68,107
69,114
70,124
71,129
72,142
73,153
74,160
75,174
76,184
77,198
78,211
79,226
80,246
