0,1
1,1
2,2
3,3
4,4
5,5
6,5
7,7
8,7
9,10
10,10
11,10
12,11
13,13
14,14
15,14
16,16
17,16
18,16
19,16
20,16
21,16
22,18
23,18
24,18
25,18
26,20
27,20
28,21
29,23
30,25
31,26
32,27
33,30
34,31
35,33
36,34
37,34
38,37
39,39
40,40
41,40
42,41
43,43
44,44
45,46
46,47
47,47
48,47
49,47
50,48
51,48
52,49
53,49
54,52
55,52
56,53
57,54
58,55
59,57
60,60
61,61
62,62
63,64
64,66
65,66
66,66
67,71
68,72
69,73
70,74
71,77
72,78
73,84
74,85
75,86
76,87
77,88
78,92
79,94
80,95
