0,1
1,1
2,1
3,1
4,1
5,1
6,1
7,2
8,2
9,2
10,2
11,2
12,3
13,4
14,4
15,4
16,5
17,6
18,6
19,6
20,6
21,6
22,6
23,8
24,8
25,8
26,8
27,8
28,8
29,9
30,10
31,10
32,10
33,10
34,10
35,10
36,10
37,11
38,11
39,11
40,13
41,13
42,14
43,14
44,16
45,16
46,17
47,19
48,20
49,23
50,23
51,23
52,24
53,31
54,35
55,38
56,39
57,40
58,44
59,48
60,52
61,56
62,64
63,70
64,76
65,79
66,82
67,84
68,89
69,92
70,97
71,101
72,105
73,108
74,117
75,124
76,130
77,136
78,143
79,148
80,160
