0,1
1,1
2,1
3,1
4,1
5,1
6,2
7,2
8,2
9,2
10,2
11,3
12,3
13,3
14,3
15,3
16,3
17,5
18,5
19,6
20,6
21,6
22,6
23,7
24,7
25,8
26,8
27,10
28,10
29,10
30,12
31,12
32,12
33,15
34,15
35,16
36,16
37,17
38,19
39,20
40,20
41,22
42,24
43,25
44,27
45,31
46,31
47,33
48,33
49,33
50,35
51,35
52,36
53,38
54,39
55,39
56,43
57,46
58,47
59,50
60,52
61,53
62,53
63,56
64,58
65,59
66,60
67,67
68,70
69,76
70,77
71,81
72,84
73,85
74,92
75,95
76,100
77,106
78,107
79,109
80,113
