0,1
1,1
2,1
3,2
4,2
5,2
6,2
7,2
8,2
9,2
10,3
11,3
12,3
13,3
14,5
15,6
16,7
17,8
18,10
19,12
20,13
21,14
22,16
23,18
24,20
25,27
26,28
27,30
28,36
29,38
30,39
31,45
32,50
33,52
34,54
35,59
36,67
37,72
38,76
39,83
40,92
41,98
42,104
43,113
44,126
45,132
46,140
47,154
48,168
49,180
50,195
51,202
52,213
53,222
54,239
55,246
56,257
57,271
58,283
59,299
60,315
61,327
62,344
63,357
64,370
65,383
66,396
67,417
68,433
69,448
70,460
71,481
72,502
73,526
74,545
75,563
76,586
77,611
78,640
79,665
80,692
