0,1
1,1
2,1
3,1
4,1
5,2
6,2
7,2
8,2
9,2
10,4
11,5
12,6
13,6
14,7
15,11
16,17
17,18
18,19
19,22
20,24
21,26
22,30
23,34
24,37
25,41
26,42
27,45
28,48
29,52
30,58
31,60
32,61
33,66
34,69
35,71
36,77
37,83
38,87
39,91
40,95
41,101
42,109
43,116
44,126
45,133
46,142
47,155
48,167
49,178
50,190
51,204
52,219
53,236
54,254
55,266
56,287
57,300
58,321
59,344
60,369
61,395
62,419
63,441
64,468
65,507
66,537
67,575
68,613
69,657
70,697
71,747
72,798
73,855
74,912
75,964
76,1018
77,1086
78,1159
79,1226
80,1315
