0,1
1,1
2,1
3,1
4,4
5,5
6,8
7,10
8,12
9,14
10,15
11,15
12,19
13,22
14,25
15,27
16,33
17,40
18,45
19,51
20,60
21,68
22,77
23,84
24,94
25,107
26,120
27,125
28,132
29,145
30,153
31,166
32,178
33,184
34,194
35,205
36,218
37,235
38,243
39,257
40,272
41,281
42,298
43,309
44,322
45,336
46,357
47,386
48,402
49,419
50,439
51,474
52,504
53,532
54,568
55,607
56,645
57,688
58,730
59,780
60,827
61,877
62,926
63,976
64,1034
65,1093
66,1177
67,1244
68,1311
69,1376
70,1451
71,1549
72,1646
73,1724
74,1815
75,1923
76,2038
77,2144
78,2261
79,2368
80,2466
