0,1
1,1
2,1
3,2
4,2
5,4
6,4
7,4
8,4
9,5
10,7
11,8
12,8
13,8
14,9
15,9
16,9
17,10
18,10
19,10
20,10
21,11
22,12
23,12
24,12
25,13
26,13
27,13
28,14
29,15
30,15
31,15
32,15
33,16
34,16
35,17
36,18
37,18
38,18
39,18
40,18
41,18
42,18
43,19
44,19
45,20
46,21
47,21
48,21
49,21
50,23
51,24
52,26
53,27
54,28
55,28
56,30
57,34
58,37
59,38
60,40
61,43
62,44
63,47
64,49
65,53
66,58
67,62
68,63
69,67
70,72
71,76
72,82
73,82
74,86
75,90
76,92
77,96
78,99
79,107
80,109
