0,1
1,1
2,1
3,1
4,1
5,1
6,2
7,2
8,2
9,2
10,3
11,4
12,4
13,4
14,5
15,6
16,7
17,7
18,11
19,12
20,12
21,16
22,22
23,22
24,23
25,25
26,28
27,29
28,32
29,33
30,36
31,37
32,39
33,41
34,43
35,45
36,49
37,54
38,56
39,61
40,69
41,73
42,80
43,85
44,91
45,98
46,101
47,114
48,125
49,129
50,138
51,148
52,157
53,165
54,179
55,184
56,192
57,200
58,209
59,219
60,229
61,239
62,250
63,261
64,272
65,281
66,296
67,308
68,320
69,332
70,348
71,367
72,378
73,397
74,411
75,428
76,445
77,467
78,487
79,513
80,536
