0,1
1,1
2,2
3,2
4,2
5,2
6,3
7,3
8,4
9,5
10,6
11,6
12,6
13,6
14,8
15,12
16,13
17,14
18,15
19,16
20,18
21,19
22,19
23,20
24,22
25,25
26,27
27,29
28,29
29,33
30,35
31,35
32,35
33,35
34,36
35,38
36,39
37,40
38,43
39,46
40,48
41,52
42,55
43,57
44,59
45,61
46,61
47,66
48,68
49,69
50,70
51,71
52,72
53,74
54,75
55,76
56,76
57,78
58,79
59,80
60,81
61,81
62,82
63,83
64,85
65,86
66,88
67,90
68,90
69,91
70,95
71,101
72,101
73,102
74,103
75,105
76,107
77,109
78,110
79,112
80,117
