0,1
1,1
2,1
3,1
4,1
5,1
6,1
7,2
8,2
9,2
10,2
11,2
12,2
13,3
14,3
15,3
16,3
17,4
18,5
19,5
20,5
21,7
22,8
23,8
24,8
25,8
26,10
27,11
28,12
29,12
30,13
31,17
32,19
33,19
34,22
35,24
36,28
37,34
38,40
39,42
40,48
41,58
42,62
43,70
44,73
45,78
46,83
47,88
48,92
49,96
50,105
51,107
52,112
53,123
54,129
55,135
56,146
57,157
58,167
59,175
60,183
61,200
62,213
63,228
64,242
65,258
66,278
67,300
68,320
69,338
70,360
71,378
72,401
73,421
74,450
75,482
76,520
77,549
78,586
79,621
80,652
