0,1
1,1
2,1
3,2
4,2
5,3
6,3
7,5
8,6
9,7
10,8
11,9
12,10
13,11
14,12
15,14
16,14
17,16
18,17
19,18
20,21
21,21
22,24
23,25
24,26
25,27
26,30
27,32
28,34
29,35
30,36
31,37
32,38
33,40
34,42
35,43
36,45
37,48
38,49
39,49
40,52
41,53
42,54
43,58
44,59
45,62
46,66
47,67
48,68
49,72
50,75
51,76
52,78
53,84
54,85
55,88
56,89
57,97
58,101
59,102
60,107
61,113
62,115
63,120
64,126
65,128
66,131
67,137
68,143
69,151
70,155
71,160
72,166
73,173
74,176
75,182
76,196
77,203
78,214
79,222
80,235
