0,1
1,1
2,1
3,1
4,1
5,1
6,3
7,3
8,3
9,4
10,5
11,5
12,5
13,6
14,7
15,9
16,11
17,12
18,12
19,13
20,14
21,17
22,18
23,21
24,22
25,24
26,25
27,26
28,29
29,34
30,35
31,35
32,38
33,39
34,41
35,43
36,45
37,48
38,51
39,53
40,54
41,57
42,61
43,62
44,64
45,68
46,74
47,75
48,79
49,80
50,85
51,91
52,93
53,98
54,104
55,110
56,112
57,114
58,117
59,120
60,129
61,133
62,137
63,145
64,149
65,149
66,152
67,156
68,161
69,168
70,171
71,178
72,184
73,189
74,196
75,200
76,207
77,214
78,217
79,221
80,224
