0,1
1,1
2,1
3,1
4,1
5,2
6,3
7,4
8,4
9,4
10,4
11,5
12,6
13,8
14,8
15,8
16,8
17,8
18,9
19,11
20,11
21,11
22,12
23,13
24,14
25,14
26,14
27,14
28,16
29,16
30,17
31,17
32,17
33,19
34,20
35,21
36,23
37,25
38,25
39,26
40,28
41,32
42,33
43,35
44,36
45,38
46,39
47,40
48,41
49,43
50,46
51,47
52,49
53,50
54,50
55,51
56,55
57,57
58,58
59,60
60,61
61,61
62,62
63,66
64,68
65,70
66,74
67,75
68,75
69,79
70,81
71,83
72,88
73,91
74,93
75,93
76,96
77,97
78,101
79,103
80,103
