0,1
1,1
2,1
3,1
4,1
5,3
6,3
7,3
8,4
9,5
10,6
11,7
12,11
13,12
14,15
15,16
16,19
17,22
18,23
19,26
20,27
21,29
22,33
23,39
24,41
25,43
26,46
27,51
28,54
29,58
30,60
31,64
32,70
33,74
34,79
35,89
36,97
37,101
38,114
39,123
40,134
41,138
42,151
43,163
44,173
45,184
46,197
47,210
48,224
49,241
50,252
51,270
52,290
53,300
54,311
55,327
56,339
57,357
58,373
59,392
60,410
61,428
62,456
63,474
64,508
65,530
66,551
67,576
68,602
69,629
70,653
71,674
72,707
73,751
74,785
75,822
76,863
77,906
78,936
79,986
80,1021
