0,1
1,1
2,1
3,1
4,1
5,2
6,2
7,2
8,2
9,2
10,2
11,2
12,4
13,5
14,5
15,5
16,6
17,7
18,7
19,7
20,8
21,8
22,8
23,8
24,10
25,10
26,11
27,12
28,13
29,14
30,16
31,21
32,22
33,25
34,26
35,28
36,29
37,32
38,35
39,38
40,39
41,41
42,43
43,45
44,49
45,56
46,59
47,65
48,67
49,74
50,80
51,84
52,90
53,97
54,103
55,111
56,120
57,129
58,139
59,145
60,160
61,175
62,185
63,196
64,212
65,234
66,250
67,267
68,280
69,293
70,305
71,315
72,330
73,353
74,379
75,393
76,419
77,436
78,457
79,479
80,503
