0,1
1,1
2,1
3,1
4,1
5,1
6,1
7,2
8,2
9,2
10,2
11,2
12,3
13,3
14,4
15,4
16,5
17,5
18,5
19,6
20,6
21,6
22,6
23,7
24,7
25,7
26,7
27,8
28,9
29,9
30,10
31,10
32,10
33,12
34,13
35,13
36,13
37,15
38,16
39,16
40,17
41,18
42,19
43,19
44,19
45,19
46,21
47,21
48,21
49,21
50,21
51,23
52,23
53,24
54,24
55,26
56,27
57,27
58,27
59,28
60,29
61,29
62,30
63,30
64,31
65,31
66,32
67,33
68,33
69,33
70,34
71,35
72,36
73,37
74,37
75,38
76,42
77,45
78,46
79,51
80,52
