0,1
1,1
2,1
3,2
4,2
5,2
6,3
7,4
8,5
9,5
10,7
11,7
12,10
13,13
14,19
15,24
16,28
17,36
18,39
19,44
20,50
21,59
22,63
23,81
24,88
25,99
26,110
27,119
28,132
29,153
30,170
31,188
32,202
33,218
34,234
35,258
36,273
37,294
38,322
39,345
40,370
41,392
42,414
43,439
44,466
45,489
46,526
47,549
48,570
49,609
50,638
51,669
52,705
53,738
54,778
55,826
56,878
57,921
58,971
59,1015
60,1070
61,1118
62,1176
63,1225
64,1292
65,1349
66,1414
67,1484
68,1551
69,1646
70,1727
71,1804
72,1889
73,2002
74,2105
75,2214
76,2338
77,2461
78,2594
79,2711
80,2856
