0,1
1,1
2,1
3,1
4,3
5,3
6,3
7,3
8,4
9,6
10,8
11,8
12,8
13,11
14,14
15,18
16,19
17,21
18,22
19,22
20,26
21,29
22,30
23,33
24,35
25,38
26,40
27,45
28,49
29,52
30,55
31,58
32,60
33,64
34,67
35,70
36,73
37,80
38,84
39,88
40,93
41,101
42,106
43,115
44,121
45,131
46,143
47,156
48,167
49,182
50,188
51,211
52,220
53,241
54,258
55,277
56,293
57,316
58,329
59,343
60,370
61,384
62,408
63,430
64,447
65,472
66,496
67,520
68,551
69,586
70,632
71,661
72,702
73,741
74,801
75,850
76,895
77,951
78,1004
79,1067
80,1136
