0,1
1,1
2,1
3,1
4,2
5,3
6,5
7,6
8,7
9,8
10,11
11,13
12,14
13,15
14,17
15,17
16,19
17,21
18,22
19,24
20,26
21,31
22,33
23,35
24,39
25,43
26,48
27,50
28,54
29,56
30,57
31,61
32,67
33,69
34,74
35,76
36,82
37,84
38,91
39,100
40,105
41,110
42,119
43,119
44,124
45,135
46,145
47,153
48,164
49,177
50,186
51,199
52,212
53,223
54,234
55,254
56,270
57,301
58,316
59,339
60,367
61,395
62,415
63,444
64,471
65,498
66,526
67,551
68,590
69,626
70,664
71,689
72,740
73,779
74,826
75,881
76,933
77,983
78,1049
79,1108
80,1168
