0,1
1,1
2,1
3,1
4,2
5,3
6,5
7,6
8,8
9,8
10,12
11,13
12,15
13,15
14,16
15,19
16,23
17,24
18,26
19,30
20,34
21,36
22,41
23,44
24,46
25,51
26,54
27,57
28,59
29,63
30,68
31,71
32,76
33,80
34,85
35,86
36,92
37,96
38,99
39,101
40,108
41,114
42,118
43,122
44,132
45,139
46,152
47,161
48,169
49,180
50,192
51,202
52,216
53,230
54,245
55,256
56,270
57,284
58,306
59,314
60,328
61,352
62,370
63,384
64,401
65,431
66,462
67,483
68,502
69,528
70,557
71,592
72,628
73,666
74,701
75,742
76,779
77,822
78,874
79,924
80,981
