0,1
1,1
2,1
3,1
4,1
5,1
6,4
7,4
8,5
9,6
10,8
11,8
12,9
13,12
14,14
15,20
16,24
17,29
18,34
19,34
20,36
21,41
22,46
23,48
24,50
25,57
26,60
27,63
28,65
29,66
30,71
31,77
32,80
33,81
34,85
35,93
36,96
37,104
38,108
39,114
40,122
41,127
42,129
43,134
44,139
45,146
46,147
47,153
48,166
49,176
50,182
51,188
52,199
53,211
54,220
55,233
56,245
57,254
58,262
59,273
60,282
61,294
62,313
63,328
64,341
65,350
66,371
67,384
68,399
69,418
70,434
71,459
72,485
73,512
74,547
75,585
76,611
77,645
78,675
79,710
80,753
