0,1
1,1
2,1
3,2
4,2
5,2
6,3
7,5
8,5
9,5
10,7
11,7
12,7
13,9
14,11
15,12
16,13
17,15
18,20
19,23
20,24
21,25
22,28
23,31
24,36
25,38
26,41
27,44
28,49
29,52
30,56
31,58
32,61
33,65
34,69
35,72
36,79
37,84
38,92
39,97
40,101
41,108
42,113
43,118
44,124
45,133
46,135
47,145
48,150
49,161
50,169
51,177
52,188
53,195
54,208
55,220
56,230
57,239
58,248
59,261
60,273
61,293
62,303
63,322
64,339
65,358
66,373
67,393
68,418
69,438
70,460
71,490
72,513
73,533
74,563
75,600
76,621
77,651
78,685
79,725
80,763
