0,1
1,1
2,1
3,1
4,2
5,3
6,3
7,3
8,3
9,4
10,6
11,6
12,7
13,7
14,7
15,7
16,7
17,8
18,9
19,9
20,9
21,9
22,9
23,10
24,10
25,11
26,11
27,11
28,11
29,11
30,11
31,11
32,11
33,12
34,12
35,12
36,12
37,12
38,12
39,12
40,13
41,13
42,13
43,13
44,13
45,13
46,13
47,13
48,13
49,15
50,15
51,15
52,15
53,17
54,17
55,18
56,20
57,22
58,24
59,26
60,30
61,33
62,35
63,38
64,42
65,44
66,51
67,51
68,55
69,60
70,70
71,72
72,82
73,86
74,96
75,102
76,112
77,121
78,132
79,150
80,162
