0,1
1,1
2,1
3,2
4,3
5,4
6,5
7,6
8,6
9,8
10,10
11,11
12,13
13,15
14,16
15,20
16,22
17,25
18,29
19,35
20,39
21,42
22,45
23,51
24,53
25,58
26,58
27,68
28,72
29,75
30,79
31,81
32,88
33,93
34,100
35,106
36,113
37,121
38,128
39,135
40,138
41,144
42,154
43,163
44,176
45,185
46,191
47,207
48,215
49,223
50,236
51,243
52,253
53,261
54,265
55,276
56,286
57,297
58,306
59,321
60,331
61,341
62,345
63,358
64,374
65,384
66,397
67,412
68,421
69,437
70,448
71,461
72,478
73,492
74,507
75,526
76,538
77,559
78,573
79,596
80,620
