0,1
1,1
2,1
3,1
4,4
5,4
6,6
7,6
8,8
9,12
10,13
11,13
12,14
13,15
14,17
15,19
16,26
17,30
18,31
19,34
20,37
21,44
22,47
23,54
24,61
25,65
26,74
27,81
28,88
29,98
30,108
31,116
32,120
33,130
34,146
35,155
36,166
37,190
38,200
39,220
40,234
41,250
42,273
43,294
44,321
45,344
46,368
47,392
48,419
49,449
50,477
51,511
52,548
53,579
54,612
55,648
56,685
57,733
58,771
59,818
60,859
61,910
62,967
63,1038
64,1113
65,1180
66,1256
67,1315
68,1390
69,1468
70,1538
71,1630
72,1712
73,1806
74,1896
75,1995
76,2097
77,2216
78,2348
79,2473
80,2637
