0,1
1,1
2,1
3,1
4,1
5,3
6,3
7,4
8,4
9,5
10,6
11,6
12,7
13,7
14,8
15,8
16,9
17,10
18,10
19,12
20,12
21,14
22,16
23,16
24,18
25,18
26,18
27,20
28,22
29,24
30,27
31,27
32,29
33,30
34,32
35,33
36,37
37,40
38,41
39,46
40,50
41,51
42,53
43,59
44,64
45,71
46,75
47,82
48,88
49,98
50,103
51,105
52,114
53,122
54,128
55,140
56,151
57,160
58,171
59,179
60,195
61,207
62,220
63,235
64,247
65,261
66,274
67,292
68,303
69,327
70,345
71,363
72,376
73,393
74,414
75,439
76,458
77,492
78,511
79,544
80,567
