0,1
1,1
2,2
3,2
4,2
5,2
6,5
7,5
8,7
9,8
10,9
11,13
12,16
13,18
14,22
15,30
16,36
17,41
18,43
19,50
20,57
21,65
22,72
23,77
24,88
25,93
26,107
27,117
28,130
29,143
30,152
31,161
32,174
33,191
34,200
35,213
36,223
37,239
38,253
39,266
40,290
41,309
42,332
43,356
44,382
45,400
46,429
47,451
48,482
49,515
50,547
51,590
52,630
53,669
54,714
55,745
56,787
57,845
58,895
59,955
60,1000
61,1063
62,1116
63,1176
64,1236
65,1311
66,1387
67,1470
68,1558
69,1652
70,1743
71,1848
72,1953
73,2086
74,2205
75,2328
76,2474
77,2616
78,2778
79,2945
80,3101
