0,1
1,1
2,1
3,1
4,1
5,2
6,2
7,2
8,4
9,4
10,4
11,4
12,6
13,6
14,6
15,6
16,7
17,7
18,10
19,13
20,14
21,14
22,14
23,15
24,17
25,18
26,19
27,20
28,21
29,22
30,24
31,24
32,28
33,30
34,33
35,34
36,36
37,41
38,45
39,51
40,55
41,58
42,61
43,67
44,70
45,77
46,80
47,84
48,88
49,95
50,99
51,104
52,110
53,112
54,121
55,125
56,132
57,138
58,145
59,150
60,160
61,165
62,172
63,176
64,181
65,188
66,193
67,202
68,207
69,221
70,227
71,239
72,251
73,258
74,269
75,284
76,293
77,306
78,319
79,337
80,348
