0,1
1,1
2,1
3,2
4,2
5,2
6,2
7,3
8,4
9,5
10,5
11,5
12,6
13,6
14,6
15,6
16,7
17,7
18,7
19,8
20,9
21,9
22,9
23,10
24,10
25,10
26,10
27,10
28,12
29,12
30,13
31,13
32,13
33,16
34,18
35,18
36,19
37,21
38,23
39,25
40,29
41,30
42,32
43,33
44,35
45,40
46,44
47,47
48,51
49,55
50,58
51,61
52,63
53,67
54,69
55,75
56,81
57,86
58,94
59,99
60,104
61,110
62,123
63,129
64,136
65,145
66,154
67,167
68,181
69,190
70,204
71,221
72,233
73,248
74,266
75,284
76,297
77,321
78,340
79,355
80,373
