0,1
1,1
2,1
3,1
4,1
5,2
6,2
7,3
8,4
9,6
10,6
11,7
12,7
13,7
14,8
15,8
16,8
17,11
18,11
19,13
20,15
21,15
22,17
23,17
24,17
25,19
26,19
27,19
28,21
29,22
30,22
31,25
32,26
33,29
34,32
35,34
36,35
37,38
38,40
39,41
40,44
41,45
42,46
43,52
44,55
45,60
46,64
47,75
48,78
49,82
50,87
51,90
52,99
53,105
54,108
55,114
56,124
57,133
58,143
59,154
60,165
61,183
62,197
63,209
64,228
65,241
66,265
67,286
68,305
69,325
70,344
71,363
72,390
73,415
74,435
75,461
76,486
77,510
78,552
79,578
80,615
