0,1
1,1
2,1
3,1
4,1
5,2
6,2
7,2
8,2
9,2
10,2
11,2
12,2
13,2
14,3
15,3
16,3
17,3
18,3
19,4
20,4
21,5
22,5
23,5
24,5
25,6
26,8
27,9
28,10
29,10
30,11
31,12
32,13
33,14
34,15
35,15
36,15
37,16
38,16
39,16
40,17
41,17
42,18
43,19
44,21
45,21
46,21
47,21
48,22
49,22
50,22
51,22
52,24
53,25
54,25
55,25
56,25
57,26
58,26
59,27
60,28
61,28
62,28
63,29
64,30
65,32
66,32
67,32
68,32
69,32
70,34
71,37
72,38
73,38
74,39
75,44
76,48
77,51
78,52
79,60
80,62
