0,1
1,1
2,1
3,1
4,2
5,3
6,4
7,4
8,6
9,7
10,7
11,9
12,12
13,17
14,20
15,24
16,27
17,32
18,33
19,47
20,49
21,57
22,60
23,64
24,73
25,78
26,86
27,96
28,103
29,110
30,123
31,133
32,144
33,154
34,162
35,171
36,184
37,193
38,203
39,221
40,236
41,252
42,273
43,298
44,321
45,349
46,380
47,413
48,448
49,490
50,539
51,580
52,632
53,690
54,736
55,793
56,859
57,925
58,995
59,1071
60,1138
61,1221
62,1308
63,1395
64,1495
65,1590
66,1710
67,1831
68,1932
69,2066
70,2194
71,2331
72,2460
73,2590
74,2736
75,2885
76,3055
77,3251
78,3421
79,3589
80,3792
