0,1
1,1
2,1
3,1
4,1
5,1
6,1
7,3
8,3
9,3
10,7
11,10
12,10
13,12
14,14
15,15
16,18
17,20
18,24
19,28
20,38
21,42
22,44
23,45
24,54
25,56
26,58
27,61
28,62
29,65
30,70
31,75
32,78
33,84
34,90
35,96
36,103
37,105
38,111
39,117
40,122
41,129
42,131
43,138
44,147
45,152
46,154
47,162
48,170
49,177
50,186
51,196
52,204
53,213
54,222
55,234
56,241
57,248
58,267
59,278
60,284
61,297
62,313
63,335
64,353
65,369
66,395
67,416
68,435
69,456
70,487
71,513
72,535
73,556
74,584
75,608
76,639
77,665
78,689
79,722
80,756
