0,1
1,1
2,1
3,1
4,1
5,1
6,2
7,2
8,2
9,2
10,2
11,2
12,2
13,3
14,3
15,3
16,3
17,4
18,4
19,4
20,5
21,5
22,5
23,5
24,6
25,6
26,6
27,6
28,7
29,8
30,8
31,8
32,10
33,12
34,13
35,15
36,17
37,19
38,21
39,23
40,24
41,29
42,29
43,29
44,30
45,35
46,36
47,39
48,40
49,45
50,49
51,54
52,54
53,59
54,63
55,64
56,74
57,76
58,79
59,87
60,93
61,99
62,106
63,114
64,122
65,127
66,130
67,137
68,142
69,144
70,150
71,155
72,159
73,167
74,172
75,176
76,181
77,188
78,193
79,197
80,199
