0,1
1,1
2,1
3,1
4,1
5,1
6,2
7,5
8,5
9,5
10,5
11,6
12,6
13,6
14,6
15,7
16,9
17,10
18,10
19,10
20,15
21,18
22,19
23,19
24,22
25,23
26,25
27,25
28,26
29,29
30,31
31,32
32,32
33,32
34,35
35,39
36,42
37,45
38,49
39,53
40,59
41,62
42,67
43,70
44,77
45,82
46,85
47,88
48,93
49,103
50,111
51,118
52,126
53,137
54,148
55,155
56,163
57,176
58,181
59,192
60,206
61,217
62,233
63,247
64,261
65,280
66,305
67,318
68,346
69,376
70,404
71,434
72,468
73,507
74,535
75,585
76,628
77,671
78,715
79,764
80,804
