0,1
1,1
2,1
3,2
4,2
5,2
6,2
7,4
8,6
9,7
10,9
11,11
12,13
13,15
14,18
15,20
16,23
17,25
18,29
19,30
20,30
21,32
22,33
23,33
24,35
25,37
26,38
27,38
28,39
29,42
30,43
31,43
32,45
33,46
34,48
35,53
36,59
37,66
38,70
39,75
40,79
41,87
42,93
43,100
44,107
45,117
46,124
47,138
48,152
49,166
50,179
51,189
52,202
53,221
54,239
55,251
56,268
57,288
58,302
59,321
60,330
61,357
62,374
63,394
64,413
65,440
66,463
67,486
68,518
69,546
70,569
71,592
72,631
73,655
74,685
75,727
76,759
77,798
78,850
79,888
80,924
