0,1
1,1
2,1
3,2
4,3
5,3
6,4
7,7
8,8
9,10
10,10
11,12
12,14
13,19
14,22
15,22
16,26
17,29
18,31
19,32
20,35
21,35
22,40
23,43
24,48
25,50
26,53
27,58
28,64
29,71
30,76
31,80
32,86
33,93
34,98
35,101
36,107
37,111
38,122
39,126
40,129
41,133
42,141
43,150
44,154
45,162
46,167
47,172
48,181
49,194
50,204
51,215
52,227
53,234
54,244
55,257
56,271
57,286
58,296
59,306
60,327
61,342
62,363
63,382
64,409
65,429
66,452
67,484
68,500
69,530
70,558
71,596
72,623
73,660
74,700
75,749
76,791
77,847
78,898
79,961
80,1024
