0,1
1,1
2,1
3,1
4,1
5,1
6,1
7,1
8,2
9,3
10,3
11,3
12,4
13,4
14,5
15,6
16,7
17,11
18,12
19,13
20,16
21,18
22,18
23,20
24,22
25,23
26,23
27,27
28,29
29,30
30,34
31,36
32,39
33,40
34,43
35,44
36,45
37,45
38,47
39,49
40,50
41,52
42,55
43,56
44,59
45,66
46,69
47,71
48,72
49,80
50,83
51,86
52,90
53,91
54,93
55,98
56,100
57,103
58,107
59,112
60,117
61,121
62,128
63,132
64,138
65,145
66,149
67,152
68,156
69,167
70,170
71,180
72,188
73,193
74,202
75,211
76,218
77,236
78,243
79,249
80,258
