0,1
1,1
2,1
3,1
4,1
5,2
6,3
7,3
8,3
9,3
10,3
11,3
12,3
13,3
14,4
15,4
16,4
17,4
18,4
19,5
20,5
21,5
22,5
23,6
24,6
25,6
26,6
27,6
28,6
29,7
30,7
31,7
32,7
33,7
34,7
35,8
36,8
37,8
38,8
39,9
40,9
41,9
42,9
43,13
44,15
45,15
46,16
47,17
48,18
49,20
50,21
51,25
52,28
53,30
54,31
55,31
56,35
57,36
58,41
59,47
60,48
61,53
62,57
63,64
64,69
65,75
66,81
67,87
68,94
69,98
70,100
71,105
72,112
73,120
74,125
75,130
76,138
77,149
78,160
79,171
80,185
