0,1
1,1
2,1
3,1
4,1
5,2
6,2
7,3
8,3
9,3
10,4
11,5
12,6
13,7
14,9
15,12
16,12
17,14
18,17
19,17
20,17
21,17
22,18
23,20
24,23
25,24
26,27
27,29
28,30
29,34
30,35
31,35
32,38
33,40
34,40
35,42
36,45
37,46
38,48
39,50
40,51
41,52
42,53
43,57
44,59
45,61
46,61
47,65
48,69
49,71
50,75
51,76
52,78
53,79
54,82
55,86
56,88
57,90
58,97
59,101
60,102
61,106
62,112
63,115
64,123
65,126
66,131
67,133
68,136
69,140
70,144
71,146
72,150
73,152
74,158
75,163
76,167
77,173
78,180
79,183
80,187
