0,1
1,1
2,1
3,2
4,6
5,8
6,10
7,14
8,15
9,18
10,21
11,26
12,29
13,31
14,34
15,37
16,41
17,41
18,46
19,48
20,50
21,53
22,55
23,57
24,60
25,62
26,65
27,70
28,74
29,79
30,82
31,83
32,87
33,88
34,90
35,92
36,95
37,97
38,101
39,102
40,106
41,110
42,112
43,115
44,121
45,122
46,125
47,128
48,132
49,136
50,138
51,141
52,143
53,145
54,149
55,150
56,150
57,153
58,155
59,158
60,162
61,163
62,164
63,166
64,168
65,168
66,170
67,172
68,174
69,174
70,177
71,183
72,185
73,187
74,188
75,190
76,191
77,191
78,191
79,194
80,195
