0,1
1,1
2,1
3,1
4,1
5,1
6,1
7,1
8,1
9,1
10,2
11,2
12,2
13,2
14,3
15,3
16,3
17,3
18,3
19,3
20,3
21,3
22,3
23,3
24,3
25,3
26,4
27,4
28,4
29,4
30,5
31,6
32,6
33,6
34,7
35,7
36,8
37,9
38,9
39,9
40,10
41,10
42,11
43,12
44,13
45,14
46,15
47,19
48,22
49,24
50,24
51,25
52,25
53,28
54,29
55,30
56,31
57,32
58,33
59,35
60,36
61,38
62,38
63,41
64,41
65,47
66,51
67,53
68,54
69,56
70,59
71,63
72,65
73,69
74,73
75,79
76,80
77,86
78,91
79,95
80,98
