0,1
1,1
2,1
3,1
4,1
5,1
6,1
7,4
8,4
9,4
10,4
11,5
12,5
13,5
14,7
15,7
16,7
17,9
18,11
19,13
20,13
21,16
22,20
23,21
24,21
25,24
26,26
27,30
28,35
29,35
30,37
31,37
32,38
33,44
34,47
35,49
36,51
37,53
38,54
39,56
40,59
41,63
42,66
43,71
44,74
45,83
46,88
47,93
48,100
49,109
50,117
51,120
52,133
53,139
54,146
55,158
56,168
57,182
58,191
59,205
60,215
61,234
62,241
63,256
64,269
65,282
66,291
67,309
68,324
69,340
70,354
71,366
72,377
73,395
74,419
75,441
76,463
77,489
78,513
79,541
80,571
