0,1
1,1
2,1
3,2
4,2
5,2
6,3
7,6
8,8
9,10
10,11
11,13
12,17
13,22
14,25
15,30
16,35
17,39
18,42
19,44
20,48
21,51
22,53
23,55
24,59
25,63
26,65
27,68
28,74
29,75
30,78
31,79
32,80
33,84
34,86
35,90
36,92
37,96
38,100
39,105
40,111
41,115
42,118
43,122
44,127
45,136
46,143
47,149
48,155
49,160
50,169
51,174
52,194
53,212
54,225
55,245
56,256
57,266
58,283
59,315
60,329
61,350
62,369
63,388
64,412
65,437
66,457
67,489
68,523
69,552
70,588
71,620
72,657
73,694
74,732
75,780
76,829
77,880
78,920
79,972
80,1029
