0,1
1,1
2,1
3,1
4,2
5,3
6,3
7,3
8,3
9,3
10,5
11,6
12,6
13,7
14,9
15,10
16,11
17,11
18,14
19,14
20,14
21,15
22,16
23,17
24,20
25,20
26,21
27,23
28,24
29,25
30,26
31,30
32,33
33,34
34,35
35,37
36,37
37,38
38,40
39,44
40,46
41,49
42,51
43,55
44,57
45,64
46,67
47,70
48,75
49,79
50,84
51,89
52,90
53,98
54,104
55,105
56,109
57,113
58,120
59,128
60,131
61,142
62,145
63,150
64,156
65,168
66,175
67,185
68,196
69,206
70,222
71,239
72,250
73,262
74,276
75,296
76,312
77,330
78,343
79,359
80,369
