0,1
1,1
2,1
3,1
4,1
5,2
6,2
7,3
8,3
9,3
10,5
11,6
12,7
13,10
14,11
15,15
16,16
17,18
18,20
19,23
20,24
21,28
22,32
23,34
24,38
25,42
26,45
27,46
28,51
29,54
30,60
31,62
32,71
33,75
34,77
35,81
36,83
37,87
38,92
39,96
40,105
41,112
42,117
43,124
44,131
45,134
46,142
47,155
48,165
49,172
50,177
51,190
52,197
53,209
54,226
55,242
56,251
57,267
58,287
59,310
60,330
61,350
62,378
63,404
64,419
65,452
66,478
67,505
68,526
69,559
70,584
71,614
72,648
73,678
74,715
75,745
76,777
77,816
78,849
79,893
80,934
