0,1
1,1
2,1
3,1
4,1
5,1
6,1
7,2
8,2
9,2
10,3
11,6
12,8
13,10
14,10
15,11
16,11
17,13
18,15
19,15
20,15
21,16
22,16
23,18
24,18
25,18
26,19
27,21
28,24
29,25
30,26
31,30
32,38
33,39
34,43
35,46
36,54
37,56
38,58
39,60
40,63
41,65
42,71
43,74
44,81
45,84
46,91
47,95
48,101
49,104
50,111
51,117
52,118
53,123
54,131
55,137
56,149
57,156
58,163
59,171
60,180
61,187
62,194
63,200
64,207
65,220
66,227
67,242
68,256
69,269
70,290
71,306
72,316
73,337
74,355
75,377
76,398
77,410
78,421
79,436
80,451
