0,1
1,1
2,1
3,1
4,2
5,2
6,3
7,3
8,5
9,5
10,6
11,7
12,7
13,8
14,10
15,12
16,12
17,14
18,17
19,17
20,24
21,29
22,32
23,38
24,45
25,52
26,58
27,62
28,75
29,78
30,86
31,97
32,107
33,122
34,129
35,143
36,149
37,165
38,181
39,188
40,209
41,230
42,249
43,266
44,291
45,309
46,331
47,353
48,376
49,405
50,435
51,461
52,483
53,507
54,543
55,577
56,591
57,613
58,651
59,694
60,736
61,772
62,799
63,844
64,886
65,932
66,981
67,1034
68,1081
69,1139
70,1187
71,1241
72,1310
73,1369
74,1443
75,1517
76,1592
77,1672
78,1754
79,1848
80,1933
