0,1
1,1
2,1
3,1
4,2
5,2
6,2
7,3
8,5
9,7
10,7
11,8
12,11
13,12
14,13
15,14
16,16
17,24
18,26
19,28
20,30
21,33
22,37
23,38
24,41
25,44
26,47
27,51
28,58
29,60
30,62
31,66
32,73
33,77
34,83
35,88
36,92
37,97
38,106
39,111
40,118
41,124
42,129
43,139
44,150
45,160
46,173
47,188
48,198
49,210
50,222
51,238
52,253
53,271
54,282
55,298
56,318
57,338
58,358
59,379
60,404
61,423
62,445
63,478
64,505
65,530
66,560
67,597
68,640
69,671
70,710
71,751
72,796
73,835
74,875
75,936
76,983
77,1047
78,1097
79,1170
80,1251
