0,1
1,1
2,2
3,2
4,2
5,2
6,2
7,5
8,7
9,7
10,8
11,8
12,9
13,9
14,10
15,12
16,13
17,14
18,15
19,16
20,17
21,17
22,19
23,21
24,25
25,27
26,29
27,30
28,33
29,37
30,40
31,41
32,42
33,43
34,45
35,46
36,53
37,55
38,57
39,59
40,63
41,65
42,70
43,74
44,78
45,82
46,87
47,90
48,96
49,101
50,108
51,114
52,121
53,125
54,126
55,132
56,139
57,142
58,148
59,152
60,159
61,163
62,170
63,171
64,183
65,192
66,198
67,202
68,204
69,210
70,221
71,229
72,232
73,239
74,247
75,260
76,266
77,274
78,283
79,299
80,306
