0,1
1,1
2,1
3,1
4,1
5,3
6,3
7,4
8,4
9,5
10,6
11,8
12,9
13,9
14,10
15,11
16,14
17,15
18,15
19,16
20,18
21,20
22,24
23,29
24,31
25,32
26,34
27,36
28,40
29,42
30,44
31,45
32,53
33,55
34,59
35,61
36,66
37,69
38,73
39,83
40,90
41,99
42,102
43,107
44,114
45,120
46,130
47,138
48,141
49,149
50,156
51,164
52,172
53,179
54,188
55,195
56,202
57,208
58,215
59,223
60,231
61,238
62,240
63,249
64,255
65,271
66,277
67,286
68,290
69,301
70,313
71,319
72,331
73,338
74,349
75,354
76,365
77,374
78,384
79,395
80,406
