0,1
1,1
2,1
3,2
4,2
5,3
6,3
7,3
8,4
9,4
10,5
11,5
12,6
13,6
14,7
15,9
16,12
17,14
18,18
19,25
20,28
21,33
22,39
23,45
24,51
25,58
26,65
27,70
28,74
29,85
30,92
31,102
32,115
33,130
34,141
35,152
36,170
37,181
38,201
39,213
40,235
41,249
42,270
43,290
44,319
45,340
46,362
47,385
48,411
49,448
50,479
51,509
52,545
53,579
54,618
55,664
56,707
57,750
58,793
59,854
60,906
61,957
62,1008
63,1063
64,1118
65,1177
66,1232
67,1297
68,1363
69,1435
70,1516
71,1580
72,1668
73,1744
74,1826
75,1921
76,2014
77,2117
78,2232
79,2348
80,2469
