0,1
1,1
2,1
3,1
4,1
5,1
6,1
7,2
8,2
9,2
10,2
11,2
12,3
13,3
14,3
15,3
16,3
17,4
18,4
19,4
20,4
21,5
22,5
23,5
24,6
25,6
26,6
27,6
28,7
29,9
30,9
31,12
32,13
33,14
34,15
35,19
36,22
37,25
38,28
39,32
40,37
41,47
42,52
43,57
44,72
45,81
46,89
47,105
48,118
49,128
50,141
51,162
52,173
53,193
54,219
55,238
56,252
57,271
58,293
59,315
60,335
61,350
62,375
63,399
64,431
65,456
66,481
67,514
68,557
69,594
70,641
71,690
72,730
73,775
74,819
75,884
76,955
77,1010
78,1082
79,1153
80,1234
