0,1
1,1
2,1
3,1
4,1
5,2
6,2
7,2
8,3
9,4
10,4
11,5
12,7
13,7
14,7
15,7
16,8
17,8
18,9
19,11
20,11
21,12
22,13
23,13
24,14
25,16
26,16
27,16
28,17
29,17
30,20
31,20
32,20
33,21
34,22
35,25
36,26
37,28
38,28
39,31
40,32
41,38
42,39
43,40
44,44
45,45
46,45
47,49
48,50
49,52
50,56
51,58
52,60
53,61
54,64
55,66
56,68
57,78
58,86
59,89
60,92
61,94
62,113
63,120
64,125
65,129
66,139
67,143
68,160
69,174
70,187
71,193
72,205
73,212
74,224
75,247
76,264
77,282
78,303
79,326
80,347
