0,1
1,1
2,1
3,1
4,1
5,1
6,1
7,2
8,2
9,2
10,2
11,2
12,2
13,3
14,3
15,4
16,4
17,4
18,4
19,5
20,5
21,5
22,5
23,5
24,6
25,6
26,6
27,8
28,9
29,9
30,9
31,11
32,13
33,13
34,14
35,15
36,18
37,20
38,22
39,27
40,32
41,35
42,45
43,49
44,52
45,60
46,62
47,67
48,73
49,77
50,86
51,90
52,98
53,103
54,109
55,116
56,123
57,130
58,138
59,143
60,154
61,164
62,175
63,182
64,193
65,204
66,211
67,227
68,240
69,256
70,262
71,279
72,308
73,321
74,341
75,363
76,394
77,414
78,437
79,458
80,487
