0,1
1,1
2,1
3,1
4,1
5,1
6,1
7,2
8,2
9,3
10,3
11,3
12,4
13,4
14,4
15,6
16,9
17,11
18,12
19,14
20,19
21,20
22,23
23,24
24,25
25,29
26,31
27,32
28,33
29,33
30,36
31,41
32,43
33,44
34,44
35,45
36,49
37,50
38,52
39,55
40,55
41,58
42,60
43,63
44,63
45,66
46,66
47,68
48,68
49,69
50,71
51,71
52,72
53,74
54,77
55,78
56,79
57,80
58,83
59,87
60,88
61,91
62,92
63,97
64,97
65,100
66,103
67,106
68,108
69,110
70,111
71,114
72,120
73,123
74,127
75,135
76,138
77,141
78,149
79,154
80,159
