0,1
1,1
2,1
3,2
4,2
5,2
6,3
7,4
8,5
9,5
10,6
11,7
12,10
13,10
14,11
15,11
16,11
17,11
18,13
19,14
20,15
21,18
22,20
23,23
24,25
25,27
26,29
27,30
28,34
29,35
30,37
31,39
32,40
33,42
34,45
35,47
36,47
37,52
38,53
39,58
40,60
41,61
42,64
43,66
44,72
45,76
46,80
47,87
48,92
49,97
50,100
51,104
52,107
53,110
54,117
55,125
56,130
57,137
58,145
59,154
60,160
61,166
62,171
63,175
64,184
65,191
66,198
67,208
68,219
69,229
70,238
71,248
72,259
73,268
74,274
75,287
76,300
77,318
78,338
79,351
80,367
