0,1
1,1
2,1
3,1
4,2
5,3
6,3
7,5
8,5
9,6
10,6
11,7
12,7
13,7
14,7
15,7
16,7
17,8
18,8
19,8
20,8
21,8
22,8
23,9
24,9
25,9
26,10
27,10
28,10
29,11
30,12
31,12
32,12
33,13
34,14
35,14
36,14
37,15
38,15
39,15
40,16
41,16
42,18
43,19
44,19
45,19
46,19
47,21
48,23
49,24
50,24
51,24
52,24
53,27
54,28
55,28
56,28
57,29
58,29
59,30
60,31
61,32
62,33
63,34
64,37
65,40
66,43
67,46
68,48
69,48
70,50
71,53
72,61
73,65
74,68
75,71
76,76
77,83
78,87
79,90
80,97
