0,1
1,1
2,1
3,1
4,1
5,1
6,1
7,1
8,2
9,2
10,2
11,3
12,3
13,3
14,3
15,4
16,4
17,4
18,4
19,4
20,5
21,5
22,7
23,7
24,7
25,7
26,8
27,8
28,8
29,8
30,8
31,8
32,8
33,8
34,8
35,9
36,9
37,9
38,9
39,10
40,10
41,10
42,10
43,11
44,12
45,12
46,12
47,14
48,16
49,16
50,19
51,19
52,22
53,22
54,22
55,24
56,27
57,28
58,28
59,31
60,33
61,35
62,40
63,48
64,53
65,56
66,59
67,62
68,64
69,72
70,79
71,85
72,92
73,99
74,105
75,118
76,125
77,131
78,141
79,154
80,168
