0,1
1,1
2,2
3,2
4,3
5,3
6,3
7,3
8,3
9,4
10,5
11,6
12,6
13,6
14,9
15,13
16,13
17,19
18,21
19,22
20,25
21,27
22,34
23,38
24,42
25,49
26,56
27,61
28,66
29,76
30,84
31,89
32,96
33,107
34,114
35,121
36,127
37,136
38,141
39,154
40,169
41,176
42,185
43,195
44,210
45,226
46,239
47,258
48,270
49,286
50,304
51,328
52,345
53,364
54,383
55,406
56,430
57,462
58,489
59,519
60,549
61,576
62,610
63,655
64,691
65,742
66,779
67,818
68,854
69,905
70,950
71,999
72,1065
73,1119
74,1166
75,1226
76,1292
77,1366
78,1432
79,1492
80,1571
