0,1
1,1
2,1
3,1
4,2
5,2
6,3
7,4
8,4
9,5
10,6
11,8
12,10
13,11
14,11
15,11
16,11
17,14
18,16
19,18
20,19
21,24
22,25
23,28
24,31
25,35
26,38
27,40
28,48
29,51
30,52
31,55
32,57
33,62
34,66
35,69
36,71
37,74
38,79
39,84
40,85
41,90
42,92
43,93
44,99
45,100
46,107
47,112
48,117
49,121
50,125
51,129
52,137
53,143
54,149
55,158
56,166
57,173
58,187
59,197
60,208
61,229
62,236
63,256
64,276
65,287
66,302
67,328
68,355
69,376
70,390
71,405
72,441
73,472
74,496
75,517
76,546
77,568
78,595
79,624
80,657
