0,1
1,1
2,1
3,1
4,1
5,1
6,2
7,3
8,4
9,6
10,6
11,6
12,9
13,9
14,9
15,9
16,10
17,11
18,13
19,14
20,14
21,14
22,15
23,15
24,15
25,15
26,15
27,16
28,17
29,17
30,17
31,17
32,19
33,20
34,20
35,23
36,25
37,26
38,28
39,31
40,34
41,37
42,38
43,42
44,45
45,49
46,53
47,58
48,62
49,64
50,67
51,70
52,76
53,82
54,84
55,88
56,92
57,96
58,100
59,106
60,111
61,114
62,122
63,132
64,140
65,148
66,153
67,158
68,163
69,173
70,181
71,190
72,199
73,205
74,216
75,227
76,237
77,249
78,262
79,275
80,300
