0,1
1,1
2,1
3,1
4,1
5,2
6,2
7,2
8,3
9,3
10,4
11,5
12,5
13,5
14,6
15,9
16,10
17,12
18,16
19,18
20,22
21,23
22,25
23,28
24,32
25,35
26,39
27,42
28,44
29,48
30,52
31,54
32,60
33,63
34,69
35,72
36,77
37,82
38,92
39,101
40,114
41,122
42,134
43,149
44,162
45,180
46,198
47,217
48,241
49,259
50,287
51,312
52,336
53,356
54,384
55,408
56,433
57,456
58,482
59,516
60,535
61,576
62,601
63,621
64,653
65,682
66,716
67,761
68,803
69,842
70,879
71,911
72,964
73,1012
74,1051
75,1101
76,1150
77,1215
78,1268
79,1326
80,1382
