0,1
1,1
2,1
3,1
4,1
5,1
6,1
7,2
8,2
9,2
10,2
11,2
12,2
13,2
14,3
15,3
16,4
17,5
18,6
19,7
20,7
21,8
22,12
23,13
24,13
25,13
26,15
27,16
28,16
29,19
30,20
31,22
32,27
33,29
34,29
35,31
36,34
37,34
38,36
39,38
40,38
41,38
42,42
43,43
44,43
45,45
46,47
47,49
48,50
49,53
50,56
51,57
52,65
53,68
54,68
55,73
56,78
57,85
58,85
59,88
60,93
61,96
62,99
63,100
64,105
65,110
66,112
67,116
68,120
69,122
70,124
71,129
72,134
73,135
74,139
75,141
76,144
77,150
78,152
79,154
80,158
