0,1
1,1
2,1
3,1
4,3
5,3
6,3
7,3
8,4
9,4
10,4
11,4
12,6
13,7
14,8
15,9
16,9
17,10
18,10
19,12
20,13
21,15
22,15
23,15
24,15
25,18
26,19
27,20
28,20
29,20
30,22
31,24
32,25
33,25
34,26
35,27
36,28
37,28
38,32
39,32
40,35
41,38
42,38
43,41
44,44
45,51
46,52
47,54
48,57
49,62
50,62
51,63
52,66
53,70
54,71
55,71
56,71
57,73
58,73
59,73
60,75
61,75
62,75
63,75
64,78
65,78
66,79
67,80
68,80
69,82
70,83
71,84
72,86
73,87
74,89
75,89
76,91
77,95
78,95
79,97
80,99
