0,1
1,1
2,1
3,1
4,1
5,4
6,4
7,4
8,4
9,5
10,5
11,7
12,7
13,8
14,10
15,12
16,13
17,15
18,18
19,19
20,22
21,22
22,22
23,25
24,27
25,31
26,31
27,32
28,33
29,36
30,37
31,39
32,40
33,43
34,44
35,46
36,47
37,49
38,51
39,51
40,53
41,58
42,59
43,60
44,62
45,66
46,70
47,74
48,76
49,80
50,82
51,86
52,89
53,92
54,93
55,96
56,100
57,102
58,103
59,105
60,111
61,113
62,116
63,121
64,123
65,128
66,133
67,133
68,140
69,148
70,152
71,159
72,174
73,180
74,184
75,195
76,201
77,214
78,220
79,228
80,237
