0,1
1,1
2,1
3,1
4,4
5,4
6,4
7,5
8,5
9,6
10,6
11,6
12,6
13,8
14,9
15,9
16,9
17,10
18,10
19,10
20,10
21,11
22,11
23,12
24,12
25,12
26,13
27,13
28,14
29,16
30,16
31,17
32,18
33,21
34,23
35,24
36,26
37,26
38,28
39,30
40,31
41,31
42,31
43,37
44,38
45,39
46,40
47,41
48,44
49,46
50,50
51,50
52,52
53,59
54,64
55,67
56,70
57,74
58,78
59,82
60,84
61,88
62,88
63,90
64,93
65,98
66,100
67,100
68,103
69,107
70,109
71,109
72,109
73,110
74,111
75,113
76,116
77,118
78,120
79,121
80,122
