0,1
1,1
2,1
3,1
4,1
5,1
6,2
7,2
8,2
9,2
10,3
11,3
12,3
13,5
14,6
15,6
16,6
17,6
18,6
19,6
20,6
21,8
22,8
23,8
24,10
25,11
26,11
27,12
28,12
29,12
30,13
31,14
32,14
33,14
34,14
35,14
36,15
37,16
38,16
39,16
40,16
41,16
42,17
43,17
44,17
45,18
46,19
47,22
48,25
49,25
50,26
51,26
52,28
53,29
54,30
55,30
56,31
57,31
58,32
59,34
60,37
61,38
62,39
63,39
64,39
65,42
66,43
67,44
68,44
69,45
70,49
71,51
72,53
73,56
74,61
75,65
76,68
77,71
78,73
79,80
80,87
