0,1
1,1
2,1
3,2
4,3
5,4
6,6
7,11
8,12
9,13
10,14
11,16
12,17
13,19
14,23
15,24
16,26
17,28
18,32
19,37
20,41
21,42
22,45
23,45
24,46
25,50
26,52
27,59
28,64
29,67
30,69
31,73
32,80
33,91
34,95
35,103
36,107
37,114
38,119
39,128
40,139
41,153
42,162
43,176
44,188
45,204
46,213
47,224
48,242
49,254
50,270
51,284
52,304
53,323
54,346
55,377
56,399
57,432
58,452
59,492
60,534
61,575
62,616
63,654
64,703
65,752
66,801
67,851
68,893
69,946
70,1000
71,1060
72,1119
73,1192
74,1254
75,1323
76,1396
77,1475
78,1538
79,1634
80,1737
