0,1
1,1
2,1
3,1
4,1
5,3
6,4
7,4
8,5
9,5
10,5
11,6
12,7
13,9
14,10
15,10
16,12
17,14
18,15
19,16
20,17
21,17
22,17
23,18
24,20
25,22
26,22
27,23
28,24
29,28
30,33
31,37
32,40
33,45
34,47
35,51
36,54
37,57
38,65
39,69
40,71
41,80
42,86
43,92
44,103
45,115
46,130
47,144
48,155
49,173
50,181
51,192
52,205
53,227
54,245
55,265
56,288
57,314
58,346
59,370
60,393
61,428
62,467
63,496
64,533
65,572
66,620
67,673
68,723
69,761
70,804
71,843
72,901
73,957
74,1017
75,1081
76,1144
77,1196
78,1264
79,1356
80,1415
