0,1
1,1
2,1
3,1
4,3
5,4
6,6
7,6
8,9
9,10
10,12
11,12
12,14
13,16
14,19
15,24
16,26
17,31
18,32
19,37
20,40
21,44
22,53
23,60
24,69
25,75
26,82
27,89
28,92
29,105
30,115
31,125
32,137
33,154
34,162
35,176
36,189
37,199
38,210
39,231
40,247
41,263
42,281
43,306
44,331
45,354
46,376
47,404
48,424
49,447
50,481
51,509
52,539
53,571
54,604
55,640
56,683
57,733
58,778
59,826
60,868
61,929
62,991
63,1041
64,1103
65,1161
66,1222
67,1284
68,1358
69,1421
70,1509
71,1576
72,1675
73,1775
74,1863
75,1956
76,2070
77,2189
78,2298
79,2425
80,2548
