0,1
1,1
2,1
3,1
4,1
5,2
6,2
7,2
8,2
9,3
10,3
11,3
12,3
13,7
14,9
15,9
16,10
17,14
18,14
19,18
20,19
21,21
22,26
23,29
24,31
25,34
26,39
27,41
28,43
29,44
30,49
31,54
32,56
33,63
34,63
35,66
36,72
37,74
38,75
39,78
40,79
41,80
42,89
43,96
44,100
45,101
46,106
47,112
48,116
49,123
50,130
51,133
52,144
53,155
54,168
55,174
56,183
57,195
58,203
59,213
60,222
61,235
62,243
63,262
64,274
65,287
66,297
67,312
68,327
69,341
70,359
71,379
72,394
73,412
74,432
75,451
76,477
77,506
78,529
79,562
80,588
