0,1
1,1
2,1
3,1
4,1
5,1
6,1
7,2
8,2
9,2
10,2
11,2
12,2
13,3
14,3
15,4
16,4
17,4
18,5
19,5
20,5
21,6
22,6
23,6
24,8
25,10
26,11
27,14
28,15
29,15
30,20
31,22
32,23
33,28
34,32
35,36
36,39
37,41
38,45
39,48
40,55
41,55
42,56
43,58
44,59
45,62
46,67
47,71
48,75
49,79
50,81
51,87
52,91
53,96
54,99
55,105
56,109
57,122
58,126
59,134
60,146
61,163
62,175
63,188
64,203
65,214
66,228
67,244
68,258
69,276
70,299
71,322
72,342
73,362
74,384
75,414
76,438
77,468
78,498
79,528
80,562
