0,1
1,1
2,1
3,1
4,2
5,2
6,2
7,2
8,3
9,4
10,4
11,4
12,4
13,5
14,5
15,8
16,10
17,10
18,12
19,14
20,16
21,18
22,22
23,25
24,27
25,33
26,36
27,40
28,44
29,50
30,55
31,61
32,64
33,73
34,80
35,89
36,101
37,116
38,126
39,137
40,149
41,167
42,180
43,194
44,206
45,228
46,245
47,272
48,294
49,315
50,330
51,346
52,369
53,395
54,421
55,443
56,466
57,495
58,525
59,549
60,579
61,607
62,637
63,663
64,702
65,734
66,771
67,797
68,826
69,868
70,907
71,951
72,995
73,1068
74,1112
75,1165
76,1212
77,1268
78,1337
79,1384
80,1460
