0,1
1,1
2,1
3,1
4,2
5,3
6,3
7,3
8,3
9,5
10,5
11,7
12,7
13,7
14,10
15,10
16,11
17,13
18,13
19,18
20,24
21,27
22,29
23,31
24,33
25,36
26,38
27,41
28,47
29,49
30,52
31,57
32,58
33,61
34,65
35,68
36,71
37,76
38,84
39,88
40,94
41,103
42,106
43,110
44,114
45,126
46,137
47,142
48,146
49,150
50,160
51,165
52,172
53,173
54,180
55,184
56,189
57,197
58,199
59,204
60,208
61,217
62,222
63,226
64,229
65,238
66,246
67,255
68,264
69,271
70,275
71,282
72,289
73,292
74,293
75,303
76,312
77,321
78,323
79,331
80,337
