0,1
1,1
2,1
3,1
4,1
5,1
6,1
7,1
8,2
9,2
10,2
11,3
12,8
13,8
14,10
15,11
16,13
17,19
18,23
19,28
20,32
21,37
22,41
23,45
24,47
25,51
26,57
27,62
28,68
29,75
30,81
31,92
32,100
33,109
34,117
35,129
36,144
37,154
38,170
39,182
40,200
41,216
42,236
43,264
44,283
45,308
46,327
47,351
48,380
49,410
50,441
51,472
52,502
53,528
54,567
55,608
56,649
57,687
58,736
59,780
60,841
61,912
62,982
63,1053
64,1126
65,1205
66,1278
67,1374
68,1452
69,1548
70,1647
71,1748
72,1867
73,1987
74,2122
75,2248
76,2366
77,2507
78,2669
79,2839
80,3023
