0,1
1,1
2,1
3,1
4,1
5,1
6,4
7,4
8,6
9,6
10,7
11,8
12,9
13,9
14,13
15,15
16,16
17,17
18,18
19,21
20,22
21,24
22,29
23,31
24,31
25,33
26,37
27,39
28,42
29,43
30,49
31,52
32,57
33,61
34,63
35,65
36,68
37,69
38,75
39,81
40,83
41,83
42,87
43,92
44,94
45,100
46,102
47,107
48,115
49,118
50,123
51,132
52,136
53,143
54,147
55,154
56,158
57,165
58,168
59,174
60,180
61,189
62,200
63,205
64,216
65,226
66,234
67,240
68,248
69,257
70,265
71,278
72,288
73,302
74,312
75,320
76,333
77,350
78,364
79,377
80,388
