0,1
1,1
2,1
3,2
4,2
5,2
6,4
7,5
8,6
9,7
10,10
11,11
12,14
13,16
14,18
15,21
16,25
17,29
18,32
19,39
20,42
21,47
22,54
23,61
24,66
25,80
26,88
27,96
28,101
29,112
30,122
31,131
32,140
33,155
34,164
35,175
36,190
37,208
38,225
39,252
40,267
41,293
42,314
43,338
44,369
45,400
46,430
47,457
48,499
49,521
50,552
51,583
52,620
53,660
54,699
55,750
56,794
57,838
58,891
59,935
60,971
61,1034
62,1097
63,1172
64,1244
65,1319
66,1404
67,1471
68,1565
69,1656
70,1766
71,1885
72,2004
73,2140
74,2277
75,2422
76,2574
77,2726
78,2887
79,3068
80,3268
