0,1
1,1
2,1
3,1
4,2
5,2
6,3
7,3
8,4
9,4
10,5
11,5
12,5
13,7
14,7
15,8
16,8
17,9
18,9
19,11
20,11
21,12
22,13
23,13
24,13
25,13
26,14
27,16
28,20
29,22
30,22
31,23
32,26
33,27
34,29
35,32
36,38
37,38
38,40
39,42
40,43
41,46
42,49
43,51
44,61
45,65
46,69
47,73
48,81
49,84
50,89
51,96
52,100
53,102
54,104
55,111
56,116
57,119
58,126
59,134
60,143
61,148
62,156
63,166
64,186
65,198
66,214
67,233
68,249
69,271
70,291
71,314
72,344
73,368
74,392
75,409
76,437
77,458
78,487
79,515
80,539
