0,1
1,1
2,1
3,2
4,3
5,4
6,5
7,8
8,11
9,14
10,16
11,17
12,18
13,18
14,20
15,22
16,22
17,22
18,23
19,24
20,24
21,24
22,28
23,30
24,32
25,34
26,36
27,37
28,38
29,43
30,47
31,53
32,56
33,62
34,68
35,73
36,76
37,81
38,87
39,92
40,98
41,105
42,115
43,115
44,126
45,131
46,138
47,144
48,148
49,150
50,161
51,168
52,173
53,184
54,196
55,208
56,220
57,228
58,236
59,249
60,261
61,277
62,284
63,297
64,313
65,334
66,348
67,369
68,390
69,402
70,420
71,447
72,470
73,495
74,515
75,541
76,561
77,595
78,619
79,646
80,679
