0,1
1,1
2,1
3,2
4,3
5,5
6,6
7,9
8,13
9,17
10,18
11,20
12,25
13,31
14,35
15,38
16,43
17,47
18,52
19,58
20,68
21,78
22,88
23,101
24,110
25,124
26,137
27,155
28,173
29,194
30,215
31,238
32,264
33,281
34,305
35,331
36,362
37,393
38,426
39,458
40,490
41,526
42,559
43,591
44,626
45,657
46,698
47,729
48,766
49,811
50,842
51,885
52,925
53,969
54,1013
55,1063
56,1125
57,1171
58,1243
59,1303
60,1377
61,1442
62,1522
63,1601
64,1667
65,1760
66,1842
67,1919
68,2013
69,2107
70,2204
71,2311
72,2434
73,2558
74,2691
75,2829
76,2955
77,3085
78,3223
79,3387
80,3516
