0,1
1,1
2,1
3,1
4,2
5,3
6,3
7,4
8,4
9,6
10,6
11,6
12,8
13,9
14,9
15,10
16,11
17,12
18,13
19,14
20,16
21,17
22,17
23,18
24,20
25,22
26,23
27,26
28,28
29,30
30,36
31,36
32,38
33,39
34,42
35,46
36,50
37,51
38,54
39,56
40,60
41,62
42,64
43,71
44,74
45,74
46,76
47,80
48,83
49,85
50,86
51,87
52,89
53,89
54,90
55,92
56,94
57,95
58,95
59,99
60,99
61,100
62,102
63,104
64,107
65,110
66,113
67,116
68,122
69,131
70,139
71,143
72,151
73,163
74,172
75,182
76,186
77,198
78,209
79,219
80,237
