0,1
1,1
2,1
3,1
4,1
5,1
6,1
7,1
8,2
9,2
10,2
11,3
12,3
13,4
14,6
15,9
16,10
17,13
18,15
19,17
20,19
21,25
22,26
23,27
24,29
25,29
26,31
27,33
28,34
29,36
30,38
31,41
32,46
33,52
34,56
35,62
36,71
37,76
38,88
39,95
40,106
41,116
42,124
43,139
44,152
45,169
46,191
47,203
48,222
49,246
50,264
51,290
52,314
53,335
54,369
55,398
56,431
57,456
58,486
59,517
60,548
61,583
62,632
63,668
64,703
65,751
66,790
67,833
68,876
69,936
70,993
71,1056
72,1109
73,1177
74,1248
75,1324
76,1386
77,1477
78,1567
79,1647
80,1742
