0,1
1,1
2,1
3,1
4,2
5,2
6,5
7,5
8,5
9,8
10,10
11,11
12,15
13,15
14,17
15,17
16,19
17,19
18,20
19,21
20,23
21,23
22,25
23,27
24,31
25,32
26,37
27,39
28,41
29,44
30,48
31,49
32,50
33,53
34,56
35,58
36,58
37,61
38,66
39,70
40,72
41,74
42,79
43,87
44,90
45,92
46,101
47,105
48,107
49,110
50,114
51,121
52,133
53,136
54,138
55,147
56,153
57,160
58,167
59,173
60,178
61,183
62,192
63,198
64,202
65,204
66,209
67,215
68,224
69,232
70,238
71,243
72,249
73,257
74,264
75,266
76,272
77,274
78,281
79,287
80,298
