0,1
1,1
2,1
3,1
4,2
5,2
6,2
7,2
8,2
9,2
10,2
11,2
12,3
13,3
14,3
15,3
16,3
17,3
18,3
19,5
20,5
21,5
22,5
23,6
24,6
25,6
26,8
27,8
28,8
29,8
30,10
31,11
32,11
33,11
34,12
35,13
36,13
37,13
38,14
39,16
40,19
41,20
42,21
43,21
44,23
45,24
46,26
47,27
48,29
49,29
50,29
51,32
52,34
53,36
54,38
55,38
56,40
57,42
58,43
59,45
60,49
61,49
62,51
63,54
64,58
65,60
66,65
67,69
68,76
69,82
70,84
71,90
72,95
73,101
74,109
75,112
76,116
77,125
78,138
79,147
80,162
