0,1
1,1
2,1
3,1
4,1
5,1
6,3
7,4
8,4
9,4
10,5
11,6
12,6
13,8
14,9
15,11
16,12
17,12
18,13
19,16
20,16
21,19
22,20
23,21
24,24
25,26
26,29
27,32
28,34
29,37
30,39
31,44
32,48
33,50
34,53
35,56
36,62
37,66
38,70
39,72
40,82
41,85
42,89
43,98
44,103
45,109
46,116
47,119
48,126
49,133
50,140
51,148
52,153
53,167
54,177
55,183
56,194
57,202
58,218
59,233
60,246
61,263
62,283
63,296
64,313
65,333
66,352
67,385
68,411
69,437
70,467
71,502
72,543
73,584
74,616
75,654
76,694
77,735
78,779
79,831
80,882
