0,1
1,1
2,1
3,2
4,4
5,5
6,7
7,7
8,11
9,12
10,14
11,17
12,20
13,23
14,28
15,32
16,40
17,45
18,49
19,55
20,62
21,79
22,90
23,102
24,110
25,121
26,139
27,153
28,170
29,186
30,201
31,222
32,239
33,260
34,281
35,300
36,321
37,340
38,361
39,378
40,402
41,422
42,445
43,465
44,490
45,514
46,537
47,556
48,589
49,623
50,654
51,683
52,725
53,755
54,802
55,836
56,889
57,936
58,989
59,1045
60,1119
61,1177
62,1254
63,1326
64,1389
65,1475
66,1567
67,1668
68,1775
69,1865
70,1975
71,2096
72,2232
73,2351
74,2479
75,2626
76,2784
77,2948
78,3140
79,3334
80,3513
