0,1
1,1
2,1
3,2
4,2
5,2
6,3
7,5
8,5
9,5
10,7
11,9
12,13
13,15
14,19
15,22
16,26
17,33
18,38
19,39
20,43
21,47
22,51
23,55
24,62
25,68
26,79
27,83
28,90
29,94
30,100
31,107
32,115
33,123
34,127
35,130
36,135
37,142
38,149
39,159
40,167
41,176
42,183
43,190
44,198
45,209
46,226
47,238
48,255
49,266
50,281
51,292
52,304
53,312
54,328
55,344
56,358
57,370
58,382
59,403
60,422
61,447
62,467
63,487
64,513
65,538
66,566
67,587
68,608
69,637
70,672
71,712
72,743
73,770
74,806
75,848
76,894
77,942
78,992
79,1044
80,1102
