0,1
1,1
2,1
3,1
4,1
5,1
6,1
7,1
8,2
9,2
10,2
11,2
12,2
13,4
14,4
15,4
16,4
17,6
18,6
19,6
20,7
21,8
22,11
23,13
24,14
25,16
26,18
27,21
28,23
29,28
30,32
31,35
32,40
33,45
34,49
35,54
36,61
37,64
38,68
39,71
40,78
41,83
42,85
43,86
44,87
45,96
46,100
47,106
48,112
49,114
50,120
51,126
52,133
53,139
54,148
55,153
56,159
57,172
58,178
59,190
60,197
61,205
62,217
63,240
64,251
65,267
66,282
67,304
68,322
69,344
70,365
71,391
72,419
73,454
74,489
75,520
76,551
77,582
78,620
79,659
80,707
