0,1
1,1
2,1
3,1
4,2
5,2
6,3
7,5
8,5
9,5
10,6
11,6
12,8
13,8
14,9
15,10
16,11
17,14
18,14
19,17
20,19
21,24
22,26
23,30
24,33
25,39
26,42
27,44
28,49
29,54
30,59
31,64
32,68
33,75
34,78
35,83
36,95
37,100
38,105
39,113
40,125
41,135
42,140
43,150
44,157
45,170
46,187
47,203
48,216
49,231
50,251
51,260
52,277
53,295
54,314
55,326
56,347
57,374
58,388
59,404
60,431
61,459
62,485
63,518
64,544
65,578
66,608
67,641
68,677
69,729
70,774
71,812
72,857
73,902
74,953
75,1002
76,1047
77,1118
78,1181
79,1238
80,1304
