0,1
1,1
2,2
3,2
4,2
5,4
6,4
7,4
8,6
9,7
10,7
11,9
12,10
13,11
14,14
15,17
16,18
17,19
18,21
19,24
20,26
21,27
22,33
23,35
24,38
25,39
26,42
27,44
28,46
29,49
30,50
31,50
32,53
33,59
34,61
35,62
36,65
37,70
38,72
39,82
40,84
41,86
42,87
43,89
44,91
45,92
46,97
47,99
48,103
49,105
50,110
51,111
52,115
53,117
54,124
55,128
56,132
57,140
58,145
59,155
60,157
61,164
62,175
63,181
64,194
65,202
66,205
67,215
68,227
69,240
70,247
71,258
72,276
73,284
74,298
75,310
76,335
77,362
78,370
79,384
80,404
