0,1
1,1
2,1
3,1
4,1
5,1
6,2
7,3
8,3
9,3
10,4
11,6
12,7
13,8
14,10
15,13
16,15
17,17
18,20
19,20
20,21
21,24
22,29
23,31
24,34
25,37
26,44
27,45
28,51
29,62
30,71
31,73
32,83
33,93
34,109
35,119
36,127
37,138
38,152
39,169
40,179
41,199
42,220
43,243
44,265
45,298
46,322
47,360
48,391
49,429
50,465
51,504
52,559
53,599
54,638
55,680
56,738
57,783
58,847
59,900
60,961
61,1008
62,1068
63,1123
64,1211
65,1289
66,1362
67,1427
68,1524
69,1603
70,1702
71,1793
72,1879
73,1980
74,2094
75,2199
76,2304
77,2416
78,2557
79,2722
80,2881
