0,1
1,1
2,1
3,1
4,1
5,2
6,2
7,2
8,2
9,2
10,3
11,4
12,4
13,6
14,6
15,7
16,7
17,8
18,9
19,9
20,9
21,10
22,11
23,11
24,13
25,14
26,16
27,17
28,20
29,22
30,24
31,27
32,30
33,33
34,39
35,39
36,41
37,45
38,51
39,55
40,64
41,69
42,74
43,76
44,81
45,87
46,95
47,103
48,109
49,123
50,134
51,139
52,146
53,164
54,176
55,190
56,207
57,215
58,223
59,232
60,248
61,273
62,287
63,306
64,334
65,346
66,370
67,391
68,415
69,448
70,478
71,508
72,535
73,566
74,597
75,633
76,675
77,714
78,760
79,811
80,850
