0,1
1,1
2,1
3,2
4,4
5,5
6,6
7,6
8,7
9,9
10,10
11,13
12,14
13,16
14,18
15,20
16,20
17,24
18,28
19,31
20,33
21,38
22,42
23,47
24,53
25,56
26,58
27,65
28,71
29,73
30,81
31,89
32,99
33,111
34,119
35,126
36,140
37,150
38,164
39,182
40,197
41,208
42,223
43,235
44,253
45,281
46,303
47,332
48,350
49,385
50,420
51,453
52,499
53,542
54,574
55,627
56,677
57,719
58,770
59,806
60,849
61,907
62,954
63,995
64,1053
65,1108
66,1163
67,1216
68,1292
69,1354
70,1404
71,1471
72,1537
73,1614
74,1717
75,1802
76,1891
77,1987
78,2085
79,2200
80,2295
