0,1
1,1
2,1
3,1
4,2
5,2
6,2
7,3
8,3
9,3
10,4
11,4
12,5
13,6
14,7
15,8
16,8
17,10
18,10
19,10
20,11
21,13
22,15
23,17
24,18
25,19
26,20
27,21
28,21
29,23
30,24
31,24
32,25
33,25
34,25
35,26
36,26
37,28
38,29
39,29
40,29
41,30
42,31
43,31
44,32
45,32
46,34
47,35
48,35
49,36
50,37
51,39
52,42
53,42
54,43
55,44
56,45
57,46
58,48
59,49
60,50
61,53
62,55
63,58
64,60
65,63
66,69
67,72
68,76
69,83
70,92
71,103
72,107
73,112
74,122
75,130
76,148
77,155
78,163
79,168
80,177
