0,1
1,1
2,1
3,1
4,1
5,2
6,2
7,3
8,3
9,3
10,3
11,4
12,5
13,5
14,5
15,5
16,5
17,5
18,6
19,6
20,6
21,6
22,7
23,7
24,7
25,9
26,9
27,9
28,11
29,13
30,16
31,16
32,18
33,21
34,23
35,25
36,26
37,30
38,33
39,35
40,37
41,38
42,42
43,47
44,49
45,52
46,56
47,62
48,63
49,66
50,69
51,77
52,84
53,87
54,95
55,100
56,106
57,115
58,124
59,129
60,137
61,142
62,150
63,162
64,166
65,181
66,186
67,199
68,213
69,218
70,226
71,239
72,249
73,272
74,283
75,296
76,308
77,324
78,340
79,358
80,378
