0,1
1,1
2,1
3,1
4,1
5,1
6,4
7,4
8,5
9,7
10,9
11,9
12,13
13,17
14,18
15,19
16,20
17,24
18,24
19,28
20,30
21,32
22,36
23,38
24,40
25,43
26,45
27,46
28,50
29,56
30,59
31,63
32,68
33,72
34,78
35,84
36,86
37,92
38,97
39,103
40,108
41,114
42,122
43,138
44,154
45,163
46,176
47,188
48,200
49,221
50,248
51,261
52,271
53,289
54,321
55,347
56,367
57,398
58,423
59,452
60,483
61,516
62,544
63,585
64,626
65,679
66,730
67,775
68,829
69,904
70,961
71,1018
72,1072
73,1137
74,1200
75,1266
76,1336
77,1403
78,1466
79,1550
80,1632
