0,1
1,1
2,1
3,1
4,1
5,2
6,2
7,2
8,2
9,2
10,3
11,3
12,4
13,4
14,4
15,4
16,5
17,5
18,5
19,5
20,6
21,6
22,6
23,7
24,8
25,8
26,9
27,9
28,11
29,11
30,14
31,14
32,14
33,14
34,14
35,14
36,15
37,16
38,16
39,16
40,18
41,19
42,20
43,22
44,22
45,24
46,27
47,31
48,32
49,35
50,40
51,43
52,46
53,50
54,52
55,54
56,58
57,61
58,63
59,65
60,68
61,75
62,77
63,81
64,83
65,84
66,88
67,90
68,94
69,95
70,97
71,100
72,101
73,101
74,103
75,106
76,108
77,110
78,110
79,112
80,116
