0,1
1,1
2,1
3,1
4,1
5,3
6,4
7,6
8,6
9,6
10,7
11,8
12,9
13,10
14,12
15,17
16,17
17,19
18,20
19,22
20,22
21,25
22,28
23,28
24,32
25,33
26,37
27,40
28,44
29,51
30,54
31,60
32,61
33,69
34,74
35,77
36,80
37,87
38,89
39,98
40,102
41,110
42,120
43,130
44,143
45,157
46,163
47,179
48,196
49,214
50,227
51,242
52,258
53,279
54,304
55,326
56,343
57,384
58,411
59,439
60,474
61,511
62,550
63,581
64,619
65,665
66,720
67,764
68,833
69,881
70,948
71,1020
72,1079
73,1137
74,1215
75,1291
76,1380
77,1456
78,1541
79,1635
80,1744
