0,1
1,1
2,1
3,1
4,2
5,3
6,3
7,5
8,5
9,5
10,7
11,7
12,7
13,8
14,8
15,10
16,10
17,11
18,12
19,13
20,13
21,15
22,15
23,15
24,18
25,19
26,21
27,21
28,21
29,23
30,24
31,25
32,26
33,27
34,30
35,31
36,36
37,37
38,40
39,43
40,47
41,50
42,52
43,54
44,56
45,62
46,68
47,71
48,77
49,78
50,82
51,86
52,90
53,92
54,95
55,98
56,99
57,100
58,103
59,105
60,108
61,111
62,111
63,115
64,117
65,119
66,121
67,126
68,128
69,130
70,132
71,136
72,137
73,142
74,146
75,151
76,159
77,162
78,164
79,165
80,170
