0,1
1,1
2,1
3,1
4,1
5,1
6,2
7,2
8,2
9,2
10,2
11,2
12,2
13,2
14,4
15,4
16,4
17,6
18,8
19,8
20,11
21,13
22,14
23,14
24,15
25,21
26,24
27,27
28,30
29,32
30,37
31,45
32,51
33,56
34,62
35,64
36,70
37,75
38,85
39,94
40,102
41,113
42,119
43,130
44,139
45,152
46,170
47,177
48,197
49,212
50,227
51,245
52,275
53,291
54,313
55,342
56,378
57,405
58,428
59,460
60,491
61,532
62,572
63,616
64,656
65,696
66,752
67,811
68,875
69,918
70,971
71,1031
72,1112
73,1169
74,1241
75,1318
76,1390
77,1468
78,1548
79,1647
80,1750
