0,1
1,1
2,1
3,1
4,1
5,1
6,1
7,1
8,2
9,2
10,2
11,2
12,3
13,3
14,3
15,3
16,4
17,4
18,4
19,4
20,4
21,5
22,5
23,5
24,6
25,6
26,6
27,6
28,8
29,8
30,8
31,11
32,12
33,12
34,12
35,12
36,13
37,13
38,13
39,15
40,15
41,15
42,17
43,18
44,18
45,20
46,22
47,25
48,27
49,29
50,30
51,34
52,35
53,36
54,38
55,40
56,40
57,42
58,45
59,47
60,50
61,51
62,53
63,56
64,58
65,59
66,62
67,66
68,66
69,67
70,68
71,68
72,71
73,72
74,74
75,75
76,76
77,77
78,79
79,82
80,83
