0,1
1,1
2,1
3,1
4,1
5,2
6,2
7,2
8,2
9,3
10,3
11,4
12,4
13,5
14,5
15,6
16,8
17,9
18,10
19,10
20,10
21,10
22,10
23,11
24,12
25,12
26,13
27,13
28,13
29,13
30,13
31,13
32,15
33,15
34,15
35,16
36,16
37,18
38,18
39,20
40,20
41,23
42,24
43,25
44,30
45,33
46,34
47,39
48,45
49,47
50,52
51,61
52,66
53,75
54,80
55,91
56,96
57,99
58,107
59,124
60,140
61,153
62,171
63,192
64,208
65,227
66,251
67,274
68,295
69,316
70,339
71,369
72,399
73,438
74,466
75,496
76,536
77,585
78,628
79,674
80,723
