0,1
1,1
2,1
3,1
4,1
5,2
6,4
7,5
8,6
9,6
10,7
11,7
12,9
13,11
14,11
15,12
16,13
17,15
18,18
19,19
20,19
21,20
22,21
23,25
24,26
25,27
26,29
27,31
28,35
29,40
30,40
31,44
32,47
33,49
34,56
35,59
36,61
37,62
38,65
39,68
40,72
41,76
42,78
43,80
44,83
45,89
46,90
47,94
48,96
49,97
50,100
51,101
52,103
53,104
54,106
55,113
56,118
57,122
58,128
59,130
60,137
61,140
62,144
63,148
64,152
65,159
66,163
67,169
68,179
69,180
70,184
71,190
72,197
73,204
74,210
75,217
76,230
77,239
78,251
79,263
80,276
