0,1
1,1
2,1
3,1
4,2
5,3
6,3
7,3
8,3
9,3
10,3
11,4
12,4
13,5
14,6
15,7
16,9
17,10
18,10
19,12
20,15
21,15
22,18
23,20
24,21
25,23
26,24
27,25
28,28
29,31
30,32
31,35
32,37
33,41
34,44
35,47
36,50
37,57
38,58
39,58
40,65
41,67
42,70
43,72
44,73
45,78
46,81
47,81
48,86
49,87
50,88
51,91
52,94
53,98
54,102
55,107
56,109
57,112
58,115
59,122
60,127
61,132
62,140
63,145
64,154
65,167
66,173
67,177
68,180
69,192
70,199
71,204
72,212
73,220
74,232
75,239
76,256
77,272
78,282
79,295
80,306
