0,1
1,1
2,1
3,1
4,1
5,2
6,3
7,3
8,3
9,5
10,5
11,5
12,5
13,6
14,6
15,7
16,7
17,8
18,8
19,8
20,10
21,12
22,13
23,15
24,15
25,16
26,19
27,26
28,28
29,37
30,41
31,48
32,51
33,57
34,65
35,70
36,76
37,84
38,93
39,100
40,104
41,114
42,116
43,118
44,126
45,133
46,143
47,148
48,156
49,163
50,175
51,189
52,204
53,219
54,232
55,243
56,263
57,279
58,293
59,307
60,325
61,346
62,366
63,382
64,401
65,426
66,448
67,475
68,501
69,519
70,546
71,575
72,607
73,645
74,674
75,706
76,754
77,792
78,838
79,900
80,950
