0,1
1,1
2,1
3,1
4,1
5,1
6,1
7,1
8,1
9,1
10,2
11,2
12,2
13,3
14,3
15,3
16,3
17,3
18,3
19,3
20,3
21,3
22,3
23,3
24,3
25,4
26,4
27,5
28,5
29,5
30,7
31,8
32,8
33,11
34,12
35,14
36,16
37,18
38,20
39,22
40,24
41,25
42,28
43,31
44,34
45,37
46,39
47,40
48,45
49,48
50,49
51,57
52,60
53,63
54,67
55,69
56,74
57,76
58,77
59,85
60,89
61,91
62,93
63,97
64,99
65,105
66,108
67,109
68,110
69,113
70,116
71,120
72,124
73,125
74,132
75,135
76,139
77,144
78,146
79,153
80,164
