0,1
1,1
2,1
3,2
4,3
5,3
6,3
7,5
8,5
9,6
10,8
11,8
12,10
13,10
14,11
15,13
16,15
17,19
18,23
19,24
20,29
21,34
22,38
23,38
24,44
25,48
26,51
27,58
28,64
29,67
30,70
31,81
32,89
33,97
34,108
35,117
36,131
37,136
38,145
39,158
40,171
41,182
42,197
43,216
44,228
45,249
46,270
47,284
48,300
49,322
50,338
51,351
52,371
53,390
54,413
55,425
56,446
57,469
58,489
59,513
60,533
61,553
62,582
63,611
64,642
65,669
66,706
67,734
68,768
69,809
70,846
71,900
72,939
73,998
74,1049
75,1107
76,1171
77,1240
78,1291
79,1369
80,1449
