0,1
1,1
2,1
3,1
4,1
5,1
6,2
7,2
8,2
9,2
10,3
11,3
12,3
13,4
14,4
15,4
16,5
17,5
18,6
19,7
20,7
21,7
22,7
23,7
24,7
25,9
26,9
27,9
28,9
29,9
30,9
31,10
32,10
33,10
34,11
35,14
36,14
37,14
38,16
39,17
40,20
41,21
42,26
43,29
44,31
45,34
46,40
47,45
48,49
49,55
50,56
51,59
52,63
53,70
54,73
55,77
56,83
57,87
58,92
59,99
60,104
61,112
62,120
63,129
64,136
65,146
66,155
67,163
68,172
69,184
70,203
71,214
72,224
73,234
74,256
75,273
76,289
77,304
78,329
79,358
80,376
