0,1
1,1
2,1
3,2
4,3
5,3
6,4
7,6
8,6
9,6
10,8
11,10
12,11
13,11
14,11
15,14
16,18
17,20
18,24
19,28
20,34
21,41
22,47
23,54
24,61
25,66
26,75
27,85
28,93
29,98
30,106
31,114
32,123
33,128
34,140
35,151
36,158
37,165
38,176
39,189
40,203
41,214
42,226
43,236
44,249
45,260
46,276
47,292
48,302
49,314
50,330
51,343
52,358
53,372
54,386
55,406
56,423
57,436
58,450
59,458
60,480
61,496
62,519
63,543
64,560
65,589
66,606
67,635
68,663
69,690
70,719
71,746
72,792
73,831
74,870
75,915
76,973
77,1027
78,1086
79,1134
80,1207
