0,1
1,1
2,1
3,1
4,2
5,2
6,2
7,4
8,5
9,6
10,7
11,7
12,8
13,8
14,8
15,9
16,11
17,13
18,14
19,19
20,21
21,21
22,24
23,24
24,30
25,33
26,34
27,35
28,36
29,38
30,38
31,40
32,42
33,43
34,45
35,47
36,47
37,48
38,49
39,52
40,53
41,56
42,59
43,62
44,65
45,65
46,70
47,73
48,78
49,83
50,89
51,93
52,100
53,108
54,113
55,118
56,125
57,133
58,141
59,150
60,160
61,171
62,174
63,179
64,190
65,203
66,210
67,224
68,237
69,244
70,259
71,276
72,285
73,293
74,305
75,318
76,329
77,336
78,354
79,365
80,383
