0,1
1,1
2,1
3,1
4,1
5,2
6,2
7,2
8,2
9,3
10,3
11,3
12,3
13,3
14,3
15,3
16,4
17,4
18,4
19,4
20,6
21,7
22,8
23,9
24,10
25,11
26,15
27,16
28,16
29,16
30,20
31,24
32,24
33,27
34,29
35,32
36,34
37,38
38,39
39,41
40,45
41,49
42,52
43,57
44,60
45,61
46,70
47,74
48,75
49,81
50,84
51,91
52,95
53,98
54,107
55,117
56,121
57,123
58,127
59,135
60,142
61,152
62,158
63,165
64,171
65,175
66,184
67,192
68,206
69,217
70,226
71,235
72,240
73,259
74,274
75,287
76,303
77,314
78,326
79,343
80,361
