0,1
1,1
2,1
3,2
4,2
5,3
6,3
7,4
8,5
9,6
10,7
11,10
12,10
13,11
14,14
15,15
16,17
17,18
18,22
19,24
20,26
21,27
22,30
23,31
24,32
25,32
26,32
27,32
28,32
29,34
30,35
31,35
32,36
33,37
34,37
35,37
36,41
37,41
38,43
39,46
40,47
41,51
42,56
43,60
44,61
45,64
46,69
47,75
48,84
49,88
50,92
51,100
52,104
53,108
54,110
55,115
56,117
57,122
58,127
59,134
60,138
61,148
62,156
63,161
64,174
65,184
66,190
67,202
68,217
69,230
70,237
71,250
72,269
73,285
74,289
75,301
76,307
77,318
78,326
79,332
80,344
