0,1
1,1
2,1
3,1
4,1
5,2
6,2
7,2
8,2
9,2
10,3
11,3
12,3
13,3
14,4
15,4
16,6
17,7
18,7
19,9
20,11
21,11
22,13
23,14
24,15
25,16
26,19
27,19
28,19
29,19
30,21
31,27
32,29
33,29
34,30
35,34
36,36
37,38
38,39
39,42
40,44
41,47
42,47
43,48
44,52
45,54
46,56
47,62
48,65
49,67
50,69
51,74
52,80
53,84
54,86
55,92
56,99
57,108
58,113
59,117
60,125
61,128
62,131
63,141
64,146
65,152
66,156
67,165
68,176
69,180
70,184
71,195
72,205
73,213
74,226
75,237
76,255
77,269
78,283
79,302
80,317
