0,1
1,1
2,1
3,1
4,2
5,3
6,3
7,4
8,5
9,6
10,8
11,8
12,9
13,13
14,13
15,16
16,17
17,19
18,19
19,24
20,27
21,29
22,34
23,38
24,43
25,44
26,49
27,53
28,57
29,62
30,66
31,73
32,77
33,79
34,88
35,89
36,93
37,95
38,101
39,106
40,110
41,117
42,121
43,130
44,137
45,145
46,155
47,165
48,173
49,186
50,196
51,202
52,215
53,226
54,249
55,280
56,286
57,309
58,323
59,341
60,366
61,392
62,412
63,437
64,460
65,486
66,519
67,551
68,588
69,625
70,665
71,694
72,731
73,768
74,810
75,859
76,909
77,958
78,1001
79,1055
80,1102
