0,1
1,1
2,1
3,2
4,2
5,2
6,3
7,4
8,4
9,4
10,4
11,4
12,4
13,5
14,5
15,6
16,6
17,7
18,8
19,8
20,12
21,14
22,14
23,17
24,18
25,22
26,24
27,25
28,29
29,31
30,35
31,37
32,39
33,43
34,46
35,52
36,52
37,53
38,54
39,56
40,60
41,61
42,64
43,65
44,68
45,72
46,74
47,78
48,80
49,82
50,82
51,86
52,87
53,89
54,92
55,95
56,97
57,99
58,103
59,105
60,107
61,109
62,111
63,113
64,114
65,118
66,120
67,121
68,123
69,124
70,125
71,128
72,131
73,132
74,134
75,135
76,136
77,137
78,137
79,138
80,142
