0,1
1,1
2,1
3,1
4,2
5,2
6,2
7,3
8,3
9,3
10,3
11,3
12,3
13,3
14,4
15,4
16,5
17,6
18,6
19,7
20,7
21,7
22,8
23,9
24,9
25,10
26,10
27,13
28,14
29,15
30,17
31,18
32,20
33,20
34,20
35,21
36,22
37,22
38,22
39,23
40,26
41,29
42,30
43,31
44,33
45,34
46,36
47,37
48,39
49,45
50,47
51,48
52,55
53,61
54,63
55,69
56,72
57,73
58,74
59,76
60,80
61,83
62,83
63,85
64,85
65,87
66,88
67,90
68,92
69,94
70,97
71,97
72,98
73,101
74,103
75,105
76,106
77,109
78,110
79,112
80,116
