0,1
1,1
2,1
3,1
4,1
5,1
6,1
7,2
8,2
9,2
10,3
11,3
12,3
13,4
14,5
15,8
16,8
17,10
18,15
19,15
20,17
21,17
22,17
23,20
24,23
25,24
26,25
27,27
28,31
29,35
30,35
31,38
32,42
33,44
34,49
35,52
36,55
37,60
38,63
39,67
40,71
41,72
42,77
43,80
44,82
45,85
46,87
47,93
48,96
49,99
50,103
51,106
52,109
53,116
54,120
55,123
56,131
57,137
58,139
59,147
60,155
61,158
62,161
63,166
64,171
65,175
66,180
67,184
68,187
69,189
70,193
71,199
72,201
73,204
74,210
75,218
76,220
77,225
78,229
79,232
80,237
