0,1
1,1
2,1
3,1
4,2
5,2
6,2
7,2
8,3
9,4
10,4
11,4
12,5
13,6
14,8
15,9
16,10
17,11
18,12
19,12
20,14
21,15
22,16
23,17
24,17
25,18
26,18
27,18
28,18
29,18
30,19
31,19
32,19
33,19
34,19
35,19
36,20
37,20
38,20
39,20
40,21
41,22
42,24
43,25
44,26
45,27
46,27
47,27
48,28
49,29
50,31
51,31
52,31
53,33
54,36
55,36
56,37
57,39
58,40
59,41
60,41
61,44
62,49
63,50
64,50
65,50
66,51
67,51
68,51
69,52
70,53
71,53
72,53
73,53
74,54
75,54
76,54
77,54
78,55
79,55
80,55
