0,1
1,1
2,1
3,1
4,2
5,4
6,4
7,4
8,5
9,7
10,8
11,10
12,10
13,11
14,14
15,15
16,17
17,20
18,23
19,24
20,28
21,31
22,33
23,37
24,41
25,44
26,54
27,58
28,67
29,74
30,89
31,102
32,113
33,129
34,142
35,154
36,168
37,190
38,209
39,232
40,256
41,287
42,319
43,359
44,400
45,436
46,473
47,519
48,544
49,584
50,626
51,672
52,713
53,758
54,803
55,865
56,931
57,981
58,1039
59,1115
60,1180
61,1249
62,1315
63,1401
64,1470
65,1566
66,1661
67,1751
68,1842
69,1967
70,2078
71,2206
72,2331
73,2456
74,2590
75,2730
76,2882
77,3026
78,3179
79,3340
80,3516
