0,1
1,1
2,1
3,2
4,2
5,3
6,4
7,4
8,4
9,8
10,9
11,9
12,9
13,10
14,13
15,15
16,17
17,19
18,21
19,23
20,27
21,29
22,33
23,35
24,39
25,42
26,46
27,49
28,53
29,58
30,60
31,65
32,69
33,72
34,73
35,75
36,78
37,80
38,85
39,88
40,95
41,99
42,104
43,113
44,115
45,119
46,124
47,128
48,134
49,141
50,148
51,156
52,161
53,175
54,182
55,191
56,198
57,208
58,216
59,232
60,247
61,262
62,275
63,289
64,304
65,323
66,341
67,353
68,372
69,394
70,404
71,420
72,441
73,455
74,471
75,504
76,527
77,552
78,570
79,595
80,622
