0,1
1,1
2,1
3,1
4,1
5,2
6,2
7,2
8,2
9,2
10,3
11,4
12,4
13,5
14,5
15,5
16,5
17,5
18,5
19,5
20,5
21,6
22,6
23,6
24,6
25,6
26,6
27,6
28,7
29,7
30,8
31,12
32,12
33,13
34,16
35,17
36,21
37,23
38,27
39,27
40,29
41,30
42,32
43,32
44,35
45,37
46,38
47,38
48,40
49,44
50,45
51,48
52,48
53,50
54,50
55,50
56,52
57,53
58,54
59,56
60,57
61,57
62,62
63,63
64,67
65,73
66,73
67,74
68,77
69,78
70,85
71,87
72,91
73,96
74,102
75,109
76,114
77,119
78,124
79,132
80,139
