0,1
1,1
2,1
3,1
4,1
5,1
6,2
7,3
8,3
9,3
10,4
11,4
12,4
13,5
14,5
15,7
16,7
17,9
18,10
19,10
20,10
21,10
22,11
23,11
24,12
25,12
26,12
27,14
28,15
29,16
30,16
31,17
32,17
33,20
34,21
35,23
36,25
37,28
38,29
39,30
40,32
41,33
42,35
43,37
44,37
45,38
46,40
47,43
48,46
49,46
50,50
51,52
52,54
53,58
54,60
55,62
56,63
57,66
58,71
59,75
60,78
61,83
62,87
63,89
64,91
65,97
66,101
67,105
68,108
69,113
70,116
71,120
72,124
73,126
74,131
75,136
76,143
77,150
78,154
79,160
80,172
