0,1
1,1
2,2
3,2
4,2
5,2
6,3
7,3
8,4
9,4
10,4
11,6
12,6
13,6
14,11
15,14
16,15
17,15
18,20
19,22
20,23
21,25
22,28
23,31
24,37
25,42
26,45
27,48
28,57
29,61
30,63
31,65
32,73
33,76
34,85
35,96
36,102
37,112
38,122
39,128
40,133
41,138
42,149
43,160
44,166
45,175
46,182
47,196
48,208
49,221
50,231
51,248
52,262
53,280
54,289
55,309
56,339
57,364
58,380
59,402
60,424
61,450
62,473
63,503
64,528
65,563
66,595
67,643
68,687
69,719
70,759
71,807
72,858
73,896
74,939
75,991
76,1051
77,1111
78,1163
79,1214
80,1277
