0,1
1,1
2,1
3,1
4,1
5,1
6,2
7,2
8,2
9,2
10,2
11,4
12,4
13,4
14,5
15,6
16,7
17,8
18,8
19,9
20,11
21,13
22,15
23,17
24,18
25,19
26,20
27,22
28,24
29,28
30,28
31,29
32,30
33,34
34,36
35,37
36,37
37,40
38,41
39,42
40,42
41,45
42,46
43,50
44,52
45,54
46,56
47,58
48,63
49,66
50,75
51,81
52,83
53,88
54,90
55,98
56,104
57,114
58,119
59,128
60,140
61,150
62,164
63,178
64,189
65,198
66,205
67,221
68,231
69,240
70,256
71,268
72,288
73,298
74,309
75,330
76,355
77,377
78,397
79,418
80,438
