0,1
1,1
2,1
3,1
4,3
5,5
6,7
7,8
8,9
9,10
10,10
11,12
12,15
13,18
14,19
15,20
16,22
17,26
18,34
19,39
20,44
21,52
22,54
23,62
24,64
25,66
26,73
27,75
28,80
29,85
30,89
31,97
32,100
33,105
34,108
35,113
36,121
37,125
38,133
39,135
40,142
41,147
42,153
43,157
44,165
45,171
46,181
47,190
48,198
49,206
50,218
51,228
52,236
53,250
54,268
55,290
56,303
57,326
58,351
59,371
60,393
61,420
62,445
63,465
64,481
65,508
66,523
67,544
68,570
69,589
70,612
71,642
72,654
73,673
74,698
75,720
76,755
77,777
78,807
79,846
80,877
