0,1
1,1
2,1
3,1
4,2
5,2
6,2
7,2
8,2
9,3
10,3
11,3
12,3
13,5
14,5
15,5
16,7
17,9
18,9
19,10
20,11
21,11
22,13
23,13
24,13
25,14
26,16
27,16
28,16
29,16
30,16
31,16
32,17
33,18
34,18
35,18
36,19
37,19
38,20
39,22
40,23
41,24
42,26
43,26
44,29
45,32
46,36
47,37
48,42
49,44
50,49
51,53
52,58
53,63
54,67
55,71
56,80
57,91
58,99
59,107
60,122
61,135
62,143
63,153
64,167
65,185
66,194
67,211
68,223
69,239
70,252
71,270
72,292
73,308
74,322
75,339
76,352
77,373
78,393
79,416
80,437
