0,1
1,1
2,1
3,1
4,1
5,2
6,3
7,3
8,4
9,7
10,9
11,9
12,9
13,11
14,14
15,15
16,19
17,24
18,27
19,32
20,36
21,37
22,42
23,47
24,53
25,55
26,60
27,63
28,65
29,69
30,73
31,78
32,84
33,85
34,91
35,94
36,98
37,104
38,113
39,118
40,121
41,130
42,137
43,143
44,145
45,154
46,161
47,168
48,170
49,175
50,176
51,181
52,187
53,191
54,193
55,199
56,203
57,208
58,214
59,217
60,220
61,227
62,237
63,245
64,258
65,264
66,273
67,281
68,295
69,316
70,324
71,335
72,342
73,357
74,366
75,385
76,399
77,422
78,435
79,454
80,469
