0,1
1,1
2,1
3,1
4,2
5,2
6,3
7,5
8,5
9,5
10,8
11,8
12,9
13,9
14,9
15,10
16,10
17,10
18,10
19,12
20,14
21,16
22,18
23,19
24,21
25,23
26,25
27,26
28,29
29,30
30,32
31,35
32,39
33,39
34,41
35,45
36,45
37,48
38,54
39,58
40,58
41,61
42,64
43,68
44,74
45,76
46,78
47,86
48,91
49,96
50,99
51,109
52,114
53,120
54,123
55,131
56,142
57,145
58,153
59,163
60,177
61,184
62,194
63,205
64,216
65,228
66,237
67,248
68,258
69,269
70,281
71,295
72,310
73,327
74,339
75,362
76,386
77,413
78,424
79,453
80,482
