0,1
1,1
2,1
3,1
4,1
5,1
6,2
7,2
8,2
9,2
10,2
11,2
12,3
13,3
14,3
15,3
16,4
17,4
18,4
19,4
20,4
21,5
22,5
23,5
24,7
25,7
26,7
27,8
28,9
29,9
30,10
31,11
32,13
33,17
34,18
35,19
36,21
37,24
38,27
39,33
40,37
41,41
42,44
43,48
44,53
45,58
46,63
47,68
48,71
49,76
50,82
51,86
52,92
53,99
54,108
55,115
56,125
57,137
58,147
59,160
60,167
61,177
62,182
63,189
64,197
65,206
66,214
67,219
68,230
69,244
70,252
71,266
72,279
73,285
74,300
75,312
76,326
77,340
78,350
79,364
80,386
