0,1
1,1
2,1
3,1
4,1
5,2
6,3
7,4
8,4
9,4
10,4
11,4
12,5
13,5
14,6
15,6
16,6
17,6
18,7
19,7
20,8
21,9
22,9
23,9
24,9
25,10
26,10
27,10
28,11
29,11
30,11
31,12
32,12
33,13
34,15
35,18
36,20
37,24
38,24
39,29
40,30
41,32
42,34
43,37
44,39
45,40
46,42
47,45
48,47
49,47
50,51
51,54
52,59
53,63
54,69
55,74
56,77
57,80
58,84
59,90
60,92
61,95
62,100
63,107
64,113
65,120
66,126
67,131
68,136
69,143
70,150
71,163
72,171
73,178
74,186
75,193
76,201
77,212
78,220
79,232
80,244
