0,1
1,1
2,1
3,1
4,1
5,1
6,3
7,3
8,3
9,3
10,3
11,4
12,5
13,6
14,7
15,7
16,7
17,8
18,9
19,10
20,12
21,13
22,13
23,14
24,16
25,18
26,19
27,21
28,22
29,26
30,27
31,27
32,27
33,29
34,33
35,35
36,42
37,44
38,51
39,53
40,60
41,66
42,72
43,75
44,86
45,92
46,105
47,112
48,126
49,135
50,143
51,155
52,167
53,180
54,190
55,204
56,214
57,233
58,250
59,261
60,270
61,293
62,313
63,322
64,335
65,354
66,372
67,388
68,410
69,441
70,467
71,502
72,533
73,569
74,610
75,654
76,700
77,749
78,797
79,857
80,906
