0,1
1,1
2,1
3,1
4,1
5,1
6,1
7,2
8,2
9,3
10,3
11,4
12,4
13,4
14,6
15,6
16,8
17,8
18,8
19,8
20,9
21,9
22,10
23,11
24,11
25,11
26,13
27,13
28,13
29,15
30,15
31,17
32,18
33,18
34,18
35,18
36,21
37,22
38,22
39,23
40,23
41,24
42,24
43,24
44,25
45,25
46,26
47,26
48,27
49,27
50,27
51,27
52,28
53,29
54,29
55,29
56,33
57,34
58,35
59,36
60,37
61,39
62,43
63,46
64,48
65,50
66,60
67,65
68,69
69,74
70,77
71,85
72,95
73,100
74,109
75,118
76,123
77,125
78,127
79,138
80,144
