0,1
1,1
2,1
3,1
4,1
5,1
6,2
7,3
8,3
9,6
10,7
11,7
12,8
13,10
14,11
15,11
16,15
17,21
18,21
19,23
20,27
21,30
22,32
23,33
24,34
25,37
26,37
27,39
28,40
29,43
30,44
31,47
32,48
33,48
34,50
35,54
36,57
37,59
38,61
39,63
40,66
41,69
42,73
43,75
44,80
45,82
46,82
47,86
48,92
49,96
50,99
51,103
52,107
53,108
54,115
55,121
56,126
57,134
58,142
59,150
60,159
61,182
62,194
63,209
64,222
65,237
66,252
67,273
68,296
69,310
70,324
71,339
72,364
73,387
74,404
75,422
76,443
77,469
78,493
79,514
80,531
