0,1
1,1
2,1
3,1
4,1
5,1
6,1
7,2
8,2
9,2
10,2
11,2
12,2
13,2
14,2
15,3
16,3
17,4
18,4
19,4
20,5
21,5
22,8
23,8
24,9
25,9
26,11
27,11
28,12
29,15
30,22
31,24
32,25
33,25
34,27
35,28
36,28
37,28
38,33
39,36
40,38
41,39
42,44
43,50
44,52
45,57
46,61
47,64
48,73
49,80
50,88
51,95
52,99
53,105
54,112
55,124
56,135
57,148
58,155
59,166
60,179
61,191
62,206
63,222
64,243
65,261
66,273
67,297
68,310
69,332
70,359
71,385
72,416
73,441
74,473
75,495
76,530
77,565
78,605
79,636
80,680
