0,1
1,1
2,1
3,1
4,1
5,2
6,2
7,2
8,2
9,3
10,4
11,4
12,4
13,4
14,4
15,6
16,6
17,6
18,6
19,8
20,8
21,9
22,9
23,11
24,11
25,12
26,13
27,13
28,15
29,16
30,16
31,16
32,18
33,19
34,19
35,22
36,22
37,22
38,24
39,25
40,26
41,26
42,28
43,28
44,30
45,32
46,32
47,35
48,39
49,40
50,40
51,44
52,47
53,49
54,49
55,51
56,51
57,54
58,56
59,57
60,60
61,60
62,64
63,64
64,64
65,64
66,66
67,70
68,72
69,73
70,74
71,77
72,79
73,82
74,85
75,88
76,89
77,93
78,95
79,96
80,98
