0,1
1,1
2,1
3,1
4,1
5,1
6,1
7,1
8,1
9,1
10,1
11,2
12,2
13,2
14,2
15,2
16,2
17,2
18,3
19,3
20,3
21,3
22,8
23,11
24,13
25,15
26,18
27,19
28,20
29,21
30,23
31,26
32,27
33,30
34,34
35,35
36,40
37,42
38,44
39,45
40,49
41,57
42,63
43,69
44,71
45,77
46,81
47,90
48,95
49,100
50,102
51,107
52,115
53,119
54,128
55,132
56,137
57,144
58,154
59,159
60,161
61,164
62,169
63,174
64,185
65,193
66,198
67,204
68,211
69,218
70,225
71,232
72,238
73,244
74,249
75,262
76,273
77,282
78,294
79,307
80,316
