0,1
1,1
2,1
3,1
4,1
5,2
6,2
7,3
8,4
9,5
10,6
11,7
12,9
13,10
14,10
15,11
16,14
17,14
18,14
19,17
20,17
21,17
22,19
23,21
24,21
25,21
26,22
27,24
28,25
29,27
30,27
31,28
32,28
33,28
34,29
35,30
36,32
37,34
38,35
39,37
40,39
41,41
42,41
43,43
44,45
45,49
46,51
47,52
48,54
49,57
50,59
51,64
52,65
53,66
54,69
55,76
56,78
57,83
58,85
59,90
60,94
61,98
62,104
63,108
64,114
65,117
66,122
67,128
68,135
69,142
70,151
71,155
72,164
73,170
74,176
75,187
76,197
77,208
78,213
79,221
80,230
