0,1
1,1
2,1
3,2
4,3
5,3
6,6
7,8
8,13
9,19
10,23
11,32
12,38
13,45
14,52
15,65
16,73
17,87
18,94
19,113
20,123
21,134
22,146
23,161
24,175
25,187
26,200
27,220
28,231
29,245
30,262
31,273
32,289
33,310
34,326
35,346
36,358
37,375
38,393
39,419
40,432
41,454
42,477
43,496
44,518
45,538
46,561
47,584
48,607
49,634
50,668
51,695
52,727
53,752
54,792
55,833
56,867
57,894
58,942
59,989
60,1043
61,1098
62,1155
63,1204
64,1250
65,1320
66,1383
67,1457
68,1531
69,1616
70,1688
71,1782
72,1871
73,1969
74,2072
75,2178
76,2300
77,2424
78,2538
79,2652
80,2792
