0,1
1,1
2,2
3,2
4,2
5,3
6,3
7,6
8,8
9,8
10,8
11,8
12,10
13,13
14,13
15,14
16,15
17,15
18,15
19,15
20,17
21,17
22,18
23,20
24,20
25,20
26,22
27,22
28,22
29,23
30,27
31,30
32,32
33,36
34,37
35,42
36,48
37,54
38,54
39,56
40,64
41,69
42,74
43,79
44,86
45,91
46,102
47,115
48,124
49,132
50,137
51,141
52,156
53,160
54,172
55,181
56,191
57,204
58,209
59,215
60,229
61,241
62,260
63,273
64,282
65,299
66,322
67,346
68,361
69,385
70,404
71,432
72,466
73,489
74,515
75,542
76,573
77,602
78,639
79,668
80,709
