0,1
1,1
2,1
3,2
4,3
5,3
6,4
7,6
8,9
9,9
10,11
11,13
12,19
13,22
14,27
15,29
16,35
17,37
18,39
19,42
20,46
21,50
22,54
23,55
24,57
25,59
26,61
27,65
28,67
29,67
30,69
31,70
32,73
33,75
34,79
35,82
36,85
37,87
38,89
39,91
40,95
41,99
42,102
43,104
44,107
45,111
46,116
47,119
48,125
49,129
50,133
51,138
52,144
53,151
54,157
55,163
56,169
57,172
58,177
59,184
60,195
61,199
62,207
63,217
64,224
65,226
66,233
67,237
68,243
69,249
70,254
71,262
72,270
73,285
74,295
75,310
76,323
77,333
78,352
79,368
80,388
