0,1
1,1
2,1
3,1
4,2
5,2
6,2
7,3
8,4
9,6
10,6
11,7
12,7
13,7
14,8
15,8
16,9
17,11
18,12
19,12
20,15
21,17
22,17
23,17
24,20
25,22
26,24
27,26
28,28
29,32
30,35
31,40
32,42
33,51
34,54
35,57
36,59
37,63
38,74
39,78
40,88
41,93
42,100
43,104
44,111
45,118
46,125
47,131
48,135
49,147
50,154
51,167
52,176
53,188
54,197
55,212
56,224
57,243
58,265
59,277
60,294
61,310
62,326
63,337
64,353
65,378
66,403
67,416
68,443
69,467
70,491
71,519
72,550
73,579
74,612
75,643
76,679
77,717
78,757
79,804
80,860
