0,1
1,1
2,2
3,3
4,4
5,10
6,12
7,17
8,18
9,20
10,24
11,28
12,29
13,35
14,38
15,43
16,48
17,54
18,63
19,66
20,71
21,76
22,81
23,86
24,93
25,100
26,108
27,113
28,121
29,131
30,140
31,152
32,159
33,173
34,181
35,194
36,205
37,211
38,228
39,247
40,264
41,286
42,303
43,321
44,341
45,365
46,391
47,413
48,440
49,456
50,490
51,518
52,549
53,584
54,617
55,663
56,701
57,742
58,781
59,827
60,868
61,909
62,968
63,1028
64,1092
65,1153
66,1214
67,1297
68,1369
69,1449
70,1544
71,1608
72,1684
73,1758
74,1856
75,1952
76,2071
77,2168
78,2276
79,2408
80,2537
