0,1
1,1
2,1
3,1
4,1
5,3
6,3
7,3
8,3
9,3
10,3
11,4
12,5
13,6
14,6
15,6
16,6
17,7
18,8
19,9
20,9
21,12
22,14
23,15
24,16
25,18
26,19
27,20
28,21
29,22
30,25
31,27
32,28
33,30
34,32
35,34
36,35
37,39
38,42
39,43
40,51
41,55
42,59
43,64
44,69
45,76
46,81
47,86
48,96
49,101
50,104
51,110
52,114
53,120
54,133
55,142
56,154
57,158
58,173
59,180
60,187
61,199
62,210
63,221
64,235
65,242
66,259
67,272
68,282
69,298
70,310
71,319
72,340
73,350
74,363
75,368
76,379
77,390
78,406
79,411
80,425
