0,1
1,1
2,1
3,1
4,3
5,5
6,6
7,6
8,6
9,7
10,8
11,10
12,11
13,12
14,12
15,13
16,15
17,17
18,19
19,20
20,22
21,25
22,27
23,27
24,29
25,33
26,37
27,40
28,40
29,44
30,45
31,49
32,52
33,56
34,57
35,59
36,63
37,63
38,64
39,66
40,70
41,72
42,76
43,78
44,81
45,85
46,87
47,92
48,99
49,104
50,112
51,120
52,130
53,137
54,145
55,156
56,166
57,177
58,192
59,205
60,223
61,232
62,243
63,260
64,280
65,292
66,315
67,322
68,341
69,357
70,377
71,405
72,429
73,458
74,471
75,503
76,524
77,549
78,585
79,616
80,648
