0,1
1,1
2,1
3,1
4,2
5,2
6,3
7,4
8,4
9,4
10,4
11,6
12,7
13,8
14,10
15,10
16,10
17,11
18,11
19,15
20,15
21,18
22,21
23,24
24,31
25,33
26,36
27,42
28,46
29,50
30,56
31,63
32,68
33,75
34,83
35,93
36,108
37,114
38,123
39,132
40,144
41,158
42,170
43,177
44,186
45,202
46,216
47,233
48,245
49,268
50,281
51,297
52,316
53,332
54,345
55,364
56,390
57,418
58,441
59,464
60,495
61,515
62,551
63,575
64,605
65,633
66,662
67,693
68,733
69,769
70,812
71,850
72,902
73,952
74,1011
75,1059
76,1130
77,1183
78,1244
79,1314
80,1384
