0,1
1,1
2,1
3,2
4,4
5,4
6,4
7,5
8,6
9,8
10,8
11,8
12,8
13,10
14,11
15,11
16,13
17,14
18,16
19,16
20,19
21,19
22,20
23,21
24,21
25,21
26,22
27,22
28,22
29,22
30,24
31,24
32,25
33,26
34,29
35,31
36,33
37,37
38,37
39,39
40,44
41,47
42,51
43,58
44,63
45,69
46,71
47,76
48,80
49,89
50,93
51,96
52,103
53,108
54,113
55,116
56,124
57,136
58,144
59,145
60,157
61,166
62,173
63,181
64,195
65,205
66,216
67,231
68,244
69,255
70,269
71,282
72,297
73,313
74,337
75,355
76,370
77,388
78,412
79,436
80,467
