0,1
1,1
2,1
3,2
4,2
5,3
6,5
7,5
8,5
9,5
10,5
11,6
12,7
13,7
14,9
15,9
16,11
17,11
18,12
19,13
20,14
21,14
22,18
23,20
24,20
25,21
26,25
27,29
28,31
29,31
30,33
31,36
32,38
33,39
34,42
35,42
36,43
37,43
38,43
39,45
40,50
41,54
42,54
43,55
44,58
45,59
46,63
47,66
48,70
49,72
50,76
51,79
52,83
53,86
54,89
55,92
56,94
57,97
58,99
59,100
60,101
61,102
62,103
63,105
64,105
65,107
66,109
67,109
68,109
69,109
70,114
71,116
72,118
73,119
74,121
75,125
76,128
77,131
78,133
79,136
80,138
