0,1
1,1
2,1
3,2
4,2
5,3
6,5
7,5
8,8
9,8
10,8
11,9
12,13
13,14
14,16
15,18
16,19
17,21
18,23
19,27
20,29
21,33
22,36
23,41
24,42
25,49
26,53
27,57
28,66
29,71
30,73
31,84
32,88
33,95
34,105
35,115
36,128
37,136
38,142
39,152
40,156
41,162
42,171
43,184
44,195
45,204
46,216
47,232
48,249
49,271
50,287
51,304
52,328
53,353
54,378
55,400
56,425
57,453
58,470
59,489
60,518
61,542
62,575
63,610
64,643
65,668
66,698
67,739
68,774
69,807
70,850
71,895
72,943
73,980
74,1035
75,1078
76,1140
77,1198
78,1267
79,1342
80,1406
