0,1
1,1
2,2
3,2
4,3
5,4
6,5
7,6
8,6
9,6
10,9
11,10
12,10
13,10
14,12
15,12
16,13
17,13
18,13
19,14
20,15
21,16
22,16
23,18
24,19
25,22
26,23
27,23
28,26
29,29
30,30
31,31
32,35
33,36
34,37
35,38
36,39
37,41
38,42
39,43
40,45
41,46
42,46
43,48
44,52
45,53
46,54
47,54
48,56
49,58
50,61
51,61
52,66
53,70
54,73
55,76
56,81
57,89
58,93
59,98
60,103
61,111
62,128
63,137
64,143
65,155
66,161
67,173
68,178
69,185
70,197
71,206
72,214
73,225
74,236
75,246
76,254
77,271
78,285
79,295
80,305
