0,1
1,1
2,1
3,2
4,2
5,3
6,4
7,5
8,6
9,7
10,7
11,9
12,10
13,12
14,13
15,15
16,15
17,16
18,18
19,21
20,23
21,24
22,25
23,29
24,29
25,33
26,35
27,36
28,36
29,39
30,40
31,42
32,45
33,46
34,47
35,50
36,51
37,52
38,54
39,59
40,63
41,65
42,66
43,71
44,79
45,84
46,88
47,95
48,97
49,103
50,109
51,113
52,116
53,122
54,131
55,139
56,142
57,152
58,157
59,172
60,187
61,195
62,214
63,230
64,242
65,251
66,258
67,267
68,280
69,291
70,301
71,310
72,323
73,332
74,340
75,357
76,369
77,382
78,401
79,418
80,428
