0,1
1,1
2,1
3,1
4,2
5,2
6,2
7,2
8,3
9,3
10,4
11,4
12,4
13,5
14,6
15,7
16,9
17,9
18,10
19,10
20,11
21,12
22,13
23,13
24,14
25,16
26,16
27,16
28,17
29,19
30,20
31,21
32,22
33,22
34,23
35,24
36,24
37,25
38,25
39,26
40,27
41,27
42,28
43,29
44,31
45,33
46,34
47,35
48,36
49,38
50,41
51,43
52,43
53,44
54,47
55,51
56,54
57,56
58,61
59,63
60,66
61,70
62,72
63,74
64,76
65,77
66,79
67,82
68,84
69,84
70,86
71,88
72,90
73,95
74,96
75,99
76,101
77,103
78,106
79,107
80,108
