0,1
1,1
2,1
3,1
4,1
5,1
6,2
7,2
8,2
9,3
10,3
11,4
12,4
13,4
14,4
15,4
16,4
17,4
18,4
19,5
20,5
21,5
22,6
23,7
24,7
25,9
26,10
27,11
28,12
29,13
30,14
31,15
32,18
33,20
34,23
35,24
36,26
37,26
38,28
39,30
40,31
41,32
42,36
43,38
44,42
45,46
46,50
47,55
48,59
49,63
50,67
51,72
52,75
53,80
54,86
55,92
56,99
57,107
58,120
59,130
60,139
61,149
62,166
63,176
64,192
65,207
66,225
67,238
68,258
69,275
70,290
71,310
72,330
73,352
74,381
75,399
76,420
77,452
78,482
79,512
80,541
