0,1
1,1
2,1
3,1
4,1
5,1
6,1
7,2
8,2
9,2
10,4
11,5
12,6
13,8
14,10
15,11
16,14
17,16
18,19
19,21
20,23
21,25
22,30
23,33
24,36
25,36
26,40
27,42
28,46
29,46
30,52
31,57
32,58
33,59
34,63
35,69
36,71
37,77
38,84
39,88
40,92
41,100
42,112
43,118
44,123
45,135
46,144
47,152
48,162
49,172
50,183
51,197
52,208
53,219
54,232
55,240
56,259
57,279
58,294
59,316
60,336
61,353
62,371
63,395
64,414
65,435
66,455
67,482
68,503
69,524
70,550
71,571
72,593
73,608
74,631
75,656
76,685
77,705
78,730
79,760
80,793
