0,1
1,1
2,1
3,1
4,2
5,2
6,2
7,2
8,3
9,4
10,4
11,5
12,6
13,6
14,7
15,7
16,9
17,11
18,14
19,15
20,16
21,17
22,18
23,20
24,24
25,24
26,25
27,28
28,29
29,31
30,34
31,36
32,40
33,42
34,46
35,49
36,53
37,61
38,70
39,76
40,80
41,81
42,90
43,102
44,106
45,113
46,121
47,133
48,146
49,157
50,173
51,183
52,194
53,208
54,216
55,236
56,249
57,266
58,280
59,293
60,305
61,321
62,352
63,375
64,387
65,410
66,436
67,474
68,497
69,533
70,566
71,600
72,629
73,672
74,714
75,765
76,813
77,858
78,913
79,978
80,1043
