0,1
1,1
2,1
3,1
4,1
5,1
6,2
7,2
8,2
9,3
10,3
11,4
12,4
13,5
14,5
15,5
16,6
17,6
18,6
19,6
20,7
21,8
22,8
23,8
24,9
25,10
26,10
27,10
28,12
29,14
30,14
31,15
32,17
33,17
34,17
35,18
36,20
37,20
38,21
39,22
40,24
41,24
42,25
43,29
44,30
45,31
46,31
47,33
48,36
49,36
50,39
51,40
52,41
53,41
54,42
55,42
56,43
57,44
58,44
59,45
60,46
61,46
62,48
63,48
64,48
65,49
66,51
67,51
68,52
69,52
70,52
71,52
72,53
73,53
74,53
75,54
76,54
77,54
78,54
79,54
80,54
