0,1
1,1
2,1
3,1
4,2
5,4
6,5
7,5
8,9
9,11
10,13
11,18
12,20
13,24
14,28
15,36
16,38
17,41
18,43
19,46
20,50
21,53
22,56
23,58
24,62
25,68
26,77
27,83
28,90
29,97
30,101
31,108
32,121
33,132
34,138
35,153
36,160
37,179
38,193
39,204
40,220
41,234
42,246
43,260
44,282
45,305
46,314
47,332
48,354
49,370
50,387
51,403
52,422
53,441
54,458
55,470
56,481
57,504
58,515
59,524
60,536
61,552
62,570
63,583
64,599
65,619
66,643
67,662
68,688
69,701
70,723
71,756
72,787
73,814
74,835
75,861
76,893
77,919
78,950
79,980
80,998
