0,1
1,1
2,1
3,1
4,1
5,2
6,3
7,3
8,4
9,4
10,4
11,4
12,4
13,4
14,5
15,7
16,7
17,8
18,9
19,10
20,11
21,12
22,12
23,12
24,13
25,18
26,19
27,21
28,21
29,24
30,26
31,28
32,29
33,29
34,31
35,32
36,34
37,36
38,37
39,39
40,42
41,43
42,46
43,48
44,48
45,51
46,52
47,52
48,52
49,52
50,53
51,53
52,53
53,53
54,55
55,56
56,56
57,57
58,57
59,58
60,59
61,59
62,59
63,60
64,60
65,63
66,63
67,64
68,64
69,65
70,65
71,67
72,69
73,71
74,71
75,73
76,74
77,74
78,76
79,77
80,78
