0,1
1,1
2,2
3,2
4,2
5,2
6,2
7,4
8,5
9,5
10,6
11,7
12,8
13,10
14,12
15,14
16,14
17,16
18,18
19,18
20,23
21,24
22,25
23,27
24,30
25,31
26,32
27,36
28,40
29,42
30,43
31,48
32,51
33,51
34,58
35,58
36,60
37,68
38,73
39,75
40,80
41,86
42,91
43,95
44,97
45,104
46,108
47,117
48,122
49,131
50,133
51,141
52,147
53,155
54,164
55,179
56,186
57,197
58,207
59,218
60,230
61,242
62,259
63,274
64,293
65,309
66,327
67,348
68,369
69,389
70,409
71,427
72,444
73,464
74,497
75,515
76,536
77,562
78,598
79,624
80,653
