0,1
1,1
2,1
3,1
4,1
5,1
6,2
7,3
8,3
9,6
10,7
11,10
12,10
13,10
14,10
15,10
16,11
17,13
18,15
19,15
20,15
21,18
22,20
23,21
24,23
25,24
26,26
27,28
28,30
29,34
30,41
31,46
32,47
33,53
34,61
35,68
36,72
37,87
38,97
39,100
40,109
41,119
42,127
43,138
44,147
45,161
46,172
47,190
48,198
49,211
50,225
51,239
52,255
53,269
54,291
55,305
56,323
57,337
58,358
59,376
60,399
61,418
62,442
63,465
64,494
65,523
66,549
67,580
68,613
69,646
70,672
71,714
72,756
73,789
74,821
75,856
76,887
77,923
78,962
79,1000
80,1039
