0,1
1,1
2,1
3,1
4,1
5,1
6,1
7,2
8,3
9,3
10,3
11,4
12,7
13,8
14,9
15,9
16,10
17,11
18,12
19,14
20,15
21,17
22,17
23,19
24,22
25,25
26,28
27,30
28,32
29,35
30,40
31,41
32,43
33,47
34,51
35,52
36,55
37,58
38,61
39,61
40,66
41,68
42,70
43,73
44,77
45,78
46,82
47,83
48,86
49,91
50,96
51,97
52,101
53,107
54,115
55,116
56,121
57,127
58,130
59,135
60,139
61,143
62,146
63,152
64,162
65,171
66,174
67,180
68,187
69,191
70,200
71,205
72,216
73,224
74,234
75,241
76,253
77,259
78,268
79,279
80,295
