0,1
1,1
2,1
3,1
4,1
5,2
6,2
7,2
8,2
9,3
10,3
11,3
12,3
13,3
14,3
15,4
16,5
17,5
18,6
19,9
20,10
21,10
22,10
23,15
24,17
25,17
26,18
27,22
28,22
29,25
30,26
31,26
32,27
33,30
34,33
35,33
36,34
37,37
38,39
39,41
40,45
41,49
42,51
43,54
44,61
45,70
46,77
47,84
48,90
49,99
50,104
51,107
52,114
53,120
54,126
55,130
56,138
57,144
58,150
59,160
60,170
61,179
62,190
63,198
64,215
65,223
66,229
67,247
68,265
69,278
70,294
71,312
72,331
73,344
74,365
75,382
76,411
77,442
78,464
79,487
80,514
