0,1
1,1
2,1
3,1
4,1
5,2
6,2
7,2
8,2
9,2
10,2
11,2
12,2
13,3
14,3
15,3
16,4
17,4
18,5
19,6
20,6
21,7
22,7
23,8
24,8
25,10
26,10
27,12
28,13
29,14
30,16
31,18
32,20
33,21
34,21
35,21
36,22
37,23
38,26
39,27
40,28
41,30
42,31
43,31
44,33
45,35
46,38
47,38
48,41
49,44
50,45
51,46
52,49
53,50
54,51
55,54
56,58
57,58
58,60
59,65
60,66
61,69
62,72
63,75
64,81
65,84
66,88
67,90
68,96
69,97
70,99
71,101
72,104
73,106
74,111
75,113
76,115
77,116
78,118
79,122
80,123
