0,1
1,1
2,1
3,1
4,1
5,1
6,3
7,3
8,3
9,4
10,5
11,7
12,9
13,10
14,10
15,10
16,12
17,14
18,14
19,16
20,16
21,17
22,17
23,19
24,21
25,23
26,24
27,27
28,30
29,31
30,35
31,39
32,46
33,55
34,60
35,67
36,71
37,75
38,89
39,99
40,105
41,115
42,123
43,132
44,134
45,146
46,159
47,168
48,180
49,190
50,199
51,208
52,222
53,231
54,238
55,256
56,270
57,285
58,305
59,321
60,337
61,350
62,380
63,393
64,412
65,430
66,464
67,482
68,508
69,528
70,554
71,592
72,624
73,663
74,702
75,737
76,778
77,831
78,880
79,947
80,1011
