0,1
1,1
2,1
3,1
4,1
5,2
6,2
7,2
8,3
9,4
10,4
11,4
12,6
13,7
14,9
15,9
16,10
17,10
18,10
19,11
20,12
21,13
22,13
23,13
24,14
25,14
26,14
27,14
28,16
29,16
30,16
31,17
32,20
33,25
34,27
35,27
36,28
37,31
38,33
39,37
40,37
41,41
42,42
43,47
44,50
45,51
46,54
47,57
48,61
49,65
50,68
51,73
52,79
53,84
54,86
55,101
56,115
57,127
58,140
59,154
60,161
61,172
62,191
63,202
64,215
65,228
66,249
67,263
68,276
69,293
70,309
71,331
72,350
73,380
74,402
75,422
76,438
77,454
78,479
79,516
80,538
