0,1
1,1
2,1
3,1
4,2
5,2
6,3
7,4
8,4
9,4
10,5
11,5
12,6
13,6
14,6
15,10
16,11
17,11
18,14
19,14
20,14
21,16
22,16
23,16
24,16
25,17
26,17
27,18
28,18
29,19
30,19
31,20
32,21
33,23
34,24
35,28
36,33
37,38
38,41
39,46
40,50
41,58
42,62
43,68
44,70
45,79
46,84
47,97
48,100
49,102
50,113
51,117
52,126
53,132
54,139
55,146
56,155
57,161
58,175
59,187
60,196
61,206
62,213
63,227
64,237
65,249
66,259
67,270
68,286
69,300
70,314
71,330
72,335
73,348
74,357
75,370
76,390
77,403
78,411
79,419
80,435
