0,1
1,1
2,1
3,1
4,2
5,2
6,4
7,4
8,4
9,6
10,9
11,10
12,11
13,13
14,17
15,20
16,25
17,31
18,32
19,33
20,35
21,39
22,43
23,44
24,45
25,47
26,47
27,54
28,57
29,58
30,61
31,61
32,63
33,65
34,69
35,71
36,72
37,76
38,77
39,79
40,80
41,81
42,84
43,88
44,89
45,90
46,93
47,93
48,94
49,96
50,99
51,99
52,100
53,103
54,105
55,107
56,107
57,109
58,113
59,114
60,115
61,120
62,125
63,128
64,132
65,137
66,141
67,144
68,146
69,150
70,154
71,155
72,165
73,174
74,185
75,190
76,196
77,201
78,216
79,224
80,241
