0,1
1,1
2,1
3,1
4,1
5,2
6,2
7,4
8,5
9,8
10,10
11,12
12,13
13,14
14,17
15,19
16,27
17,30
18,32
19,34
20,37
21,43
22,46
23,48
24,51
25,57
26,60
27,64
28,68
29,75
30,78
31,83
32,90
33,94
34,98
35,105
36,110
37,113
38,122
39,131
40,139
41,147
42,154
43,167
44,182
45,194
46,203
47,217
48,231
49,240
50,256
51,268
52,280
53,286
54,292
55,305
56,317
57,337
58,349
59,358
60,376
61,385
62,402
63,413
64,430
65,449
66,473
67,487
68,498
69,515
70,531
71,551
72,573
73,590
74,615
75,643
76,666
77,692
78,718
79,756
80,787
