0,1
1,1
2,1
3,1
4,1
5,2
6,2
7,3
8,4
9,4
10,4
11,4
12,5
13,6
14,6
15,7
16,7
17,8
18,9
19,10
20,10
21,11
22,15
23,17
24,18
25,22
26,25
27,28
28,33
29,35
30,38
31,40
32,42
33,44
34,48
35,49
36,51
37,52
38,52
39,53
40,56
41,56
42,58
43,60
44,64
45,65
46,67
47,70
48,72
49,76
50,80
51,83
52,84
53,88
54,92
55,95
56,97
57,100
58,102
59,104
60,107
61,111
62,118
63,120
64,121
65,125
66,129
67,134
68,137
69,139
70,146
71,155
72,159
73,167
74,172
75,174
76,183
77,187
78,191
79,195
80,199
