0,1
1,1
2,1
3,1
4,1
5,1
6,1
7,2
8,2
9,2
10,2
11,3
12,4
13,4
14,4
15,4
16,4
17,5
18,5
19,6
20,6
21,7
22,8
23,10
24,10
25,12
26,13
27,13
28,16
29,19
30,24
31,26
32,30
33,32
34,34
35,36
36,40
37,43
38,46
39,53
40,59
41,65
42,75
43,81
44,83
45,88
46,91
47,96
48,103
49,112
50,119
51,125
52,134
53,140
54,148
55,155
56,171
57,181
58,196
59,204
60,214
61,222
62,236
63,247
64,267
65,283
66,300
67,313
68,321
69,332
70,352
71,372
72,397
73,415
74,442
75,472
76,502
77,525
78,562
79,589
80,624
