0,1
1,1
2,1
3,1
4,1
5,1
6,3
7,4
8,4
9,5
10,6
11,7
12,7
13,11
14,12
15,14
16,14
17,18
18,20
19,21
20,23
21,27
22,34
23,38
24,41
25,46
26,50
27,52
28,58
29,66
30,72
31,79
32,85
33,91
34,97
35,104
36,107
37,120
38,123
39,128
40,132
41,141
42,158
43,167
44,187
45,198
46,209
47,223
48,236
49,246
50,257
51,270
52,291
53,306
54,327
55,347
56,367
57,386
58,409
59,430
60,458
61,480
62,505
63,532
64,559
65,593
66,623
67,653
68,677
69,714
70,760
71,801
72,835
73,885
74,929
75,972
76,1026
77,1086
78,1146
79,1193
80,1259
