0,1
1,1
2,1
3,1
4,3
5,4
6,5
7,6
8,7
9,11
10,13
11,14
12,15
13,18
14,21
15,25
16,27
17,29
18,32
19,34
20,35
21,37
22,43
23,46
24,49
25,50
26,53
27,55
28,59
29,67
30,74
31,81
32,88
33,94
34,101
35,109
36,119
37,133
38,140
39,154
40,167
41,178
42,192
43,205
44,221
45,237
46,257
47,283
48,303
49,325
50,341
51,355
52,387
53,417
54,453
55,486
56,512
57,545
58,590
59,618
60,649
61,688
62,730
63,777
64,825
65,862
66,906
67,954
68,1001
69,1061
70,1125
71,1173
72,1243
73,1317
74,1378
75,1435
76,1515
77,1594
78,1664
79,1738
80,1828
