0,1
1,1
2,1
3,1
4,1
5,4
6,4
7,4
8,4
9,7
10,9
11,10
12,11
13,13
14,13
15,15
16,17
17,20
18,21
19,22
20,24
21,25
22,26
23,28
24,32
25,34
26,34
27,34
28,38
29,40
30,42
31,43
32,43
33,50
34,53
35,54
36,59
37,60
38,64
39,69
40,73
41,79
42,82
43,83
44,84
45,87
46,87
47,91
48,94
49,96
50,98
51,100
52,105
53,107
54,110
55,114
56,118
57,120
58,127
59,133
60,142
61,146
62,150
63,152
64,156
65,163
66,167
67,172
68,175
69,180
70,191
71,200
72,206
73,215
74,223
75,236
76,245
77,254
78,268
79,276
80,287
