0,1
1,1
2,1
3,1
4,2
5,2
6,3
7,3
8,5
9,7
10,10
11,10
12,12
13,12
14,15
15,15
16,17
17,17
18,20
19,23
20,25
21,25
22,28
23,31
24,33
25,35
26,36
27,39
28,42
29,45
30,45
31,46
32,47
33,50
34,51
35,52
36,56
37,57
38,59
39,60
40,61
41,67
42,70
43,74
44,79
45,84
46,90
47,98
48,102
49,107
50,114
51,123
52,130
53,135
54,147
55,155
56,159
57,172
58,185
59,197
60,208
61,221
62,238
63,253
64,270
65,284
66,302
67,329
68,353
69,381
70,403
71,432
72,457
73,482
74,520
75,560
76,590
77,625
78,670
79,714
80,749
