0,1
1,1
2,1
3,1
4,1
5,1
6,2
7,2
8,2
9,3
10,4
11,6
12,8
13,8
14,8
15,9
16,10
17,12
18,15
19,16
20,18
21,19
22,21
23,26
24,27
25,28
26,28
27,29
28,29
29,32
30,35
31,37
32,38
33,46
34,48
35,50
36,50
37,55
38,57
39,60
40,65
41,69
42,73
43,76
44,83
45,88
46,95
47,99
48,107
49,110
50,118
51,124
52,129
53,137
54,146
55,150
56,166
57,173
58,180
59,190
60,204
61,214
62,220
63,234
64,242
65,253
66,263
67,271
68,284
69,302
70,311
71,319
72,331
73,347
74,370
75,385
76,397
77,421
78,447
79,477
80,508
