0,1
1,1
2,1
3,1
4,1
5,2
6,3
7,4
8,4
9,4
10,4
11,5
12,5
13,7
14,9
15,10
16,11
17,13
18,13
19,16
20,18
21,20
22,20
23,20
24,22
25,25
26,30
27,33
28,35
29,38
30,40
31,46
32,51
33,58
34,62
35,63
36,68
37,71
38,76
39,83
40,87
41,91
42,99
43,103
44,108
45,117
46,123
47,131
48,135
49,141
50,146
51,151
52,162
53,169
54,177
55,182
56,189
57,198
58,202
59,213
60,228
61,242
62,254
63,264
64,275
65,292
66,311
67,327
68,349
69,372
70,393
71,417
72,435
73,464
74,496
75,523
76,555
77,591
78,624
79,657
80,696
