0,1
1,1
2,1
3,1
4,1
5,1
6,1
7,1
8,1
9,1
10,2
11,2
12,2
13,2
14,4
15,4
16,4
17,5
18,6
19,8
20,9
21,13
22,13
23,14
24,15
25,16
26,18
27,21
28,22
29,22
30,23
31,27
32,29
33,30
34,33
35,35
36,38
37,40
38,42
39,45
40,49
41,50
42,53
43,55
44,58
45,61
46,62
47,66
48,70
49,72
50,79
51,85
52,90
53,96
54,100
55,107
56,116
57,123
58,129
59,139
60,153
61,156
62,166
63,174
64,179
65,191
66,206
67,218
68,232
69,237
70,247
71,262
72,284
73,298
74,322
75,341
76,365
77,385
78,413
79,435
80,460
