0,1
1,1
2,1
3,1
4,1
5,1
6,3
7,4
8,4
9,4
10,5
11,5
12,5
13,6
14,6
15,7
16,9
17,11
18,12
19,12
20,13
21,15
22,17
23,18
24,18
25,19
26,22
27,23
28,24
29,25
30,26
31,30
32,32
33,32
34,38
35,39
36,43
37,51
38,56
39,59
40,61
41,63
42,73
43,78
44,86
45,94
46,98
47,103
48,106
49,116
50,122
51,127
52,133
53,141
54,148
55,159
56,176
57,186
58,197
59,211
60,223
61,242
62,259
63,278
64,294
65,315
66,339
67,361
68,378
69,406
70,427
71,453
72,485
73,514
74,539
75,562
76,591
77,634
78,667
79,697
80,724
