0,1
1,1
2,1
3,1
4,2
5,2
6,2
7,3
8,4
9,4
10,4
11,4
12,6
13,6
14,6
15,6
16,7
17,7
18,8
19,9
20,10
21,10
22,10
23,12
24,12
25,13
26,14
27,15
28,16
29,17
30,19
31,22
32,24
33,25
34,27
35,28
36,31
37,31
38,35
39,39
40,41
41,48
42,49
43,51
44,57
45,62
46,67
47,70
48,75
49,83
50,89
51,95
52,98
53,105
54,107
55,110
56,116
57,123
58,127
59,133
60,136
61,148
62,158
63,165
64,173
65,180
66,187
67,195
68,202
69,215
70,224
71,233
72,243
73,258
74,275
75,288
76,300
77,314
78,326
79,343
80,356
