0,1
1,1
2,2
3,3
4,3
5,3
6,5
7,6
8,6
9,10
10,12
11,12
12,14
13,14
14,17
15,18
16,19
17,20
18,20
19,20
20,20
21,20
22,23
23,23
24,23
25,23
26,23
27,24
28,24
29,24
30,24
31,24
32,24
33,24
34,26
35,26
36,27
37,27
38,30
39,31
40,32
41,33
42,35
43,38
44,38
45,40
46,42
47,42
48,45
49,47
50,49
51,50
52,54
53,55
54,55
55,59
56,63
57,66
58,67
59,68
60,70
61,71
62,75
63,80
64,82
65,85
66,89
67,94
68,101
69,110
70,115
71,120
72,125
73,134
74,144
75,154
76,167
77,172
78,181
79,198
80,215
