0,1
1,1
2,1
3,1
4,1
5,2
6,3
7,3
8,4
9,4
10,4
11,5
12,6
13,7
14,8
15,9
16,9
17,9
18,10
19,10
20,12
21,13
22,15
23,15
24,15
25,15
26,17
27,20
28,21
29,23
30,24
31,26
32,28
33,29
34,30
35,30
36,37
37,38
38,41
39,43
40,45
41,47
42,47
43,50
44,52
45,55
46,57
47,60
48,61
49,66
50,67
51,69
52,72
53,76
54,78
55,80
56,81
57,86
58,88
59,93
60,98
61,106
62,110
63,115
64,124
65,128
66,139
67,146
68,154
69,161
70,170
71,180
72,193
73,207
74,222
75,242
76,256
77,271
78,288
79,303
80,321
