0,1
1,1
2,1
3,1
4,1
5,1
6,1
7,3
8,3
9,3
10,4
11,6
12,6
13,6
14,6
15,9
16,11
17,11
18,13
19,13
20,14
21,14
22,14
23,15
24,15
25,15
26,16
27,16
28,16
29,16
30,19
31,20
32,21
33,22
34,23
35,23
36,25
37,28
38,29
39,31
40,33
41,35
42,36
43,36
44,38
45,41
46,42
47,46
48,47
49,50
50,53
51,61
52,66
53,68
54,77
55,83
56,91
57,102
58,103
59,108
60,115
61,121
62,129
63,133
64,139
65,148
66,155
67,164
68,172
69,174
70,184
71,192
72,199
73,206
74,211
75,215
76,227
77,235
78,245
79,257
80,263
