0,1
1,1
2,1
3,2
4,3
5,3
6,3
7,4
8,5
9,5
10,7
11,7
12,7
13,9
14,10
15,11
16,13
17,16
18,16
19,17
20,19
21,20
22,23
23,25
24,26
25,29
26,31
27,38
28,42
29,47
30,50
31,54
32,57
33,65
34,67
35,72
36,76
37,79
38,86
39,96
40,100
41,106
42,112
43,119
44,131
45,144
46,150
47,156
48,166
49,178
50,195
51,210
52,222
53,233
54,240
55,254
56,269
57,285
58,296
59,311
60,322
61,340
62,359
63,382
64,397
65,419
66,439
67,468
68,494
69,518
70,546
71,574
72,610
73,641
74,675
75,717
76,761
77,802
78,863
79,917
80,977
