0,1
1,1
2,1
3,2
4,2
5,4
6,4
7,4
8,5
9,6
10,6
11,8
12,11
13,13
14,14
15,15
16,17
17,23
18,25
19,27
20,30
21,34
22,40
23,45
24,54
25,61
26,73
27,84
28,92
29,103
30,117
31,129
32,141
33,159
34,169
35,183
36,206
37,223
38,231
39,242
40,264
41,275
42,298
43,323
44,347
45,378
46,399
47,422
48,447
49,474
50,500
51,527
52,555
53,582
54,619
55,652
56,682
57,706
58,736
59,761
60,796
61,834
62,868
63,903
64,942
65,975
66,1009
67,1047
68,1089
69,1131
70,1181
71,1230
72,1273
73,1329
74,1391
75,1468
76,1533
77,1603
78,1667
79,1754
80,1839
