0,1
1,1
2,1
3,1
4,2
5,3
6,3
7,4
8,5
9,7
10,7
11,8
12,8
13,9
14,10
15,10
16,10
17,10
18,12
19,12
20,12
21,12
22,13
23,14
24,15
25,15
26,15
27,16
28,16
29,16
30,18
31,19
32,21
33,21
34,21
35,23
36,24
37,24
38,24
39,24
40,26
41,27
42,28
43,28
44,28
45,30
46,31
47,31
48,32
49,35
50,36
51,38
52,39
53,41
54,43
55,46
56,49
57,52
58,56
59,62
60,65
61,65
62,69
63,75
64,82
65,90
66,93
67,96
68,100
69,110
70,113
71,119
72,124
73,128
74,138
75,144
76,147
77,153
78,157
79,163
80,167
