0,1
1,1
2,1
3,2
4,2
5,3
6,5
7,6
8,7
9,9
10,14
11,14
12,15
13,19
14,23
15,26
16,30
17,33
18,37
19,41
20,46
21,51
22,54
23,61
24,65
25,71
26,81
27,86
28,94
29,106
30,112
31,116
32,125
33,135
34,146
35,158
36,169
37,177
38,184
39,196
40,207
41,215
42,229
43,243
44,259
45,274
46,288
47,310
48,331
49,353
50,370
51,391
52,412
53,447
54,473
55,503
56,530
57,569
58,596
59,619
60,655
61,702
62,745
63,777
64,821
65,879
66,927
67,974
68,1012
69,1079
70,1134
71,1191
72,1253
73,1326
74,1404
75,1471
76,1558
77,1632
78,1706
79,1783
80,1864
