0,1
1,1
2,1
3,1
4,1
5,1
6,2
7,2
8,2
9,4
10,4
11,4
12,4
13,5
14,5
15,6
16,6
17,6
18,6
19,6
20,7
21,8
22,8
23,8
24,9
25,11
26,12
27,13
28,15
29,15
30,17
31,20
32,22
33,24
34,26
35,28
36,32
37,36
38,45
39,51
40,55
41,58
42,68
43,76
44,84
45,93
46,101
47,111
48,118
49,120
50,135
51,148
52,155
53,164
54,178
55,187
56,200
57,214
58,223
59,237
60,254
61,272
62,286
63,296
64,312
65,329
66,337
67,354
68,365
69,373
70,388
71,404
72,418
73,431
74,449
75,462
76,481
77,501
78,523
79,542
80,573
