0,1
1,1
2,1
3,1
4,1
5,2
6,2
7,3
8,4
9,5
10,6
11,7
12,7
13,9
14,9
15,12
16,12
17,13
18,15
19,17
20,18
21,19
22,20
23,21
24,22
25,26
26,27
27,28
28,28
29,29
30,31
31,32
32,34
33,34
34,35
35,36
36,36
37,39
38,41
39,42
40,43
41,44
42,48
43,48
44,49
45,51
46,52
47,53
48,53
49,56
50,59
51,60
52,64
53,68
54,69
55,74
56,76
57,80
58,84
59,85
60,93
61,97
62,100
63,101
64,110
65,113
66,117
67,123
68,127
69,136
70,145
71,150
72,156
73,161
74,175
75,183
76,199
77,211
78,219
79,229
80,244
