0,1
1,1
2,1
3,1
4,2
5,2
6,3
7,3
8,3
9,3
10,3
11,4
12,4
13,4
14,4
15,5
16,5
17,5
18,5
19,6
20,6
21,8
22,8
23,9
24,9
25,10
26,10
27,11
28,11
29,12
30,14
31,16
32,17
33,18
34,19
35,19
36,22
37,24
38,24
39,24
40,26
41,28
42,30
43,32
44,35
45,36
46,40
47,45
48,47
49,49
50,53
51,56
52,59
53,65
54,70
55,71
56,76
57,79
58,83
59,87
60,92
61,96
62,98
63,100
64,106
65,111
66,114
67,116
68,117
69,128
70,134
71,142
72,145
73,148
74,155
75,160
76,165
77,170
78,174
79,181
80,185
