0,1
1,1
2,1
3,2
4,2
5,3
6,3
7,3
8,4
9,5
10,5
11,6
12,10
13,11
14,11
15,13
16,15
17,18
18,21
19,22
20,23
21,23
22,25
23,28
24,31
25,35
26,37
27,39
28,43
29,47
30,50
31,53
32,55
33,59
34,62
35,65
36,67
37,69
38,74
39,77
40,79
41,79
42,81
43,85
44,90
45,94
46,97
47,101
48,106
49,115
50,119
51,126
52,132
53,136
54,144
55,153
56,159
57,163
58,168
59,170
60,174
61,179
62,187
63,195
64,200
65,210
66,220
67,237
68,242
69,249
70,254
71,269
72,281
73,291
74,299
75,316
76,324
77,336
78,349
79,362
80,373
