0,1
1,1
2,1
3,1
4,1
5,1
6,1
7,2
8,2
9,2
10,2
11,2
12,2
13,3
14,3
15,4
16,4
17,5
18,6
19,7
20,9
21,12
22,14
23,15
24,17
25,19
26,24
27,26
28,28
29,29
30,35
31,37
32,38
33,44
34,49
35,51
36,55
37,61
38,64
39,66
40,72
41,77
42,80
43,89
44,90
45,92
46,99
47,110
48,112
49,118
50,122
51,130
52,132
53,139
54,145
55,159
56,170
57,174
58,182
59,192
60,206
61,212
62,224
63,232
64,246
65,259
66,264
67,272
68,290
69,305
70,319
71,328
72,340
73,345
74,354
75,369
76,383
77,393
78,413
79,431
80,441
