0,1
1,1
2,1
3,1
4,1
5,2
6,2
7,2
8,2
9,2
10,2
11,2
12,4
13,4
14,4
15,4
16,5
17,5
18,5
19,7
20,8
21,8
22,8
23,8
24,10
25,11
26,13
27,14
28,14
29,16
30,17
31,17
32,18
33,21
34,22
35,26
36,29
37,32
38,36
39,45
40,49
41,56
42,61
43,64
44,72
45,80
46,92
47,103
48,112
49,124
50,135
51,144
52,156
53,173
54,183
55,206
56,219
57,234
58,246
59,263
60,289
61,303
62,322
63,346
64,371
65,384
66,409
67,440
68,475
69,495
70,515
71,541
72,572
73,597
74,627
75,667
76,694
77,736
78,774
79,826
80,869
