0,1
1,1
2,1
3,1
4,1
5,3
6,5
7,6
8,8
9,9
10,9
11,12
12,12
13,14
14,15
15,19
16,19
17,20
18,24
19,26
20,28
21,29
22,33
23,36
24,39
25,39
26,40
27,41
28,42
29,43
30,43
31,43
32,44
33,45
34,45
35,47
36,48
37,49
38,51
39,53
40,53
41,53
42,58
43,59
44,61
45,65
46,68
47,72
48,75
49,78
50,82
51,86
52,87
53,92
54,96
55,96
56,101
57,104
58,108
59,112
60,120
61,124
62,128
63,133
64,144
65,150
66,157
67,164
68,172
69,180
70,194
71,203
72,215
73,219
74,229
75,237
76,248
77,256
78,275
79,284
80,294
