0,1
1,1
2,1
3,1
4,1
5,1
6,1
7,1
8,1
9,1
10,2
11,2
12,2
13,2
14,2
15,2
16,2
17,3
18,3
19,3
20,7
21,7
22,11
23,11
24,13
25,15
26,21
27,24
28,25
29,29
30,29
31,34
32,38
33,39
34,42
35,49
36,54
37,57
38,64
39,67
40,72
41,75
42,78
43,81
44,86
45,89
46,96
47,108
48,114
49,122
50,132
51,141
52,160
53,171
54,186
55,200
56,219
57,241
58,255
59,276
60,294
61,313
62,331
63,350
64,367
65,385
66,406
67,419
68,432
69,458
70,481
71,507
72,533
73,555
74,576
75,603
76,633
77,663
78,705
79,739
80,772
