0,1
1,1
2,1
3,2
4,2
5,3
6,4
7,5
8,9
9,10
10,14
11,16
12,17
13,22
14,30
15,41
16,47
17,53
18,61
19,68
20,81
21,85
22,93
23,109
24,115
25,130
26,141
27,156
28,174
29,190
30,214
31,231
32,259
33,276
34,307
35,333
36,370
37,388
38,419
39,448
40,483
41,540
42,572
43,606
44,649
45,691
46,733
47,777
48,817
49,866
50,908
51,967
52,1026
53,1088
54,1163
55,1218
56,1290
57,1361
58,1444
59,1520
60,1602
61,1692
62,1787
63,1880
64,1993
65,2095
66,2227
67,2345
68,2463
69,2577
70,2738
71,2892
72,3046
73,3226
74,3401
75,3588
76,3774
77,3978
78,4168
79,4404
80,4636
