0,1
1,1
2,1
3,1
4,1
5,1
6,1
7,1
8,1
9,1
10,2
11,2
12,2
13,2
14,2
15,2
16,3
17,3
18,4
19,5
20,5
21,6
22,7
23,7
24,9
25,11
26,11
27,11
28,13
29,15
30,17
31,17
32,17
33,18
34,20
35,22
36,22
37,23
38,25
39,30
40,31
41,34
42,36
43,37
44,42
45,46
46,46
47,49
48,52
49,54
50,56
51,57
52,60
53,63
54,64
55,66
56,72
57,76
58,79
59,87
60,99
61,103
62,111
63,119
64,125
65,133
66,141
67,152
68,162
69,172
70,186
71,195
72,205
73,216
74,226
75,234
76,243
77,255
78,265
79,273
80,280
