0,1
1,1
2,1
3,1
4,1
5,1
6,1
7,1
8,1
9,1
10,2
11,3
12,3
13,3
14,3
15,4
16,4
17,4
18,4
19,6
20,7
21,7
22,8
23,8
24,11
25,13
26,15
27,15
28,16
29,16
30,18
31,18
32,20
33,22
34,24
35,25
36,26
37,29
38,29
39,31
40,32
41,33
42,34
43,34
44,34
45,34
46,35
47,36
48,37
49,37
50,37
51,39
52,39
53,39
54,39
55,39
56,39
57,41
58,41
59,41
60,42
61,42
62,42
63,42
64,42
65,42
66,42
67,43
68,43
69,43
70,43
71,43
72,44
73,44
74,44
75,45
76,45
77,45
78,45
79,45
80,45
