0,1
1,1
2,1
3,2
4,2
5,4
6,5
7,6
8,7
9,9
10,11
11,12
12,15
13,17
14,20
15,28
16,28
17,31
18,32
19,33
20,34
21,39
22,42
23,46
24,50
25,52
26,58
27,59
28,59
29,60
30,63
31,64
32,65
33,66
34,67
35,69
36,72
37,74
38,75
39,77
40,81
41,83
42,86
43,87
44,89
45,92
46,94
47,95
48,96
49,98
50,101
51,101
52,106
53,112
54,117
55,125
56,129
57,134
58,142
59,144
60,155
61,169
62,179
63,191
64,200
65,206
66,218
67,229
68,237
69,251
70,264
71,274
72,281
73,294
74,307
75,317
76,336
77,348
78,358
79,377
80,387
