0,1
1,1
2,1
3,1
4,2
5,2
6,2
7,3
8,5
9,5
10,7
11,8
12,11
13,13
14,13
15,15
16,15
17,16
18,17
19,19
20,19
21,20
22,22
23,23
24,24
25,26
26,27
27,32
28,34
29,38
30,39
31,40
32,45
33,49
34,50
35,54
36,58
37,59
38,63
39,67
40,71
41,74
42,78
43,80
44,83
45,88
46,91
47,93
48,96
49,97
50,99
51,105
52,108
53,113
54,113
55,116
56,121
57,129
58,136
59,144
60,147
61,150
62,157
63,166
64,169
65,179
66,186
67,196
68,206
69,219
70,232
71,248
72,271
73,290
74,307
75,335
76,357
77,381
78,410
79,430
80,465
