0,1
1,1
2,1
3,1
4,1
5,1
6,1
7,2
8,5
9,5
10,5
11,5
12,5
13,7
14,7
15,8
16,9
17,11
18,12
19,16
20,18
21,18
22,20
23,21
24,22
25,23
26,27
27,27
28,29
29,32
30,36
31,39
32,45
33,46
34,48
35,49
36,52
37,57
38,64
39,70
40,74
41,81
42,86
43,93
44,106
45,111
46,118
47,132
48,142
49,151
50,162
51,176
52,193
53,200
54,220
55,233
56,256
57,274
58,290
59,307
60,338
61,358
62,387
63,419
64,454
65,478
66,515
67,544
68,583
69,623
70,660
71,701
72,755
73,810
74,854
75,918
76,979
77,1036
78,1097
79,1170
80,1233
