0,1
1,1
2,1
3,4
4,5
5,6
6,8
7,8
8,11
9,12
10,14
11,15
12,16
13,17
14,18
15,18
16,19
17,21
18,23
19,25
20,27
21,29
22,32
23,35
24,40
25,45
26,48
27,56
28,58
29,63
30,70
31,76
32,79
33,84
34,88
35,99
36,105
37,115
38,121
39,133
40,142
41,150
42,160
43,167
44,181
45,196
46,205
47,216
48,236
49,249
50,268
51,288
52,306
53,327
54,349
55,370
56,393
57,409
58,432
59,452
60,472
61,495
62,523
63,547
64,583
65,631
66,673
67,711
68,748
69,799
70,854
71,913
72,965
73,1030
74,1096
75,1164
76,1251
77,1331
78,1411
79,1515
80,1619
