0,1
1,1
2,1
3,1
4,3
5,4
6,4
7,4
8,4
9,5
10,5
11,5
12,7
13,8
14,9
15,9
16,12
17,13
18,16
19,17
20,20
21,22
22,24
23,26
24,29
25,30
26,33
27,33
28,38
29,43
30,44
31,47
32,49
33,53
34,58
35,62
36,64
37,67
38,73
39,83
40,89
41,97
42,101
43,113
44,120
45,130
46,139
47,148
48,156
49,163
50,179
51,192
52,204
53,213
54,228
55,242
56,260
57,276
58,286
59,294
60,318
61,331
62,343
63,361
64,379
65,399
66,413
67,430
68,456
69,476
70,496
71,511
72,523
73,545
74,570
75,590
76,611
77,650
78,686
79,714
80,747
