0,1
1,1
2,1
3,1
4,2
5,3
6,4
7,5
8,5
9,6
10,6
11,6
12,7
13,8
14,9
15,10
16,10
17,10
18,10
19,10
20,10
21,11
22,11
23,11
24,11
25,14
26,15
27,17
28,18
29,19
30,20
31,20
32,22
33,23
34,26
35,29
36,32
37,33
38,39
39,41
40,44
41,46
42,53
43,57
44,63
45,67
46,70
47,73
48,79
49,86
50,92
51,96
52,98
53,105
54,108
55,117
56,118
57,122
58,126
59,131
60,134
61,141
62,149
63,153
64,159
65,164
66,172
67,175
68,179
69,181
70,185
71,186
72,189
73,191
74,196
75,201
76,204
77,209
78,210
79,212
80,219
