0,1
1,1
2,1
3,1
4,1
5,1
6,1
7,1
8,1
9,2
10,2
11,2
12,2
13,2
14,3
15,4
16,4
17,4
18,6
19,7
20,7
21,11
22,11
23,13
24,15
25,18
26,20
27,24
28,29
29,29
30,35
31,37
32,41
33,48
34,52
35,56
36,61
37,71
38,80
39,87
40,99
41,108
42,117
43,126
44,143
45,157
46,167
47,173
48,183
49,196
50,209
51,220
52,234
53,249
54,261
55,277
56,297
57,313
58,332
59,361
60,393
61,419
62,445
63,474
64,510
65,543
66,578
67,619
68,660
69,693
70,735
71,772
72,822
73,871
74,918
75,968
76,1005
77,1071
78,1130
79,1200
80,1247
