0,1
1,1
2,1
3,1
4,1
5,1
6,4
7,4
8,4
9,4
10,5
11,7
12,10
13,13
14,15
15,16
16,20
17,21
18,23
19,26
20,28
21,28
22,29
23,30
24,33
25,37
26,37
27,38
28,40
29,41
30,43
31,46
32,48
33,51
34,55
35,58
36,63
37,64
38,71
39,78
40,83
41,84
42,90
43,92
44,101
45,107
46,115
47,127
48,133
49,145
50,166
51,186
52,194
53,209
54,218
55,238
56,257
57,274
58,292
59,310
60,330
61,352
62,371
63,398
64,423
65,448
66,477
67,504
68,528
69,562
70,590
71,621
72,671
73,715
74,743
75,775
76,817
77,874
78,907
79,946
80,1003
