0,1
1,1
2,1
3,1
4,1
5,2
6,2
7,2
8,3
9,3
10,3
11,4
12,8
13,10
14,11
15,13
16,14
17,17
18,19
19,20
20,24
21,25
22,27
23,32
24,35
25,37
26,40
27,42
28,48
29,52
30,53
31,58
32,58
33,60
34,64
35,65
36,69
37,76
38,79
39,81
40,83
41,87
42,90
43,92
44,95
45,96
46,99
47,101
48,103
49,107
50,109
51,113
52,117
53,122
54,130
55,131
56,137
57,141
58,150
59,155
60,162
61,166
62,170
63,180
64,186
65,194
66,200
67,208
68,219
69,226
70,240
71,248
72,262
73,270
74,287
75,298
76,328
77,351
78,371
79,388
80,407
