0,1
1,1
2,1
3,1
4,1
5,1
6,2
7,2
8,3
9,4
10,4
11,4
12,4
13,4
14,5
15,5
16,5
17,5
18,5
19,6
20,6
21,6
22,6
23,7
24,7
25,7
26,7
27,7
28,8
29,8
30,8
31,8
32,8
33,9
34,9
35,9
36,9
37,10
38,10
39,11
40,13
41,15
42,16
43,17
44,20
45,21
46,23
47,24
48,25
49,30
50,31
51,34
52,38
53,41
54,47
55,53
56,58
57,69
58,75
59,84
60,95
61,103
62,117
63,128
64,137
65,148
66,156
67,171
68,177
69,194
70,209
71,222
72,237
73,248
74,262
75,288
76,308
77,334
78,361
79,385
80,409
