0,1
1,1
2,2
3,2
4,2
5,2
6,3
7,3
8,4
9,5
10,5
11,5
12,7
13,7
14,7
15,7
16,8
17,8
18,9
19,10
20,10
21,11
22,12
23,12
24,13
25,14
26,15
27,16
28,17
29,18
30,19
31,21
32,27
33,33
34,33
35,35
36,41
37,41
38,42
39,45
40,51
41,53
42,57
43,58
44,59
45,61
46,63
47,65
48,65
49,67
50,67
51,72
52,75
53,76
54,79
55,81
56,84
57,88
58,88
59,92
60,94
61,95
62,100
63,107
64,108
65,109
66,112
67,116
68,120
69,121
70,128
71,134
72,135
73,138
74,143
75,146
76,149
77,156
78,160
79,163
80,168
