0,1
1,1
2,1
3,1
4,1
5,1
6,1
7,1
8,1
9,1
10,2
11,2
12,2
13,3
14,4
15,5
16,5
17,7
18,7
19,10
20,12
21,13
22,13
23,13
24,17
25,17
26,18
27,19
28,22
29,22
30,23
31,24
32,26
33,27
34,28
35,28
36,29
37,34
38,35
39,37
40,38
41,41
42,43
43,46
44,51
45,55
46,58
47,61
48,63
49,70
50,73
51,79
52,83
53,87
54,95
55,103
56,106
57,110
58,115
59,121
60,129
61,138
62,145
63,151
64,153
65,168
66,183
67,192
68,200
69,208
70,216
71,225
72,236
73,248
74,255
75,263
76,276
77,285
78,299
79,312
80,325
