0,1
1,1
2,1
3,3
4,3
5,3
6,5
7,5
8,6
9,7
10,9
11,10
12,11
13,14
14,17
15,17
16,17
17,18
18,19
19,20
20,20
21,21
22,22
23,23
24,25
25,25
26,26
27,26
28,29
29,30
30,30
31,32
32,32
33,33
34,34
35,38
36,39
37,43
38,44
39,49
40,53
41,59
42,59
43,63
44,68
45,72
46,80
47,83
48,89
49,96
50,103
51,109
52,116
53,124
54,131
55,141
56,149
57,163
58,173
59,182
60,200
61,210
62,219
63,230
64,249
65,261
66,271
67,288
68,310
69,322
70,346
71,366
72,391
73,418
74,441
75,459
76,486
77,515
78,552
79,587
80,626
