0,1
1,1
2,1
3,1
4,2
5,2
6,2
7,2
8,2
9,2
10,3
11,3
12,3
13,3
14,3
15,3
16,4
17,4
18,4
19,5
20,5
21,5
22,6
23,6
24,7
25,7
26,9
27,10
28,10
29,10
30,10
31,10
32,11
33,11
34,11
35,13
36,14
37,14
38,15
39,16
40,17
41,17
42,18
43,19
44,20
45,21
46,21
47,22
48,22
49,24
50,24
51,25
52,25
53,25
54,26
55,28
56,29
57,30
58,30
59,34
60,37
61,39
62,39
63,41
64,44
65,52
66,60
67,62
68,64
69,67
70,72
71,75
72,77
73,82
74,89
75,94
76,102
77,104
78,110
79,122
80,128
