0,1
1,1
2,1
3,1
4,1
5,1
6,1
7,2
8,2
9,3
10,3
11,6
12,7
13,9
14,9
15,10
16,14
17,15
18,15
19,18
20,20
21,26
22,28
23,31
24,33
25,34
26,35
27,38
28,45
29,50
30,56
31,63
32,70
33,77
34,80
35,90
36,97
37,107
38,112
39,118
40,125
41,129
42,137
43,143
44,150
45,156
46,159
47,165
48,171
49,179
50,189
51,200
52,205
53,215
54,224
55,239
56,256
57,272
58,285
59,310
60,325
61,345
62,376
63,400
64,420
65,452
66,481
67,512
68,544
69,579
70,605
71,647
72,686
73,726
74,753
75,793
76,835
77,876
78,913
79,966
80,1027
