0,1
1,1
2,1
3,2
4,3
5,3
6,4
7,7
8,8
9,9
10,10
11,10
12,13
13,15
14,17
15,19
16,21
17,24
18,29
19,32
20,33
21,34
22,38
23,38
24,39
25,44
26,49
27,53
28,57
29,62
30,63
31,67
32,68
33,72
34,77
35,85
36,91
37,99
38,104
39,113
40,118
41,125
42,131
43,137
44,143
45,149
46,160
47,165
48,178
49,198
50,200
51,210
52,224
53,240
54,257
55,274
56,288
57,310
58,328
59,347
60,369
61,399
62,418
63,434
64,458
65,487
66,511
67,544
68,571
69,596
70,620
71,650
72,675
73,704
74,741
75,777
76,808
77,844
78,874
79,903
80,938
