0,1
1,1
2,2
3,2
4,3
5,4
6,4
7,5
8,5
9,5
10,6
11,6
12,6
13,8
14,8
15,8
16,8
17,8
18,9
19,10
20,11
21,11
22,12
23,14
24,15
25,17
26,20
27,23
28,24
29,25
30,28
31,31
32,36
33,37
34,40
35,44
36,45
37,49
38,50
39,54
40,56
41,59
42,63
43,65
44,67
45,68
46,69
47,73
48,75
49,78
50,79
51,86
52,89
53,94
54,96
55,98
56,102
57,107
58,109
59,115
60,119
61,122
62,129
63,132
64,133
65,139
66,145
67,151
68,154
69,158
70,172
71,177
72,186
73,200
74,210
75,219
76,238
77,253
78,270
79,283
80,293
