0,1
1,1
2,1
3,1
4,3
5,3
6,5
7,5
8,6
9,7
10,9
11,13
12,13
13,14
14,16
15,17
16,18
17,21
18,23
19,25
20,28
21,29
22,30
23,32
24,35
25,38
26,40
27,45
28,47
29,49
30,53
31,56
32,58
33,59
34,61
35,65
36,67
37,69
38,71
39,72
40,72
41,75
42,77
43,79
44,80
45,80
46,81
47,81
48,81
49,83
50,85
51,85
52,86
53,87
54,87
55,87
56,87
57,88
58,88
59,88
60,88
61,88
62,88
63,89
64,89
65,90
66,91
67,91
68,92
69,92
70,93
71,94
72,96
73,96
74,97
75,99
76,101
77,101
78,104
79,105
80,106
