0,1
1,1
2,1
3,1
4,1
5,1
6,2
7,2
8,2
9,2
10,2
11,2
12,2
13,3
14,4
15,4
16,7
17,7
18,8
19,11
20,12
21,12
22,13
23,16
24,18
25,19
26,20
27,22
28,23
29,26
30,27
31,29
32,33
33,37
34,43
35,50
36,51
37,57
38,65
39,69
40,76
41,83
42,93
43,102
44,108
45,110
46,120
47,133
48,142
49,149
50,157
51,163
52,170
53,182
54,188
55,196
56,205
57,217
58,227
59,243
60,249
61,263
62,280
63,295
64,313
65,328
66,345
67,361
68,376
69,397
70,426
71,445
72,472
73,493
74,514
75,537
76,561
77,590
78,620
79,648
80,685
