0,1
1,1
2,1
3,2
4,3
5,3
6,4
7,6
8,6
9,7
10,8
11,9
12,12
13,14
14,16
15,20
16,23
17,27
18,30
19,37
20,39
21,45
22,50
23,52
24,57
25,67
26,75
27,81
28,94
29,100
30,111
31,119
32,131
33,145
34,153
35,157
36,160
37,172
38,185
39,192
40,201
41,213
42,225
43,236
44,248
45,261
46,279
47,291
48,302
49,316
50,330
51,345
52,369
53,390
54,406
55,437
56,464
57,485
58,521
59,540
60,576
61,616
62,648
63,687
64,719
65,766
66,810
67,849
68,901
69,954
70,1012
71,1072
72,1142
73,1215
74,1280
75,1380
76,1463
77,1555
78,1657
79,1763
80,1861
