0,1
1,1
2,1
3,1
4,1
5,1
6,2
7,2
8,2
9,2
10,3
11,4
12,4
13,4
14,4
15,6
16,6
17,6
18,6
19,6
20,7
21,7
22,7
23,7
24,7
25,8
26,8
27,9
28,9
29,10
30,10
31,11
32,12
33,15
34,15
35,16
36,16
37,16
38,16
39,16
40,17
41,18
42,18
43,18
44,19
45,19
46,19
47,19
48,19
49,20
50,21
51,22
52,22
53,22
54,24
55,25
56,26
57,27
58,28
59,32
60,33
61,34
62,35
63,39
64,40
65,44
66,46
67,47
68,50
69,56
70,60
71,62
72,65
73,66
74,69
75,73
76,75
77,78
78,80
79,81
80,83
