0,1
1,1
2,1
3,1
4,2
5,2
6,2
7,4
8,4
9,4
10,5
11,7
12,7
13,7
14,7
15,10
16,11
17,13
18,15
19,17
20,20
21,21
22,24
23,27
24,30
25,37
26,37
27,41
28,49
29,53
30,57
31,62
32,67
33,71
34,78
35,83
36,92
37,99
38,108
39,120
40,129
41,140
42,151
43,166
44,174
45,185
46,203
47,218
48,237
49,251
50,278
51,293
52,311
53,329
54,350
55,376
56,396
57,420
58,455
59,479
60,509
61,560
62,607
63,648
64,694
65,737
66,784
67,840
68,903
69,953
70,1020
71,1096
72,1155
73,1228
74,1310
75,1397
76,1476
77,1581
78,1669
79,1756
80,1875
