0,1
1,1
2,1
3,1
4,1
5,1
6,1
7,1
8,1
9,1
10,2
11,2
12,2
13,2
14,2
15,2
16,3
17,3
18,4
19,4
20,5
21,7
22,8
23,9
24,11
25,14
26,15
27,20
28,21
29,22
30,25
31,29
32,31
33,35
34,38
35,40
36,43
37,45
38,48
39,49
40,56
41,57
42,60
43,64
44,69
45,77
46,80
47,83
48,89
49,98
50,105
51,112
52,114
53,117
54,122
55,129
56,134
57,139
58,152
59,167
60,179
61,192
62,205
63,221
64,238
65,247
66,269
67,290
68,309
69,329
70,351
71,379
72,406
73,433
74,468
75,500
76,527
77,569
78,602
79,643
80,682
