0,1
1,1
2,2
3,2
4,2
5,3
6,4
7,5
8,5
9,7
10,7
11,8
12,10
13,10
14,10
15,10
16,11
17,11
18,13
19,13
20,13
21,16
22,16
23,18
24,20
25,20
26,20
27,22
28,23
29,24
30,26
31,28
32,28
33,30
34,31
35,31
36,33
37,35
38,36
39,38
40,41
41,44
42,46
43,51
44,55
45,64
46,79
47,83
48,87
49,92
50,104
51,110
52,118
53,122
54,134
55,141
56,153
57,159
58,170
59,180
60,189
61,203
62,213
63,231
64,243
65,249
66,261
67,273
68,285
69,306
70,324
71,332
72,345
73,371
74,391
75,407
76,428
77,448
78,475
79,493
80,514
