0,1
1,1
2,1
3,1
4,1
5,2
6,3
7,3
8,4
9,4
10,5
11,8
12,9
13,12
14,13
15,15
16,16
17,21
18,23
19,24
20,24
21,27
22,30
23,32
24,33
25,34
26,35
27,40
28,40
29,41
30,42
31,44
32,46
33,46
34,47
35,48
36,50
37,52
38,53
39,58
40,61
41,62
42,65
43,68
44,69
45,73
46,77
47,78
48,82
49,89
50,93
51,95
52,96
53,98
54,107
55,112
56,118
57,123
58,128
59,134
60,138
61,143
62,148
63,156
64,165
65,172
66,175
67,184
68,190
69,202
70,212
71,220
72,230
73,242
74,250
75,263
76,276
77,288
78,294
79,313
80,324
