0,1
1,1
2,1
3,1
4,2
5,2
6,2
7,2
8,2
9,2
10,2
11,3
12,3
13,3
14,3
15,3
16,3
17,4
18,5
19,5
20,5
21,5
22,9
23,11
24,11
25,11
26,11
27,13
28,16
29,17
30,18
31,19
32,19
33,21
34,23
35,24
36,26
37,27
38,28
39,29
40,32
41,32
42,33
43,36
44,39
45,42
46,48
47,48
48,51
49,54
50,55
51,58
52,63
53,67
54,69
55,73
56,76
57,79
58,85
59,94
60,99
61,108
62,110
63,116
64,121
65,127
66,133
67,137
68,143
69,153
70,160
71,170
72,183
73,192
74,205
75,217
76,228
77,237
78,248
79,263
80,283
