0,1
1,1
2,1
3,2
4,3
5,3
6,3
7,3
8,4
9,7
10,7
11,8
12,8
13,11
14,13
15,16
16,18
17,20
18,21
19,21
20,23
21,26
22,28
23,30
24,31
25,33
26,34
27,38
28,42
29,44
30,49
31,58
32,67
33,71
34,78
35,79
36,82
37,89
38,93
39,98
40,107
41,108
42,113
43,121
44,132
45,137
46,141
47,153
48,162
49,172
50,175
51,188
52,204
53,216
54,237
55,246
56,263
57,277
58,301
59,323
60,339
61,362
62,402
63,445
64,477
65,512
66,547
67,599
68,645
69,690
70,739
71,807
72,871
73,933
74,999
75,1075
76,1155
77,1238
78,1328
79,1407
80,1508
