0,1
1,1
2,1
3,1
4,1
5,3
6,4
7,6
8,6
9,7
10,10
11,12
12,13
13,18
14,22
15,24
16,25
17,31
18,35
19,40
20,44
21,46
22,49
23,56
24,68
25,80
26,88
27,101
28,108
29,122
30,132
31,142
32,148
33,158
34,166
35,175
36,186
37,198
38,209
39,219
40,231
41,244
42,250
43,260
44,280
45,288
46,303
47,320
48,342
49,355
50,378
51,404
52,421
53,439
54,466
55,492
56,525
57,552
58,571
59,600
60,630
61,662
62,693
63,722
64,758
65,805
66,848
67,899
68,932
69,982
70,1040
71,1110
72,1171
73,1240
74,1296
75,1369
76,1440
77,1514
78,1594
79,1678
80,1759
