0,1
1,1
2,1
3,1
4,1
5,2
6,2
7,2
8,2
9,2
10,3
11,3
12,3
13,3
14,3
15,4
16,4
17,4
18,4
19,4
20,5
21,6
22,6
23,6
24,6
25,6
26,6
27,6
28,6
29,7
30,7
31,7
32,7
33,7
34,8
35,9
36,9
37,9
38,9
39,10
40,10
41,11
42,12
43,12
44,14
45,14
46,15
47,17
48,17
49,19
50,20
51,21
52,21
53,23
54,24
55,27
56,27
57,27
58,28
59,28
60,30
61,31
62,31
63,31
64,32
65,34
66,35
67,35
68,36
69,38
70,39
71,40
72,43
73,44
74,47
75,48
76,49
77,54
78,55
79,59
80,63
