0,1
1,1
2,1
3,1
4,1
5,1
6,2
7,2
8,2
9,2
10,2
11,2
12,2
13,3
14,3
15,3
16,3
17,4
18,4
19,4
20,4
21,5
22,5
23,5
24,5
25,6
26,8
27,10
28,11
29,14
30,14
31,16
32,18
33,22
34,23
35,25
36,29
37,32
38,35
39,36
40,42
41,47
42,54
43,60
44,64
45,65
46,74
47,79
48,91
49,100
50,111
51,117
52,127
53,134
54,144
55,156
56,167
57,179
58,186
59,192
60,208
61,226
62,238
63,252
64,265
65,278
66,298
67,311
68,326
69,344
70,354
71,369
72,388
73,402
74,424
75,449
76,470
77,484
78,512
79,536
80,572
