0,1
1,1
2,1
3,2
4,2
5,2
6,2
7,2
8,2
9,2
10,2
11,3
12,3
13,3
14,4
15,4
16,5
17,5
18,5
19,6
20,7
21,8
22,9
23,9
24,9
25,10
26,11
27,11
28,13
29,14
30,15
31,16
32,18
33,19
34,25
35,25
36,28
37,30
38,32
39,37
40,38
41,42
42,44
43,50
44,53
45,56
46,60
47,64
48,68
49,69
50,70
51,72
52,75
53,78
54,81
55,84
56,91
57,93
58,96
59,99
60,103
61,107
62,109
63,112
64,115
65,115
66,119
67,120
68,122
69,123
70,125
71,126
72,127
73,131
74,132
75,136
76,136
77,137
78,138
79,140
80,140
