0,1
1,1
2,1
3,1
4,2
5,4
6,5
7,6
8,7
9,7
10,9
11,13
12,15
13,17
14,19
15,23
16,25
17,25
18,26
19,30
20,32
21,32
22,36
23,36
24,38
25,40
26,42
27,47
28,47
29,53
30,58
31,63
32,66
33,71
34,80
35,87
36,95
37,103
38,111
39,115
40,118
41,128
42,138
43,145
44,151
45,157
46,168
47,178
48,190
49,201
50,210
51,224
52,234
53,245
54,255
55,260
56,276
57,285
58,294
59,304
60,317
61,332
62,349
63,359
64,375
65,388
66,414
67,430
68,452
69,470
70,499
71,527
72,554
73,579
74,603
75,630
76,651
77,685
78,714
79,743
80,775
