0,1
1,1
2,1
3,2
4,2
5,2
6,3
7,3
8,4
9,4
10,4
11,6
12,7
13,8
14,9
15,9
16,10
17,11
18,13
19,14
20,16
21,17
22,21
23,22
24,23
25,24
26,25
27,31
28,32
29,33
30,36
31,38
32,39
33,41
34,41
35,42
36,42
37,44
38,45
39,45
40,45
41,46
42,47
43,49
44,50
45,53
46,58
47,58
48,62
49,66
50,70
51,71
52,72
53,75
54,77
55,77
56,78
57,82
58,84
59,86
60,87
61,88
62,91
63,93
64,93
65,94
66,95
67,97
68,98
69,98
70,102
71,105
72,107
73,109
74,110
75,112
76,115
77,117
78,119
79,121
80,124
