0,1
1,1
2,1
3,1
4,1
5,1
6,1
7,1
8,2
9,2
10,2
11,2
12,2
13,2
14,3
15,3
16,3
17,3
18,3
19,3
20,3
21,3
22,4
23,4
24,4
25,4
26,5
27,5
28,6
29,7
30,7
31,9
32,9
33,10
34,10
35,10
36,12
37,13
38,14
39,15
40,16
41,16
42,17
43,18
44,19
45,19
46,19
47,21
48,22
49,23
50,24
51,25
52,28
53,30
54,31
55,34
56,35
57,41
58,44
59,44
60,50
61,55
62,58
63,65
64,71
65,75
66,79
67,86
68,96
69,105
70,110
71,116
72,122
73,130
74,143
75,152
76,158
77,166
78,173
79,183
80,192
