0,1
1,1
2,1
3,1
4,1
5,1
6,1
7,1
8,2
9,2
10,2
11,2
12,3
13,3
14,5
15,7
16,8
17,9
18,9
19,12
20,13
21,14
22,17
23,19
24,22
25,22
26,22
27,22
28,25
29,27
30,27
31,28
32,29
33,32
34,35
35,35
36,37
37,40
38,42
39,43
40,47
41,51
42,55
43,57
44,59
45,61
46,63
47,63
48,67
49,73
50,73
51,76
52,76
53,78
54,81
55,83
56,85
57,86
58,87
59,89
60,92
61,92
62,93
63,94
64,97
65,98
66,101
67,102
68,104
69,109
70,115
71,121
72,122
73,125
74,128
75,132
76,137
77,145
78,154
79,161
80,167
