0,1
1,1
2,1
3,1
4,3
5,3
6,3
7,3
8,3
9,4
10,5
11,7
12,8
13,9
14,10
15,11
16,11
17,11
18,13
19,14
20,17
21,18
22,18
23,19
24,20
25,21
26,23
27,24
28,26
29,27
30,27
31,28
32,29
33,29
34,29
35,31
36,31
37,31
38,31
39,32
40,32
41,34
42,34
43,35
44,36
45,36
46,37
47,39
48,40
49,41
50,43
51,45
52,46
53,47
54,48
55,50
56,53
57,54
58,56
59,57
60,58
61,60
62,61
63,62
64,62
65,64
66,64
67,67
68,69
69,71
70,72
71,73
72,75
73,76
74,78
75,80
76,80
77,81
78,86
79,89
80,91
