0,1
1,1
2,1
3,1
4,3
5,3
6,3
7,4
8,7
9,8
10,8
11,9
12,10
13,13
14,13
15,13
16,14
17,14
18,14
19,14
20,15
21,17
22,17
23,17
24,19
25,22
26,24
27,25
28,26
29,33
30,39
31,40
32,43
33,45
34,45
35,48
36,50
37,51
38,52
39,53
40,53
41,53
42,56
43,59
44,62
45,62
46,64
47,66
48,70
49,79
50,84
51,87
52,88
53,92
54,98
55,99
56,101
57,103
58,109
59,111
60,113
61,115
62,119
63,122
64,127
65,132
66,138
67,141
68,146
69,149
70,152
71,156
72,164
73,173
74,176
75,180
76,183
77,187
78,193
79,203
80,209
