0,1
1,1
2,1
3,1
4,1
5,2
6,4
7,4
8,7
9,7
10,9
11,9
12,12
13,16
14,20
15,23
16,25
17,25
18,30
19,33
20,35
21,40
22,44
23,48
24,51
25,54
26,61
27,66
28,70
29,78
30,84
31,91
32,97
33,106
34,115
35,127
36,139
37,153
38,162
39,171
40,184
41,206
42,218
43,232
44,249
45,271
46,290
47,309
48,329
49,352
50,375
51,392
52,411
53,447
54,470
55,500
56,532
57,566
58,609
59,644
60,689
61,738
62,783
63,836
64,885
65,940
66,998
67,1056
68,1123
69,1190
70,1257
71,1326
72,1402
73,1467
74,1548
75,1633
76,1723
77,1806
78,1913
79,2017
80,2134
