0,1
1,1
2,1
3,2
4,2
5,2
6,2
7,2
8,4
9,6
10,6
11,6
12,8
13,9
14,10
15,12
16,19
17,20
18,24
19,26
20,32
21,36
22,38
23,44
24,48
25,52
26,58
27,63
28,71
29,77
30,79
31,84
32,85
33,91
34,94
35,101
36,107
37,115
38,123
39,129
40,136
41,145
42,156
43,168
44,175
45,188
46,203
47,213
48,221
49,237
50,252
51,271
52,282
53,298
54,310
55,322
56,336
57,352
58,366
59,377
60,395
61,407
62,431
63,454
64,477
65,505
66,529
67,555
68,589
69,626
70,652
71,693
72,734
73,766
74,809
75,853
76,903
77,947
78,1000
79,1058
80,1113
