0,1
1,1
2,1
3,1
4,1
5,1
6,1
7,1
8,2
9,2
10,3
11,3
12,3
13,3
14,4
15,4
16,4
17,4
18,6
19,6
20,6
21,6
22,8
23,8
24,8
25,8
26,9
27,11
28,11
29,11
30,12
31,13
32,13
33,13
34,13
35,13
36,13
37,13
38,14
39,14
40,14
41,14
42,14
43,15
44,15
45,15
46,15
47,16
48,16
49,18
50,22
51,22
52,23
53,26
54,28
55,31
56,35
57,38
58,38
59,41
60,44
61,48
62,51
63,56
64,61
65,69
66,74
67,76
68,84
69,88
70,97
71,104
72,112
73,117
74,129
75,137
76,141
77,155
78,170
79,180
80,188
