0,1
1,1
2,1
3,1
4,1
5,1
6,1
7,2
8,3
9,3
10,4
11,4
12,5
13,6
14,7
15,9
16,10
17,11
18,13
19,16
20,16
21,19
22,22
23,24
24,26
25,32
26,40
27,45
28,48
29,53
30,56
31,57
32,59
33,63
34,68
35,74
36,78
37,84
38,88
39,91
40,94
41,99
42,104
43,110
44,112
45,118
46,130
47,138
48,143
49,151
50,164
51,171
52,187
53,205
54,222
55,235
56,247
57,262
58,284
59,311
60,339
61,356
62,375
63,396
64,429
65,454
66,480
67,506
68,538
69,574
70,604
71,640
72,678
73,712
74,753
75,800
76,852
77,895
78,954
79,1006
80,1060
