0,1
1,1
2,1
3,1
4,1
5,1
6,2
7,2
8,3
9,3
10,3
11,4
12,5
13,6
14,7
15,8
16,9
17,9
18,9
19,11
20,11
21,12
22,12
23,12
24,13
25,13
26,13
27,14
28,14
29,16
30,18
31,18
32,18
33,18
34,19
35,20
36,20
37,20
38,20
39,20
40,23
41,23
42,24
43,24
44,24
45,26
46,26
47,29
48,31
49,32
50,33
51,33
52,34
53,35
54,35
55,36
56,38
57,38
58,39
59,40
60,43
61,45
62,48
63,50
64,51
65,55
66,57
67,60
68,62
69,63
70,66
71,69
72,71
73,78
74,81
75,83
76,90
77,91
78,95
79,98
80,99
