0,1
1,1
2,1
3,1
4,1
5,1
6,4
7,7
8,7
9,7
10,8
11,11
12,13
13,14
14,15
15,15
16,17
17,19
18,20
19,23
20,26
21,29
22,31
23,34
24,37
25,40
26,42
27,43
28,45
29,48
30,54
31,57
32,59
33,61
34,63
35,68
36,70
37,72
38,74
39,78
40,85
41,89
42,94
43,101
44,106
45,116
46,124
47,133
48,141
49,149
50,159
51,167
52,180
53,188
54,199
55,210
56,219
57,225
58,235
59,252
60,271
61,282
62,298
63,313
64,330
65,348
66,366
67,382
68,398
69,416
70,439
71,456
72,481
73,503
74,525
75,559
76,590
77,638
78,672
79,709
80,764
