0,1
1,1
2,1
3,1
4,1
5,1
6,1
7,2
8,2
9,2
10,2
11,2
12,2
13,4
14,4
15,4
16,4
17,4
18,4
19,5
20,8
21,8
22,9
23,9
24,10
25,12
26,15
27,15
28,17
29,19
30,24
31,26
32,28
33,31
34,34
35,41
36,47
37,55
38,63
39,63
40,69
41,71
42,72
43,77
44,81
45,84
46,88
47,89
48,94
49,99
50,103
51,108
52,112
53,117
54,126
55,129
56,134
57,141
58,150
59,158
60,165
61,175
62,182
63,194
64,205
65,210
66,219
67,233
68,245
69,258
70,273
71,282
72,287
73,302
74,316
75,324
76,338
77,351
78,369
79,384
80,399
