0,1
1,1
2,1
3,1
4,1
5,1
6,2
7,2
8,2
9,3
10,4
11,5
12,6
13,6
14,8
15,8
16,10
17,10
18,12
19,12
20,14
21,16
22,21
23,23
24,26
25,27
26,29
27,32
28,32
29,33
30,36
31,41
32,45
33,48
34,52
35,55
36,61
37,65
38,71
39,77
40,81
41,89
42,90
43,99
44,108
45,114
46,126
47,133
48,146
49,157
50,170
51,188
52,203
53,221
54,235
55,248
56,262
57,287
58,309
59,324
60,345
61,370
62,393
63,415
64,440
65,469
66,497
67,529
68,557
69,605
70,639
71,670
72,707
73,746
74,777
75,814
76,858
77,893
78,937
79,982
80,1045
