0,1
1,1
2,1
3,1
4,2
5,2
6,2
7,3
8,4
9,7
10,7
11,8
12,9
13,10
14,12
15,13
16,14
17,15
18,15
19,15
20,16
21,18
22,20
23,21
24,24
25,25
26,28
27,29
28,31
29,33
30,40
31,44
32,49
33,56
34,63
35,69
36,72
37,79
38,83
39,92
40,103
41,111
42,117
43,132
44,139
45,149
46,161
47,170
48,185
49,202
50,215
51,229
52,250
53,270
54,288
55,307
56,323
57,343
58,364
59,385
60,410
61,423
62,446
63,465
64,484
65,517
66,549
67,572
68,603
69,643
70,672
71,710
72,756
73,799
74,847
75,887
76,931
77,984
78,1037
79,1112
80,1191
