0,1
1,1
2,1
3,1
4,1
5,1
6,1
7,2
8,3
9,3
10,3
11,3
12,4
13,4
14,4
15,4
16,5
17,5
18,6
19,6
20,6
21,6
22,6
23,7
24,7
25,7
26,7
27,7
28,8
29,8
30,8
31,8
32,9
33,9
34,9
35,9
36,10
37,10
38,10
39,10
40,11
41,11
42,11
43,11
44,11
45,12
46,12
47,12
48,12
49,13
50,13
51,13
52,13
53,14
54,15
55,15
56,15
57,18
58,18
59,19
60,20
61,22
62,22
63,22
64,24
65,26
66,29
67,29
68,30
69,35
70,38
71,39
72,40
73,46
74,50
75,55
76,55
77,58
78,59
79,62
80,64
