0,1
1,1
2,1
3,1
4,1
5,2
6,2
7,3
8,3
9,3
10,3
11,4
12,4
13,4
14,5
15,5
16,6
17,7
18,8
19,11
20,14
21,14
22,16
23,17
24,18
25,21
26,22
27,22
28,23
29,24
30,25
31,27
32,27
33,27
34,28
35,30
36,30
37,30
38,31
39,31
40,32
41,32
42,33
43,34
44,35
45,36
46,36
47,37
48,38
49,39
50,40
51,41
52,41
53,41
54,41
55,41
56,42
57,43
58,43
59,44
60,46
61,46
62,47
63,47
64,49
65,49
66,50
67,50
68,51
69,52
70,54
71,54
72,54
73,57
74,59
75,61
76,63
77,69
78,72
79,79
80,83
