0,1
1,1
2,1
3,1
4,1
5,3
6,4
7,5
8,6
9,6
10,7
11,8
12,8
13,9
14,10
15,11
16,13
17,14
18,14
19,15
20,16
21,16
22,18
23,19
24,21
25,22
26,24
27,27
28,31
29,31
30,34
31,36
32,41
33,43
34,44
35,49
36,50
37,51
38,54
39,60
40,63
41,67
42,69
43,72
44,75
45,78
46,83
47,84
48,86
49,88
50,88
51,96
52,97
53,98
54,100
55,102
56,106
57,108
58,108
59,111
60,112
61,114
62,117
63,120
64,124
65,126
66,126
67,135
68,136
69,142
70,144
71,147
72,152
73,154
74,159
75,161
76,166
77,171
78,174
79,180
80,185
