0,1
1,1
2,1
3,1
4,1
5,1
6,1
7,2
8,2
9,2
10,2
11,2
12,2
13,3
14,4
15,4
16,5
17,5
18,7
19,7
20,7
21,8
22,9
23,9
24,10
25,10
26,11
27,12
28,12
29,12
30,14
31,15
32,16
33,16
34,18
35,19
36,21
37,21
38,22
39,26
40,27
41,27
42,31
43,33
44,34
45,35
46,35
47,37
48,38
49,40
50,43
51,45
52,51
53,51
54,53
55,55
56,58
57,60
58,62
59,64
60,65
61,68
62,70
63,72
64,73
65,74
66,75
67,77
68,81
69,84
70,84
71,85
72,87
73,89
74,93
75,96
76,98
77,100
78,100
79,106
80,108
