0,1
1,1
2,1
3,2
4,4
5,4
6,4
7,4
8,5
9,5
10,8
11,9
12,11
13,12
14,13
15,16
16,17
17,18
18,20
19,21
20,22
21,22
22,23
23,24
24,26
25,27
26,28
27,31
28,32
29,36
30,39
31,41
32,46
33,47
34,54
35,57
36,62
37,71
38,78
39,81
40,90
41,99
42,106
43,110
44,121
45,127
46,136
47,144
48,162
49,175
50,187
51,203
52,220
53,232
54,250
55,274
56,292
57,312
58,339
59,366
60,388
61,414
62,440
63,459
64,497
65,535
66,564
67,594
68,628
69,648
70,675
71,718
72,756
73,781
74,812
75,845
76,880
77,937
78,979
79,1031
80,1073
