0,1
1,1
2,1
3,1
4,1
5,1
6,1
7,1
8,2
9,2
10,3
11,3
12,4
13,5
14,5
15,5
16,5
17,7
18,7
19,8
20,9
21,11
22,14
23,18
24,19
25,19
26,20
27,22
28,25
29,27
30,28
31,30
32,31
33,35
34,37
35,37
36,40
37,41
38,42
39,42
40,46
41,47
42,50
43,53
44,57
45,61
46,65
47,71
48,74
49,81
50,84
51,88
52,94
53,102
54,107
55,114
56,118
57,125
58,135
59,144
60,151
61,166
62,173
63,186
64,199
65,209
66,223
67,237
68,239
69,245
70,253
71,264
72,275
73,287
74,298
75,310
76,317
77,335
78,347
79,360
80,368
