0,1
1,1
2,1
3,1
4,3
5,3
6,6
7,8
8,8
9,8
10,9
11,11
12,11
13,13
14,13
15,13
16,16
17,16
18,17
19,18
20,20
21,20
22,23
23,25
24,26
25,29
26,32
27,33
28,36
29,38
30,39
31,42
32,45
33,49
34,50
35,56
36,57
37,63
38,66
39,70
40,73
41,78
42,87
43,95
44,105
45,112
46,118
47,130
48,140
49,152
50,165
51,173
52,186
53,198
54,215
55,236
56,253
57,276
58,299
59,315
60,332
61,348
62,371
63,388
64,418
65,442
66,472
67,494
68,528
69,558
70,594
71,620
72,644
73,676
74,705
75,734
76,772
77,811
78,860
79,901
80,946
