0,1
1,1
2,1
3,1
4,1
5,1
6,3
7,3
8,3
9,3
10,3
11,5
12,5
13,6
14,6
15,6
16,9
17,9
18,10
19,10
20,13
21,13
22,14
23,14
24,14
25,14
26,14
27,15
28,15
29,15
30,16
31,16
32,16
33,17
34,18
35,19
36,21
37,24
38,28
39,30
40,32
41,34
42,35
43,40
44,44
45,46
46,47
47,48
48,51
49,51
50,52
51,53
52,59
53,61
54,64
55,70
56,74
57,79
58,83
59,89
60,95
61,103
62,109
63,118
64,122
65,133
66,142
67,159
68,170
69,182
70,196
71,219
72,232
73,246
74,272
75,297
76,322
77,337
78,359
79,377
80,401
