0,1
1,1
2,1
3,3
4,4
5,4
6,5
7,7
8,7
9,8
10,12
11,13
12,16
13,16
14,18
15,20
16,20
17,20
18,21
19,22
20,23
21,24
22,25
23,27
24,30
25,30
26,32
27,32
28,36
29,37
30,39
31,41
32,44
33,49
34,50
35,56
36,61
37,62
38,71
39,78
40,82
41,87
42,94
43,99
44,106
45,114
46,118
47,123
48,129
49,141
50,150
51,156
52,169
53,174
54,185
55,193
56,202
57,215
58,223
59,233
60,248
61,261
62,271
63,285
64,302
65,319
66,337
67,362
68,386
69,409
70,424
71,450
72,476
73,509
74,542
75,580
76,614
77,651
78,692
79,735
80,785
