0,1
1,1
2,1
3,1
4,1
5,1
6,1
7,1
8,1
9,2
10,2
11,2
12,2
13,3
14,5
15,5
16,5
17,7
18,9
19,11
20,12
21,15
22,16
23,17
24,19
25,22
26,25
27,26
28,31
29,34
30,38
31,44
32,45
33,53
34,62
35,73
36,84
37,92
38,101
39,110
40,120
41,136
42,145
43,155
44,167
45,184
46,196
47,215
48,230
49,245
50,265
51,284
52,308
53,331
54,358
55,387
56,422
57,453
58,495
59,536
60,581
61,628
62,683
63,726
64,780
65,823
66,875
67,932
68,977
69,1032
70,1091
71,1166
72,1247
73,1321
74,1391
75,1478
76,1582
77,1670
78,1763
79,1865
80,1957
