0,1
1,1
2,1
3,1
4,1
5,1
6,4
7,4
8,6
9,9
10,9
11,11
12,11
13,14
14,16
15,19
16,21
17,22
18,22
19,24
20,25
21,26
22,28
23,30
24,30
25,32
26,33
27,33
28,38
29,42
30,45
31,45
32,46
33,48
34,49
35,53
36,57
37,62
38,63
39,65
40,69
41,77
42,81
43,85
44,90
45,96
46,101
47,105
48,110
49,115
50,119
51,121
52,126
53,133
54,140
55,147
56,159
57,165
58,176
59,180
60,191
61,198
62,215
63,227
64,241
65,251
66,260
67,276
68,293
69,315
70,336
71,353
72,371
73,389
74,422
75,445
76,466
77,491
78,522
79,553
80,580
