0,1
1,1
2,1
3,1
4,1
5,2
6,3
7,3
8,4
9,5
10,7
11,8
12,8
13,9
14,12
15,14
16,16
17,19
18,20
19,23
20,27
21,29
22,33
23,33
24,35
25,40
26,42
27,47
28,50
29,53
30,56
31,62
32,68
33,75
34,81
35,87
36,93
37,96
38,105
39,115
40,123
41,127
42,133
43,141
44,153
45,164
46,171
47,178
48,186
49,194
50,201
51,209
52,217
53,229
54,237
55,246
56,260
57,273
58,287
59,302
60,312
61,324
62,339
63,357
64,363
65,378
66,396
67,415
68,426
69,447
70,464
71,486
72,507
73,521
74,549
75,565
76,577
77,597
78,613
79,641
80,660
