0,1
1,1
2,1
3,1
4,1
5,2
6,2
7,2
8,2
9,2
10,2
11,2
12,3
13,3
14,3
15,3
16,4
17,4
18,5
19,6
20,6
21,6
22,6
23,6
24,6
25,6
26,6
27,7
28,7
29,7
30,7
31,7
32,7
33,8
34,8
35,8
36,8
37,8
38,9
39,10
40,10
41,10
42,11
43,11
44,11
45,12
46,13
47,13
48,13
49,13
50,15
51,15
52,17
53,18
54,19
55,20
56,20
57,21
58,21
59,22
60,24
61,24
62,26
63,30
64,34
65,39
66,43
67,48
68,53
69,58
70,63
71,64
72,68
73,70
74,75
75,78
76,80
77,82
78,82
79,86
80,89
