0,1
1,1
2,1
3,3
4,4
5,4
6,4
7,6
8,7
9,8
10,9
11,12
12,15
13,16
14,18
15,22
16,27
17,28
18,34
19,36
20,36
21,43
22,45
23,52
24,55
25,59
26,69
27,75
28,80
29,86
30,95
31,101
32,112
33,118
34,131
35,145
36,150
37,164
38,177
39,197
40,207
41,222
42,237
43,250
44,270
45,286
46,301
47,327
48,346
49,367
50,390
51,419
52,459
53,493
54,529
55,556
56,587
57,629
58,661
59,700
60,740
61,782
62,823
63,870
64,930
65,990
66,1038
67,1099
68,1161
69,1217
70,1298
71,1370
72,1445
73,1523
74,1633
75,1723
76,1824
77,1920
78,2034
79,2150
80,2267
