0,1
1,1
2,1
3,1
4,1
5,1
6,1
7,2
8,2
9,2
10,2
11,2
12,2
13,2
14,2
15,2
16,3
17,3
18,3
19,3
20,3
21,3
22,3
23,3
24,4
25,4
26,4
27,5
28,5
29,6
30,7
31,7
32,7
33,9
34,9
35,10
36,11
37,13
38,16
39,18
40,20
41,22
42,28
43,29
44,29
45,35
46,38
47,39
48,42
49,47
50,53
51,57
52,62
53,71
54,78
55,84
56,93
57,101
58,106
59,113
60,120
61,123
62,131
63,142
64,150
65,159
66,168
67,176
68,186
69,200
70,210
71,231
72,241
73,251
74,265
75,288
76,309
77,324
78,345
79,369
80,393
