0,1
1,1
2,1
3,1
4,1
5,1
6,1
7,1
8,1
9,1
10,1
11,1
12,1
13,1
14,2
15,2
16,2
17,3
18,3
19,4
20,4
21,4
22,4
23,6
24,6
25,6
26,7
27,7
28,7
29,9
30,9
31,9
32,10
33,10
34,10
35,10
36,10
37,11
38,12
39,12
40,12
41,12
42,13
43,14
44,16
45,16
46,17
47,17
48,18
49,18
50,18
51,20
52,20
53,20
54,22
55,24
56,25
57,27
58,30
59,32
60,32
61,33
62,37
63,38
64,41
65,42
66,44
67,45
68,46
69,47
70,48
71,51
72,55
73,56
74,59
75,62
76,62
77,64
78,65
79,68
80,69
