0,1
1,1
2,1
3,1
4,1
5,1
6,1
7,1
8,1
9,2
10,2
11,2
12,3
13,3
14,4
15,4
16,4
17,4
18,4
19,4
20,5
21,5
22,5
23,5
24,5
25,5
26,8
27,8
28,8
29,9
30,9
31,11
32,11
33,11
34,13
35,13
36,13
37,13
38,14
39,14
40,14
41,15
42,16
43,16
44,16
45,17
46,18
47,18
48,22
49,23
50,23
51,25
52,28
53,29
54,33
55,33
56,38
57,40
58,44
59,46
60,48
61,52
62,54
63,55
64,59
65,62
66,67
67,69
68,71
69,73
70,75
71,80
72,81
73,84
74,90
75,95
76,100
77,107
78,114
79,124
80,133
