0,1
1,1
2,1
3,1
4,1
5,2
6,2
7,3
8,5
9,6
10,8
11,8
12,11
13,14
14,16
15,17
16,19
17,20
18,24
19,25
20,25
21,26
22,28
23,32
24,36
25,38
26,44
27,48
28,52
29,55
30,59
31,66
32,72
33,76
34,79
35,83
36,86
37,95
38,98
39,101
40,110
41,116
42,123
43,133
44,139
45,143
46,149
47,162
48,167
49,171
50,175
51,189
52,200
53,208
54,218
55,228
56,242
57,255
58,270
59,283
60,298
61,309
62,318
63,333
64,348
65,372
66,392
67,409
68,427
69,460
70,479
71,508
72,538
73,564
74,595
75,630
76,675
77,720
78,768
79,807
80,868
