0,1
1,1
2,2
3,2
4,2
5,2
6,2
7,3
8,3
9,3
10,3
11,5
12,5
13,6
14,6
15,6
16,8
17,8
18,10
19,10
20,11
21,11
22,11
23,11
24,12
25,12
26,12
27,13
28,14
29,14
30,14
31,15
32,15
33,17
34,17
35,18
36,20
37,22
38,24
39,25
40,27
41,30
42,33
43,37
44,42
45,49
46,53
47,57
48,68
49,71
50,74
51,80
52,83
53,88
54,93
55,98
56,105
57,107
58,115
59,118
60,120
61,126
62,132
63,137
64,145
65,146
66,157
67,162
68,166
69,173
70,178
71,188
72,198
73,209
74,220
75,227
76,237
77,250
78,259
79,267
80,282
