0,1
1,1
2,1
3,1
4,1
5,1
6,1
7,2
8,2
9,2
10,2
11,3
12,3
13,3
14,5
15,6
16,8
17,9
18,9
19,9
20,11
21,12
22,13
23,15
24,17
25,17
26,19
27,20
28,21
29,22
30,23
31,23
32,25
33,27
34,29
35,30
36,31
37,31
38,34
39,37
40,39
41,42
42,44
43,47
44,52
45,54
46,56
47,59
48,63
49,66
50,70
51,77
52,79
53,83
54,96
55,104
56,109
57,112
58,116
59,128
60,142
61,157
62,169
63,185
64,205
65,211
66,232
67,249
68,258
69,274
70,286
71,301
72,317
73,327
74,344
75,365
76,387
77,407
78,423
79,440
80,463
