0,1
1,1
2,1
3,1
4,2
5,3
6,4
7,5
8,5
9,6
10,7
11,7
12,7
13,9
14,11
15,12
16,12
17,12
18,12
19,13
20,14
21,14
22,14
23,15
24,16
25,18
26,19
27,19
28,19
29,20
30,21
31,21
32,23
33,25
34,27
35,28
36,31
37,37
38,38
39,42
40,47
41,51
42,55
43,58
44,65
45,71
46,80
47,90
48,99
49,105
50,117
51,128
52,135
53,146
54,154
55,164
56,173
57,182
58,194
59,209
60,222
61,234
62,251
63,263
64,273
65,286
66,293
67,313
68,329
69,340
70,357
71,375
72,389
73,399
74,414
75,429
76,439
77,453
78,470
79,488
80,504
