0,1
1,1
2,1
3,1
4,1
5,1
6,2
7,3
8,3
9,3
10,3
11,3
12,6
13,7
14,9
15,10
16,13
17,14
18,15
19,17
20,20
21,21
22,23
23,24
24,26
25,26
26,28
27,29
28,30
29,33
30,35
31,35
32,36
33,40
34,41
35,43
36,46
37,48
38,53
39,56
40,60
41,62
42,66
43,69
44,75
45,78
46,80
47,85
48,89
49,94
50,102
51,109
52,115
53,121
54,127
55,137
56,150
57,160
58,168
59,181
60,195
61,210
62,220
63,232
64,248
65,269
66,291
67,312
68,340
69,357
70,372
71,391
72,415
73,437
74,457
75,489
76,515
77,539
78,567
79,597
80,628
