0,1
1,1
2,1
3,1
4,1
5,2
6,3
7,4
8,6
9,8
10,11
11,12
12,13
13,17
14,20
15,23
16,24
17,24
18,29
19,31
20,35
21,40
22,45
23,49
24,50
25,52
26,56
27,59
28,62
29,63
30,65
31,69
32,71
33,74
34,77
35,79
36,81
37,83
38,88
39,91
40,96
41,101
42,104
43,107
44,112
45,115
46,118
47,123
48,129
49,135
50,141
51,146
52,154
53,159
54,164
55,173
56,183
57,191
58,202
59,211
60,222
61,245
62,259
63,278
64,289
65,309
66,332
67,348
68,370
69,398
70,421
71,447
72,473
73,501
74,528
75,554
76,585
77,616
78,662
79,702
80,735
