0,1
1,1
2,1
3,1
4,1
5,1
6,2
7,2
8,3
9,3
10,3
11,3
12,6
13,9
14,10
15,11
16,11
17,15
18,15
19,16
20,18
21,18
22,19
23,21
24,22
25,23
26,26
27,26
28,30
29,30
30,34
31,37
32,37
33,40
34,41
35,41
36,42
37,43
38,44
39,49
40,49
41,50
42,51
43,53
44,53
45,55
46,57
47,57
48,60
49,61
50,63
51,65
52,66
53,67
54,67
55,67
56,69
57,74
58,75
59,75
60,75
61,76
62,76
63,79
64,79
65,80
66,81
67,81
68,83
69,85
70,86
71,86
72,87
73,90
74,90
75,92
76,93
77,95
78,98
79,100
80,104
