0,1
1,1
2,1
3,1
4,1
5,1
6,1
7,2
8,3
9,3
10,3
11,3
12,3
13,3
14,5
15,5
16,6
17,6
18,9
19,10
20,11
21,11
22,13
23,13
24,13
25,16
26,17
27,21
28,22
29,28
30,32
31,35
32,36
33,41
34,43
35,47
36,54
37,58
38,62
39,66
40,70
41,77
42,84
43,88
44,93
45,96
46,108
47,113
48,119
49,127
50,140
51,151
52,173
53,185
54,206
55,220
56,236
57,260
58,278
59,299
60,326
61,354
62,378
63,413
64,437
65,471
66,510
67,534
68,573
69,608
70,652
71,689
72,726
73,768
74,807
75,845
76,895
77,959
78,1012
79,1051
80,1097
