0,1
1,1
2,1
3,2
4,3
5,3
6,3
7,5
8,6
9,6
10,8
11,9
12,10
13,10
14,13
15,16
16,16
17,17
18,17
19,21
20,21
21,22
22,22
23,23
24,31
25,32
26,35
27,35
28,37
29,40
30,42
31,46
32,51
33,52
34,61
35,67
36,71
37,75
38,81
39,92
40,100
41,105
42,115
43,122
44,135
45,140
46,150
47,159
48,172
49,184
50,191
51,206
52,217
53,237
54,252
55,267
56,283
57,300
58,317
59,338
60,347
61,377
62,394
63,423
64,447
65,462
66,490
67,517
68,547
69,573
70,597
71,621
72,639
73,663
74,698
75,723
76,755
77,792
78,821
79,851
80,901
