0,1
1,1
2,1
3,1
4,1
5,2
6,4
7,4
8,5
9,7
10,8
11,10
12,11
13,13
14,15
15,15
16,16
17,19
18,20
19,24
20,27
21,27
22,30
23,31
24,31
25,32
26,32
27,33
28,34
29,37
30,40
31,40
32,42
33,45
34,50
35,53
36,57
37,59
38,63
39,67
40,71
41,75
42,78
43,81
44,87
45,92
46,98
47,104
48,109
49,115
50,121
51,124
52,128
53,136
54,144
55,153
56,161
57,171
58,186
59,192
60,205
61,216
62,232
63,249
64,271
65,288
66,301
67,321
68,343
69,358
70,379
71,403
72,433
73,453
74,479
75,510
76,538
77,575
78,612
79,655
80,707
