0,1
1,1
2,1
3,2
4,5
5,5
6,5
7,6
8,7
9,8
10,9
11,9
12,10
13,12
14,13
15,13
16,14
17,18
18,19
19,22
20,24
21,27
22,28
23,28
24,29
25,31
26,32
27,33
28,33
29,36
30,37
31,38
32,38
33,39
34,40
35,42
36,42
37,44
38,46
39,46
40,47
41,49
42,52
43,54
44,55
45,56
46,58
47,60
48,63
49,64
50,70
51,75
52,77
53,78
54,85
55,87
56,93
57,97
58,100
59,108
60,115
61,120
62,129
63,136
64,141
65,153
66,165
67,175
68,186
69,201
70,210
71,231
72,250
73,275
74,300
75,319
76,344
77,366
78,393
79,421
80,459
