0,1
1,1
2,2
3,2
4,2
5,2
6,2
7,2
8,3
9,4
10,4
11,6
12,6
13,7
14,8
15,8
16,8
17,10
18,14
19,14
20,15
21,16
22,20
23,21
24,22
25,25
26,29
27,30
28,33
29,33
30,38
31,39
32,45
33,45
34,49
35,52
36,54
37,59
38,64
39,70
40,72
41,77
42,81
43,84
44,89
45,92
46,94
47,95
48,101
49,107
50,111
51,114
52,119
53,124
54,128
55,134
56,138
57,147
58,151
59,154
60,160
61,168
62,176
63,183
64,193
65,207
66,219
67,227
68,241
69,252
70,261
71,270
72,278
73,286
74,293
75,299
76,312
77,320
78,332
79,342
80,353
