0,1
1,1
2,1
3,1
4,1
5,1
6,1
7,3
8,3
9,3
10,4
11,4
12,4
13,4
14,8
15,8
16,8
17,10
18,10
19,11
20,12
21,13
22,14
23,15
24,15
25,16
26,18
27,19
28,22
29,24
30,24
31,24
32,30
33,37
34,42
35,47
36,52
37,55
38,56
39,62
40,69
41,77
42,82
43,87
44,92
45,98
46,105
47,110
48,113
49,118
50,126
51,128
52,135
53,146
54,153
55,158
56,164
57,169
58,179
59,193
60,202
61,212
62,222
63,231
64,242
65,252
66,268
67,281
68,288
69,300
70,315
71,333
72,345
73,367
74,384
75,401
76,423
77,439
78,466
79,484
80,513
