0,1
1,1
2,1
3,2
4,3
5,3
6,8
7,8
8,9
9,10
10,13
11,16
12,18
13,20
14,21
15,21
16,22
17,25
18,28
19,30
20,31
21,33
22,37
23,38
24,40
25,41
26,43
27,44
28,48
29,51
30,53
31,57
32,60
33,61
34,64
35,69
36,74
37,79
38,82
39,85
40,90
41,96
42,103
43,109
44,115
45,121
46,125
47,130
48,136
49,140
50,146
51,156
52,160
53,165
54,170
55,175
56,184
57,191
58,201
59,208
60,219
61,230
62,238
63,244
64,254
65,265
66,271
67,290
68,298
69,312
70,323
71,344
72,360
73,376
74,392
75,410
76,430
77,450
78,468
79,483
80,502
