0,1
1,1
2,1
3,1
4,1
5,2
6,2
7,3
8,4
9,5
10,6
11,6
12,7
13,8
14,8
15,9
16,12
17,12
18,13
19,14
20,15
21,16
22,17
23,17
24,19
25,21
26,26
27,29
28,30
29,34
30,38
31,40
32,46
33,48
34,53
35,59
36,61
37,64
38,68
39,75
40,75
41,77
42,81
43,85
44,88
45,95
46,97
47,104
48,108
49,115
50,126
51,131
52,135
53,141
54,150
55,155
56,165
57,170
58,174
59,180
60,186
61,189
62,196
63,202
64,208
65,210
66,219
67,221
68,227
69,236
70,238
71,247
72,252
73,258
74,263
75,274
76,278
77,287
78,293
79,307
80,319
