0,1
1,1
2,1
3,1
4,1
5,3
6,4
7,4
8,5
9,5
10,5
11,5
12,5
13,6
14,7
15,7
16,7
17,8
18,8
19,8
20,8
21,9
22,9
23,10
24,10
25,10
26,10
27,11
28,13
29,13
30,13
31,14
32,15
33,17
34,17
35,18
36,18
37,19
38,20
39,21
40,22
41,24
42,24
43,25
44,25
45,25
46,26
47,28
48,31
49,31
50,35
51,36
52,41
53,44
54,45
55,49
56,55
57,56
58,60
59,66
60,71
61,79
62,86
63,89
64,93
65,102
66,107
67,113
68,117
69,124
70,129
71,134
72,144
73,152
74,159
75,169
76,178
77,189
78,201
79,213
80,218
