0,1
1,1
2,1
3,1
4,2
5,3
6,5
7,5
8,5
9,6
10,8
11,9
12,9
13,14
14,15
15,19
16,23
17,26
18,31
19,32
20,35
21,40
22,43
23,45
24,51
25,54
26,61
27,65
28,71
29,75
30,79
31,83
32,88
33,94
34,98
35,103
36,108
37,115
38,122
39,131
40,136
41,146
42,156
43,161
44,169
45,175
46,188
47,202
48,213
49,228
50,243
51,248
52,271
53,295
54,306
55,328
56,344
57,363
58,394
59,412
60,444
61,471
62,511
63,536
64,573
65,619
66,651
67,692
68,731
69,770
70,816
71,863
72,914
73,975
74,1029
75,1089
76,1146
77,1181
78,1263
79,1311
80,1365
