0,1
1,1
2,1
3,1
4,1
5,2
6,2
7,3
8,3
9,7
10,7
11,7
12,10
13,11
14,14
15,15
16,16
17,16
18,18
19,18
20,22
21,22
22,24
23,24
24,25
25,25
26,29
27,30
28,30
29,30
30,31
31,34
32,35
33,38
34,39
35,40
36,41
37,44
38,45
39,45
40,46
41,47
42,51
43,53
44,54
45,54
46,57
47,58
48,60
49,64
50,68
51,69
52,75
53,77
54,79
55,79
56,82
57,93
58,96
59,104
60,109
61,117
62,119
63,131
64,140
65,152
66,164
67,170
68,179
69,186
70,197
71,208
72,217
73,227
74,234
75,244
76,257
77,269
78,278
79,291
80,309
