0,1
1,1
2,1
3,2
4,2
5,3
6,4
7,4
8,7
9,7
10,8
11,8
12,11
13,13
14,13
15,14
16,19
17,21
18,22
19,26
20,27
21,33
22,36
23,42
24,49
25,57
26,60
27,69
28,77
29,82
30,93
31,102
32,109
33,120
34,131
35,142
36,158
37,174
38,186
39,201
40,211
41,235
42,253
43,270
44,284
45,300
46,318
47,336
48,349
49,360
50,387
51,406
52,429
53,450
54,469
55,492
56,510
57,536
58,560
59,585
60,612
61,636
62,669
63,699
64,721
65,757
66,787
67,824
68,853
69,885
70,922
71,955
72,980
73,1018
74,1050
75,1082
76,1120
77,1155
78,1199
79,1232
80,1268
