0,1
1,1
2,1
3,1
4,2
5,3
6,5
7,6
8,6
9,6
10,8
11,9
12,10
13,11
14,12
15,16
16,17
17,19
18,19
19,22
20,25
21,26
22,28
23,29
24,32
25,37
26,41
27,45
28,47
29,50
30,56
31,66
32,73
33,83
34,89
35,98
36,103
37,117
38,131
39,143
40,157
41,167
42,182
43,210
44,226
45,247
46,269
47,296
48,320
49,353
50,385
51,417
52,455
53,489
54,536
55,593
56,641
57,685
58,735
59,797
60,849
61,923
62,986
63,1068
64,1136
65,1206
66,1301
67,1383
68,1484
69,1589
70,1682
71,1795
72,1910
73,2011
74,2135
75,2250
76,2371
77,2510
78,2639
79,2776
80,2905
