0,1
1,1
2,1
3,2
4,3
5,3
6,3
7,4
8,4
9,7
10,9
11,9
12,10
13,12
14,12
15,13
16,14
17,14
18,17
19,18
20,19
21,20
22,20
23,21
24,21
25,21
26,22
27,23
28,24
29,24
30,26
31,26
32,27
33,27
34,28
35,30
36,30
37,31
38,34
39,35
40,36
41,36
42,39
43,41
44,45
45,47
46,50
47,52
48,52
49,55
50,58
51,60
52,62
53,64
54,67
55,67
56,69
57,69
58,72
59,73
60,74
61,76
62,78
63,80
64,86
65,88
66,92
67,98
68,106
69,109
70,121
71,128
72,131
73,137
74,144
75,150
76,164
77,172
78,178
79,184
80,195
