0,1
1,1
2,1
3,1
4,2
5,2
6,5
7,5
8,5
9,6
10,9
11,10
12,11
13,14
14,18
15,21
16,24
17,29
18,30
19,33
20,39
21,42
22,45
23,49
24,53
25,55
26,61
27,68
28,72
29,78
30,83
31,89
32,97
33,99
34,104
35,111
36,123
37,129
38,138
39,149
40,156
41,165
42,175
43,181
44,186
45,198
46,208
47,223
48,237
49,246
50,269
51,288
52,312
53,336
54,353
55,376
56,407
57,431
58,457
59,481
60,506
61,534
62,561
63,595
64,625
65,657
66,684
67,716
68,745
69,785
70,828
71,868
72,913
73,947
74,991
75,1061
76,1111
77,1173
78,1231
79,1290
80,1362
