0,1
1,1
2,1
3,1
4,2
5,2
6,3
7,4
8,6
9,6
10,6
11,6
12,6
13,7
14,7
15,8
16,9
17,9
18,10
19,10
20,11
21,11
22,12
23,12
24,12
25,13
26,13
27,14
28,16
29,18
30,19
31,21
32,22
33,25
34,25
35,26
36,27
37,28
38,32
39,33
40,36
41,37
42,42
43,43
44,43
45,46
46,51
47,53
48,56
49,57
50,58
51,62
52,65
53,66
54,67
55,69
56,73
57,74
58,75
59,76
60,76
61,80
62,81
63,81
64,82
65,86
66,88
67,88
68,93
69,94
70,97
71,99
72,103
73,105
74,107
75,109
76,111
77,116
78,122
79,126
80,134
