0,1
1,1
2,1
3,1
4,2
5,2
6,3
7,3
8,3
9,5
10,6
11,6
12,7
13,7
14,7
15,7
16,7
17,7
18,7
19,8
20,9
21,9
22,10
23,10
24,11
25,14
26,14
27,15
28,15
29,15
30,16
31,16
32,18
33,19
34,20
35,21
36,21
37,24
38,26
39,27
40,29
41,31
42,31
43,33
44,35
45,37
46,39
47,41
48,45
49,46
50,49
51,54
52,55
53,58
54,64
55,65
56,68
57,73
58,75
59,77
60,82
61,87
62,96
63,100
64,101
65,108
66,111
67,115
68,120
69,128
70,131
71,137
72,146
73,152
74,160
75,175
76,184
77,195
78,205
79,216
80,226
