0,1
1,1
2,1
3,1
4,2
5,2
6,3
7,4
8,5
9,6
10,6
11,7
12,8
13,8
14,9
15,10
16,11
17,12
18,12
19,13
20,15
21,17
22,20
23,22
24,22
25,22
26,27
27,33
28,35
29,36
30,40
31,43
32,44
33,46
34,49
35,51
36,52
37,52
38,54
39,54
40,57
41,59
42,61
43,64
44,65
45,67
46,72
47,73
48,81
49,88
50,96
51,106
52,110
53,117
54,126
55,135
56,146
57,159
58,172
59,190
60,205
61,216
62,229
63,244
64,258
65,275
66,296
67,309
68,332
69,352
70,375
71,401
72,420
73,445
74,474
75,501
76,531
77,561
78,593
79,624
80,668
