0,1
1,1
2,1
3,1
4,1
5,2
6,2
7,3
8,4
9,4
10,5
11,5
12,7
13,7
14,9
15,11
16,11
17,12
18,14
19,17
20,19
21,21
22,22
23,22
24,23
25,28
26,29
27,31
28,31
29,32
30,34
31,35
32,38
33,41
34,42
35,43
36,44
37,48
38,48
39,50
40,56
41,56
42,58
43,60
44,67
45,71
46,74
47,78
48,83
49,88
50,89
51,93
52,95
53,101
54,106
55,109
56,114
57,116
58,122
59,128
60,135
61,139
62,144
63,154
64,157
65,165
66,174
67,182
68,195
69,209
70,219
71,228
72,238
73,253
74,269
75,277
76,296
77,314
78,325
79,341
80,357
