0,1
1,1
2,1
3,1
4,2
5,4
6,4
7,6
8,7
9,7
10,8
11,8
12,9
13,9
14,11
15,12
16,12
17,12
18,17
19,19
20,20
21,22
22,27
23,32
24,34
25,36
26,44
27,46
28,48
29,57
30,61
31,63
32,66
33,71
34,76
35,85
36,96
37,101
38,109
39,119
40,131
41,142
42,153
43,159
44,173
45,182
46,188
47,201
48,212
49,224
50,237
51,245
52,263
53,278
54,292
55,307
56,318
57,331
58,349
59,359
60,380
61,394
62,410
63,429
64,444
65,473
66,492
67,519
68,540
69,568
70,594
71,615
72,658
73,706
74,751
75,792
76,830
77,894
78,957
79,1024
80,1086
