0,1
1,1
2,1
3,1
4,1
5,1
6,2
7,2
8,2
9,2
10,3
11,4
12,5
13,6
14,6
15,6
16,7
17,7
18,7
19,7
20,7
21,9
22,9
23,9
24,10
25,11
26,15
27,16
28,18
29,21
30,22
31,25
32,26
33,28
34,29
35,32
36,32
37,35
38,36
39,41
40,43
41,43
42,47
43,51
44,55
45,60
46,66
47,68
48,74
49,80
50,92
51,100
52,107
53,115
54,131
55,141
56,151
57,163
58,176
59,186
60,200
61,221
62,230
63,238
64,266
65,287
66,306
67,332
68,366
69,397
70,424
71,463
72,500
73,543
74,574
75,625
76,675
77,721
78,772
79,834
80,898
