0,1
1,1
2,1
3,2
4,2
5,2
6,2
7,2
8,2
9,3
10,4
11,4
12,4
13,4
14,4
15,4
16,5
17,5
18,7
19,7
20,8
21,8
22,9
23,10
24,12
25,14
26,14
27,17
28,18
29,19
30,21
31,22
32,23
33,23
34,23
35,24
36,27
37,27
38,29
39,31
40,32
41,35
42,37
43,38
44,42
45,43
46,44
47,46
48,48
49,49
50,49
51,51
52,52
53,52
54,54
55,55
56,57
57,59
58,60
59,61
60,63
61,64
62,64
63,68
64,69
65,70
66,70
67,71
68,72
69,72
70,74
71,75
72,75
73,75
74,75
75,77
76,78
77,78
78,80
79,81
80,84
