0,1
1,1
2,1
3,2
4,3
5,3
6,3
7,3
8,4
9,6
10,8
11,8
12,8
13,9
14,9
15,10
16,11
17,11
18,11
19,12
20,12
21,12
22,15
23,16
24,17
25,18
26,19
27,20
28,21
29,25
30,25
31,29
32,30
33,35
34,39
35,39
36,44
37,46
38,47
39,51
40,55
41,56
42,58
43,63
44,70
45,71
46,77
47,84
48,93
49,103
50,111
51,118
52,130
53,140
54,146
55,157
56,164
57,177
58,186
59,199
60,209
61,224
62,237
63,251
64,265
65,284
66,300
67,308
68,320
69,333
70,351
71,367
72,393
73,418
74,442
75,466
76,496
77,531
78,556
79,591
80,627
