0,1
1,1
2,1
3,1
4,1
5,2
6,3
7,4
8,4
9,5
10,5
11,5
12,5
13,5
14,6
15,8
16,8
17,8
18,11
19,12
20,13
21,18
22,20
23,22
24,24
25,27
26,27
27,28
28,29
29,34
30,36
31,40
32,41
33,41
34,43
35,44
36,48
37,51
38,52
39,55
40,58
41,62
42,67
43,68
44,72
45,76
46,87
47,90
48,93
49,100
50,103
51,111
52,115
53,124
54,128
55,134
56,141
57,148
58,160
59,171
60,177
61,181
62,192
63,206
64,219
65,229
66,234
67,245
68,261
69,278
70,293
71,307
72,323
73,339
74,361
75,380
76,402
77,415
78,443
79,469
80,487
