0,1
1,1
2,1
3,1
4,1
5,2
6,2
7,3
8,3
9,4
10,4
11,4
12,5
13,6
14,6
15,7
16,7
17,7
18,7
19,9
20,9
21,10
22,11
23,11
24,13
25,13
26,15
27,16
28,16
29,20
30,21
31,22
32,23
33,24
34,30
35,31
36,35
37,38
38,44
39,47
40,48
41,54
42,61
43,63
44,68
45,74
46,83
47,85
48,87
49,92
50,94
51,98
52,105
53,113
54,121
55,124
56,128
57,130
58,131
59,138
60,142
61,148
62,152
63,160
64,162
65,167
66,176
67,181
68,185
69,195
70,202
71,211
72,220
73,229
74,239
75,253
76,270
77,282
78,292
79,311
80,331
