0,1
1,1
2,1
3,4
4,4
5,6
6,8
7,9
8,11
9,11
10,11
11,14
12,17
13,18
14,21
15,23
16,25
17,29
18,31
19,33
20,40
21,42
22,45
23,53
24,60
25,64
26,68
27,77
28,85
29,92
30,95
31,105
32,114
33,119
34,131
35,138
36,143
37,154
38,162
39,177
40,197
41,207
42,229
43,238
44,258
45,279
46,299
47,318
48,336
49,366
50,385
51,403
52,422
53,455
54,483
55,507
56,543
57,581
58,621
59,659
60,692
61,730
62,781
63,828
64,879
65,938
66,976
67,1031
68,1092
69,1148
70,1214
71,1281
72,1340
73,1419
74,1500
75,1610
76,1712
77,1804
78,1890
79,1990
80,2101
