0,1
1,1
2,1
3,3
4,3
5,3
6,5
7,5
8,5
9,5
10,5
11,5
12,6
13,6
14,7
15,7
16,8
17,9
18,9
19,9
20,10
21,10
22,11
23,13
24,13
25,13
26,16
27,18
28,20
29,25
30,27
31,30
32,33
33,36
34,38
35,39
36,43
37,44
38,47
39,49
40,51
41,52
42,52
43,55
44,57
45,57
46,58
47,58
48,59
49,61
50,62
51,62
52,64
53,66
54,67
55,68
56,70
57,71
58,73
59,73
60,75
61,75
62,76
63,78
64,79
65,80
66,84
67,86
68,88
69,91
70,95
71,98
72,102
73,105
74,111
75,116
76,122
77,126
78,133
79,138
80,152
