0,1
1,1
2,1
3,2
4,3
5,4
6,4
7,5
8,6
9,8
10,9
11,12
12,15
13,15
14,19
15,23
16,23
17,25
18,30
19,32
20,36
21,41
22,43
23,57
24,63
25,69
26,78
27,82
28,91
29,100
30,107
31,119
32,126
33,140
34,147
35,158
36,166
37,174
38,190
39,198
40,212
41,224
42,238
43,251
44,263
45,276
46,291
47,312
48,330
49,352
50,374
51,396
52,422
53,445
54,478
55,509
56,540
57,572
58,614
59,646
60,695
61,746
62,788
63,828
64,881
65,934
66,994
67,1044
68,1111
69,1179
70,1252
71,1314
72,1397
73,1472
74,1547
75,1643
76,1730
77,1831
78,1931
79,2054
80,2159
