0,1
1,1
2,1
3,1
4,1
5,3
6,4
7,4
8,4
9,5
10,7
11,8
12,8
13,8
14,9
15,9
16,9
17,11
18,11
19,12
20,14
21,14
22,14
23,15
24,18
25,22
26,23
27,24
28,28
29,29
30,34
31,36
32,40
33,41
34,42
35,44
36,47
37,51
38,53
39,55
40,55
41,56
42,64
43,68
44,69
45,70
46,73
47,78
48,85
49,89
50,92
51,96
52,103
53,111
54,118
55,124
56,129
57,140
58,146
59,151
60,163
61,169
62,174
63,190
64,199
65,210
66,219
67,230
68,244
69,254
70,261
71,273
72,293
73,310
74,318
75,333
76,343
77,371
78,397
79,424
80,439
