0,1
1,1
2,1
3,1
4,1
5,2
6,2
7,3
8,3
9,3
10,4
11,6
12,8
13,8
14,10
15,14
16,16
17,18
18,20
19,22
20,24
21,25
22,29
23,29
24,31
25,34
26,35
27,37
28,42
29,46
30,49
31,54
32,56
33,56
34,58
35,64
36,68
37,70
38,78
39,82
40,89
41,93
42,100
43,108
44,121
45,133
46,145
47,151
48,161
49,173
50,194
51,206
52,214
53,232
54,250
55,263
56,276
57,300
58,321
59,338
60,354
61,378
62,400
63,423
64,446
65,468
66,496
67,520
68,541
69,570
70,599
71,628
72,657
73,699
74,738
75,778
76,826
77,875
78,922
79,964
80,1003
