0,1
1,1
2,1
3,3
4,3
5,5
6,6
7,8
8,11
9,14
10,15
11,16
12,18
13,23
14,25
15,27
16,31
17,34
18,36
19,38
20,41
21,44
22,50
23,53
24,57
25,64
26,71
27,78
28,87
29,92
30,101
31,115
32,121
33,128
34,139
35,155
36,164
37,174
38,185
39,199
40,211
41,227
42,244
43,261
44,273
45,291
46,314
47,333
48,357
49,376
50,398
51,425
52,444
53,471
54,501
55,526
56,553
57,586
58,618
59,651
60,679
61,705
62,751
63,784
64,821
65,864
66,900
67,936
68,977
69,1022
70,1063
71,1112
72,1168
73,1216
74,1263
75,1317
76,1369
77,1420
78,1475
79,1548
80,1610
