0,1
1,1
2,1
3,1
4,1
5,1
6,1
7,2
8,2
9,2
10,2
11,2
12,3
13,3
14,3
15,4
16,5
17,6
18,6
19,7
20,8
21,8
22,9
23,10
24,13
25,14
26,14
27,17
28,19
29,20
30,26
31,30
32,36
33,38
34,42
35,49
36,55
37,62
38,67
39,72
40,76
41,83
42,94
43,106
44,114
45,123
46,136
47,140
48,148
49,156
50,168
51,176
52,183
53,194
54,203
55,217
56,225
57,238
58,254
59,268
60,283
61,305
62,322
63,342
64,352
65,376
66,402
67,427
68,449
69,474
70,499
71,520
72,540
73,568
74,589
75,617
76,636
77,661
78,695
79,722
80,757
