0,1
1,1
2,1
3,1
4,1
5,2
6,3
7,3
8,4
9,4
10,4
11,5
12,8
13,9
14,12
15,16
16,17
17,21
18,22
19,25
20,31
21,36
22,43
23,47
24,49
25,56
26,61
27,64
28,70
29,79
30,89
31,92
32,100
33,107
34,113
35,122
36,129
37,134
38,143
39,151
40,161
41,169
42,178
43,189
44,200
45,213
46,226
47,238
48,248
49,262
50,280
51,289
52,302
53,319
54,335
55,347
56,365
57,381
58,399
59,417
60,438
61,454
62,472
63,493
64,520
65,543
66,561
67,575
68,599
69,626
70,653
71,673
72,704
73,728
74,765
75,793
76,814
77,851
78,875
79,914
80,944
