0,1
1,1
2,1
3,1
4,1
5,1
6,2
7,2
8,2
9,2
10,3
11,3
12,4
13,5
14,5
15,5
16,6
17,6
18,7
19,8
20,8
21,8
22,8
23,9
24,10
25,11
26,11
27,12
28,13
29,16
30,17
31,18
32,19
33,22
34,26
35,26
36,27
37,29
38,33
39,35
40,36
41,38
42,42
43,43
44,43
45,47
46,47
47,47
48,47
49,49
50,49
51,49
52,49
53,50
54,51
55,51
56,51
57,51
58,52
59,53
60,55
61,56
62,57
63,58
64,58
65,59
66,61
67,66
68,68
69,69
70,71
71,72
72,75
73,77
74,79
75,81
76,81
77,82
78,84
79,85
80,85
