0,1
1,1
2,1
3,1
4,1
5,3
6,3
7,3
8,4
9,4
10,4
11,6
12,7
13,8
14,10
15,12
16,16
17,16
18,20
19,27
20,30
21,32
22,36
23,41
24,43
25,46
26,53
27,59
28,64
29,76
30,80
31,90
32,101
33,109
34,119
35,132
36,142
37,155
38,165
39,179
40,184
41,209
42,226
43,244
44,257
45,279
46,301
47,320
48,336
49,364
50,391
51,411
52,431
53,456
54,478
55,500
56,518
57,544
58,568
59,590
60,621
61,649
62,678
63,717
64,750
65,785
66,822
67,864
68,920
69,989
70,1045
71,1082
72,1147
73,1215
74,1276
75,1346
76,1420
77,1484
78,1574
79,1658
80,1741
