0,1
1,1
2,1
3,1
4,1
5,2
6,2
7,2
8,4
9,4
10,5
11,6
12,6
13,6
14,7
15,8
16,10
17,12
18,12
19,13
20,15
21,18
22,18
23,20
24,23
25,26
26,27
27,28
28,32
29,39
30,43
31,46
32,51
33,52
34,54
35,60
36,65
37,74
38,82
39,83
40,95
41,101
42,109
43,118
44,127
45,131
46,135
47,140
48,150
49,155
50,168
51,177
52,184
53,193
54,200
55,206
56,218
57,229
58,249
59,269
60,282
61,296
62,315
63,326
64,346
65,364
66,390
67,412
68,433
69,453
70,472
71,502
72,520
73,554
74,580
75,610
76,630
77,659
78,687
79,722
80,739
