0,1
1,1
2,1
3,1
4,2
5,3
6,5
7,8
8,8
9,9
10,9
11,10
12,10
13,13
14,15
15,18
16,19
17,19
18,20
19,20
20,21
21,22
22,23
23,25
24,25
25,26
26,27
27,28
28,29
29,31
30,35
31,37
32,42
33,44
34,47
35,52
36,53
37,53
38,55
39,60
40,63
41,65
42,66
43,69
44,72
45,76
46,78
47,86
48,92
49,98
50,105
51,108
52,117
53,125
54,136
55,142
56,154
57,167
58,178
59,192
60,207
61,215
62,224
63,233
64,246
65,253
66,268
67,280
68,294
69,306
70,319
71,337
72,353
73,374
74,383
75,399
76,413
77,434
78,452
79,476
80,507
