0,1
1,1
2,1
3,3
4,3
5,4
6,5
7,6
8,8
9,10
10,14
11,16
12,17
13,20
14,24
15,26
16,31
17,37
18,40
19,42
20,46
21,46
22,47
23,48
24,49
25,51
26,51
27,51
28,52
29,52
30,54
31,54
32,54
33,57
34,57
35,60
36,63
37,66
38,72
39,77
40,79
41,86
42,94
43,98
44,103
45,108
46,115
47,124
48,129
49,136
50,146
51,155
52,164
53,170
54,182
55,186
56,199
57,210
58,223
59,235
60,251
61,262
62,277
63,295
64,308
65,328
66,350
67,363
68,383
69,396
70,420
71,437
72,456
73,482
74,499
75,525
76,549
77,572
78,609
79,636
80,683
