0,1
1,1
2,1
3,1
4,2
5,2
6,2
7,3
8,3
9,4
10,6
11,9
12,10
13,13
14,13
15,13
16,14
17,16
18,19
19,20
20,20
21,20
22,20
23,22
24,23
25,25
26,26
27,27
28,29
29,30
30,34
31,37
32,38
33,39
34,43
35,47
36,51
37,53
38,56
39,57
40,59
41,59
42,63
43,65
44,66
45,71
46,74
47,77
48,79
49,82
50,88
51,96
52,104
53,110
54,116
55,122
56,139
57,152
58,165
59,179
60,190
61,206
62,223
63,237
64,250
65,268
66,292
67,319
68,331
69,355
70,378
71,408
72,442
73,463
74,490
75,524
76,566
77,601
78,644
79,686
80,720
