0,1
1,1
2,1
3,1
4,1
5,1
6,1
7,2
8,2
9,3
10,3
11,3
12,5
13,6
14,6
15,6
16,7
17,8
18,9
19,9
20,11
21,12
22,14
23,15
24,16
25,18
26,21
27,22
28,23
29,26
30,28
31,30
32,34
33,38
34,40
35,44
36,48
37,52
38,57
39,64
40,71
41,79
42,85
43,92
44,100
45,109
46,119
47,129
48,138
49,148
50,160
51,177
52,189
53,210
54,222
55,244
56,270
57,283
58,309
59,343
60,379
61,410
62,438
63,468
64,501
65,535
66,575
67,608
68,649
69,691
70,745
71,788
72,835
73,891
74,950
75,1007
76,1072
77,1141
78,1220
79,1300
80,1375
