0,1
1,1
2,1
3,1
4,1
5,2
6,3
7,3
8,4
9,4
10,6
11,6
12,7
13,10
14,13
15,13
16,14
17,15
18,17
19,17
20,18
21,19
22,21
23,22
24,23
25,24
26,26
27,31
28,33
29,33
30,38
31,41
32,42
33,44
34,45
35,46
36,47
37,51
38,53
39,55
40,57
41,58
42,59
43,62
44,65
45,67
46,69
47,71
48,73
49,76
50,79
51,81
52,84
53,89
54,91
55,96
56,99
57,103
58,106
59,112
60,115
61,124
62,124
63,126
64,134
65,139
66,150
67,156
68,164
69,175
70,189
71,199
72,212
73,227
74,236
75,254
76,271
77,284
78,305
79,326
80,348
