0,1
1,1
2,1
3,2
4,2
5,4
6,5
7,5
8,5
9,5
10,7
11,8
12,10
13,12
14,15
15,15
16,18
17,19
18,19
19,22
20,23
21,25
22,26
23,28
24,34
25,35
26,39
27,40
28,44
29,48
30,53
31,56
32,59
33,67
34,76
35,83
36,88
37,99
38,109
39,116
40,124
41,133
42,141
43,155
44,161
45,175
46,187
47,198
48,211
49,230
50,245
51,261
52,274
53,295
54,315
55,329
56,357
57,381
58,403
59,427
60,464
61,485
62,511
63,539
64,561
65,595
66,622
67,666
68,687
69,709
70,741
71,779
72,816
73,844
74,878
75,925
76,975
77,1014
78,1062
79,1117
80,1162
