0,1
1,1
2,1
3,1
4,1
5,1
6,1
7,1
8,3
9,3
10,3
11,4
12,4
13,6
14,6
15,7
16,7
17,12
18,14
19,16
20,16
21,18
22,21
23,23
24,23
25,28
26,30
27,30
28,32
29,33
30,35
31,35
32,36
33,36
34,36
35,37
36,37
37,39
38,40
39,41
40,41
41,42
42,44
43,46
44,47
45,48
46,48
47,49
48,50
49,50
50,51
51,51
52,51
53,53
54,54
55,54
56,55
57,55
58,58
59,61
60,63
61,65
62,66
63,67
64,68
65,71
66,75
67,77
68,78
69,81
70,82
71,84
72,84
73,85
74,88
75,91
76,93
77,99
78,102
79,105
80,109
