0,1
1,1
2,1
3,2
4,2
5,2
6,2
7,2
8,2
9,3
10,3
11,3
12,4
13,4
14,5
15,6
16,6
17,6
18,6
19,6
20,9
21,10
22,10
23,11
24,12
25,12
26,14
27,15
28,17
29,18
30,19
31,21
32,21
33,23
34,28
35,30
36,34
37,36
38,40
39,46
40,53
41,53
42,58
43,68
44,72
45,79
46,81
47,87
48,99
49,105
50,113
51,127
52,136
53,139
54,151
55,160
56,170
57,181
58,196
59,202
60,214
61,231
62,240
63,256
64,270
65,284
66,296
67,307
68,326
69,335
70,350
71,361
72,373
73,391
74,413
75,426
76,439
77,457
78,478
79,489
80,512
