0,1
1,1
2,2
3,2
4,2
5,3
6,3
7,3
8,4
9,4
10,5
11,7
12,9
13,10
14,13
15,18
16,22
17,28
18,35
19,37
20,43
21,47
22,50
23,56
24,63
25,68
26,77
27,84
28,90
29,102
30,111
31,116
32,123
33,140
34,154
35,170
36,181
37,193
38,200
39,206
40,220
41,226
42,232
43,242
44,256
45,263
46,274
47,288
48,296
49,308
50,321
51,329
52,339
53,352
54,361
55,370
56,385
57,391
58,401
59,413
60,420
61,437
62,450
63,462
64,477
65,494
66,510
67,524
68,543
69,562
70,582
71,595
72,613
73,638
74,659
75,678
76,702
77,730
78,754
79,788
80,821
