0,1
1,1
2,1
3,1
4,3
5,5
6,6
7,9
8,9
9,12
10,14
11,16
12,20
13,22
14,22
15,22
16,25
17,27
18,27
19,29
20,30
21,30
22,30
23,31
24,34
25,34
26,34
27,36
28,36
29,39
30,41
31,41
32,41
33,43
34,45
35,47
36,47
37,47
38,48
39,48
40,49
41,51
42,51
43,52
44,52
45,52
46,54
47,57
48,58
49,60
50,62
51,63
52,64
53,67
54,69
55,71
56,75
57,79
58,81
59,84
60,94
61,98
62,106
63,112
64,120
65,130
66,142
67,153
68,167
69,171
70,185
71,195
72,202
73,209
74,220
75,233
76,244
77,252
78,264
79,278
80,287
