0,1
1,1
2,1
3,1
4,1
5,1
6,1
7,2
8,2
9,2
10,2
11,2
12,2
13,3
14,3
15,3
16,3
17,3
18,5
19,6
20,6
21,6
22,8
23,8
24,9
25,10
26,10
27,10
28,11
29,11
30,11
31,12
32,12
33,12
34,12
35,13
36,13
37,13
38,13
39,13
40,16
41,17
42,17
43,18
44,21
45,21
46,23
47,24
48,25
49,26
50,26
51,28
52,30
53,32
54,32
55,34
56,35
57,37
58,40
59,40
60,42
61,45
62,46
63,52
64,58
65,62
66,66
67,71
68,76
69,79
70,83
71,84
72,91
73,97
74,102
75,105
76,112
77,118
78,119
79,125
80,130
