0,1
1,1
2,1
3,1
4,1
5,1
6,1
7,1
8,2
9,3
10,3
11,3
12,3
13,4
14,4
15,4
16,4
17,4
18,4
19,4
20,5
21,5
22,5
23,5
24,5
25,7
26,7
27,7
28,7
29,8
30,8
31,9
32,11
33,13
34,14
35,14
36,16
37,19
38,21
39,23
40,25
41,25
42,26
43,28
44,32
45,33
46,37
47,41
48,45
49,49
50,52
51,53
52,57
53,62
54,63
55,65
56,67
57,69
58,69
59,75
60,77
61,79
62,82
63,86
64,89
65,90
66,92
67,97
68,103
69,106
70,109
71,112
72,114
73,121
74,124
75,125
76,131
77,135
78,138
79,141
80,146
