0,1
1,1
2,1
3,1
4,1
5,2
6,4
7,5
8,7
9,7
10,7
11,9
12,10
13,12
14,14
15,17
16,24
17,27
18,31
19,37
20,42
21,45
22,48
23,51
24,59
25,65
26,66
27,77
28,86
29,99
30,105
31,114
32,127
33,137
34,154
35,169
36,187
37,194
38,212
39,230
40,244
41,261
42,281
43,304
44,328
45,347
46,362
47,396
48,423
49,454
50,481
51,518
52,559
53,598
54,644
55,691
56,722
57,772
58,815
59,868
60,926
61,963
62,1011
63,1080
64,1146
65,1198
66,1266
67,1339
68,1406
69,1484
70,1580
71,1659
72,1738
73,1835
74,1919
75,2020
76,2113
77,2220
78,2344
79,2477
80,2605
