0,1
1,1
2,1
3,1
4,2
5,3
6,3
7,4
8,4
9,5
10,5
11,7
12,9
13,10
14,11
15,12
16,12
17,12
18,14
19,15
20,16
21,17
22,19
23,26
24,27
25,32
26,38
27,41
28,47
29,52
30,57
31,63
32,73
33,79
34,89
35,97
36,103
37,115
38,120
39,130
40,144
41,155
42,174
43,188
44,202
45,217
46,235
47,248
48,270
49,293
50,316
51,347
52,375
53,397
54,437
55,467
56,490
57,531
58,568
59,606
60,644
61,697
62,745
63,793
64,847
65,888
66,948
67,1003
68,1076
69,1144
70,1205
71,1273
72,1346
73,1428
74,1499
75,1575
76,1671
77,1758
78,1830
79,1927
80,2032
