0,1
1,1
2,1
3,2
4,2
5,2
6,3
7,3
8,3
9,5
10,5
11,6
12,6
13,7
14,7
15,8
16,8
17,9
18,10
19,11
20,11
21,11
22,12
23,13
24,13
25,13
26,13
27,13
28,14
29,14
30,14
31,15
32,15
33,16
34,17
35,17
36,17
37,18
38,19
39,20
40,20
41,22
42,25
43,28
44,28
45,30
46,31
47,36
48,40
49,42
50,46
51,47
52,53
53,57
54,61
55,62
56,70
57,71
58,79
59,85
60,90
61,100
62,108
63,110
64,113
65,121
66,128
67,135
68,148
69,153
70,159
71,168
72,176
73,187
74,190
75,198
76,212
77,226
78,238
79,246
80,257
