0,1
1,1
2,1
3,1
4,1
5,1
6,1
7,2
8,2
9,2
10,2
11,4
12,5
13,6
14,6
15,7
16,7
17,7
18,7
19,9
20,9
21,9
22,9
23,12
24,12
25,12
26,14
27,14
28,15
29,16
30,16
31,17
32,18
33,19
34,19
35,20
36,21
37,23
38,23
39,23
40,24
41,24
42,25
43,25
44,26
45,27
46,27
47,28
48,28
49,29
50,29
51,29
52,29
53,30
54,30
55,30
56,30
57,31
58,31
59,31
60,32
61,32
62,32
63,32
64,33
65,34
66,34
67,34
68,35
69,36
70,39
71,40
72,42
73,43
74,46
75,48
76,49
77,49
78,51
79,53
80,55
