0,1
1,1
2,1
3,1
4,3
5,4
6,5
7,5
8,6
9,10
10,12
11,14
12,17
13,18
14,18
15,20
16,22
17,24
18,27
19,28
20,31
21,32
22,33
23,36
24,40
25,44
26,47
27,48
28,51
29,55
30,58
31,59
32,63
33,67
34,67
35,68
36,75
37,80
38,84
39,88
40,91
41,101
42,105
43,108
44,115
45,121
46,127
47,131
48,140
49,147
50,154
51,163
52,170
53,177
54,184
55,199
56,207
57,223
58,233
59,247
60,263
61,280
62,292
63,306
64,327
65,348
66,368
67,388
68,403
69,417
70,440
71,457
72,476
73,494
74,512
75,540
76,562
77,579
78,603
79,620
80,639
