0,1
1,1
2,1
3,1
4,3
5,3
6,3
7,4
8,5
9,5
10,5
11,5
12,6
13,6
14,6
15,8
16,8
17,9
18,10
19,10
20,11
21,12
22,13
23,13
24,15
25,16
26,16
27,16
28,17
29,19
30,20
31,25
32,26
33,27
34,29
35,31
36,37
37,38
38,40
39,40
40,41
41,47
42,49
43,56
44,59
45,61
46,67
47,72
48,77
49,80
50,86
51,89
52,93
53,95
54,104
55,109
56,111
57,112
58,114
59,118
60,121
61,124
62,126
63,128
64,136
65,141
66,146
67,152
68,156
69,163
70,170
71,174
72,177
73,184
74,191
75,196
76,203
77,213
78,218
79,225
80,229
