0,1
1,1
2,1
3,1
4,1
5,1
6,2
7,3
8,3
9,3
10,3
11,4
12,4
13,6
14,6
15,6
16,6
17,6
18,7
19,7
20,7
21,7
22,8
23,8
24,9
25,10
26,12
27,12
28,14
29,15
30,19
31,20
32,21
33,21
34,22
35,24
36,24
37,26
38,27
39,28
40,29
41,30
42,32
43,33
44,34
45,34
46,37
47,37
48,40
49,44
50,45
51,50
52,55
53,55
54,58
55,63
56,67
57,69
58,78
59,87
60,90
61,95
62,101
63,105
64,115
65,121
66,128
67,132
68,147
69,153
70,159
71,166
72,176
73,184
74,190
75,200
76,207
77,218
78,224
79,231
80,240
