0,1
1,1
2,1
3,1
4,1
5,1
6,1
7,1
8,1
9,1
10,1
11,2
12,3
13,3
14,4
15,4
16,5
17,6
18,6
19,8
20,8
21,8
22,9
23,9
24,9
25,10
26,10
27,10
28,10
29,11
30,11
31,12
32,12
33,12
34,12
35,14
36,14
37,14
38,14
39,14
40,14
41,15
42,15
43,15
44,16
45,17
46,17
47,18
48,18
49,18
50,18
51,19
52,20
53,20
54,22
55,22
56,22
57,22
58,22
59,23
60,23
61,23
62,23
63,23
64,23
65,23
66,23
67,23
68,23
69,24
70,24
71,25
72,25
73,25
74,25
75,26
76,26
77,26
78,28
79,28
80,28
