0,1
1,1
2,1
3,1
4,1
5,1
6,1
7,2
8,3
9,3
10,3
11,4
12,5
13,5
14,6
15,6
16,6
17,7
18,10
19,11
20,13
21,17
22,19
23,24
24,27
25,28
26,29
27,30
28,34
29,35
30,37
31,41
32,47
33,48
34,50
35,54
36,60
37,60
38,63
39,67
40,69
41,72
42,75
43,79
44,85
45,88
46,92
47,95
48,100
49,102
50,103
51,106
52,110
53,114
54,119
55,120
56,124
57,128
58,129
59,132
60,137
61,139
62,144
63,148
64,152
65,157
66,166
67,172
68,176
69,184
70,194
71,200
72,215
73,224
74,230
75,235
76,243
77,252
78,263
79,269
80,279
