0,1
1,1
2,1
3,2
4,4
5,4
6,4
7,5
8,5
9,5
10,7
11,7
12,7
13,9
14,9
15,11
16,12
17,14
18,15
19,16
20,17
21,18
22,21
23,23
24,23
25,23
26,23
27,26
28,27
29,28
30,30
31,35
32,36
33,38
34,40
35,44
36,48
37,54
38,56
39,62
40,74
41,84
42,93
43,109
44,123
45,140
46,155
47,171
48,187
49,216
50,231
51,260
52,281
53,315
54,343
55,371
56,409
57,442
58,465
59,505
60,543
61,579
62,620
63,653
64,700
65,751
66,805
67,854
68,909
69,968
70,1033
71,1097
72,1161
73,1232
74,1324
75,1420
76,1511
77,1609
78,1698
79,1805
80,1943
