0,1
1,1
2,1
3,1
4,1
5,3
6,4
7,5
8,5
9,5
10,7
11,7
12,7
13,8
14,8
15,9
16,11
17,12
18,12
19,13
20,14
21,16
22,17
23,17
24,18
25,19
26,21
27,23
28,25
29,28
30,28
31,31
32,32
33,32
34,34
35,37
36,38
37,41
38,45
39,47
40,50
41,55
42,56
43,58
44,63
45,64
46,66
47,75
48,79
49,83
50,84
51,90
52,94
53,98
54,101
55,106
56,112
57,116
58,121
59,131
60,137
61,141
62,146
63,156
64,160
65,169
66,183
67,192
68,198
69,205
70,212
71,219
72,225
73,235
74,242
75,254
76,259
77,266
78,277
79,285
80,292
