0,1
1,1
2,1
3,1
4,1
5,1
6,1
7,1
8,1
9,2
10,2
11,3
12,3
13,5
14,6
15,6
16,6
17,6
18,6
19,6
20,6
21,6
22,6
23,6
24,7
25,7
26,7
27,10
28,10
29,11
30,12
31,13
32,14
33,15
34,16
35,17
36,18
37,18
38,19
39,20
40,21
41,21
42,22
43,22
44,22
45,22
46,24
47,25
48,26
49,27
50,29
51,29
52,30
53,32
54,33
55,33
56,33
57,34
58,35
59,37
60,37
61,41
62,44
63,46
64,49
65,50
66,54
67,61
68,66
69,72
70,73
71,81
72,85
73,87
74,89
75,93
76,101
77,107
78,114
79,122
80,126
