0,1
1,1
2,1
3,2
4,3
5,3
6,3
7,5
8,6
9,6
10,7
11,7
12,9
13,10
14,10
15,11
16,13
17,14
18,16
19,18
20,19
21,20
22,21
23,22
24,23
25,23
26,23
27,28
28,28
29,31
30,35
31,35
32,35
33,44
34,49
35,49
36,55
37,60
38,64
39,72
40,80
41,86
42,93
43,101
44,108
45,111
46,113
47,119
48,123
49,132
50,143
51,148
52,154
53,159
54,167
55,175
56,187
57,199
58,208
59,214
60,224
61,234
62,242
63,256
64,266
65,278
66,290
67,307
68,324
69,337
70,348
71,363
72,387
73,408
74,428
75,455
76,479
77,507
78,529
79,563
80,597
