0,1
1,1
2,1
3,1
4,1
5,2
6,2
7,3
8,3
9,3
10,3
11,3
12,3
13,3
14,3
15,4
16,4
17,4
18,4
19,5
20,6
21,6
22,6
23,8
24,8
25,8
26,8
27,8
28,10
29,11
30,11
31,11
32,12
33,13
34,13
35,13
36,16
37,16
38,17
39,20
40,21
41,21
42,23
43,25
44,25
45,26
46,28
47,30
48,30
49,31
50,31
51,32
52,33
53,34
54,34
55,34
56,34
57,34
58,36
59,36
60,36
61,36
62,37
63,37
64,37
65,38
66,39
67,40
68,40
69,41
70,41
71,42
72,42
73,43
74,43
75,43
76,44
77,44
78,44
79,44
80,45
