0,1
1,1
2,1
3,1
4,3
5,4
6,4
7,4
8,5
9,5
10,5
11,5
12,8
13,8
14,9
15,9
16,9
17,9
18,9
19,10
20,12
21,13
22,13
23,14
24,17
25,17
26,20
27,20
28,21
29,22
30,23
31,27
32,27
33,28
34,29
35,31
36,33
37,35
38,37
39,42
40,43
41,45
42,47
43,50
44,52
45,56
46,60
47,63
48,66
49,68
50,73
51,75
52,80
53,82
54,85
55,89
56,94
57,98
58,104
59,107
60,110
61,114
62,122
63,125
64,129
65,141
66,148
67,155
68,162
69,171
70,181
71,193
72,201
73,211
74,218
75,227
76,236
77,248
78,258
79,273
80,288
