0,1
1,1
2,1
3,1
4,1
5,1
6,2
7,2
8,2
9,2
10,3
11,3
12,3
13,4
14,5
15,5
16,7
17,8
18,10
19,11
20,12
21,12
22,13
23,14
24,14
25,17
26,18
27,19
28,20
29,22
30,23
31,25
32,28
33,30
34,33
35,34
36,34
37,36
38,39
39,45
40,49
41,51
42,52
43,57
44,59
45,61
46,63
47,64
48,69
49,70
50,76
51,78
52,82
53,85
54,89
55,93
56,100
57,102
58,105
59,112
60,116
61,121
62,128
63,132
64,139
65,147
66,151
67,152
68,156
69,165
70,171
71,177
72,187
73,192
74,200
75,207
76,213
77,230
78,241
79,251
80,262
