0,1
1,1
2,1
3,1
4,1
5,1
6,2
7,2
8,2
9,2
10,3
11,3
12,3
13,3
14,5
15,5
16,7
17,8
18,9
19,9
20,10
21,11
22,13
23,13
24,14
25,14
26,15
27,16
28,17
29,19
30,19
31,20
32,22
33,23
34,23
35,25
36,30
37,32
38,33
39,38
40,40
41,45
42,48
43,52
44,55
45,59
46,64
47,69
48,73
49,74
50,76
51,78
52,79
53,84
54,91
55,93
56,95
57,101
58,109
59,113
60,119
61,133
62,139
63,146
64,151
65,157
66,166
67,173
68,179
69,190
70,202
71,210
72,220
73,226
74,239
75,250
76,265
77,274
78,280
79,289
80,307
