0,1
1,1
2,1
3,1
4,2
5,2
6,3
7,3
8,3
9,3
10,4
11,4
12,6
13,6
14,8
15,9
16,10
17,10
18,10
19,10
20,11
21,12
22,12
23,12
24,14
25,16
26,17
27,19
28,20
29,21
30,22
31,23
32,23
33,24
34,26
35,26
36,26
37,26
38,26
39,26
40,27
41,28
42,29
43,31
44,32
45,33
46,34
47,35
48,35
49,35
50,41
51,45
52,46
53,48
54,52
55,56
56,58
57,60
58,63
59,67
60,70
61,70
62,72
63,73
64,79
65,80
66,82
67,85
68,88
69,92
70,94
71,98
72,101
73,102
74,106
75,107
76,109
77,110
78,112
79,117
80,123
