0,1
1,1
2,1
3,1
4,1
5,1
6,2
7,2
8,2
9,2
10,2
11,3
12,3
13,3
14,3
15,3
16,3
17,3
18,3
19,4
20,6
21,6
22,7
23,8
24,8
25,8
26,10
27,11
28,11
29,12
30,12
31,13
32,13
33,13
34,13
35,14
36,14
37,15
38,16
39,17
40,17
41,17
42,18
43,19
44,19
45,19
46,19
47,20
48,21
49,23
50,23
51,24
52,26
53,28
54,29
55,29
56,30
57,32
58,35
59,37
60,38
61,40
62,42
63,43
64,43
65,47
66,49
67,50
68,51
69,52
70,54
71,60
72,63
73,64
74,65
75,67
76,70
77,76
78,78
79,81
80,84
