0,1
1,1
2,1
3,3
4,3
5,4
6,4
7,4
8,6
9,7
10,7
11,7
12,9
13,15
14,16
15,18
16,20
17,22
18,23
19,23
20,28
21,33
22,35
23,40
24,42
25,51
26,56
27,61
28,65
29,71
30,78
31,79
32,85
33,88
34,92
35,95
36,105
37,113
38,120
39,130
40,139
41,143
42,153
43,169
44,180
45,194
46,208
47,220
48,232
49,242
50,252
51,270
52,296
53,310
54,324
55,338
56,357
57,371
58,393
59,408
60,434
61,454
62,477
63,505
64,528
65,553
66,584
67,615
68,656
69,685
70,710
71,747
72,785
73,820
74,859
75,906
76,949
77,1002
78,1048
79,1112
80,1148
