0,1
1,1
2,1
3,2
4,4
5,8
6,8
7,10
8,11
9,13
10,14
11,15
12,18
13,20
14,22
15,26
16,28
17,30
18,36
19,38
20,40
21,45
22,49
23,51
24,53
25,55
26,57
27,60
28,62
29,64
30,66
31,68
32,69
33,76
34,76
35,81
36,86
37,89
38,92
39,94
40,100
41,105
42,110
43,115
44,120
45,127
46,133
47,141
48,153
49,158
50,167
51,175
52,184
53,193
54,204
55,212
56,220
57,232
58,241
59,251
60,263
61,272
62,284
63,301
64,312
65,328
66,355
67,363
68,378
69,392
70,406
71,434
72,447
73,460
74,480
75,503
76,525
77,543
78,568
79,600
80,628
