0,1
1,1
2,1
3,1
4,1
5,1
6,2
7,3
8,3
9,3
10,6
11,6
12,6
13,6
14,6
15,6
16,8
17,8
18,8
19,9
20,10
21,12
22,12
23,14
24,14
25,15
26,16
27,17
28,17
29,18
30,18
31,19
32,20
33,21
34,21
35,21
36,22
37,22
38,23
39,24
40,24
41,24
42,26
43,28
44,28
45,30
46,31
47,35
48,42
49,44
50,48
51,52
52,58
53,61
54,65
55,73
56,76
57,81
58,87
59,90
60,92
61,100
62,105
63,111
64,116
65,118
66,128
67,134
68,138
69,151
70,160
71,169
72,178
73,192
74,205
75,210
76,222
77,233
78,248
79,262
80,277
