0,1
1,1
2,1
3,1
4,1
5,2
6,2
7,3
8,4
9,5
10,8
11,8
12,8
13,9
14,12
15,14
16,15
17,17
18,18
19,20
20,21
21,22
22,25
23,25
24,26
25,26
26,27
27,27
28,27
29,29
30,29
31,31
32,31
33,31
34,34
35,34
36,38
37,40
38,43
39,45
40,48
41,52
42,53
43,57
44,59
45,64
46,67
47,74
48,77
49,79
50,81
51,85
52,90
53,98
54,101
55,103
56,108
57,113
58,120
59,123
60,133
61,139
62,143
63,155
64,164
65,175
66,181
67,193
68,209
69,222
70,239
71,257
72,276
73,290
74,309
75,324
76,336
77,356
78,379
79,401
80,428
