0,1
1,1
2,1
3,1
4,3
5,3
6,3
7,4
8,7
9,9
10,10
11,12
12,12
13,15
14,16
15,19
16,24
17,24
18,26
19,29
20,34
21,37
22,39
23,43
24,46
25,47
26,49
27,52
28,55
29,58
30,63
31,67
32,71
33,74
34,79
35,82
36,87
37,90
38,92
39,98
40,103
41,107
42,113
43,119
44,126
45,129
46,132
47,141
48,147
49,160
50,176
51,183
52,196
53,207
54,214
55,229
56,251
57,269
58,282
59,301
60,327
61,346
62,369
63,393
64,407
65,439
66,464
67,487
68,515
69,542
70,574
71,608
72,646
73,672
74,714
75,746
76,781
77,828
78,867
79,894
80,939
