0,1
1,1
2,2
3,2
4,2
5,2
6,2
7,5
8,6
9,8
10,8
11,8
12,10
13,10
14,10
15,13
16,15
17,15
18,18
19,18
20,20
21,23
22,24
23,27
24,29
25,31
26,32
27,38
28,41
29,42
30,43
31,46
32,46
33,49
34,50
35,53
36,57
37,59
38,60
39,63
40,66
41,73
42,78
43,81
44,84
45,90
46,93
47,97
48,103
49,111
50,118
51,121
52,124
53,127
54,135
55,140
56,146
57,152
58,157
59,163
60,175
61,183
62,192
63,199
64,214
65,217
66,226
67,244
68,254
69,266
70,278
71,290
72,301
73,313
74,334
75,347
76,362
77,383
78,399
79,409
80,428
