0,1
1,1
2,1
3,1
4,2
5,2
6,4
7,5
8,6
9,8
10,9
11,12
12,14
13,15
14,16
15,16
16,18
17,20
18,21
19,23
20,26
21,26
22,28
23,31
24,33
25,37
26,40
27,42
28,43
29,44
30,47
31,51
32,54
33,57
34,60
35,65
36,68
37,72
38,74
39,78
40,82
41,87
42,93
43,97
44,101
45,103
46,110
47,112
48,117
49,121
50,127
51,127
52,134
53,137
54,142
55,144
56,149
57,152
58,153
59,160
60,165
61,168
62,172
63,174
64,177
65,185
66,189
67,193
68,199
69,208
70,210
71,215
72,217
73,225
74,230
75,233
76,237
77,238
78,242
79,247
80,254
