0,1
1,1
2,1
3,1
4,1
5,1
6,1
7,1
8,2
9,2
10,2
11,2
12,3
13,4
14,4
15,4
16,5
17,5
18,5
19,5
20,6
21,7
22,7
23,7
24,7
25,7
26,7
27,8
28,8
29,8
30,8
31,8
32,11
33,13
34,13
35,14
36,15
37,15
38,18
39,24
40,25
41,28
42,31
43,37
44,41
45,46
46,50
47,55
48,63
49,66
50,70
51,75
52,85
53,92
54,95
55,105
56,114
57,125
58,129
59,138
60,149
61,157
62,163
63,173
64,181
65,195
66,205
67,214
68,220
69,230
70,239
71,253
72,269
73,279
74,295
75,310
76,325
77,340
78,364
79,383
80,400
