0,1
1,1
2,1
3,2
4,3
5,4
6,6
7,6
8,8
9,9
10,10
11,13
12,16
13,18
14,21
15,21
16,25
17,29
18,31
19,33
20,34
21,36
22,36
23,36
24,39
25,45
26,47
27,49
28,50
29,52
30,55
31,61
32,62
33,66
34,68
35,75
36,82
37,85
38,92
39,98
40,104
41,115
42,123
43,134
44,143
45,152
46,162
47,170
48,178
49,197
50,211
51,228
52,247
53,267
54,286
55,302
56,323
57,350
58,371
59,398
60,423
61,446
62,475
63,511
64,543
65,582
66,616
67,655
68,693
69,735
70,800
71,848
72,903
73,961
74,1027
75,1119
76,1192
77,1277
78,1366
79,1448
80,1540
