0,1
1,1
2,1
3,2
4,3
5,4
6,4
7,4
8,4
9,4
10,5
11,6
12,6
13,6
14,8
15,9
16,12
17,13
18,14
19,17
20,19
21,20
22,23
23,24
24,27
25,29
26,30
27,33
28,33
29,35
30,35
31,40
32,41
33,44
34,46
35,49
36,50
37,52
38,54
39,58
40,61
41,64
42,69
43,72
44,78
45,80
46,84
47,89
48,91
49,94
50,96
51,97
52,99
53,105
54,105
55,108
56,111
57,111
58,113
59,119
60,127
61,132
62,136
63,142
64,149
65,160
66,172
67,185
68,199
69,209
70,221
71,234
72,249
73,262
74,272
75,286
76,294
77,316
78,334
79,347
80,368
