0,1
1,1
2,1
3,3
4,4
5,5
6,6
7,7
8,8
9,8
10,9
11,10
12,11
13,12
14,14
15,16
16,18
17,20
18,22
19,24
20,25
21,28
22,32
23,38
24,41
25,42
26,45
27,48
28,51
29,54
30,54
31,54
32,57
33,58
34,58
35,59
36,59
37,61
38,61
39,63
40,64
41,64
42,66
43,68
44,69
45,75
46,79
47,81
48,86
49,92
50,96
51,99
52,101
53,108
54,117
55,124
56,128
57,138
58,147
59,161
60,176
61,197
62,211
63,221
64,240
65,259
66,281
67,302
68,320
69,339
70,365
71,388
72,412
73,429
74,450
75,472
76,506
77,529
78,551
79,571
80,598
