0,1
1,1
2,1
3,2
4,3
5,4
6,6
7,6
8,6
9,6
10,6
11,8
12,9
13,9
14,9
15,10
16,11
17,13
18,13
19,14
20,15
21,15
22,16
23,18
24,20
25,22
26,22
27,23
28,25
29,26
30,28
31,28
32,30
33,30
34,30
35,30
36,33
37,34
38,36
39,39
40,39
41,41
42,43
43,45
44,46
45,46
46,47
47,50
48,52
49,53
50,54
51,56
52,60
53,64
54,68
55,71
56,73
57,78
58,80
59,85
60,93
61,98
62,102
63,105
64,108
65,115
66,115
67,117
68,121
69,125
70,129
71,137
72,141
73,143
74,149
75,151
76,157
77,161
78,170
79,174
80,178
