0,1
1,1
2,1
3,2
4,2
5,2
6,3
7,4
8,5
9,5
10,7
11,8
12,8
13,10
14,12
15,14
16,16
17,17
18,21
19,26
20,27
21,30
22,32
23,35
24,39
25,43
26,45
27,47
28,48
29,54
30,60
31,60
32,63
33,72
34,78
35,89
36,94
37,99
38,110
39,119
40,129
41,141
42,147
43,154
44,173
45,188
46,200
47,207
48,224
49,241
50,259
51,280
52,297
53,324
54,340
55,365
56,396
57,424
58,445
59,466
60,494
61,520
62,551
63,585
64,620
65,661
66,693
67,727
68,769
69,828
70,863
71,912
72,948
73,987
74,1029
75,1085
76,1134
77,1180
78,1247
79,1300
80,1367
