0,1
1,1
2,1
3,1
4,2
5,3
6,4
7,6
8,6
9,6
10,7
11,7
12,8
13,9
14,9
15,10
16,10
17,10
18,11
19,12
20,13
21,13
22,13
23,15
24,15
25,18
26,21
27,23
28,23
29,23
30,25
31,27
32,29
33,32
34,33
35,34
36,35
37,37
38,39
39,40
40,43
41,43
42,45
43,46
44,50
45,52
46,55
47,61
48,62
49,65
50,71
51,74
52,82
53,87
54,90
55,97
56,101
57,105
58,115
59,122
60,131
61,140
62,153
63,161
64,170
65,180
66,195
67,208
68,221
69,244
70,259
71,274
72,289
73,310
74,323
75,340
76,368
77,391
78,417
79,441
80,459
