0,1
1,1
2,1
3,1
4,1
5,2
6,2
7,2
8,2
9,3
10,3
11,5
12,5
13,6
14,7
15,7
16,10
17,10
18,10
19,11
20,11
21,11
22,11
23,13
24,13
25,14
26,14
27,14
28,16
29,17
30,18
31,20
32,21
33,21
34,22
35,23
36,23
37,23
38,26
39,28
40,30
41,34
42,36
43,41
44,43
45,49
46,56
47,64
48,72
49,81
50,87
51,98
52,103
53,112
54,121
55,132
56,143
57,151
58,156
59,163
60,172
61,178
62,188
63,194
64,214
65,225
66,235
67,245
68,251
69,259
70,272
71,284
72,303
73,318
74,325
75,337
76,352
77,365
78,379
79,400
80,413
