0,1
1,1
2,1
3,1
4,1
5,1
6,2
7,3
8,3
9,4
10,7
11,8
12,10
13,10
14,12
15,13
16,15
17,17
18,18
19,20
20,24
21,30
22,34
23,35
24,39
25,45
26,50
27,53
28,59
29,63
30,72
31,78
32,84
33,89
34,94
35,102
36,115
37,130
38,142
39,158
40,176
41,192
42,207
43,225
44,241
45,254
46,269
47,287
48,302
49,327
50,346
51,360
52,380
53,409
54,427
55,454
56,473
57,503
58,526
59,555
60,580
61,602
62,630
63,665
64,696
65,722
66,753
67,785
68,822
69,847
70,887
71,922
72,961
73,996
74,1036
75,1068
76,1116
77,1170
78,1212
79,1267
80,1326
