0,1
1,1
2,2
3,3
4,3
5,5
6,7
7,7
8,8
9,13
10,14
11,17
12,20
13,24
14,33
15,38
16,43
17,46
18,50
19,53
20,63
21,68
22,72
23,76
24,83
25,88
26,91
27,96
28,99
29,109
30,114
31,120
32,129
33,132
34,138
35,148
36,154
37,159
38,171
39,179
40,184
41,190
42,196
43,205
44,211
45,219
46,229
47,243
48,249
49,258
50,266
51,275
52,291
53,302
54,314
55,329
56,339
57,359
58,382
59,400
60,415
61,435
62,457
63,482
64,506
65,528
66,554
67,571
68,605
69,634
70,658
71,688
72,722
73,756
74,788
75,811
76,848
77,884
78,914
79,951
80,983
