0,1
1,1
2,1
3,1
4,1
5,1
6,2
7,3
8,3
9,3
10,4
11,7
12,7
13,9
14,10
15,11
16,14
17,16
18,16
19,17
20,18
21,19
22,19
23,22
24,22
25,24
26,25
27,25
28,28
29,28
30,28
31,28
32,28
33,29
34,29
35,31
36,31
37,31
38,31
39,35
40,36
41,37
42,38
43,41
44,43
45,45
46,45
47,47
48,51
49,56
50,56
51,59
52,62
53,68
54,72
55,73
56,77
57,87
58,92
59,105
60,108
61,112
62,117
63,127
64,137
65,153
66,158
67,165
68,175
69,183
70,199
71,214
72,229
73,239
74,252
75,276
76,295
77,314
78,336
79,357
80,376
