0,1
1,1
2,1
3,2
4,2
5,2
6,4
7,4
8,5
9,5
10,5
11,5
12,5
13,7
14,8
15,8
16,10
17,12
18,13
19,16
20,22
21,27
22,32
23,40
24,44
25,52
26,64
27,72
28,78
29,86
30,93
31,108
32,129
33,141
34,154
35,169
36,185
37,200
38,216
39,233
40,248
41,272
42,289
43,304
44,329
45,346
46,365
47,388
48,420
49,448
50,475
51,509
52,544
53,577
54,614
55,649
56,691
57,726
58,768
59,814
60,870
61,925
62,992
63,1048
64,1119
65,1176
66,1242
67,1315
68,1389
69,1457
70,1544
71,1620
72,1713
73,1802
74,1879
75,1975
76,2069
77,2169
78,2277
79,2392
80,2528
