0,1
1,1
2,1
3,1
4,3
5,4
6,6
7,6
8,6
9,9
10,10
11,10
12,12
13,14
14,16
15,17
16,21
17,24
18,29
19,31
20,35
21,42
22,46
23,50
24,54
25,56
26,63
27,67
28,72
29,80
30,85
31,90
32,98
33,106
34,115
35,120
36,129
37,135
38,147
39,159
40,167
41,179
42,187
43,204
44,217
45,233
46,250
47,262
48,276
49,295
50,322
51,348
52,368
53,403
54,421
55,449
56,474
57,510
58,546
59,587
60,630
61,669
62,717
63,758
64,810
65,854
66,914
67,962
68,1016
69,1064
70,1142
71,1205
72,1283
73,1353
74,1437
75,1512
76,1584
77,1674
78,1779
79,1861
80,1959
