0,1
1,1
2,1
3,1
4,2
5,3
6,3
7,3
8,3
9,4
10,6
11,6
12,6
13,8
14,8
15,10
16,11
17,12
18,14
19,15
20,16
21,18
22,20
23,20
24,24
25,25
26,28
27,30
28,32
29,35
30,36
31,41
32,45
33,48
34,55
35,62
36,67
37,75
38,77
39,81
40,84
41,91
42,94
43,95
44,101
45,107
46,111
47,115
48,119
49,128
50,135
51,140
52,150
53,163
54,173
55,187
56,200
57,214
58,232
59,246
60,258
61,274
62,285
63,302
64,316
65,330
66,343
67,363
68,376
69,392
70,411
71,428
72,456
73,474
74,500
75,518
76,528
77,558
78,585
79,606
80,633
