0,1
1,1
2,1
3,1
4,1
5,3
6,3
7,3
8,3
9,3
10,5
11,5
12,5
13,6
14,6
15,6
16,7
17,8
18,8
19,10
20,10
21,11
22,11
23,12
24,13
25,13
26,13
27,14
28,15
29,17
30,17
31,18
32,18
33,20
34,21
35,22
36,23
37,23
38,25
39,26
40,27
41,27
42,27
43,27
44,29
45,31
46,32
47,34
48,35
49,37
50,38
51,41
52,43
53,43
54,45
55,47
56,49
57,52
58,54
59,55
60,57
61,61
62,63
63,65
64,69
65,73
66,77
67,78
68,81
69,83
70,85
71,87
72,90
73,92
74,99
75,105
76,109
77,114
78,121
79,127
80,130
