0,1
1,1
2,1
3,1
4,2
5,2
6,3
7,4
8,5
9,5
10,5
11,5
12,5
13,6
14,7
15,7
16,7
17,7
18,7
19,8
20,8
21,8
22,8
23,10
24,10
25,10
26,11
27,11
28,11
29,12
30,12
31,13
32,13
33,13
34,13
35,13
36,13
37,14
38,14
39,15
40,16
41,16
42,18
43,20
44,20
45,25
46,31
47,34
48,38
49,43
50,45
51,50
52,54
53,61
54,68
55,77
56,86
57,92
58,99
59,113
60,121
61,136
62,143
63,156
64,169
65,181
66,193
67,213
68,235
69,255
70,279
71,304
72,330
73,363
74,392
75,413
76,443
77,483
78,528
79,573
80,613
