0,1
1,1
2,1
3,1
4,4
5,5
6,6
7,8
8,9
9,11
10,13
11,17
12,20
13,24
14,28
15,32
16,33
17,35
18,40
19,45
20,47
21,50
22,55
23,58
24,64
25,71
26,77
27,83
28,84
29,89
30,98
31,106
32,112
33,125
34,132
35,142
36,151
37,158
38,169
39,180
40,185
41,203
42,223
43,235
44,244
45,254
46,279
47,300
48,319
49,332
50,353
51,373
52,396
53,419
54,447
55,473
56,509
57,539
58,575
59,612
60,645
61,686
62,717
63,743
64,780
65,826
66,867
67,911
68,948
69,989
70,1044
71,1100
72,1148
73,1203
74,1256
75,1312
76,1371
77,1441
78,1507
79,1591
80,1671
