0,1
1,1
2,1
3,1
4,1
5,2
6,3
7,3
8,4
9,5
10,5
11,5
12,7
13,9
14,9
15,9
16,9
17,10
18,11
19,11
20,13
21,13
22,13
23,13
24,13
25,15
26,15
27,17
28,17
29,17
30,18
31,20
32,20
33,21
34,22
35,25
36,26
37,27
38,27
39,29
40,33
41,36
42,37
43,43
44,52
45,53
46,57
47,63
48,65
49,71
50,77
51,83
52,94
53,100
54,102
55,105
56,110
57,115
58,118
59,123
60,127
61,135
62,143
63,154
64,166
65,172
66,180
67,186
68,197
69,212
70,222
71,237
72,247
73,260
74,285
75,312
76,324
77,348
78,371
79,395
80,420
