0,1
1,1
2,1
3,2
4,2
5,2
6,2
7,2
8,2
9,2
10,3
11,3
12,4
13,5
14,9
15,10
16,11
17,13
18,15
19,18
20,18
21,22
22,22
23,22
24,23
25,25
26,29
27,33
28,39
29,40
30,42
31,46
32,50
33,58
34,63
35,64
36,69
37,73
38,79
39,83
40,87
41,89
42,94
43,97
44,100
45,103
46,111
47,112
48,119
49,124
50,125
51,129
52,138
53,143
54,147
55,150
56,155
57,162
58,168
59,175
60,183
61,187
62,191
63,201
64,216
65,231
66,240
67,248
68,264
69,282
70,295
71,310
72,321
73,340
74,352
75,370
76,392
77,414
78,427
79,447
80,465
