0,1
1,1
2,1
3,1
4,1
5,1
6,1
7,1
8,2
9,2
10,3
11,3
12,3
13,3
14,4
15,4
16,5
17,6
18,6
19,6
20,7
21,8
22,9
23,10
24,11
25,11
26,13
27,13
28,14
29,17
30,18
31,19
32,20
33,20
34,26
35,27
36,29
37,29
38,32
39,37
40,39
41,42
42,44
43,47
44,50
45,53
46,54
47,58
48,60
49,65
50,66
51,70
52,78
53,81
54,85
55,88
56,92
57,100
58,111
59,118
60,124
61,135
62,141
63,149
64,163
65,176
66,189
67,195
68,217
69,227
70,242
71,254
72,263
73,274
74,286
75,302
76,320
77,339
78,358
79,369
80,389
