0,1
1,1
2,1
3,1
4,1
5,1
6,1
7,1
8,1
9,2
10,2
11,2
12,2
13,3
14,3
15,3
16,3
17,5
18,5
19,6
20,6
21,8
22,9
23,11
24,13
25,15
26,20
27,24
28,30
29,34
30,38
31,41
32,46
33,51
34,66
35,69
36,73
37,79
38,89
39,104
40,111
41,120
42,135
43,147
44,162
45,179
46,194
47,211
48,225
49,245
50,266
51,293
52,317
53,342
54,370
55,402
56,430
57,462
58,494
59,522
60,566
61,600
62,639
63,671
64,710
65,757
66,794
67,850
68,918
69,973
70,1032
71,1095
72,1165
73,1234
74,1309
75,1401
76,1478
77,1566
78,1676
79,1783
80,1887
