0,1
1,1
2,1
3,1
4,3
5,3
6,4
7,6
8,6
9,8
10,8
11,8
12,8
13,10
14,11
15,12
16,12
17,13
18,15
19,15
20,15
21,15
22,15
23,15
24,16
25,17
26,17
27,18
28,21
29,22
30,26
31,27
32,30
33,32
34,35
35,35
36,36
37,36
38,37
39,39
40,39
41,40
42,42
43,43
44,44
45,45
46,48
47,51
48,53
49,54
50,54
51,60
52,65
53,67
54,68
55,71
56,73
57,77
58,82
59,87
60,91
61,95
62,100
63,100
64,103
65,111
66,112
67,115
68,121
69,123
70,126
71,130
72,136
73,141
74,146
75,149
76,157
77,165
78,177
79,191
80,201
