0,1
1,1
2,1
3,2
4,3
5,4
6,5
7,6
8,7
9,10
10,14
11,14
12,16
13,20
14,27
15,30
16,36
17,38
18,42
19,46
20,51
21,55
22,59
23,67
24,74
25,84
26,87
27,100
28,117
29,123
30,135
31,149
32,165
33,181
34,198
35,214
36,236
37,251
38,277
39,300
40,316
41,332
42,357
43,384
44,405
45,439
46,461
47,490
48,534
49,565
50,597
51,626
52,669
53,697
54,734
55,771
56,801
57,844
58,886
59,926
60,966
61,1024
62,1064
63,1121
64,1179
65,1244
66,1310
67,1371
68,1440
69,1519
70,1594
71,1673
72,1738
73,1814
74,1905
75,2004
76,2105
77,2200
78,2298
79,2411
80,2518
