0,1
1,1
2,3
3,3
4,5
5,7
6,9
7,14
8,18
9,20
10,24
11,29
12,32
13,35
14,40
15,42
16,46
17,51
18,53
19,56
20,60
21,64
22,67
23,69
24,74
25,80
26,85
27,86
28,87
29,92
30,95
31,97
32,101
33,106
34,111
35,119
36,126
37,130
38,135
39,142
40,145
41,151
42,157
43,167
44,174
45,182
46,191
47,196
48,208
49,217
50,221
51,233
52,248
53,257
54,260
55,275
56,286
57,298
58,306
59,314
60,322
61,336
62,345
63,354
64,369
65,388
66,402
67,420
68,436
69,460
70,480
71,495
72,515
73,529
74,556
75,578
76,601
77,629
78,655
79,684
80,718
