0,1
1,1
2,1
3,1
4,3
5,3
6,4
7,4
8,5
9,5
10,7
11,8
12,9
13,9
14,9
15,10
16,10
17,11
18,13
19,14
20,14
21,16
22,16
23,17
24,18
25,19
26,20
27,23
28,25
29,26
30,28
31,29
32,29
33,31
34,33
35,34
36,34
37,34
38,34
39,35
40,35
41,35
42,35
43,35
44,35
45,36
46,36
47,36
48,37
49,37
50,38
51,39
52,39
53,39
54,39
55,40
56,40
57,40
58,40
59,41
60,41
61,41
62,42
63,42
64,43
65,43
66,43
67,43
68,43
69,44
70,45
71,47
72,48
73,49
74,50
75,50
76,52
77,53
78,56
79,56
80,59
