0,1
1,1
2,1
3,1
4,3
5,3
6,7
7,8
8,8
9,10
10,14
11,16
12,18
13,20
14,22
15,22
16,29
17,29
18,32
19,35
20,43
21,47
22,51
23,57
24,63
25,73
26,81
27,93
28,101
29,111
30,124
31,138
32,153
33,164
34,175
35,186
36,203
37,216
38,240
39,254
40,279
41,294
42,307
43,333
44,361
45,380
46,399
47,433
48,458
49,490
50,528
51,561
52,589
53,621
54,658
55,699
56,747
57,790
58,839
59,885
60,935
61,991
62,1067
63,1133
64,1189
65,1255
66,1334
67,1412
68,1485
69,1557
70,1636
71,1722
72,1809
73,1892
74,1999
75,2095
76,2185
77,2279
78,2389
79,2530
80,2666
