0,1
1,1
2,1
3,1
4,2
5,3
6,3
7,3
8,4
9,5
10,8
11,9
12,9
13,9
14,10
15,10
16,11
17,11
18,11
19,11
20,11
21,12
22,12
23,12
24,13
25,15
26,16
27,16
28,16
29,18
30,19
31,19
32,19
33,22
34,23
35,27
36,27
37,28
38,29
39,30
40,34
41,34
42,35
43,35
44,37
45,39
46,44
47,48
48,49
49,51
50,54
51,56
52,61
53,67
54,71
55,74
56,76
57,85
58,93
59,100
60,109
61,115
62,120
63,130
64,137
65,146
66,159
67,173
68,180
69,190
70,198
71,210
72,224
73,239
74,247
75,263
76,279
77,291
78,304
79,316
80,332
