0,1
1,1
2,1
3,1
4,2
5,3
6,3
7,5
8,8
9,12
10,16
11,18
12,20
13,23
14,26
15,28
16,32
17,36
18,40
19,41
20,43
21,44
22,48
23,50
24,51
25,55
26,57
27,59
28,60
29,61
30,62
31,63
32,65
33,66
34,68
35,68
36,69
37,72
38,73
39,75
40,75
41,78
42,79
43,82
44,84
45,86
46,88
47,90
48,91
49,97
50,98
51,101
52,105
53,107
54,110
55,116
56,118
57,124
58,130
59,135
60,138
61,144
62,149
63,151
64,158
65,163
66,168
67,174
68,178
69,185
70,187
71,191
72,197
73,202
74,205
75,211
76,219
77,226
78,229
79,239
80,245
