0,1
1,1
2,1
3,1
4,2
5,2
6,2
7,2
8,3
9,4
10,4
11,5
12,6
13,9
14,10
15,12
16,16
17,22
18,23
19,26
20,32
21,35
22,37
23,41
24,47
25,49
26,53
27,55
28,60
29,61
30,69
31,72
32,79
33,82
34,86
35,87
36,94
37,100
38,105
39,111
40,121
41,126
42,131
43,138
44,145
45,153
46,163
47,169
48,178
49,187
50,205
51,214
52,232
53,251
54,260
55,278
56,294
57,311
58,331
59,347
60,364
61,394
62,418
63,438
64,469
65,500
66,541
67,556
68,590
69,621
70,653
71,690
72,724
73,762
74,800
75,842
76,876
77,927
78,966
79,1012
80,1056
