0,1
1,1
2,1
3,1
4,1
5,2
6,2
7,3
8,3
9,3
10,4
11,4
12,6
13,7
14,7
15,7
16,8
17,9
18,9
19,9
20,10
21,10
22,11
23,11
24,12
25,13
26,14
27,14
28,15
29,15
30,18
31,19
32,21
33,26
34,28
35,30
36,31
37,34
38,38
39,39
40,42
41,44
42,45
43,46
44,49
45,52
46,53
47,57
48,58
49,58
50,63
51,64
52,75
53,80
54,84
55,88
56,93
57,98
58,103
59,107
60,115
61,120
62,125
63,132
64,137
65,148
66,160
67,166
68,174
69,184
70,188
71,193
72,199
73,206
74,216
75,224
76,231
77,234
78,238
79,244
80,251
