0,1
1,1
2,1
3,2
4,2
5,2
6,2
7,2
8,2
9,3
10,3
11,3
12,3
13,3
14,3
15,4
16,4
17,5
18,5
19,5
20,6
21,8
22,10
23,10
24,11
25,11
26,11
27,12
28,12
29,12
30,15
31,15
32,15
33,16
34,16
35,19
36,19
37,19
38,20
39,21
40,25
41,26
42,28
43,32
44,33
45,34
46,37
47,39
48,44
49,48
50,48
51,51
52,55
53,62
54,64
55,65
56,70
57,73
58,75
59,76
60,83
61,84
62,86
63,90
64,93
65,95
66,97
67,98
68,100
69,101
70,102
71,103
72,105
73,108
74,108
75,108
76,108
77,112
78,115
79,118
80,119
