0,1
1,1
2,1
3,1
4,2
5,2
6,3
7,4
8,5
9,7
10,7
11,10
12,12
13,13
14,14
15,17
16,18
17,20
18,22
19,24
20,25
21,25
22,27
23,29
24,31
25,33
26,33
27,33
28,35
29,39
30,42
31,43
32,43
33,44
34,44
35,48
36,50
37,54
38,54
39,59
40,66
41,69
42,70
43,72
44,73
45,76
46,79
47,81
48,84
49,87
50,89
51,89
52,90
53,92
54,93
55,93
56,93
57,94
58,94
59,94
60,94
61,94
62,95
63,95
64,95
65,95
66,95
67,96
68,97
69,97
70,97
71,97
72,97
73,98
74,99
75,99
76,101
77,104
78,104
79,105
80,105
