0,1
1,1
2,1
3,2
4,3
5,4
6,4
7,5
8,6
9,7
10,8
11,9
12,10
13,10
14,13
15,13
16,15
17,16
18,18
19,19
20,20
21,22
22,23
23,26
24,30
25,33
26,35
27,40
28,46
29,52
30,56
31,59
32,63
33,66
34,72
35,76
36,79
37,82
38,84
39,89
40,95
41,101
42,107
43,111
44,116
45,124
46,128
47,137
48,143
49,148
50,152
51,159
52,166
53,172
54,177
55,188
56,195
57,205
58,213
59,224
60,239
61,253
62,264
63,273
64,280
65,293
66,311
67,326
68,341
69,356
70,373
71,396
72,419
73,436
74,463
75,486
76,505
77,534
78,551
79,576
80,596
