0,1
1,1
2,1
3,1
4,2
5,2
6,3
7,3
8,3
9,3
10,4
11,5
12,6
13,6
14,7
15,9
16,10
17,12
18,15
19,17
20,19
21,20
22,21
23,24
24,24
25,24
26,27
27,29
28,34
29,35
30,35
31,39
32,41
33,45
34,49
35,52
36,58
37,59
38,64
39,68
40,80
41,87
42,92
43,103
44,114
45,120
46,130
47,137
48,152
49,158
50,169
51,178
52,188
53,201
54,210
55,228
56,246
57,261
58,281
59,298
60,316
61,341
62,361
63,381
64,406
65,436
66,462
67,490
68,520
69,550
70,586
71,609
72,657
73,707
74,738
75,780
76,824
77,869
78,912
79,946
80,999
