0,1
1,1
2,1
3,1
4,1
5,2
6,2
7,2
8,4
9,5
10,5
11,6
12,6
13,9
14,9
15,11
16,15
17,16
18,19
19,24
20,27
21,28
22,29
23,33
24,36
25,41
26,46
27,49
28,54
29,58
30,60
31,61
32,64
33,66
34,68
35,70
36,73
37,79
38,79
39,81
40,83
41,90
42,93
43,96
44,96
45,98
46,99
47,102
48,105
49,107
50,108
51,114
52,121
53,124
54,127
55,128
56,130
57,134
58,136
59,142
60,144
61,146
62,150
63,156
64,164
65,167
66,168
67,174
68,180
69,187
70,194
71,197
72,208
73,213
74,228
75,235
76,247
77,262
78,274
79,287
80,303
