0,1
1,1
2,1
3,1
4,1
5,2
6,3
7,3
8,3
9,5
10,5
11,5
12,5
13,6
14,6
15,7
16,7
17,7
18,9
19,10
20,13
21,13
22,13
23,14
24,14
25,14
26,17
27,21
28,22
29,23
30,23
31,25
32,28
33,28
34,31
35,34
36,37
37,38
38,41
39,42
40,44
41,47
42,51
43,55
44,59
45,69
46,73
47,77
48,84
49,91
50,96
51,108
52,115
53,122
54,133
55,138
56,146
57,154
58,168
59,177
60,192
61,206
62,216
63,231
64,244
65,263
66,270
67,284
68,306
69,320
70,343
71,355
72,378
73,397
74,416
75,440
76,461
77,483
78,517
79,544
80,568
