0,1
1,1
2,1
3,2
4,2
5,2
6,4
7,5
8,7
9,11
10,12
11,16
12,16
13,19
14,23
15,24
16,25
17,31
18,34
19,41
20,42
21,45
22,49
23,57
24,61
25,64
26,72
27,74
28,80
29,87
30,93
31,97
32,102
33,108
34,112
35,121
36,131
37,136
38,141
39,146
40,150
41,153
42,158
43,165
44,168
45,171
46,175
47,179
48,185
49,191
50,191
51,198
52,205
53,214
54,221
55,228
56,243
57,252
58,263
59,271
60,277
61,299
62,315
63,331
64,351
65,361
66,376
67,399
68,431
69,452
70,471
71,497
72,516
73,543
74,576
75,606
76,637
77,665
78,695
79,743
80,775
