0,1
1,1
2,1
3,1
4,2
5,2
6,2
7,2
8,2
9,3
10,3
11,3
12,3
13,3
14,4
15,4
16,4
17,5
18,5
19,5
20,5
21,6
22,6
23,6
24,6
25,6
26,6
27,7
28,7
29,7
30,7
31,8
32,8
33,9
34,10
35,11
36,12
37,12
38,12
39,12
40,14
41,17
42,17
43,18
44,19
45,21
46,22
47,22
48,26
49,27
50,27
51,31
52,33
53,34
54,36
55,42
56,44
57,50
58,51
59,58
60,63
61,68
62,71
63,74
64,79
65,83
66,90
67,94
68,103
69,106
70,110
71,118
72,122
73,129
74,136
75,145
76,151
77,154
78,163
79,177
80,185
