0,1
1,1
2,1
3,1
4,1
5,1
6,2
7,2
8,3
9,4
10,4
11,5
12,6
13,7
14,8
15,8
16,8
17,11
18,12
19,13
20,15
21,16
22,16
23,19
24,22
25,24
26,27
27,30
28,32
29,35
30,38
31,38
32,43
33,47
34,49
35,50
36,54
37,60
38,66
39,69
40,79
41,88
42,96
43,103
44,113
45,123
46,130
47,137
48,147
49,161
50,172
51,193
52,202
53,217
54,231
55,253
56,263
57,283
58,298
59,309
60,329
61,350
62,367
63,385
64,408
65,430
66,449
67,469
68,482
69,510
70,528
71,546
72,568
73,593
74,621
75,645
76,679
77,708
78,732
79,763
80,792
