0,1
1,1
2,1
3,1
4,2
5,2
6,2
7,2
8,2
9,3
10,3
11,3
12,4
13,6
14,9
15,9
16,11
17,13
18,14
19,16
20,18
21,19
22,22
23,24
24,28
25,30
26,33
27,33
28,35
29,36
30,42
31,45
32,47
33,49
34,52
35,54
36,55
37,58
38,61
39,64
40,67
41,71
42,74
43,76
44,81
45,88
46,96
47,104
48,111
49,123
50,137
51,147
52,158
53,167
54,179
55,188
56,201
57,211
58,221
59,237
60,257
61,275
62,289
63,311
64,334
65,357
66,390
67,417
68,452
69,483
70,519
71,560
72,611
73,648
74,696
75,753
76,814
77,872
78,932
79,987
80,1064
