0,1
1,1
2,1
3,1
4,1
5,1
6,1
7,2
8,2
9,2
10,2
11,3
12,3
13,3
14,3
15,3
16,3
17,4
18,4
19,5
20,6
21,6
22,7
23,7
24,8
25,8
26,9
27,11
28,15
29,17
30,19
31,19
32,19
33,21
34,27
35,32
36,34
37,39
38,41
39,48
40,50
41,58
42,62
43,69
44,75
45,86
46,97
47,100
48,110
49,119
50,130
51,146
52,157
53,170
54,183
55,197
56,208
57,228
58,243
59,260
60,270
61,296
62,316
63,330
64,345
65,368
66,386
67,404
68,425
69,442
70,464
71,482
72,499
73,517
74,543
75,576
76,597
77,624
78,645
79,672
80,704
