0,1
1,1
2,1
3,1
4,1
5,2
6,2
7,2
8,2
9,3
10,7
11,7
12,9
13,10
14,10
15,10
16,11
17,14
18,15
19,15
20,15
21,16
22,17
23,19
24,21
25,22
26,24
27,26
28,27
29,28
30,30
31,32
32,35
33,37
34,38
35,45
36,47
37,51
38,53
39,56
40,60
41,65
42,72
43,75
44,81
45,88
46,89
47,97
48,102
49,108
50,115
51,124
52,132
53,138
54,152
55,160
56,167
57,173
58,179
59,189
60,197
61,206
62,211
63,224
64,230
65,246
66,255
67,260
68,267
69,276
70,291
71,294
72,302
73,309
74,319
75,327
76,335
77,343
78,351
79,360
80,364
