0,1
1,1
2,1
3,1
4,1
5,1
6,2
7,2
8,2
9,2
10,2
11,2
12,2
13,3
14,4
15,4
16,5
17,5
18,6
19,6
20,10
21,10
22,12
23,16
24,16
25,19
26,21
27,24
28,24
29,29
30,36
31,40
32,45
33,56
34,63
35,71
36,82
37,89
38,95
39,107
40,117
41,124
42,128
43,140
44,154
45,164
46,172
47,178
48,188
49,199
50,206
51,218
52,239
53,254
54,263
55,275
56,297
57,310
58,321
59,344
60,357
61,376
62,390
63,414
64,439
65,461
66,483
67,513
68,533
69,550
70,573
71,593
72,625
73,661
74,691
75,718
76,749
77,784
78,827
79,882
80,921
