0,1
1,1
2,1
3,1
4,1
5,2
6,2
7,4
8,4
9,4
10,4
11,5
12,7
13,8
14,9
15,11
16,11
17,12
18,13
19,17
20,17
21,19
22,20
23,21
24,23
25,25
26,26
27,27
28,35
29,36
30,40
31,42
32,48
33,53
34,57
35,59
36,67
37,70
38,77
39,81
40,88
41,95
42,99
43,111
44,119
45,129
46,141
47,147
48,164
49,172
50,187
51,198
52,216
53,236
54,255
55,274
56,294
57,315
58,330
59,349
60,380
61,398
62,424
63,451
64,489
65,512
66,540
67,572
68,603
69,644
70,691
71,721
72,753
73,803
74,844
75,877
76,925
77,986
78,1026
79,1081
80,1132
