0,1
1,1
2,1
3,1
4,1
5,1
6,1
7,2
8,3
9,3
10,3
11,3
12,3
13,4
14,5
15,5
16,5
17,6
18,6
19,6
20,7
21,10
22,10
23,10
24,13
25,14
26,16
27,17
28,17
29,19
30,20
31,22
32,23
33,25
34,28
35,29
36,32
37,38
38,42
39,49
40,56
41,61
42,69
43,74
44,83
45,93
46,106
47,114
48,130
49,137
50,144
51,156
52,167
53,179
54,194
55,205
56,218
57,236
58,261
59,288
60,310
61,337
62,377
63,411
64,440
65,474
66,516
67,555
68,603
69,648
70,694
71,754
72,811
73,885
74,944
75,1014
76,1100
77,1162
78,1252
79,1339
80,1433
