0,1
1,1
2,1
3,1
4,1
5,2
6,3
7,3
8,3
9,3
10,3
11,3
12,3
13,5
14,6
15,6
16,8
17,8
18,8
19,10
20,10
21,11
22,12
23,12
24,14
25,14
26,15
27,15
28,15
29,17
30,17
31,17
32,19
33,19
34,20
35,21
36,23
37,24
38,25
39,25
40,25
41,26
42,28
43,28
44,30
45,30
46,33
47,34
48,36
49,38
50,38
51,39
52,42
53,47
54,48
55,50
56,52
57,52
58,54
59,54
60,55
61,57
62,57
63,60
64,61
65,61
66,61
67,63
68,66
69,68
70,69
71,70
72,71
73,73
74,74
75,74
76,76
77,77
78,78
79,80
80,85
