0,1
1,1
2,1
3,1
4,1
5,1
6,2
7,3
8,3
9,4
10,4
11,5
12,6
13,7
14,7
15,9
16,10
17,13
18,14
19,15
20,17
21,19
22,20
23,22
24,22
25,24
26,26
27,29
28,30
29,32
30,32
31,35
32,38
33,40
34,43
35,44
36,45
37,52
38,61
39,65
40,71
41,76
42,81
43,91
44,101
45,110
46,122
47,130
48,140
49,153
50,168
51,180
52,193
53,207
54,224
55,241
56,259
57,277
58,292
59,314
60,334
61,350
62,375
63,395
64,417
65,439
66,462
67,492
68,520
69,547
70,571
71,602
72,623
73,660
74,699
75,741
76,781
77,812
78,856
79,895
80,947
