0,1
1,1
2,1
3,1
4,2
5,2
6,2
7,2
8,2
9,3
10,4
11,5
12,5
13,5
14,6
15,6
16,6
17,6
18,7
19,8
20,10
21,11
22,11
23,13
24,14
25,17
26,18
27,23
28,27
29,30
30,37
31,40
32,44
33,50
34,56
35,68
36,71
37,80
38,86
39,93
40,100
41,112
42,118
43,127
44,136
45,145
46,154
47,166
48,179
49,199
50,213
51,222
52,235
53,251
54,264
55,277
56,292
57,309
58,325
59,347
60,365
61,388
62,415
63,435
64,468
65,494
66,531
67,561
68,595
69,638
70,670
71,722
72,773
73,819
74,863
75,914
76,970
77,1030
78,1091
79,1164
80,1241
