0,1
1,1
2,1
3,2
4,2
5,2
6,2
7,2
8,4
9,4
10,5
11,6
12,9
13,10
14,12
15,12
16,12
17,14
18,16
19,17
20,18
21,18
22,18
23,18
24,18
25,19
26,21
27,22
28,22
29,22
30,22
31,22
32,22
33,22
34,22
35,23
36,23
37,23
38,24
39,24
40,24
41,24
42,25
43,25
44,26
45,26
46,27
47,27
48,27
49,30
50,32
51,35
52,36
53,40
54,43
55,44
56,45
57,51
58,52
59,54
60,56
61,56
62,57
63,58
64,61
65,62
66,63
67,66
68,67
69,68
70,72
71,74
72,76
73,77
74,82
75,85
76,89
77,90
78,96
79,100
80,103
