0,1
1,1
2,1
3,1
4,1
5,2
6,2
7,2
8,2
9,2
10,2
11,2
12,3
13,3
14,5
15,5
16,5
17,6
18,7
19,8
20,8
21,10
22,10
23,11
24,13
25,15
26,16
27,19
28,20
29,22
30,27
31,32
32,36
33,36
34,39
35,42
36,48
37,51
38,53
39,58
40,64
41,68
42,69
43,72
44,84
45,93
46,101
47,108
48,117
49,123
50,131
51,137
52,146
53,158
54,173
55,184
56,194
57,203
58,217
59,231
60,248
61,260
62,276
63,283
64,293
65,305
66,318
67,335
68,353
69,369
70,382
71,404
72,420
73,445
74,472
75,497
76,527
77,552
78,585
79,619
80,655
