0,1
1,1
2,1
3,2
4,4
5,5
6,7
7,9
8,9
9,11
10,12
11,14
12,15
13,16
14,18
15,18
16,21
17,24
18,24
19,24
20,25
21,27
22,28
23,28
24,29
25,31
26,33
27,35
28,35
29,37
30,40
31,40
32,41
33,42
34,43
35,43
36,43
37,44
38,48
39,48
40,48
41,51
42,52
43,55
44,56
45,57
46,58
47,58
48,59
49,60
50,65
51,67
52,68
53,70
54,72
55,72
56,75
57,79
58,80
59,82
60,86
61,88
62,88
63,89
64,90
65,93
66,96
67,100
68,103
69,104
70,107
71,114
72,122
73,126
74,131
75,135
76,139
77,143
78,150
79,158
80,162
