0,1
1,1
2,1
3,2
4,3
5,4
6,4
7,6
8,7
9,7
10,9
11,11
12,11
13,12
14,15
15,16
16,17
17,19
18,25
19,28
20,32
21,35
22,37
23,41
24,44
25,48
26,53
27,61
28,67
29,68
30,74
31,81
32,89
33,92
34,98
35,103
36,114
37,125
38,131
39,146
40,150
41,163
42,173
43,181
44,190
45,204
46,222
47,238
48,253
49,265
50,276
51,294
52,306
53,323
54,341
55,361
56,376
57,399
58,421
59,444
60,469
61,494
62,526
63,553
64,581
65,609
66,643
67,690
68,732
69,776
70,817
71,875
72,930
73,979
74,1041
75,1111
76,1171
77,1232
78,1301
79,1362
80,1430
