0,1
1,1
2,1
3,1
4,1
5,1
6,1
7,3
8,3
9,4
10,4
11,5
12,7
13,7
14,8
15,9
16,10
17,10
18,10
19,11
20,11
21,12
22,13
23,13
24,13
25,13
26,15
27,16
28,19
29,19
30,19
31,19
32,23
33,24
34,24
35,27
36,27
37,29
38,29
39,29
40,33
41,34
42,35
43,36
44,39
45,40
46,41
47,44
48,46
49,46
50,46
51,46
52,47
53,49
54,51
55,51
56,53
57,54
58,54
59,56
60,59
61,62
62,63
63,63
64,65
65,67
66,67
67,70
68,72
69,73
70,73
71,74
72,77
73,78
74,80
75,82
76,85
77,87
78,88
79,92
80,96
