0,1
1,1
2,1
3,1
4,1
5,3
6,5
7,6
8,8
9,8
10,9
11,10
12,13
13,14
14,15
15,16
16,20
17,24
18,25
19,25
20,27
21,29
22,32
23,32
24,40
25,47
26,53
27,61
28,66
29,77
30,82
31,89
32,98
33,109
34,111
35,116
36,124
37,136
38,149
39,159
40,171
41,181
42,191
43,209
44,225
45,240
46,254
47,269
48,282
49,293
50,308
51,312
52,331
53,349
54,363
55,379
56,397
57,418
58,443
59,465
60,484
61,512
62,529
63,547
64,573
65,587
66,604
67,632
68,654
69,681
70,712
71,731
72,765
73,793
74,827
75,859
76,896
77,933
78,968
79,1006
80,1051
