0,1
1,1
2,1
3,2
4,4
5,9
6,9
7,9
8,12
9,12
10,15
11,17
12,21
13,21
14,23
15,25
16,26
17,28
18,29
19,33
20,37
21,38
22,42
23,46
24,49
25,50
26,55
27,60
28,65
29,70
30,79
31,84
32,87
33,95
34,104
35,115
36,121
37,130
38,141
39,160
40,166
41,176
42,186
43,194
44,208
45,218
46,233
47,251
48,264
49,281
50,295
51,315
52,327
53,350
54,376
55,404
56,422
57,444
58,468
59,499
60,517
61,543
62,570
63,593
64,628
65,661
66,691
67,724
68,753
69,790
70,837
71,863
72,898
73,932
74,973
75,1021
76,1071
77,1112
78,1161
79,1204
80,1258
