0,1
1,1
2,1
3,1
4,1
5,1
6,1
7,1
8,2
9,2
10,2
11,2
12,2
13,2
14,2
15,3
16,3
17,3
18,3
19,3
20,6
21,7
22,7
23,7
24,8
25,9
26,10
27,10
28,10
29,13
30,14
31,14
32,15
33,17
34,20
35,22
36,26
37,26
38,27
39,30
40,32
41,35
42,36
43,39
44,43
45,47
46,50
47,57
48,61
49,70
50,73
51,79
52,85
53,93
54,102
55,109
56,118
57,134
58,142
59,148
60,162
61,174
62,187
63,197
64,210
65,222
66,236
67,256
68,270
69,292
70,303
71,320
72,338
73,350
74,362
75,374
76,397
77,409
78,424
79,452
80,466
