0,1
1,1
2,1
3,1
4,1
5,1
6,2
7,2
8,2
9,3
10,4
11,7
12,8
13,8
14,9
15,12
16,13
17,14
18,18
19,19
20,26
21,30
22,33
23,39
24,41
25,47
26,51
27,58
28,65
29,71
30,77
31,84
32,86
33,98
34,102
35,113
36,120
37,127
38,136
39,141
40,147
41,157
42,164
43,177
44,190
45,198
46,212
47,222
48,234
49,254
50,270
51,284
52,293
53,308
54,328
55,349
56,375
57,387
58,406
59,432
60,447
61,470
62,494
63,509
64,534
65,557
66,589
67,622
68,652
69,675
70,703
71,727
72,762
73,802
74,832
75,865
76,911
77,948
78,995
79,1034
80,1086
