0,1
1,1
2,1
3,1
4,2
5,3
6,3
7,6
8,6
9,7
10,7
11,9
12,9
13,10
14,10
15,11
16,12
17,14
18,16
19,16
20,16
21,18
22,18
23,20
24,21
25,21
26,24
27,24
28,24
29,24
30,29
31,31
32,32
33,34
34,37
35,37
36,38
37,40
38,40
39,47
40,49
41,52
42,55
43,63
44,65
45,70
46,79
47,87
48,90
49,95
50,108
51,114
52,121
53,130
54,143
55,151
56,160
57,171
58,185
59,196
60,206
61,223
62,237
63,242
64,254
65,279
66,295
67,310
68,324
69,346
70,368
71,382
72,413
73,440
74,468
75,490
76,508
77,533
78,561
79,578
80,597
