0,1
1,1
2,1
3,1
4,1
5,1
6,3
7,3
8,3
9,3
10,4
11,4
12,4
13,6
14,8
15,8
16,8
17,9
18,10
19,10
20,10
21,12
22,15
23,15
24,15
25,15
26,15
27,17
28,18
29,18
30,18
31,19
32,19
33,20
34,21
35,21
36,25
37,27
38,30
39,33
40,37
41,40
42,47
43,52
44,56
45,63
46,68
47,69
48,71
49,73
50,80
51,88
52,92
53,95
54,100
55,110
56,116
57,120
58,126
59,133
60,139
61,149
62,158
63,162
64,170
65,179
66,190
67,199
68,211
69,224
70,239
71,253
72,270
73,290
74,305
75,323
76,342
77,368
78,384
79,402
80,431
