0,1
1,1
2,1
3,1
4,1
5,2
6,5
7,5
8,5
9,7
10,7
11,8
12,10
13,10
14,11
15,12
16,13
17,15
18,17
19,17
20,18
21,21
22,25
23,27
24,27
25,28
26,31
27,32
28,33
29,36
30,37
31,38
32,38
33,39
34,40
35,40
36,41
37,42
38,42
39,43
40,44
41,44
42,45
43,46
44,48
45,52
46,53
47,55
48,59
49,62
50,62
51,64
52,67
53,71
54,75
55,82
56,87
57,92
58,96
59,99
60,103
61,112
62,119
63,127
64,136
65,142
66,146
67,150
68,164
69,172
70,184
71,197
72,208
73,222
74,229
75,243
76,257
77,269
78,290
79,303
80,330
