0,1
1,1
2,1
3,1
4,1
5,2
6,2
7,2
8,3
9,3
10,3
11,3
12,3
13,4
14,4
15,5
16,6
17,7
18,7
19,9
20,10
21,11
22,12
23,12
24,12
25,13
26,14
27,15
28,16
29,16
30,16
31,16
32,16
33,18
34,18
35,18
36,18
37,19
38,19
39,19
40,19
41,20
42,20
43,20
44,21
45,22
46,22
47,23
48,24
49,27
50,28
51,29
52,31
53,36
54,40
55,45
56,46
57,49
58,58
59,63
60,65
61,73
62,81
63,85
64,86
65,93
66,100
67,105
68,109
69,113
70,123
71,134
72,142
73,154
74,164
75,173
76,181
77,195
78,208
79,214
80,232
