0,1
1,1
2,1
3,1
4,1
5,3
6,3
7,3
8,3
9,5
10,5
11,6
12,8
13,8
14,8
15,13
16,17
17,18
18,19
19,19
20,19
21,20
22,22
23,24
24,26
25,27
26,31
27,32
28,36
29,37
30,39
31,45
32,50
33,52
34,54
35,61
36,65
37,66
38,70
39,76
40,78
41,81
42,82
43,84
44,88
45,92
46,95
47,98
48,99
49,100
50,103
51,104
52,110
53,114
54,116
55,117
56,120
57,123
58,129
59,130
60,134
61,138
62,140
63,142
64,145
65,146
66,148
67,150
68,152
69,155
70,157
71,158
72,161
73,163
74,163
75,166
76,168
77,172
78,176
79,178
80,179
