0,1
1,1
2,1
3,1
4,1
5,3
6,3
7,4
8,5
9,5
10,6
11,7
12,8
13,8
14,10
15,10
16,11
17,11
18,13
19,13
20,15
21,15
22,17
23,19
24,19
25,19
26,22
27,23
28,24
29,25
30,29
31,31
32,34
33,37
34,38
35,38
36,40
37,42
38,45
39,46
40,48
41,49
42,51
43,53
44,57
45,60
46,64
47,68
48,69
49,74
50,78
51,84
52,87
53,91
54,97
55,108
56,112
57,120
58,123
59,133
60,142
61,153
62,156
63,162
64,169
65,180
66,186
67,194
68,200
69,211
70,220
71,228
72,237
73,251
74,268
75,297
76,315
77,335
78,355
79,380
80,406
