0,1
1,1
2,1
3,1
4,4
5,6
6,7
7,11
8,14
9,16
10,19
11,21
12,22
13,28
14,30
15,32
16,35
17,38
18,40
19,42
20,48
21,53
22,55
23,61
24,64
25,64
26,65
27,71
28,72
29,76
30,77
31,79
32,80
33,82
34,82
35,84
36,85
37,87
38,88
39,89
40,90
41,93
42,97
43,97
44,100
45,102
46,102
47,105
48,110
49,113
50,114
51,116
52,118
53,122
54,126
55,128
56,137
57,141
58,145
59,152
60,155
61,158
62,168
63,175
64,178
65,183
66,188
67,194
68,204
69,210
70,219
71,227
72,235
73,241
74,250
75,259
76,275
77,287
78,303
79,317
80,332
