0,1
1,1
2,1
3,1
4,2
5,2
6,2
7,2
8,2
9,3
10,3
11,3
12,3
13,4
14,5
15,5
16,5
17,6
18,9
19,9
20,10
21,10
22,11
23,14
24,14
25,14
26,15
27,15
28,17
29,17
30,17
31,17
32,18
33,19
34,20
35,20
36,20
37,22
38,22
39,23
40,23
41,24
42,24
43,24
44,24
45,26
46,27
47,28
48,29
49,30
50,32
51,37
52,38
53,41
54,41
55,44
56,46
57,49
58,49
59,56
60,61
61,62
62,64
63,66
64,71
65,72
66,74
67,78
68,79
69,82
70,88
71,91
72,93
73,98
74,102
75,107
76,110
77,118
78,125
79,132
80,139
