0,1
1,1
2,1
3,2
4,2
5,3
6,5
7,8
8,8
9,11
10,14
11,19
12,23
13,25
14,29
15,32
16,37
17,39
18,41
19,48
20,53
21,54
22,58
23,62
24,66
25,73
26,77
27,81
28,83
29,89
30,94
31,98
32,105
33,109
34,114
35,117
36,123
37,127
38,136
39,142
40,150
41,154
42,160
43,165
44,170
45,177
46,183
47,190
48,196
49,204
50,213
51,215
52,226
53,230
54,242
55,249
56,260
57,275
58,286
59,293
60,306
61,320
62,338
63,359
64,375
65,396
66,416
67,429
68,448
69,465
70,481
71,498
72,507
73,521
74,548
75,571
76,595
77,624
78,656
79,679
80,718
