0,1
1,1
2,1
3,1
4,3
5,3
6,3
7,5
8,5
9,5
10,7
11,10
12,10
13,12
14,12
15,13
16,13
17,14
18,14
19,14
20,18
21,19
22,21
23,23
24,25
25,29
26,30
27,32
28,34
29,41
30,43
31,47
32,53
33,56
34,58
35,62
36,68
37,74
38,78
39,81
40,84
41,88
42,91
43,93
44,95
45,97
46,100
47,104
48,106
49,109
50,114
51,117
52,122
53,124
54,131
55,137
56,142
57,148
58,152
59,156
60,158
61,165
62,175
63,177
64,181
65,184
66,192
67,195
68,201
69,206
70,213
71,218
72,227
73,233
74,238
75,246
76,252
77,257
78,265
79,272
80,280
