0,1
1,1
2,2
3,2
4,3
5,3
6,4
7,4
8,4
9,4
10,4
11,5
12,5
13,6
14,7
15,8
16,10
17,15
18,17
19,20
20,23
21,30
22,33
23,34
24,43
25,44
26,49
27,52
28,56
29,61
30,66
31,71
32,77
33,83
34,93
35,97
36,102
37,110
38,126
39,128
40,141
41,144
42,150
43,165
44,177
45,188
46,196
47,210
48,220
49,230
50,243
51,254
52,271
53,289
54,305
55,323
56,346
57,368
58,393
59,410
60,426
61,457
62,490
63,515
64,542
65,577
66,601
67,637
68,674
69,712
70,757
71,798
72,841
73,892
74,938
75,976
76,1037
77,1097
78,1152
79,1218
80,1298
