0,1
1,1
2,1
3,1
4,1
5,2
6,2
7,2
8,2
9,2
10,3
11,3
12,4
13,6
14,7
15,7
16,7
17,8
18,10
19,10
20,10
21,12
22,13
23,16
24,16
25,18
26,19
27,22
28,23
29,24
30,25
31,28
32,28
33,32
34,34
35,35
36,35
37,39
38,40
39,42
40,46
41,49
42,55
43,57
44,60
45,62
46,67
47,71
48,78
49,79
50,79
51,83
52,88
53,90
54,94
55,96
56,99
57,104
58,107
59,111
60,113
61,115
62,119
63,122
64,123
65,127
66,128
67,133
68,137
69,142
70,146
71,146
72,148
73,151
74,154
75,155
76,159
77,163
78,166
79,167
80,169
