0,1
1,1
2,1
3,1
4,2
5,2
6,3
7,3
8,3
9,5
10,7
11,8
12,10
13,12
14,13
15,16
16,17
17,21
18,23
19,24
20,26
21,28
22,28
23,33
24,35
25,37
26,43
27,46
28,54
29,59
30,63
31,70
32,75
33,81
34,88
35,93
36,94
37,102
38,112
39,118
40,122
41,128
42,136
43,148
44,157
45,163
46,167
47,182
48,193
49,203
50,214
51,227
52,243
53,257
54,272
55,293
56,306
57,320
58,344
59,364
60,386
61,405
62,430
63,450
64,474
65,497
66,525
67,547
68,579
69,608
70,643
71,677
72,713
73,755
74,800
75,833
76,878
77,930
78,972
79,1015
80,1077
