0,1
1,1
2,1
3,2
4,2
5,4
6,4
7,4
8,5
9,7
10,7
11,8
12,10
13,11
14,13
15,14
16,14
17,19
18,23
19,26
20,27
21,29
22,29
23,30
24,33
25,34
26,35
27,35
28,41
29,43
30,44
31,44
32,46
33,47
34,50
35,53
36,56
37,60
38,65
39,70
40,74
41,78
42,83
43,87
44,90
45,96
46,98
47,101
48,107
49,110
50,117
51,123
52,125
53,135
54,142
55,149
56,152
57,162
58,170
59,179
60,187
61,192
62,201
63,214
64,233
65,244
66,255
67,267
68,284
69,304
70,323
71,336
72,362
73,382
74,406
75,430
76,458
77,477
78,492
79,514
80,549
