0,1
1,1
2,1
3,3
4,4
5,6
6,9
7,10
8,13
9,14
10,14
11,17
12,21
13,22
14,23
15,24
16,26
17,29
18,31
19,33
20,37
21,39
22,42
23,44
24,47
25,51
26,55
27,60
28,64
29,67
30,74
31,78
32,83
33,85
34,87
35,93
36,101
37,110
38,120
39,130
40,138
41,149
42,160
43,168
44,178
45,193
46,200
47,216
48,223
49,237
50,254
51,266
52,278
53,293
54,307
55,317
56,330
57,353
58,370
59,382
60,405
61,416
62,436
63,466
64,492
65,527
66,545
67,579
68,609
69,648
70,677
71,712
72,752
73,793
74,830
75,869
76,912
77,956
78,996
79,1051
80,1099
