0,1
1,1
2,1
3,1
4,1
5,2
6,3
7,3
8,3
9,3
10,4
11,4
12,4
13,6
14,6
15,6
16,6
17,7
18,8
19,8
20,8
21,9
22,9
23,9
24,10
25,10
26,10
27,10
28,11
29,12
30,12
31,12
32,12
33,15
34,16
35,16
36,18
37,18
38,21
39,23
40,24
41,27
42,30
43,30
44,32
45,38
46,42
47,43
48,47
49,50
50,57
51,62
52,64
53,69
54,74
55,77
56,87
57,93
58,97
59,101
60,106
61,115
62,120
63,124
64,126
65,133
66,139
67,144
68,153
69,162
70,172
71,180
72,194
73,203
74,216
75,234
76,243
77,257
78,278
79,298
80,312
