0,1
1,1
2,1
3,1
4,1
5,3
6,5
7,6
8,6
9,8
10,8
11,9
12,13
13,15
14,16
15,17
16,17
17,18
18,19
19,21
20,22
21,23
22,24
23,28
24,30
25,31
26,32
27,32
28,33
29,33
30,34
31,34
32,34
33,35
34,37
35,39
36,39
37,42
38,43
39,45
40,46
41,47
42,49
43,53
44,54
45,57
46,58
47,60
48,65
49,66
50,67
51,68
52,71
53,73
54,75
55,78
56,78
57,79
58,80
59,81
60,86
61,90
62,91
63,92
64,97
65,101
66,107
67,114
68,119
69,126
70,130
71,136
72,145
73,147
74,155
75,161
76,177
77,188
78,201
79,209
80,225
