0,1
1,1
2,2
3,2
4,2
5,3
6,3
7,4
8,6
9,6
10,7
11,7
12,8
13,9
14,12
15,16
16,18
17,19
18,20
19,25
20,27
21,29
22,32
23,32
24,37
25,38
26,41
27,41
28,44
29,46
30,51
31,53
32,59
33,62
34,64
35,65
36,68
37,69
38,70
39,73
40,76
41,76
42,77
43,80
44,80
45,82
46,85
47,86
48,88
49,91
50,96
51,99
52,101
53,105
54,110
55,112
56,117
57,120
58,121
59,125
60,127
61,130
62,136
63,138
64,143
65,149
66,151
67,161
68,167
69,173
70,180
71,184
72,190
73,205
74,211
75,216
76,224
77,233
78,245
79,258
80,277
