0,1
1,1
2,1
3,1
4,1
5,1
6,2
7,2
8,3
9,3
10,4
11,4
12,4
13,4
14,5
15,8
16,10
17,10
18,11
19,11
20,11
21,12
22,12
23,14
24,15
25,16
26,16
27,16
28,19
29,19
30,19
31,19
32,23
33,28
34,28
35,28
36,29
37,30
38,31
39,34
40,37
41,39
42,40
43,41
44,43
45,45
46,46
47,50
48,50
49,50
50,54
51,55
52,57
53,57
54,60
55,60
56,63
57,64
58,65
59,66
60,68
61,70
62,70
63,72
64,72
65,73
66,75
67,77
68,79
69,80
70,81
71,82
72,83
73,84
74,87
75,87
76,93
77,94
78,98
79,101
80,105
