0,1
1,1
2,1
3,1
4,1
5,2
6,2
7,4
8,4
9,4
10,4
11,4
12,5
13,5
14,5
15,6
16,9
17,12
18,13
19,15
20,16
21,17
22,19
23,19
24,22
25,22
26,25
27,27
28,27
29,31
30,32
31,34
32,37
33,38
34,39
35,44
36,47
37,50
38,56
39,57
40,60
41,62
42,67
43,74
44,76
45,80
46,83
47,88
48,96
49,102
50,104
51,110
52,115
53,119
54,123
55,130
56,139
57,147
58,152
59,162
60,171
61,179
62,189
63,198
64,205
65,223
66,237
67,254
68,272
69,291
70,310
71,323
72,338
73,349
74,374
75,394
76,414
77,428
78,463
79,491
80,527
