0,1
1,1
2,1
3,1
4,1
5,1
6,2
7,2
8,2
9,2
10,3
11,3
12,3
13,4
14,4
15,4
16,4
17,4
18,4
19,5
20,6
21,6
22,6
23,7
24,7
25,10
26,10
27,13
28,15
29,16
30,18
31,20
32,23
33,24
34,26
35,27
36,27
37,29
38,31
39,32
40,36
41,40
42,43
43,46
44,49
45,53
46,55
47,61
48,67
49,70
50,75
51,80
52,85
53,89
54,95
55,100
56,102
57,109
58,112
59,116
60,121
61,127
62,135
63,139
64,144
65,148
66,152
67,156
68,160
69,168
70,172
71,177
72,181
73,188
74,195
75,203
76,208
77,211
78,225
79,234
80,242
