0,1
1,1
2,1
3,2
4,2
5,2
6,5
7,8
8,10
9,10
10,14
11,16
12,18
13,18
14,22
15,23
16,25
17,27
18,30
19,32
20,33
21,36
22,37
23,37
24,38
25,39
26,41
27,42
28,42
29,42
30,42
31,44
32,44
33,44
34,45
35,46
36,47
37,47
38,49
39,49
40,50
41,50
42,50
43,51
44,51
45,52
46,54
47,54
48,54
49,54
50,56
51,56
52,56
53,59
54,59
55,60
56,64
57,66
58,70
59,77
60,80
61,85
62,89
63,97
64,100
65,106
66,109
67,118
68,124
69,128
70,144
71,153
72,161
73,174
74,186
75,199
76,212
77,235
78,243
79,258
80,275
