0,1
1,1
2,1
3,2
4,2
5,2
6,2
7,2
8,2
9,3
10,3
11,3
12,5
13,5
14,5
15,5
16,5
17,6
18,7
19,8
20,8
21,8
22,9
23,11
24,11
25,11
26,11
27,13
28,13
29,13
30,14
31,14
32,15
33,17
34,18
35,19
36,19
37,20
38,20
39,21
40,22
41,23
42,24
43,25
44,26
45,28
46,32
47,34
48,38
49,40
50,42
51,49
52,51
53,56
54,57
55,60
56,65
57,72
58,76
59,81
60,87
61,90
62,97
63,102
64,110
65,113
66,118
67,124
68,131
69,136
70,145
71,154
72,160
73,165
74,175
75,186
76,193
77,205
78,212
79,223
80,234
