0,1
1,1
2,2
3,2
4,3
5,3
6,3
7,5
8,5
9,6
10,6
11,6
12,7
13,7
14,8
15,9
16,9
17,10
18,12
19,14
20,15
21,16
22,17
23,17
24,20
25,24
26,25
27,25
28,27
29,31
30,35
31,38
32,40
33,45
34,56
35,62
36,66
37,72
38,82
39,89
40,98
41,109
42,115
43,128
44,142
45,155
46,166
47,180
48,196
49,208
50,235
51,249
52,269
53,283
54,306
55,321
56,339
57,367
58,392
59,415
60,435
61,458
62,486
63,522
64,551
65,578
66,610
67,644
68,684
69,739
70,786
71,819
72,869
73,909
74,960
75,1008
76,1069
77,1134
78,1201
79,1266
80,1343
