0,1
1,1
2,1
3,1
4,4
5,4
6,4
7,7
8,7
9,7
10,7
11,7
12,7
13,9
14,10
15,12
16,12
17,13
18,13
19,14
20,15
21,16
22,17
23,18
24,21
25,27
26,31
27,34
28,36
29,38
30,41
31,44
32,45
33,48
34,53
35,59
36,62
37,64
38,68
39,73
40,81
41,86
42,100
43,107
44,116
45,122
46,132
47,143
48,151
49,167
50,176
51,186
52,203
53,212
54,226
55,245
56,261
57,275
58,289
59,306
60,319
61,336
62,370
63,386
64,416
65,437
66,457
67,488
68,507
69,536
70,568
71,610
72,641
73,671
74,713
75,756
76,795
77,845
78,894
79,954
80,1005
