0,1
1,1
2,1
3,1
4,1
5,2
6,4
7,5
8,5
9,5
10,5
11,7
12,7
13,8
14,9
15,9
16,9
17,11
18,11
19,12
20,13
21,14
22,15
23,17
24,17
25,20
26,21
27,24
28,30
29,33
30,33
31,36
32,43
33,47
34,49
35,52
36,59
37,62
38,65
39,67
40,71
41,73
42,76
43,83
44,85
45,91
46,96
47,101
48,109
49,115
50,117
51,123
52,128
53,135
54,141
55,146
56,152
57,155
58,162
59,169
60,171
61,174
62,180
63,184
64,190
65,198
66,201
67,207
68,211
69,218
70,226
71,231
72,240
73,247
74,253
75,258
76,265
77,270
78,278
79,285
80,293
