0,1
1,1
2,1
3,1
4,1
5,3
6,3
7,4
8,5
9,5
10,7
11,7
12,8
13,8
14,8
15,10
16,11
17,14
18,17
19,19
20,21
21,24
22,26
23,27
24,29
25,33
26,35
27,38
28,41
29,45
30,46
31,50
32,55
33,57
34,60
35,63
36,65
37,68
38,71
39,72
40,73
41,77
42,79
43,86
44,89
45,96
46,99
47,106
48,110
49,113
50,114
51,126
52,130
53,138
54,140
55,147
56,157
57,164
58,171
59,187
60,192
61,209
62,223
63,236
64,260
65,274
66,292
67,312
68,331
69,351
70,369
71,392
72,420
73,444
74,467
75,500
76,529
77,564
78,595
79,635
80,668
