0,1
1,1
2,1
3,1
4,1
5,2
6,2
7,2
8,3
9,4
10,7
11,7
12,7
13,9
14,9
15,9
16,11
17,13
18,13
19,14
20,15
21,16
22,17
23,18
24,19
25,20
26,23
27,23
28,24
29,25
30,25
31,27
32,30
33,31
34,31
35,31
36,32
37,33
38,35
39,36
40,37
41,40
42,43
43,43
44,44
45,47
46,49
47,53
48,57
49,61
50,61
51,64
52,69
53,72
54,76
55,80
56,86
57,93
58,98
59,105
60,110
61,116
62,122
63,130
64,134
65,140
66,151
67,155
68,164
69,177
70,183
71,190
72,194
73,202
74,208
75,219
76,232
77,247
78,261
79,274
80,293
