0,1
1,1
2,1
3,2
4,2
5,2
6,2
7,4
8,4
9,5
10,6
11,7
12,8
13,9
14,11
15,14
16,17
17,21
18,25
19,28
20,34
21,41
22,42
23,49
24,58
25,63
26,70
27,75
28,84
29,88
30,94
31,106
32,117
33,132
34,145
35,154
36,170
37,182
38,199
39,215
40,232
41,253
42,265
43,279
44,291
45,323
46,348
47,364
48,384
49,407
50,434
51,453
52,482
53,509
54,543
55,578
56,611
57,629
58,664
59,709
60,755
61,809
62,845
63,876
64,935
65,983
66,1038
67,1097
68,1151
69,1204
70,1281
71,1359
72,1432
73,1508
74,1568
75,1643
76,1721
77,1805
78,1889
79,1966
80,2055
