0,1
1,1
2,1
3,1
4,1
5,1
6,2
7,2
8,2
9,3
10,3
11,3
12,3
13,3
14,3
15,4
16,4
17,4
18,5
19,5
20,5
21,6
22,8
23,9
24,12
25,13
26,16
27,17
28,19
29,22
30,24
31,27
32,29
33,33
34,38
35,40
36,42
37,44
38,50
39,56
40,60
41,63
42,68
43,78
44,90
45,94
46,104
47,112
48,120
49,130
50,144
51,148
52,155
53,162
54,176
55,180
56,195
57,203
58,211
59,225
60,237
61,250
62,264
63,281
64,297
65,312
66,325
67,337
68,351
69,363
70,373
71,388
72,401
73,414
74,431
75,449
76,462
77,488
78,506
79,519
80,538
