0,1
1,1
2,2
3,2
4,3
5,6
6,6
7,6
8,8
9,10
10,10
11,12
12,12
13,12
14,12
15,15
16,16
17,17
18,19
19,22
20,23
21,26
22,28
23,32
24,34
25,34
26,43
27,47
28,49
29,54
30,58
31,61
32,64
33,72
34,78
35,79
36,81
37,86
38,93
39,99
40,107
41,113
42,122
43,129
44,135
45,146
46,156
47,165
48,179
49,192
50,203
51,213
52,237
53,251
54,265
55,277
56,284
57,303
58,313
59,329
60,347
61,367
62,381
63,402
64,421
65,442
66,462
67,482
68,512
69,530
70,565
71,600
72,629
73,650
74,685
75,728
76,773
77,807
78,836
79,890
80,924
