0,1
1,1
2,1
3,1
4,1
5,1
6,1
7,1
8,1
9,2
10,2
11,2
12,2
13,4
14,4
15,4
16,4
17,5
18,5
19,5
20,6
21,6
22,7
23,7
24,7
25,9
26,9
27,9
28,9
29,11
30,12
31,12
32,12
33,13
34,13
35,14
36,15
37,16
38,17
39,17
40,17
41,18
42,19
43,20
44,22
45,23
46,24
47,25
48,29
49,29
50,30
51,32
52,32
53,37
54,38
55,40
56,42
57,44
58,44
59,45
60,48
61,52
62,53
63,54
64,59
65,62
66,63
67,66
68,67
69,67
70,70
71,72
72,73
73,74
74,74
75,75
76,76
77,76
78,79
79,80
80,83
