0,1
1,1
2,1
3,1
4,1
5,2
6,5
7,6
8,9
9,11
10,12
11,14
12,18
13,20
14,20
15,21
16,24
17,26
18,28
19,29
20,33
21,38
22,39
23,39
24,41
25,44
26,45
27,47
28,53
29,55
30,57
31,62
32,70
33,73
34,78
35,80
36,86
37,93
38,100
39,108
40,120
41,125
42,136
43,147
44,155
45,165
46,181
47,190
48,197
49,209
50,222
51,237
52,247
53,257
54,270
55,282
56,296
57,313
58,328
59,344
60,352
61,365
62,381
63,406
64,419
65,435
66,457
67,484
68,503
69,526
70,557
71,572
72,603
73,631
74,659
75,687
76,720
77,751
78,783
79,812
80,843
