0,1
1,1
2,1
3,2
4,4
5,4
6,5
7,6
8,9
9,9
10,9
11,11
12,12
13,13
14,13
15,13
16,14
17,15
18,15
19,16
20,16
21,17
22,18
23,18
24,19
25,19
26,20
27,20
28,20
29,21
30,22
31,22
32,23
33,23
34,26
35,28
36,28
37,28
38,28
39,32
40,35
41,39
42,43
43,44
44,49
45,49
46,50
47,51
48,53
49,54
50,57
51,61
52,65
53,72
54,75
55,77
56,81
57,87
58,91
59,97
60,101
61,107
62,111
63,113
64,119
65,128
66,137
67,142
68,147
69,154
70,162
71,174
72,182
73,188
74,196
75,206
76,213
77,224
78,231
79,238
80,258
