0,1
1,1
2,1
3,1
4,2
5,2
6,3
7,4
8,5
9,6
10,7
11,9
12,10
13,10
14,12
15,13
16,15
17,17
18,18
19,19
20,24
21,27
22,27
23,28
24,31
25,36
26,43
27,48
28,51
29,53
30,56
31,66
32,66
33,71
34,77
35,82
36,85
37,89
38,94
39,99
40,105
41,114
42,126
43,137
44,142
45,149
46,160
47,175
48,188
49,202
50,216
51,226
52,238
53,249
54,266
55,283
56,297
57,318
58,330
59,350
60,388
61,409
62,436
63,461
64,486
65,508
66,540
67,573
68,608
69,632
70,679
71,707
72,750
73,789
74,834
75,881
76,932
77,1004
78,1055
79,1113
80,1179
