0,1
1,1
2,1
3,1
4,1
5,1
6,3
7,3
8,4
9,5
10,7
11,8
12,9
13,9
14,9
15,10
16,12
17,14
18,16
19,18
20,21
21,24
22,27
23,29
24,36
25,37
26,42
27,52
28,53
29,56
30,62
31,72
32,78
33,85
34,90
35,103
36,113
37,128
38,144
39,158
40,172
41,191
42,213
43,236
44,247
45,269
46,299
47,323
48,348
49,377
50,404
51,429
52,472
53,524
54,566
55,614
56,660
57,709
58,750
59,817
60,872
61,938
62,1017
63,1104
64,1182
65,1255
66,1345
67,1463
68,1548
69,1647
70,1742
71,1873
72,1993
73,2124
74,2244
75,2378
76,2522
77,2681
78,2834
79,2986
80,3167
