0,1
1,1
2,1
3,1
4,2
5,3
6,3
7,5
8,6
9,12
10,13
11,18
12,20
13,25
14,28
15,31
16,40
17,48
18,58
19,65
20,77
21,85
22,90
23,99
24,114
25,122
26,137
27,148
28,160
29,171
30,184
31,197
32,215
33,233
34,257
35,277
36,300
37,319
38,340
39,373
40,394
41,429
42,450
43,476
44,509
45,543
46,579
47,607
48,652
49,694
50,730
51,787
52,830
53,870
54,934
55,998
56,1061
57,1127
58,1187
59,1263
60,1340
61,1441
62,1532
63,1629
64,1718
65,1833
66,1949
67,2065
68,2200
69,2349
70,2492
71,2621
72,2760
73,2947
74,3128
75,3325
76,3482
77,3681
78,3865
79,4098
80,4317
