0,1
1,1
2,1
3,1
4,1
5,1
6,1
7,1
8,2
9,2
10,2
11,2
12,5
13,6
14,7
15,8
16,8
17,12
18,13
19,14
20,15
21,18
22,19
23,21
24,23
25,24
26,25
27,26
28,26
29,26
30,27
31,27
32,27
33,28
34,28
35,29
36,29
37,29
38,30
39,31
40,31
41,32
42,32
43,32
44,33
45,33
46,34
47,38
48,38
49,39
50,46
51,51
52,52
53,56
54,61
55,66
56,72
57,75
58,84
59,92
60,94
61,96
62,102
63,111
64,116
65,118
66,124
67,126
68,129
69,134
70,139
71,141
72,146
73,148
74,149
75,152
76,156
77,162
78,163
79,164
80,168
