0,1
1,1
2,1
3,1
4,1
5,2
6,4
7,5
8,6
9,7
10,9
11,10
12,16
13,16
14,17
15,21
16,25
17,30
18,35
19,41
20,46
21,57
22,60
23,63
24,78
25,87
26,94
27,105
28,111
29,127
30,133
31,144
32,153
33,159
34,174
35,189
36,201
37,206
38,211
39,219
40,226
41,236
42,242
43,250
44,257
45,269
46,277
47,282
48,291
49,305
50,316
51,330
52,341
53,353
54,370
55,386
56,406
57,425
58,444
59,464
60,489
61,504
62,531
63,553
64,583
65,618
66,644
67,670
68,694
69,728
70,763
71,799
72,831
73,857
74,910
75,937
76,980
77,1016
78,1050
79,1099
80,1139
