0,1
1,1
2,2
3,2
4,3
5,3
6,4
7,5
8,5
9,5
10,5
11,5
12,7
13,7
14,8
15,8
16,8
17,8
18,9
19,9
20,10
21,10
22,10
23,11
24,11
25,11
26,12
27,15
28,17
29,18
30,21
31,23
32,26
33,29
34,30
35,34
36,39
37,47
38,53
39,58
40,63
41,75
42,82
43,94
44,99
45,105
46,116
47,130
48,147
49,162
50,176
51,193
52,206
53,225
54,244
55,260
56,286
57,313
58,332
59,348
60,371
61,402
62,430
63,451
64,480
65,507
66,533
67,563
68,587
69,608
70,628
71,658
72,699
73,737
74,768
75,796
76,821
77,859
78,897
79,943
80,975
