0,1
1,1
2,1
3,1
4,4
5,4
6,5
7,6
8,7
9,8
10,9
11,9
12,9
13,9
14,12
15,12
16,12
17,12
18,12
19,12
20,12
21,13
22,13
23,13
24,13
25,13
26,13
27,13
28,13
29,14
30,14
31,14
32,14
33,15
34,17
35,18
36,20
37,20
38,21
39,22
40,22
41,22
42,23
43,26
44,26
45,26
46,27
47,29
48,29
49,33
50,33
51,34
52,34
53,37
54,43
55,44
56,49
57,50
58,54
59,58
60,63
61,68
62,77
63,82
64,94
65,103
66,109
67,120
68,127
69,134
70,141
71,158
72,172
73,183
74,192
75,206
76,225
77,247
78,259
79,284
80,301
