0,1
1,1
2,1
3,1
4,1
5,2
6,2
7,2
8,2
9,2
10,4
11,4
12,4
13,4
14,7
15,7
16,7
17,8
18,10
19,11
20,14
21,15
22,19
23,20
24,25
25,31
26,36
27,39
28,42
29,48
30,54
31,58
32,64
33,71
34,76
35,83
36,87
37,104
38,109
39,111
40,120
41,126
42,130
43,141
44,149
45,155
46,163
47,175
48,182
49,196
50,206
51,213
52,223
53,240
54,250
55,261
56,272
57,282
58,304
59,319
60,340
61,351
62,372
63,389
64,416
65,440
66,459
67,478
68,505
69,541
70,581
71,612
72,652
73,688
74,723
75,757
76,794
77,838
78,874
79,930
80,987
