0,1
1,1
2,1
3,1
4,1
5,2
6,2
7,3
8,3
9,4
10,7
11,7
12,8
13,9
14,12
15,14
16,16
17,18
18,20
19,26
20,31
21,34
22,38
23,42
24,52
25,62
26,71
27,77
28,95
29,106
30,126
31,140
32,156
33,183
34,210
35,237
36,259
37,282
38,312
39,336
40,369
41,395
42,419
43,458
44,491
45,537
46,567
47,604
48,660
49,704
50,756
51,805
52,858
53,923
54,997
55,1065
56,1139
57,1205
58,1295
59,1370
60,1463
61,1554
62,1680
63,1765
64,1865
65,1983
66,2090
67,2224
68,2357
69,2501
70,2644
71,2811
72,2984
73,3174
74,3370
75,3563
76,3752
77,3991
78,4179
79,4412
80,4667
