0,1
1,1
2,1
3,1
4,1
5,3
6,3
7,3
8,3
9,4
10,5
11,5
12,5
13,5
14,5
15,5
16,6
17,6
18,7
19,7
20,7
21,8
22,8
23,9
24,10
25,11
26,11
27,11
28,11
29,11
30,12
31,12
32,13
33,13
34,13
35,14
36,14
37,15
38,16
39,16
40,18
41,18
42,21
43,23
44,25
45,26
46,28
47,31
48,31
49,33
50,35
51,36
52,37
53,39
54,42
55,44
56,46
57,49
58,51
59,56
60,56
61,60
62,64
63,67
64,74
65,77
66,81
67,89
68,95
69,99
70,106
71,111
72,120
73,129
74,137
75,144
76,149
77,154
78,170
79,181
80,190
