0,1
1,1
2,1
3,1
4,1
5,1
6,2
7,2
8,2
9,3
10,3
11,4
12,5
13,5
14,5
15,6
16,10
17,11
18,12
19,15
20,15
21,16
22,17
23,19
24,20
25,22
26,23
27,24
28,25
29,31
30,32
31,36
32,39
33,41
34,44
35,48
36,51
37,54
38,62
39,64
40,69
41,74
42,78
43,81
44,90
45,94
46,100
47,108
48,116
49,119
50,135
51,145
52,156
53,171
54,189
55,205
56,221
57,240
58,249
59,271
60,290
61,302
62,314
63,323
64,341
65,358
66,375
67,402
68,425
69,448
70,476
71,492
72,517
73,559
74,587
75,617
76,652
77,684
78,718
79,741
80,772
