0,1
1,1
2,1
3,2
4,3
5,4
6,5
7,5
8,8
9,9
10,12
11,12
12,13
13,14
14,17
15,20
16,22
17,27
18,30
19,32
20,37
21,43
22,49
23,53
24,58
25,64
26,68
27,75
28,82
29,92
30,98
31,108
32,124
33,134
34,143
35,153
36,162
37,176
38,190
39,200
40,212
41,226
42,235
43,251
44,275
45,294
46,320
47,344
48,365
49,390
50,408
51,427
52,459
53,481
54,511
55,537
56,561
57,589
58,616
59,651
60,685
61,723
62,748
63,774
64,809
65,840
66,877
67,910
68,951
69,989
70,1045
71,1093
72,1142
73,1195
74,1246
75,1289
76,1334
77,1400
78,1473
79,1529
80,1602
