0,1
1,1
2,1
3,1
4,4
5,4
6,4
7,6
8,7
9,8
10,9
11,11
12,13
13,15
14,18
15,20
16,22
17,26
18,27
19,31
20,37
21,39
22,42
23,48
24,55
25,63
26,72
27,79
28,88
29,96
30,103
31,107
32,120
33,127
34,133
35,145
36,151
37,164
38,176
39,184
40,198
41,214
42,230
43,246
44,267
45,282
46,298
47,327
48,335
49,353
50,375
51,400
52,423
53,449
54,480
55,512
56,535
57,559
58,588
59,620
60,659
61,682
62,709
63,750
64,788
65,832
66,865
67,898
68,938
69,972
70,1016
71,1063
72,1103
73,1153
74,1212
75,1271
76,1323
77,1387
78,1439
79,1504
80,1577
