0,1
1,1
2,1
3,1
4,1
5,2
6,2
7,2
8,2
9,4
10,4
11,4
12,5
13,5
14,7
15,7
16,7
17,7
18,8
19,8
20,8
21,8
22,8
23,10
24,10
25,10
26,10
27,10
28,12
29,12
30,14
31,15
32,16
33,20
34,20
35,22
36,22
37,23
38,26
39,27
40,27
41,29
42,32
43,33
44,34
45,37
46,39
47,40
48,44
49,46
50,49
51,55
52,58
53,62
54,66
55,68
56,75
57,80
58,84
59,89
60,98
61,103
62,111
63,117
64,127
65,140
66,153
67,160
68,166
69,182
70,191
71,201
72,211
73,217
74,233
75,250
76,256
77,267
78,274
79,289
80,299
