0,1
1,1
2,2
3,3
4,3
5,4
6,6
7,8
8,10
9,11
10,12
11,13
12,14
13,15
14,15
15,16
16,16
17,20
18,23
19,23
20,25
21,32
22,35
23,37
24,41
25,43
26,47
27,49
28,52
29,53
30,57
31,65
32,69
33,78
34,79
35,83
36,89
37,91
38,95
39,100
40,108
41,110
42,112
43,114
44,120
45,126
46,129
47,136
48,144
49,146
50,155
51,167
52,173
53,178
54,184
55,189
56,198
57,208
58,221
59,226
60,238
61,252
62,258
63,269
64,280
65,300
66,314
67,331
68,349
69,364
70,388
71,413
72,430
73,446
74,470
75,501
76,533
77,558
78,581
79,621
80,644
