0,1
1,1
2,1
3,2
4,3
5,4
6,4
7,6
8,6
9,8
10,9
11,10
12,11
13,11
14,12
15,12
16,12
17,12
18,13
19,13
20,13
21,14
22,14
23,14
24,16
25,16
26,17
27,19
28,19
29,19
30,20
31,22
32,24
33,26
34,28
35,28
36,30
37,34
38,38
39,40
40,44
41,47
42,50
43,51
44,51
45,55
46,60
47,64
48,65
49,68
50,70
51,74
52,76
53,77
54,82
55,82
56,85
57,91
58,92
59,96
60,100
61,103
62,112
63,118
64,120
65,122
66,125
67,131
68,137
69,142
70,151
71,156
72,166
73,174
74,183
75,196
76,202
77,212
78,225
79,243
80,260
