0,1
1,1
2,1
3,1
4,4
5,5
6,6
7,7
8,9
9,13
10,17
11,20
12,20
13,28
14,29
15,33
16,38
17,40
18,44
19,46
20,50
21,53
22,58
23,63
24,67
25,74
26,82
27,90
28,97
29,102
30,110
31,116
32,124
33,129
34,136
35,139
36,145
37,149
38,158
39,167
40,179
41,190
42,204
43,218
44,232
45,249
46,265
47,276
48,293
49,302
50,317
51,327
52,345
53,360
54,375
55,391
56,411
57,432
58,452
59,472
60,497
61,522
62,544
63,565
64,590
65,616
66,635
67,667
68,698
69,727
70,757
71,797
72,839
73,880
74,927
75,973
76,1021
77,1070
78,1138
79,1199
80,1264
