0,1
1,1
2,1
3,1
4,1
5,1
6,1
7,2
8,2
9,3
10,3
11,4
12,4
13,5
14,9
15,11
16,12
17,13
18,16
19,17
20,17
21,19
22,20
23,25
24,27
25,29
26,29
27,32
28,39
29,44
30,46
31,51
32,61
33,65
34,69
35,73
36,80
37,86
38,96
39,105
40,114
41,125
42,134
43,147
44,163
45,178
46,190
47,212
48,230
49,243
50,271
51,294
52,310
53,331
54,350
55,366
56,396
57,420
58,448
59,471
60,506
61,548
62,573
63,610
64,651
65,683
66,736
67,778
68,818
69,865
70,926
71,973
72,1035
73,1086
74,1145
75,1198
76,1263
77,1334
78,1390
79,1452
80,1530
