0,1
1,1
2,1
3,2
4,3
5,4
6,5
7,5
8,7
9,9
10,11
11,11
12,12
13,12
14,15
15,18
16,20
17,23
18,25
19,29
20,32
21,34
22,39
23,42
24,46
25,48
26,53
27,58
28,61
29,65
30,67
31,70
32,77
33,79
34,86
35,91
36,92
37,100
38,108
39,111
40,116
41,122
42,129
43,134
44,149
45,160
46,164
47,183
48,193
49,209
50,225
51,236
52,248
53,266
54,287
55,303
56,324
57,346
58,368
59,396
60,418
61,446
62,467
63,490
64,520
65,552
66,581
67,627
68,662
69,698
70,739
71,787
72,828
73,874
74,920
75,975
76,1028
77,1070
78,1121
79,1191
80,1252
