0,1
1,1
2,1
3,1
4,1
5,1
6,1
7,2
8,3
9,3
10,3
11,4
12,4
13,6
14,6
15,7
16,8
17,8
18,8
19,8
20,8
21,8
22,8
23,8
24,8
25,9
26,9
27,10
28,10
29,11
30,11
31,11
32,11
33,11
34,12
35,12
36,12
37,12
38,12
39,13
40,13
41,13
42,13
43,13
44,15
45,17
46,17
47,17
48,19
49,21
50,21
51,21
52,22
53,25
54,29
55,31
56,32
57,34
58,35
59,36
60,40
61,46
62,48
63,49
64,49
65,51
66,54
67,57
68,58
69,63
70,64
71,66
72,70
73,71
74,74
75,78
76,80
77,85
78,87
79,91
80,94
