0,1
1,1
2,1
3,1
4,2
5,2
6,3
7,4
8,4
9,5
10,6
11,7
12,8
13,8
14,8
15,9
16,9
17,9
18,9
19,9
20,9
21,9
22,9
23,10
24,10
25,10
26,10
27,11
28,11
29,11
30,12
31,13
32,14
33,15
34,15
35,18
36,22
37,25
38,25
39,27
40,27
41,27
42,30
43,31
44,32
45,33
46,33
47,35
48,35
49,35
50,37
51,41
52,43
53,43
54,45
55,45
56,48
57,50
58,52
59,55
60,55
61,55
62,58
63,60
64,62
65,66
66,68
67,70
68,72
69,77
70,81
71,83
72,88
73,90
74,92
75,96
76,102
77,104
78,107
79,113
80,116
