0,1
1,1
2,1
3,1
4,1
5,1
6,2
7,2
8,3
9,3
10,9
11,12
12,13
13,15
14,20
15,22
16,29
17,34
18,40
19,43
20,49
21,54
22,59
23,69
24,74
25,80
26,85
27,92
28,98
29,102
30,105
31,114
32,120
33,126
34,132
35,135
36,138
37,152
38,159
39,163
40,168
41,175
42,189
43,195
44,202
45,218
46,226
47,235
48,248
49,256
50,268
51,282
52,293
53,298
54,305
55,320
56,336
57,343
58,348
59,366
60,378
61,394
62,411
63,424
64,438
65,449
66,465
67,482
68,497
69,513
70,526
71,541
72,565
73,591
74,607
75,619
76,638
77,657
78,683
79,709
80,733
