0,1
1,1
2,1
3,2
4,3
5,3
6,3
7,4
8,5
9,6
10,8
11,9
12,11
13,11
14,12
15,15
16,15
17,16
18,17
19,18
20,21
21,23
22,23
23,26
24,28
25,29
26,33
27,33
28,36
29,37
30,45
31,47
32,50
33,53
34,60
35,65
36,69
37,80
38,87
39,94
40,103
41,119
42,134
43,148
44,158
45,178
46,191
47,204
48,217
49,241
50,254
51,276
52,297
53,325
54,348
55,363
56,385
57,399
58,423
59,455
60,482
61,506
62,532
63,570
64,595
65,622
66,654
67,690
68,729
69,768
70,806
71,846
72,887
73,938
74,984
75,1043
76,1114
77,1165
78,1226
79,1283
80,1354
