0,1
1,1
2,1
3,1
4,1
5,2
6,2
7,2
8,2
9,3
10,3
11,3
12,3
13,3
14,3
15,3
16,3
17,4
18,4
19,4
20,4
21,6
22,6
23,7
24,7
25,7
26,7
27,7
28,8
29,9
30,9
31,9
32,9
33,9
34,11
35,11
36,12
37,13
38,15
39,17
40,19
41,19
42,20
43,24
44,24
45,26
46,27
47,28
48,29
49,31
50,32
51,34
52,36
53,36
54,37
55,39
56,42
57,45
58,46
59,48
60,49
61,50
62,50
63,52
64,52
65,53
66,53
67,53
68,53
69,54
70,55
71,55
72,55
73,55
74,55
75,56
76,56
77,56
78,57
79,57
80,57
