0,1
1,1
2,1
3,1
4,2
5,2
6,3
7,4
8,4
9,5
10,5
11,6
12,7
13,9
14,9
15,11
16,12
17,16
18,16
19,19
20,21
21,23
22,24
23,27
24,30
25,30
26,33
27,38
28,40
29,44
30,46
31,47
32,53
33,57
34,60
35,64
36,67
37,68
38,69
39,72
40,75
41,76
42,84
43,87
44,94
45,101
46,104
47,117
48,128
49,134
50,143
51,152
52,160
53,170
54,183
55,192
56,210
57,225
58,237
59,252
60,269
61,286
62,306
63,331
64,356
65,375
66,389
67,410
68,439
69,470
70,487
71,509
72,551
73,585
74,619
75,648
76,683
77,724
78,755
79,788
80,835
