0,1
1,1
2,1
3,2
4,5
5,6
6,9
7,15
8,17
9,23
10,29
11,37
12,41
13,48
14,53
15,62
16,67
17,69
18,77
19,85
20,96
21,109
22,119
23,130
24,141
25,149
26,162
27,176
28,188
29,204
30,220
31,232
32,243
33,258
34,272
35,287
36,304
37,325
38,346
39,363
40,381
41,397
42,420
43,448
44,477
45,499
46,530
47,561
48,597
49,630
50,663
51,709
52,759
53,796
54,846
55,899
56,964
57,1017
58,1071
59,1151
60,1217
61,1302
62,1374
63,1446
64,1526
65,1610
66,1700
67,1807
68,1906
69,2013
70,2140
71,2268
72,2396
73,2520
74,2682
75,2870
76,3018
77,3190
78,3401
79,3577
80,3777
