0,1
1,1
2,1
3,1
4,1
5,3
6,3
7,3
8,3
9,4
10,8
11,10
12,12
13,14
14,15
15,19
16,22
17,24
18,32
19,35
20,39
21,44
22,45
23,49
24,57
25,59
26,64
27,69
28,73
29,84
30,94
31,103
32,116
33,135
34,146
35,151
36,160
37,170
38,179
39,192
40,205
41,222
42,239
43,251
44,269
45,278
46,294
47,304
48,327
49,350
50,361
51,380
52,398
53,416
54,442
55,458
56,476
57,503
58,532
59,565
60,598
61,628
62,657
63,679
64,723
65,759
66,797
67,831
68,868
69,906
70,946
71,987
72,1031
73,1091
74,1148
75,1210
76,1276
77,1334
78,1406
79,1472
80,1564
