0,1
1,1
2,1
3,3
4,3
5,3
6,3
7,4
8,5
9,6
10,7
11,7
12,9
13,11
14,11
15,12
16,13
17,16
18,17
19,19
20,24
21,25
22,29
23,29
24,31
25,34
26,36
27,38
28,41
29,43
30,45
31,51
32,54
33,56
34,62
35,65
36,69
37,71
38,74
39,75
40,82
41,86
42,90
43,90
44,94
45,102
46,105
47,112
48,120
49,125
50,133
51,143
52,147
53,150
54,161
55,176
56,189
57,199
58,211
59,225
60,239
61,254
62,276
63,298
64,320
65,342
66,361
67,394
68,415
69,443
70,468
71,496
72,524
73,568
74,597
75,628
76,658
77,701
78,745
79,788
80,835
