0,1
1,1
2,1
3,1
4,3
5,3
6,3
7,6
8,8
9,10
10,14
11,15
12,17
13,18
14,20
15,21
16,21
17,22
18,24
19,26
20,27
21,31
22,32
23,32
24,37
25,39
26,40
27,44
28,44
29,47
30,51
31,51
32,52
33,53
34,55
35,56
36,59
37,61
38,62
39,64
40,66
41,67
42,69
43,73
44,76
45,79
46,79
47,81
48,83
49,86
50,89
51,93
52,94
53,95
54,98
55,99
56,101
57,103
58,105
59,107
60,108
61,109
62,111
63,113
64,117
65,120
66,123
67,128
68,131
69,137
70,141
71,147
72,153
73,157
74,161
75,169
76,177
77,179
78,186
79,192
80,202
