0,1
1,1
2,1
3,2
4,2
5,2
6,2
7,2
8,2
9,2
10,2
11,2
12,2
13,3
14,3
15,3
16,4
17,5
18,5
19,5
20,7
21,7
22,8
23,10
24,11
25,12
26,14
27,14
28,15
29,15
30,17
31,19
32,20
33,23
34,24
35,28
36,31
37,36
38,39
39,42
40,46
41,49
42,55
43,60
44,64
45,73
46,78
47,86
48,98
49,111
50,115
51,121
52,137
53,148
54,155
55,164
56,176
57,181
58,191
59,206
60,215
61,229
62,240
63,250
64,270
65,279
66,289
67,297
68,312
69,326
70,343
71,358
72,376
73,394
74,412
75,423
76,443
77,461
78,478
79,495
80,513
