0,1
1,1
2,1
3,1
4,1
5,2
6,3
7,3
8,4
9,4
10,5
11,5
12,5
13,5
14,5
15,5
16,6
17,6
18,6
19,7
20,7
21,7
22,7
23,8
24,8
25,8
26,8
27,9
28,9
29,10
30,10
31,10
32,11
33,12
34,12
35,13
36,13
37,14
38,15
39,17
40,17
41,18
42,18
43,18
44,20
45,20
46,22
47,23
48,23
49,24
50,24
51,24
52,24
53,24
54,25
55,26
56,26
57,26
58,28
59,28
60,28
61,29
62,29
63,29
64,31
65,31
66,31
67,32
68,34
69,34
70,34
71,34
72,35
73,36
74,36
75,36
76,37
77,37
78,37
79,37
80,38
