0,1
1,1
2,1
3,1
4,2
5,3
6,3
7,5
8,5
9,6
10,7
11,8
12,8
13,9
14,9
15,10
16,10
17,10
18,11
19,11
20,12
21,12
22,12
23,13
24,14
25,15
26,15
27,16
28,17
29,17
30,17
31,18
32,19
33,19
34,21
35,23
36,24
37,24
38,25
39,28
40,32
41,32
42,34
43,39
44,40
45,44
46,46
47,52
48,59
49,65
50,77
51,81
52,88
53,98
54,107
55,125
56,136
57,144
58,155
59,164
60,179
61,190
62,204
63,231
64,245
65,260
66,276
67,293
68,314
69,335
70,353
71,375
72,388
73,404
74,432
75,450
76,471
77,499
78,519
79,547
80,586
