0,1
1,1
2,1
3,1
4,1
5,2
6,3
7,3
8,4
9,4
10,4
11,6
12,6
13,9
14,10
15,11
16,12
17,13
18,14
19,16
20,16
21,19
22,21
23,26
24,28
25,32
26,37
27,40
28,45
29,47
30,57
31,64
32,70
33,83
34,88
35,95
36,102
37,113
38,123
39,136
40,148
41,161
42,178
43,187
44,197
45,210
46,225
47,242
48,256
49,275
50,298
51,320
52,338
53,362
54,382
55,411
56,451
57,487
58,522
59,561
60,603
61,638
62,687
63,724
64,762
65,822
66,866
67,919
68,977
69,1037
70,1105
71,1183
72,1250
73,1326
74,1410
75,1518
76,1610
77,1695
78,1788
79,1894
80,2015
