0,1
1,1
2,1
3,1
4,1
5,1
6,2
7,3
8,3
9,3
10,3
11,3
12,3
13,3
14,4
15,4
16,4
17,4
18,5
19,5
20,5
21,5
22,7
23,7
24,7
25,7
26,7
27,7
28,8
29,8
30,8
31,9
32,9
33,9
34,9
35,9
36,9
37,10
38,11
39,11
40,12
41,13
42,13
43,13
44,14
45,15
46,16
47,17
48,18
49,18
50,18
51,18
52,19
53,20
54,21
55,22
56,23
57,23
58,23
59,26
60,27
61,30
62,31
63,32
64,33
65,36
66,37
67,39
68,42
69,45
70,45
71,46
72,49
73,51
74,51
75,57
76,64
77,65
78,68
79,73
80,74
