0,1
1,1
2,1
3,1
4,4
5,4
6,4
7,4
8,6
9,7
10,8
11,8
12,9
13,9
14,10
15,10
16,11
17,12
18,14
19,17
20,19
21,19
22,20
23,23
24,25
25,26
26,28
27,32
28,34
29,36
30,37
31,44
32,47
33,48
34,54
35,56
36,60
37,64
38,67
39,70
40,80
41,82
42,85
43,92
44,98
45,104
46,111
47,118
48,128
49,134
50,145
51,155
52,169
53,178
54,187
55,192
56,207
57,224
58,236
59,246
60,255
61,270
62,277
63,300
64,321
65,339
66,350
67,365
68,386
69,417
70,439
71,463
72,483
73,510
74,538
75,568
76,601
77,638
78,658
79,685
80,720
