0,1
1,1
2,2
3,2
4,3
5,5
6,6
7,6
8,6
9,6
10,7
11,9
12,9
13,10
14,10
15,11
16,11
17,12
18,13
19,16
20,16
21,16
22,16
23,17
24,18
25,18
26,19
27,21
28,23
29,25
30,26
31,26
32,27
33,28
34,28
35,28
36,28
37,28
38,28
39,29
40,31
41,32
42,32
43,32
44,32
45,32
46,32
47,34
48,35
49,36
50,36
51,37
52,38
53,38
54,38
55,38
56,39
57,39
58,39
59,39
60,41
61,43
62,46
63,47
64,48
65,49
66,53
67,53
68,56
69,58
70,59
71,61
72,63
73,64
74,69
75,77
76,81
77,84
78,89
79,91
80,95
