0,1
1,1
2,1
3,1
4,2
5,5
6,5
7,7
8,8
9,8
10,9
11,13
12,14
13,16
14,17
15,18
16,18
17,22
18,24
19,25
20,26
21,26
22,27
23,29
24,29
25,32
26,32
27,32
28,33
29,36
30,36
31,38
32,41
33,43
34,45
35,46
36,48
37,48
38,50
39,50
40,50
41,51
42,52
43,53
44,53
45,55
46,56
47,57
48,58
49,59
50,59
51,62
52,62
53,64
54,67
55,71
56,77
57,81
58,87
59,93
60,96
61,105
62,120
63,127
64,134
65,147
66,156
67,165
68,174
69,187
70,200
71,211
72,223
73,244
74,266
75,281
76,296
77,305
78,328
79,356
80,373
