0,1
1,1
2,1
3,1
4,1
5,2
6,3
7,3
8,4
9,5
10,5
11,6
12,7
13,9
14,12
15,13
16,13
17,14
18,16
19,16
20,17
21,19
22,20
23,22
24,22
25,23
26,24
27,24
28,27
29,27
30,29
31,30
32,30
33,32
34,34
35,34
36,34
37,37
38,39
39,41
40,42
41,44
42,46
43,46
44,50
45,53
46,55
47,58
48,61
49,66
50,68
51,73
52,75
53,77
54,82
55,84
56,87
57,93
58,96
59,99
60,103
61,109
62,111
63,112
64,116
65,117
66,120
67,125
68,126
69,129
70,136
71,136
72,140
73,142
74,149
75,150
76,153
77,156
78,158
79,164
80,170
