0,1
1,1
2,1
3,2
4,3
5,3
6,3
7,4
8,7
9,7
10,7
11,8
12,10
13,10
14,11
15,11
16,13
17,13
18,14
19,14
20,14
21,17
22,18
23,19
24,20
25,22
26,24
27,24
28,28
29,29
30,32
31,37
32,39
33,43
34,46
35,49
36,56
37,58
38,63
39,69
40,74
41,79
42,88
43,96
44,103
45,110
46,118
47,124
48,132
49,138
50,145
51,155
52,161
53,175
54,179
55,188
56,201
57,207
58,219
59,229
60,241
61,248
62,260
63,274
64,286
65,292
66,308
67,318
68,326
69,337
70,349
71,359
72,365
73,384
74,401
75,419
76,436
77,449
78,464
79,476
80,497
