0,1
1,1
2,1
3,1
4,1
5,1
6,2
7,3
8,6
9,6
10,6
11,6
12,9
13,10
14,13
15,14
16,15
17,18
18,22
19,23
20,24
21,26
22,29
23,30
24,36
25,37
26,42
27,48
28,53
29,60
30,65
31,72
32,74
33,80
34,88
35,98
36,104
37,109
38,113
39,121
40,124
41,132
42,138
43,149
44,162
45,167
46,176
47,185
48,197
49,207
50,216
51,228
52,240
53,254
54,270
55,291
56,303
57,320
58,337
59,343
60,363
61,379
62,402
63,424
64,444
65,457
66,481
67,517
68,537
69,558
70,589
71,614
72,644
73,675
74,708
75,747
76,781
77,833
78,884
79,933
80,983
