0,1
1,1
2,1
3,1
4,1
5,2
6,2
7,3
8,4
9,5
10,6
11,6
12,8
13,8
14,8
15,9
16,9
17,9
18,11
19,12
20,13
21,14
22,14
23,14
24,15
25,17
26,17
27,17
28,19
29,19
30,20
31,21
32,22
33,26
34,26
35,31
36,36
37,40
38,41
39,47
40,50
41,56
42,58
43,63
44,67
45,72
46,78
47,82
48,94
49,106
50,114
51,124
52,131
53,141
54,154
55,162
56,173
57,181
58,193
59,199
60,217
61,236
62,245
63,259
64,274
65,292
66,307
67,322
68,346
69,377
70,401
71,429
72,455
73,483
74,514
75,546
76,570
77,605
78,634
79,668
80,710
