0,1
1,1
2,2
3,3
4,4
5,4
6,4
7,6
8,7
9,7
10,7
11,10
12,10
13,11
14,11
15,12
16,13
17,16
18,16
19,18
20,18
21,21
22,23
23,25
24,27
25,28
26,32
27,35
28,39
29,44
30,49
31,54
32,59
33,64
34,70
35,78
36,82
37,89
38,99
39,106
40,114
41,118
42,123
43,132
44,138
45,147
46,155
47,163
48,178
49,191
50,208
51,223
52,237
53,260
54,277
55,292
56,306
57,332
58,351
59,381
60,404
61,428
62,457
63,497
64,533
65,577
66,601
67,644
68,700
69,743
70,785
71,828
72,875
73,938
74,983
75,1044
76,1113
77,1191
78,1265
79,1341
80,1414
