0,1
1,1
2,1
3,1
4,3
5,7
6,7
7,7
8,10
9,11
10,12
11,13
12,14
13,17
14,22
15,22
16,24
17,28
18,33
19,33
20,33
21,38
22,42
23,45
24,48
25,49
26,56
27,59
28,63
29,67
30,70
31,73
32,79
33,81
34,85
35,87
36,93
37,97
38,104
39,108
40,111
41,115
42,119
43,123
44,126
45,130
46,134
47,137
48,142
49,147
50,154
51,157
52,160
53,164
54,167
55,170
56,176
57,180
58,184
59,186
60,190
61,192
62,202
63,208
64,214
65,218
66,221
67,225
68,232
69,236
70,240
71,245
72,252
73,259
74,265
75,268
76,271
77,277
78,286
79,290
80,296
