0,1
1,1
2,1
3,1
4,2
5,3
6,5
7,5
8,5
9,8
10,11
11,13
12,18
13,20
14,20
15,23
16,26
17,26
18,31
19,36
20,40
21,44
22,49
23,52
24,55
25,62
26,65
27,68
28,71
29,74
30,82
31,84
32,89
33,96
34,102
35,110
36,118
37,125
38,134
39,147
40,154
41,163
42,171
43,182
44,195
45,204
46,218
47,235
48,250
49,262
50,278
51,293
52,315
53,337
54,348
55,369
56,399
57,420
58,436
59,457
60,481
61,505
62,525
63,549
64,572
65,599
66,632
67,656
68,677
69,706
70,733
71,760
72,794
73,839
74,872
75,922
76,974
77,1019
78,1056
79,1105
80,1164
