0,1
1,1
2,1
3,1
4,1
5,2
6,2
7,2
8,3
9,3
10,3
11,3
12,6
13,6
14,7
15,9
16,9
17,9
18,9
19,9
20,10
21,11
22,12
23,14
24,15
25,18
26,18
27,21
28,22
29,24
30,24
31,25
32,25
33,26
34,30
35,31
36,33
37,35
38,36
39,39
40,44
41,45
42,46
43,49
44,52
45,55
46,57
47,61
48,64
49,66
50,69
51,70
52,71
53,72
54,74
55,78
56,80
57,80
58,83
59,85
60,87
61,88
62,89
63,91
64,93
65,95
66,96
67,99
68,102
69,104
70,105
71,108
72,108
73,110
74,114
75,117
76,120
77,123
78,123
79,128
80,130
