0,1
1,1
2,1
3,1
4,1
5,1
6,1
7,3
8,3
9,3
10,3
11,4
12,4
13,5
14,6
15,7
16,8
17,8
18,8
19,10
20,10
21,11
22,12
23,12
24,14
25,14
26,15
27,18
28,20
29,20
30,23
31,24
32,25
33,25
34,25
35,30
36,30
37,30
38,34
39,38
40,40
41,42
42,47
43,51
44,54
45,57
46,60
47,63
48,66
49,70
50,75
51,82
52,87
53,91
54,97
55,107
56,113
57,117
58,130
59,139
60,152
61,160
62,168
63,173
64,181
65,188
66,195
67,200
68,216
69,226
70,233
71,242
72,253
73,263
74,275
75,293
76,307
77,321
78,334
79,358
80,372
