0,1
1,1
2,2
3,3
4,5
5,5
6,6
7,9
8,12
9,16
10,18
11,18
12,21
13,22
14,24
15,27
16,28
17,28
18,29
19,32
20,32
21,35
22,37
23,38
24,42
25,42
26,44
27,49
28,56
29,56
30,58
31,60
32,63
33,65
34,68
35,72
36,73
37,75
38,76
39,77
40,80
41,81
42,81
43,82
44,83
45,85
46,86
47,88
48,91
49,93
50,95
51,98
52,99
53,99
54,103
55,105
56,112
57,115
58,116
59,118
60,119
61,124
62,133
63,138
64,140
65,144
66,153
67,158
68,162
69,170
70,178
71,188
72,200
73,210
74,224
75,242
76,264
77,282
78,295
79,321
80,341
