0,1
1,1
2,1
3,1
4,1
5,2
6,4
7,5
8,6
9,6
10,7
11,7
12,8
13,9
14,9
15,10
16,10
17,11
18,12
19,12
20,12
21,12
22,12
23,13
24,13
25,13
26,13
27,13
28,14
29,14
30,14
31,14
32,14
33,17
34,17
35,17
36,17
37,17
38,17
39,18
40,18
41,18
42,19
43,20
44,20
45,22
46,22
47,22
48,24
49,25
50,26
51,26
52,27
53,28
54,32
55,32
56,32
57,33
58,35
59,36
60,39
61,39
62,42
63,44
64,46
65,48
66,50
67,51
68,51
69,53
70,57
71,57
72,62
73,62
74,66
75,66
76,68
77,68
78,71
79,71
80,71
