0,1
1,1
2,1
3,3
4,5
5,5
6,7
7,11
8,11
9,13
10,16
11,20
12,22
13,25
14,31
15,32
16,39
17,41
18,46
19,51
20,55
21,58
22,67
23,73
24,80
25,84
26,87
27,96
28,105
29,114
30,120
31,126
32,140
33,145
34,152
35,160
36,169
37,182
38,191
39,198
40,206
41,216
42,227
43,234
44,244
45,256
46,264
47,272
48,286
49,300
50,305
51,320
52,332
53,351
54,363
55,378
56,393
57,410
58,422
59,441
60,452
61,478
62,497
63,519
64,540
65,562
66,582
67,610
68,643
69,673
70,704
71,741
72,778
73,824
74,879
75,928
76,966
77,1025
78,1099
79,1166
80,1222
