0,1
1,1
2,1
3,1
4,2
5,2
6,2
7,2
8,3
9,4
10,4
11,4
12,4
13,5
14,6
15,6
16,6
17,6
18,7
19,8
20,8
21,9
22,11
23,11
24,11
25,12
26,12
27,14
28,15
29,16
30,17
31,19
32,19
33,19
34,21
35,23
36,23
37,25
38,26
39,26
40,27
41,28
42,28
43,29
44,34
45,34
46,36
47,39
48,43
49,48
50,52
51,58
52,65
53,75
54,80
55,86
56,92
57,99
58,107
59,121
60,132
61,139
62,149
63,160
64,176
65,196
66,215
67,222
68,240
69,255
70,265
71,278
72,296
73,313
74,334
75,351
76,366
77,390
78,402
79,420
80,444
