0,1
1,1
2,1
3,2
4,2
5,2
6,2
7,2
8,2
9,2
10,3
11,3
12,3
13,3
14,3
15,3
16,4
17,4
18,4
19,5
20,6
21,6
22,8
23,8
24,9
25,9
26,10
27,10
28,11
29,11
30,12
31,13
32,15
33,15
34,15
35,17
36,17
37,17
38,17
39,18
40,21
41,21
42,22
43,23
44,23
45,24
46,25
47,25
48,29
49,30
50,34
51,35
52,35
53,37
54,38
55,39
56,42
57,44
58,45
59,52
60,53
61,57
62,65
63,67
64,73
65,79
66,86
67,90
68,101
69,110
70,126
71,142
72,155
73,174
74,193
75,205
76,219
77,249
78,276
79,295
80,320
