0,1
1,1
2,1
3,2
4,2
5,2
6,2
7,2
8,3
9,3
10,3
11,6
12,7
13,8
14,9
15,10
16,11
17,13
18,15
19,16
20,23
21,25
22,26
23,26
24,31
25,33
26,36
27,40
28,41
29,44
30,48
31,50
32,54
33,61
34,62
35,64
36,72
37,79
38,87
39,90
40,93
41,99
42,113
43,119
44,127
45,134
46,142
47,145
48,160
49,169
50,182
51,190
52,202
53,207
54,217
55,229
56,240
57,249
58,255
59,264
60,270
61,277
62,288
63,301
64,311
65,326
66,346
67,361
68,374
69,400
70,421
71,437
72,460
73,480
74,512
75,539
76,563
77,585
78,610
79,647
80,693
