0,1
1,1
2,1
3,1
4,1
5,2
6,2
7,2
8,2
9,3
10,3
11,4
12,4
13,6
14,6
15,6
16,6
17,7
18,8
19,10
20,10
21,10
22,11
23,12
24,13
25,13
26,14
27,15
28,15
29,15
30,16
31,16
32,16
33,17
34,18
35,18
36,19
37,22
38,25
39,27
40,28
41,30
42,37
43,44
44,48
45,55
46,59
47,63
48,71
49,77
50,82
51,90
52,96
53,103
54,117
55,129
56,135
57,141
58,153
59,158
60,167
61,178
62,193
63,204
64,216
65,233
66,248
67,266
68,281
69,295
70,316
71,340
72,356
73,381
74,400
75,427
76,459
77,489
78,520
79,544
80,575
