0,1
1,1
2,1
3,2
4,4
5,5
6,6
7,7
8,8
9,10
10,11
11,12
12,13
13,15
14,16
15,17
16,18
17,20
18,22
19,29
20,34
21,36
22,41
23,45
24,49
25,55
26,60
27,65
28,70
29,81
30,85
31,87
32,96
33,104
34,115
35,118
36,130
37,135
38,142
39,153
40,157
41,164
42,176
43,190
44,206
45,216
46,226
47,240
48,252
49,274
50,284
51,297
52,310
53,331
54,343
55,363
56,382
57,398
58,412
59,434
60,451
61,472
62,497
63,517
64,545
65,571
66,610
67,635
68,670
69,701
70,737
71,795
72,826
73,857
74,903
75,960
76,1019
77,1068
78,1123
79,1186
80,1251
