0,1
1,1
2,1
3,1
4,2
5,2
6,3
7,3
8,4
9,5
10,5
11,5
12,6
13,6
14,6
15,6
16,7
17,8
18,9
19,10
20,10
21,13
22,14
23,16
24,20
25,23
26,24
27,27
28,30
29,30
30,31
31,32
32,32
33,33
34,36
35,39
36,42
37,42
38,45
39,48
40,52
41,55
42,55
43,57
44,57
45,61
46,65
47,66
48,69
49,72
50,76
51,81
52,81
53,83
54,87
55,93
56,97
57,101
58,102
59,107
60,115
61,119
62,124
63,127
64,134
65,145
66,147
67,151
68,155
69,164
70,174
71,181
72,189
73,199
74,209
75,218
76,228
77,240
78,258
79,269
80,282
