0,1
1,1
2,2
3,2
4,3
5,4
6,4
7,4
8,4
9,5
10,6
11,6
12,8
13,8
14,8
15,9
16,9
17,10
18,11
19,13
20,13
21,13
22,15
23,16
24,18
25,19
26,21
27,22
28,22
29,23
30,24
31,26
32,28
33,29
34,33
35,36
36,37
37,41
38,41
39,42
40,44
41,46
42,47
43,49
44,50
45,53
46,55
47,55
48,55
49,55
50,55
51,55
52,55
53,57
54,57
55,57
56,58
57,61
58,62
59,63
60,66
61,68
62,68
63,69
64,69
65,71
66,73
67,75
68,76
69,77
70,78
71,81
72,85
73,89
74,90
75,92
76,94
77,97
78,100
79,102
80,106
