0,1
1,1
2,1
3,1
4,1
5,2
6,3
7,5
8,6
9,7
10,9
11,11
12,11
13,13
14,14
15,17
16,17
17,18
18,19
19,20
20,22
21,22
22,26
23,27
24,28
25,29
26,33
27,36
28,38
29,39
30,42
31,43
32,46
33,46
34,47
35,51
36,53
37,56
38,59
39,63
40,66
41,66
42,67
43,73
44,75
45,78
46,85
47,90
48,96
49,103
50,106
51,113
52,122
53,132
54,140
55,146
56,154
57,157
58,164
59,168
60,177
61,185
62,189
63,197
64,208
65,214
66,225
67,233
68,245
69,253
70,263
71,269
72,278
73,290
74,300
75,314
76,324
77,340
78,349
79,361
80,370
