0,1
1,1
2,1
3,2
4,2
5,3
6,4
7,7
8,8
9,9
10,14
11,18
12,23
13,28
14,31
15,34
16,37
17,45
18,53
19,57
20,58
21,66
22,72
23,75
24,79
25,86
26,90
27,97
28,103
29,109
30,120
31,128
32,133
33,142
34,155
35,165
36,173
37,179
38,190
39,205
40,211
41,225
42,232
43,243
44,259
45,275
46,295
47,309
48,324
49,347
50,371
51,398
52,426
53,455
54,488
55,529
56,564
57,598
58,637
59,687
60,730
61,780
62,837
63,906
64,974
65,1035
66,1095
67,1160
68,1230
69,1310
70,1406
71,1485
72,1566
73,1672
74,1776
75,1888
76,1994
77,2103
78,2226
79,2342
80,2465
