0,1
1,1
2,1
3,1
4,2
5,2
6,2
7,4
8,5
9,5
10,7
11,9
12,15
13,17
14,20
15,28
16,35
17,41
18,48
19,56
20,67
21,77
22,84
23,94
24,108
25,120
26,132
27,148
28,160
29,173
30,188
31,204
32,224
33,238
34,257
35,266
36,283
37,296
38,312
39,325
40,344
41,365
42,397
43,419
44,442
45,478
46,508
47,546
48,574
49,618
50,659
51,699
52,762
53,810
54,865
55,922
56,976
57,1043
58,1114
59,1189
60,1271
61,1365
62,1431
63,1531
64,1617
65,1726
66,1843
67,1955
68,2084
69,2201
70,2325
71,2480
72,2628
73,2770
74,2934
75,3102
76,3260
77,3461
78,3647
79,3854
80,4055
