0,1
1,1
2,1
3,2
4,2
5,2
6,4
7,4
8,4
9,5
10,9
11,12
12,12
13,16
14,17
15,18
16,22
17,25
18,28
19,31
20,33
21,37
22,40
23,49
24,58
25,64
26,69
27,74
28,83
29,92
30,98
31,110
32,118
33,130
34,145
35,157
36,173
37,186
38,195
39,208
40,221
41,233
42,254
43,271
44,295
45,312
46,339
47,358
48,390
49,423
50,449
51,485
52,530
53,564
54,595
55,634
56,665
57,706
58,738
59,780
60,835
61,886
62,925
63,973
64,1025
65,1073
66,1135
67,1183
68,1247
69,1302
70,1369
71,1436
72,1501
73,1587
74,1648
75,1715
76,1812
77,1896
78,1979
79,2074
80,2180
