0,1
1,1
2,1
3,1
4,1
5,2
6,4
7,7
8,7
9,9
10,11
11,11
12,13
13,13
14,16
15,19
16,21
17,23
18,23
19,27
20,27
21,31
22,32
23,34
24,34
25,36
26,38
27,40
28,41
29,42
30,45
31,46
32,46
33,47
34,50
35,50
36,51
37,51
38,52
39,57
40,58
41,59
42,60
43,61
44,62
45,64
46,67
47,69
48,71
49,72
50,81
51,82
52,84
53,87
54,90
55,93
56,100
57,113
58,120
59,129
60,132
61,139
62,145
63,152
64,158
65,166
66,171
67,174
68,179
69,184
70,189
71,199
72,206
73,218
74,225
75,235
76,244
77,252
78,264
79,275
80,287
