0,1
1,1
2,1
3,1
4,1
5,2
6,2
7,2
8,2
9,4
10,6
11,6
12,6
13,8
14,9
15,9
16,12
17,12
18,12
19,15
20,16
21,17
22,20
23,23
24,32
25,35
26,38
27,46
28,49
29,52
30,57
31,64
32,69
33,78
34,81
35,85
36,91
37,96
38,103
39,108
40,110
41,119
42,130
43,135
44,145
45,150
46,159
47,165
48,170
49,183
50,197
51,207
52,221
53,230
54,239
55,251
56,267
57,277
58,292
59,301
60,318
61,339
62,355
63,376
64,402
65,434
66,458
67,489
68,523
69,553
70,589
71,617
72,649
73,690
74,733
75,782
76,835
77,887
78,941
79,986
80,1042
