0,1
1,1
2,1
3,1
4,2
5,3
6,3
7,3
8,3
9,7
10,7
11,7
12,9
13,10
14,13
15,13
16,13
17,15
18,16
19,18
20,22
21,23
22,24
23,24
24,24
25,26
26,27
27,28
28,31
29,31
30,31
31,35
32,37
33,39
34,43
35,46
36,49
37,53
38,54
39,57
40,61
41,67
42,71
43,75
44,79
45,83
46,90
47,93
48,96
49,103
50,110
51,113
52,114
53,130
54,134
55,137
56,147
57,154
58,169
59,179
60,188
61,197
62,210
63,227
64,241
65,258
66,272
67,290
68,305
69,324
70,353
71,373
72,400
73,422
74,446
75,477
76,514
77,550
78,583
79,618
80,667
