0,1
1,1
2,1
3,1
4,2
5,2
6,4
7,5
8,6
9,8
10,8
11,10
12,10
13,10
14,12
15,15
16,18
17,18
18,19
19,20
20,23
21,27
22,30
23,32
24,38
25,42
26,44
27,49
28,53
29,58
30,65
31,71
32,81
33,87
34,96
35,105
36,109
37,116
38,126
39,131
40,135
41,148
42,158
43,172
44,180
45,184
46,195
47,211
48,218
49,231
50,242
51,250
52,264
53,276
54,290
55,301
56,313
57,320
58,329
59,339
60,354
61,367
62,375
63,383
64,398
65,408
66,426
67,432
68,455
69,474
70,492
71,510
72,526
73,547
74,565
75,585
76,611
77,631
78,653
79,668
80,698
