0,1
1,1
2,1
3,2
4,2
5,2
6,2
7,4
8,4
9,4
10,6
11,7
12,8
13,9
14,9
15,11
16,13
17,15
18,18
19,24
20,25
21,28
22,30
23,34
24,37
25,40
26,44
27,45
28,46
29,50
30,58
31,62
32,63
33,67
34,72
35,75
36,81
37,87
38,91
39,96
40,99
41,106
42,116
43,121
44,131
45,141
46,150
47,160
48,173
49,181
50,193
51,208
52,219
53,229
54,240
55,259
56,273
57,288
58,307
59,327
60,348
61,367
62,387
63,418
64,437
65,467
66,503
67,541
68,576
69,630
70,681
71,716
72,767
73,819
74,881
75,948
76,1008
77,1075
78,1149
79,1221
80,1287
