0,1
1,1
2,2
3,2
4,2
5,5
6,7
7,7
8,9
9,11
10,11
11,13
12,13
13,14
14,17
15,19
16,22
17,23
18,24
19,28
20,31
21,32
22,36
23,39
24,43
25,45
26,50
27,51
28,55
29,61
30,66
31,71
32,77
33,81
34,87
35,93
36,100
37,109
38,115
39,122
40,126
41,137
42,144
43,149
44,153
45,164
46,176
47,189
48,197
49,203
50,213
51,223
52,233
53,244
54,258
55,266
56,281
57,295
58,316
59,335
60,352
61,372
62,396
63,412
64,431
65,457
66,477
67,499
68,525
69,549
70,580
71,611
72,647
73,677
74,706
75,753
76,790
77,827
78,856
79,888
80,930
