0,1
1,1
2,1
3,1
4,1
5,1
6,2
7,2
8,2
9,3
10,3
11,5
12,5
13,5
14,6
15,6
16,6
17,6
18,7
19,9
20,9
21,11
22,12
23,13
24,15
25,16
26,18
27,22
28,22
29,25
30,29
31,31
32,33
33,34
34,35
35,38
36,43
37,47
38,47
39,49
40,57
41,62
42,65
43,69
44,73
45,76
46,82
47,87
48,95
49,109
50,111
51,122
52,133
53,144
54,158
55,171
56,182
57,202
58,217
59,233
60,243
61,265
62,293
63,312
64,332
65,352
66,390
67,419
68,448
69,473
70,500
71,535
72,570
73,607
74,642
75,678
76,722
77,773
78,824
79,872
80,927
