0,1
1,1
2,1
3,1
4,1
5,1
6,3
7,3
8,3
9,3
10,3
11,3
12,4
13,4
14,4
15,4
16,4
17,5
18,6
19,8
20,8
21,8
22,10
23,11
24,11
25,11
26,11
27,11
28,12
29,12
30,12
31,12
32,12
33,12
34,12
35,13
36,13
37,13
38,13
39,14
40,14
41,15
42,15
43,16
44,16
45,17
46,18
47,19
48,19
49,20
50,23
51,27
52,29
53,29
54,29
55,30
56,30
57,31
58,33
59,33
60,34
61,36
62,36
63,38
64,39
65,41
66,42
67,45
68,46
69,48
70,49
71,52
72,55
73,59
74,59
75,64
76,66
77,74
78,77
79,80
80,82
