0,1
1,1
2,1
3,1
4,1
5,1
6,2
7,2
8,3
9,3
10,5
11,8
12,9
13,10
14,10
15,11
16,13
17,15
18,16
19,18
20,19
21,21
22,23
23,25
24,26
25,29
26,31
27,35
28,37
29,40
30,44
31,49
32,56
33,62
34,69
35,70
36,76
37,81
38,83
39,91
40,98
41,106
42,112
43,118
44,124
45,134
46,136
47,141
48,148
49,151
50,156
51,164
52,168
53,171
54,176
55,179
56,188
57,197
58,203
59,210
60,220
61,230
62,246
63,258
64,271
65,287
66,304
67,322
68,340
69,359
70,379
71,399
72,426
73,451
74,486
75,510
76,528
77,555
78,587
79,614
80,641
