0,1
1,1
2,1
3,1
4,5
5,6
6,7
7,8
8,10
9,12
10,16
11,16
12,18
13,22
14,23
15,27
16,29
17,35
18,39
19,43
20,46
21,49
22,57
23,67
24,69
25,78
26,80
27,86
28,92
29,97
30,103
31,106
32,110
33,114
34,123
35,128
36,135
37,139
38,145
39,151
40,158
41,166
42,179
43,188
44,198
45,209
46,219
47,233
48,255
49,267
50,278
51,299
52,319
53,338
54,368
55,389
56,410
57,434
58,464
59,495
60,525
61,566
62,600
63,637
64,665
65,712
66,753
67,795
68,840
69,889
70,954
71,1008
72,1064
73,1132
74,1202
75,1286
76,1368
77,1459
78,1540
79,1630
80,1731
