0,1
1,1
2,1
3,1
4,1
5,2
6,2
7,2
8,2
9,3
10,3
11,4
12,4
13,5
14,5
15,5
16,5
17,5
18,5
19,5
20,5
21,5
22,7
23,7
24,7
25,7
26,7
27,7
28,8
29,8
30,8
31,8
32,11
33,12
34,12
35,12
36,12
37,12
38,13
39,13
40,13
41,14
42,14
43,14
44,14
45,19
46,19
47,20
48,24
49,24
50,24
51,26
52,29
53,32
54,34
55,35
56,36
57,39
58,42
59,43
60,45
61,45
62,46
63,49
64,50
65,53
66,55
67,57
68,62
69,67
70,71
71,77
72,82
73,86
74,94
75,97
76,102
77,105
78,112
79,119
80,124
