0,1
1,1
2,1
3,1
4,2
5,2
6,4
7,4
8,5
9,6
10,9
11,10
12,12
13,13
14,14
15,20
16,22
17,23
18,23
19,29
20,33
21,36
22,40
23,43
24,51
25,54
26,60
27,65
28,69
29,73
30,76
31,81
32,87
33,90
34,96
35,104
36,113
37,119
38,133
39,143
40,154
41,162
42,165
43,179
44,190
45,199
46,209
47,224
48,236
49,248
50,258
51,277
52,294
53,308
54,320
55,346
56,365
57,384
58,415
59,442
60,475
61,508
62,538
63,576
64,609
65,644
66,694
67,730
68,782
69,826
70,891
71,936
72,991
73,1041
74,1111
75,1157
76,1210
77,1282
78,1339
79,1398
80,1470
