0,1
1,1
2,1
3,2
4,2
5,3
6,4
7,4
8,6
9,6
10,7
11,7
12,7
13,9
14,11
15,12
16,15
17,17
18,18
19,19
20,19
21,21
22,23
23,25
24,27
25,27
26,29
27,30
28,32
29,34
30,34
31,37
32,37
33,39
34,39
35,40
36,42
37,44
38,45
39,47
40,49
41,50
42,51
43,55
44,59
45,60
46,62
47,68
48,72
49,75
50,80
51,81
52,84
53,85
54,87
55,90
56,93
57,97
58,100
59,101
60,106
61,112
62,115
63,116
64,119
65,126
66,131
67,138
68,141
69,150
70,156
71,167
72,173
73,175
74,180
75,184
76,193
77,202
78,211
79,218
80,226
