0,1
1,1
2,1
3,1
4,1
5,1
6,1
7,2
8,2
9,2
10,2
11,2
12,3
13,3
14,3
15,4
16,4
17,5
18,5
19,6
20,6
21,6
22,8
23,9
24,9
25,9
26,10
27,14
28,15
29,16
30,16
31,16
32,16
33,17
34,17
35,17
36,18
37,19
38,19
39,20
40,20
41,21
42,22
43,23
44,23
45,25
46,25
47,25
48,25
49,26
50,26
51,27
52,27
53,27
54,30
55,31
56,33
57,33
58,33
59,33
60,33
61,33
62,33
63,33
64,33
65,33
66,33
67,33
68,34
69,34
70,35
71,35
72,36
73,36
74,37
75,38
76,40
77,41
78,41
79,43
80,44
