0,1
1,1
2,1
3,1
4,2
5,3
6,3
7,4
8,4
9,4
10,5
11,5
12,5
13,5
14,6
15,7
16,7
17,7
18,7
19,8
20,9
21,9
22,9
23,9
24,9
25,11
26,11
27,11
28,11
29,11
30,11
31,13
32,14
33,14
34,15
35,15
36,17
37,17
38,17
39,17
40,17
41,18
42,18
43,18
44,18
45,19
46,19
47,19
48,20
49,20
50,20
51,23
52,24
53,25
54,26
55,26
56,28
57,28
58,29
59,29
60,30
61,31
62,31
63,33
64,33
65,33
66,34
67,35
68,35
69,36
70,37
71,38
72,39
73,40
74,41
75,45
76,45
77,45
78,47
79,48
80,48
