0,1
1,1
2,1
3,1
4,1
5,2
6,2
7,2
8,3
9,3
10,3
11,3
12,3
13,3
14,4
15,4
16,4
17,4
18,4
19,4
20,5
21,5
22,5
23,5
24,5
25,5
26,5
27,6
28,6
29,7
30,7
31,10
32,12
33,12
34,13
35,16
36,18
37,20
38,23
39,25
40,26
41,31
42,35
43,38
44,44
45,46
46,47
47,51
48,54
49,62
50,65
51,71
52,73
53,78
54,86
55,95
56,99
57,104
58,113
59,119
60,125
61,133
62,143
63,152
64,159
65,166
66,180
67,189
68,213
69,221
70,237
71,248
72,267
73,277
74,297
75,318
76,332
77,358
78,384
79,403
80,431
