0,1
1,1
2,1
3,1
4,3
5,5
6,6
7,8
8,11
9,13
10,13
11,16
12,18
13,20
14,27
15,29
16,30
17,33
18,33
19,35
20,37
21,41
22,43
23,44
24,46
25,50
26,52
27,53
28,56
29,61
30,63
31,66
32,70
33,75
34,78
35,83
36,88
37,94
38,98
39,104
40,112
41,116
42,125
43,131
44,135
45,144
46,152
47,166
48,177
49,191
50,202
51,220
52,234
53,249
54,273
55,292
56,308
57,328
58,347
59,372
60,401
61,422
62,447
63,470
64,498
65,539
66,575
67,618
68,655
69,690
70,723
71,752
72,798
73,836
74,878
75,926
76,979
77,1028
78,1095
79,1153
80,1223
