0,1
1,1
2,1
3,1
4,1
5,1
6,1
7,1
8,3
9,3
10,3
11,4
12,4
13,5
14,7
15,9
16,10
17,11
18,12
19,14
20,15
21,17
22,20
23,20
24,21
25,24
26,25
27,29
28,31
29,34
30,36
31,42
32,44
33,47
34,51
35,55
36,56
37,60
38,64
39,70
40,72
41,76
42,81
43,87
44,92
45,98
46,102
47,106
48,117
49,122
50,131
51,142
52,147
53,150
54,155
55,160
56,168
57,177
58,183
59,190
60,202
61,211
62,223
63,228
64,239
65,251
66,259
67,267
68,284
69,291
70,302
71,323
72,331
73,346
74,363
75,384
76,398
77,419
78,438
79,456
80,496
