0,1
1,1
2,1
3,1
4,1
5,1
6,1
7,1
8,1
9,2
10,3
11,3
12,3
13,3
14,3
15,5
16,5
17,5
18,7
19,8
20,9
21,12
22,14
23,16
24,17
25,22
26,24
27,28
28,31
29,31
30,33
31,33
32,35
33,36
34,38
35,39
36,43
37,43
38,46
39,47
40,51
41,52
42,57
43,60
44,62
45,66
46,69
47,72
48,77
49,81
50,86
51,91
52,94
53,104
54,111
55,125
56,142
57,150
58,157
59,167
60,183
61,197
62,214
63,230
64,248
65,261
66,275
67,290
68,302
69,316
70,331
71,351
72,367
73,390
74,406
75,434
76,459
77,486
78,509
79,532
80,557
