0,1
1,1
2,1
3,1
4,2
5,3
6,3
7,3
8,4
9,4
10,5
11,6
12,7
13,7
14,8
15,8
16,8
17,8
18,11
19,11
20,14
21,14
22,15
23,17
24,17
25,18
26,20
27,20
28,22
29,23
30,24
31,24
32,24
33,24
34,26
35,26
36,26
37,29
38,29
39,30
40,30
41,30
42,31
43,32
44,32
45,32
46,33
47,35
48,35
49,35
50,36
51,36
52,38
53,42
54,47
55,49
56,50
57,53
58,53
59,61
60,64
61,67
62,70
63,72
64,77
65,81
66,84
67,92
68,95
69,101
70,107
71,115
72,127
73,132
74,141
75,147
76,162
77,175
78,181
79,193
80,208
