0,1
1,1
2,1
3,1
4,1
5,1
6,2
7,3
8,4
9,4
10,4
11,7
12,7
13,9
14,12
15,15
16,15
17,16
18,18
19,20
20,22
21,24
22,27
23,29
24,31
25,32
26,35
27,39
28,41
29,42
30,48
31,50
32,52
33,53
34,57
35,60
36,67
37,69
38,71
39,74
40,77
41,81
42,83
43,84
44,86
45,93
46,97
47,102
48,106
49,106
50,111
51,113
52,115
53,116
54,119
55,124
56,125
57,128
58,133
59,138
60,140
61,147
62,150
63,156
64,160
65,165
66,177
67,181
68,187
69,191
70,194
71,199
72,205
73,211
74,219
75,231
76,238
77,243
78,252
79,266
80,277
