0,1
1,1
2,1
3,1
4,1
5,2
6,3
7,3
8,4
9,4
10,4
11,5
12,5
13,7
14,9
15,9
16,9
17,9
18,10
19,11
20,13
21,14
22,14
23,15
24,17
25,17
26,17
27,17
28,19
29,21
30,22
31,23
32,26
33,28
34,28
35,30
36,35
37,35
38,36
39,38
40,43
41,46
42,48
43,51
44,56
45,60
46,63
47,68
48,69
49,75
50,84
51,89
52,92
53,97
54,103
55,107
56,115
57,121
58,135
59,144
60,150
61,163
62,176
63,185
64,200
65,212
66,226
67,239
68,256
69,273
70,287
71,310
72,333
73,351
74,370
75,388
76,408
77,431
78,453
79,474
80,504
