0,1
1,1
2,1
3,1
4,1
5,2
6,3
7,3
8,3
9,4
10,8
11,11
12,13
13,14
14,15
15,16
16,18
17,18
18,19
19,20
20,21
21,23
22,23
23,23
24,24
25,26
26,27
27,27
28,29
29,30
30,30
31,30
32,31
33,32
34,32
35,32
36,34
37,34
38,37
39,37
40,39
41,39
42,40
43,41
44,41
45,41
46,41
47,41
48,42
49,43
50,43
51,43
52,43
53,44
54,44
55,44
56,45
57,45
58,45
59,46
60,47
61,47
62,47
63,48
64,50
65,51
66,53
67,53
68,53
69,53
70,54
71,55
72,55
73,55
74,55
75,55
76,56
77,56
78,56
79,56
80,56
