0,1
1,1
2,1
3,2
4,3
5,3
6,4
7,4
8,5
9,5
10,5
11,8
12,8
13,11
14,13
15,14
16,16
17,16
18,16
19,16
20,22
21,25
22,27
23,31
24,35
25,38
26,41
27,47
28,55
29,63
30,72
31,76
32,82
33,90
34,99
35,104
36,113
37,123
38,131
39,143
40,151
41,160
42,165
43,179
44,190
45,208
46,223
47,238
48,249
49,257
50,271
51,293
52,306
53,324
54,336
55,354
56,376
57,391
58,421
59,438
60,469
61,494
62,514
63,534
64,567
65,585
66,621
67,645
68,673
69,713
70,751
71,783
72,833
73,869
74,907
75,955
76,1001
77,1057
78,1111
79,1160
80,1227
