0,1
1,1
2,1
3,1
4,2
5,2
6,2
7,2
8,4
9,5
10,8
11,9
12,12
13,15
14,20
15,25
16,26
17,30
18,34
19,36
20,42
21,44
22,46
23,51
24,55
25,59
26,63
27,67
28,70
29,76
30,81
31,86
32,88
33,96
34,101
35,107
36,111
37,121
38,126
39,135
40,142
41,153
42,158
43,162
44,167
45,176
46,184
47,192
48,199
49,209
50,216
51,226
52,239
53,247
54,255
55,265
56,274
57,287
58,294
59,310
60,319
61,329
62,345
63,368
64,378
65,391
66,408
67,431
68,449
69,468
70,486
71,508
72,537
73,558
74,586
75,606
76,647
77,671
78,695
79,727
80,762
