0,1
1,1
2,1
3,1
4,3
5,3
6,3
7,4
8,5
9,6
10,8
11,9
12,12
13,13
14,14
15,17
16,20
17,26
18,30
19,34
20,38
21,42
22,49
23,54
24,62
25,66
26,68
27,74
28,81
29,89
30,100
31,108
32,121
33,128
34,134
35,147
36,151
37,161
38,171
39,180
40,191
41,207
42,225
43,235
44,259
45,275
46,292
47,308
48,326
49,347
50,365
51,393
52,409
53,432
54,457
55,485
56,508
57,531
58,559
59,583
60,610
61,643
62,678
63,721
64,761
65,802
66,845
67,887
68,939
69,997
70,1053
71,1120
72,1185
73,1259
74,1328
75,1410
76,1514
77,1586
78,1697
79,1801
80,1902
