0,1
1,1
2,2
3,2
4,4
5,4
6,5
7,12
8,14
9,15
10,17
11,19
12,23
13,27
14,30
15,32
16,35
17,37
18,46
19,49
20,56
21,59
22,70
23,83
24,96
25,105
26,116
27,126
28,134
29,146
30,155
31,165
32,180
33,198
34,215
35,235
36,255
37,266
38,282
39,294
40,305
41,318
42,336
43,354
44,370
45,390
46,411
47,427
48,459
49,484
50,507
51,533
52,559
53,580
54,617
55,651
56,676
57,706
58,740
59,770
60,803
61,840
62,877
63,916
64,960
65,1006
66,1044
67,1100
68,1139
69,1187
70,1237
71,1282
72,1324
73,1375
74,1438
75,1486
76,1550
77,1605
78,1655
79,1713
80,1772
