0,1
1,1
2,1
3,2
4,2
5,2
6,4
7,4
8,4
9,4
10,5
11,5
12,6
13,7
14,8
15,10
16,10
17,11
18,12
19,17
20,19
21,20
22,21
23,25
24,29
25,31
26,33
27,34
28,36
29,36
30,38
31,40
32,41
33,41
34,43
35,44
36,44
37,45
38,47
39,49
40,49
41,51
42,52
43,52
44,52
45,52
46,52
47,55
48,58
49,59
50,59
51,62
52,64
53,68
54,70
55,72
56,81
57,85
58,90
59,94
60,99
61,106
62,108
63,116
64,125
65,130
66,133
67,137
68,147
69,153
70,161
71,170
72,176
73,187
74,194
75,202
76,210
77,220
78,229
79,242
80,251
