0,1
1,1
2,1
3,1
4,2
5,2
6,2
7,2
8,3
9,5
10,5
11,6
12,6
13,8
14,8
15,8
16,9
17,10
18,10
19,10
20,11
21,11
22,11
23,12
24,12
25,12
26,13
27,14
28,14
29,16
30,18
31,18
32,19
33,20
34,21
35,22
36,22
37,25
38,26
39,28
40,30
41,31
42,35
43,35
44,40
45,41
46,43
47,46
48,49
49,50
50,54
51,56
52,58
53,61
54,64
55,66
56,72
57,73
58,73
59,76
60,84
61,87
62,90
63,95
64,98
65,104
66,108
67,110
68,116
69,124
70,127
71,133
72,139
73,146
74,155
75,166
76,172
77,177
78,185
79,194
80,203
