0,1
1,1
2,1
3,1
4,2
5,2
6,4
7,4
8,4
9,4
10,4
11,5
12,5
13,5
14,6
15,7
16,7
17,8
18,10
19,11
20,11
21,12
22,14
23,14
24,17
25,17
26,19
27,20
28,22
29,22
30,24
31,25
32,27
33,28
34,30
35,31
36,31
37,32
38,33
39,34
40,34
41,34
42,35
43,39
44,44
45,44
46,46
47,48
48,53
49,55
50,55
51,56
52,58
53,63
54,65
55,67
56,74
57,74
58,78
59,81
60,86
61,93
62,99
63,105
64,111
65,118
66,124
67,129
68,133
69,141
70,146
71,155
72,164
73,167
74,173
75,182
76,194
77,203
78,212
79,227
80,243
