0,1
1,1
2,1
3,2
4,2
5,2
6,2
7,2
8,3
9,4
10,4
11,5
12,6
13,6
14,7
15,8
16,8
17,9
18,9
19,10
20,11
21,13
22,14
23,15
24,16
25,19
26,22
27,22
28,27
29,29
30,31
31,33
32,38
33,41
34,45
35,50
36,51
37,57
38,61
39,65
40,70
41,72
42,74
43,80
44,85
45,90
46,92
47,96
48,104
49,113
50,115
51,124
52,130
53,141
54,151
55,160
56,163
57,180
58,185
59,196
60,207
61,212
62,223
63,235
64,242
65,254
66,268
67,277
68,299
69,315
70,332
71,357
72,372
73,393
74,419
75,445
76,467
77,503
78,535
79,572
80,604
