0,1
1,1
2,1
3,1
4,3
5,3
6,3
7,4
8,6
9,10
10,12
11,13
12,14
13,16
14,18
15,19
16,21
17,25
18,25
19,25
20,25
21,27
22,28
23,28
24,29
25,31
26,31
27,31
28,34
29,35
30,36
31,37
32,41
33,41
34,43
35,48
36,48
37,50
38,58
39,64
40,70
41,74
42,79
43,87
44,92
45,100
46,110
47,115
48,130
49,141
50,156
51,166
52,175
53,191
54,214
55,224
56,238
57,262
58,284
59,305
60,318
61,333
62,358
63,389
64,418
65,454
66,472
67,505
68,543
69,574
70,601
71,629
72,660
73,698
74,740
75,778
76,830
77,856
78,908
79,953
80,1010
