0,1
1,1
2,2
3,3
4,4
5,5
6,7
7,9
8,13
9,15
10,20
11,23
12,24
13,27
14,36
15,40
16,48
17,51
18,55
19,60
20,63
21,71
22,80
23,90
24,95
25,102
26,111
27,124
28,129
29,140
30,150
31,163
32,172
33,185
34,206
35,222
36,237
37,249
38,268
39,285
40,301
41,316
42,337
43,358
44,382
45,400
46,415
47,434
48,451
49,473
50,494
51,510
52,537
53,566
54,595
55,624
56,655
57,680
58,710
59,747
60,781
61,823
62,869
63,900
64,934
65,969
66,1009
67,1064
68,1116
69,1154
70,1198
71,1253
72,1320
73,1375
74,1446
75,1510
76,1559
77,1622
78,1700
79,1784
80,1851
