0,1
1,1
2,1
3,1
4,2
5,3
6,3
7,6
8,6
9,8
10,9
11,10
12,10
13,11
14,11
15,12
16,12
17,13
18,14
19,14
20,14
21,16
22,18
23,18
24,19
25,19
26,22
27,24
28,28
29,30
30,32
31,38
32,41
33,46
34,49
35,56
36,61
37,67
38,76
39,85
40,94
41,104
42,115
43,126
44,134
45,146
46,163
47,169
48,183
49,201
50,224
51,244
52,268
53,296
54,319
55,340
56,373
57,400
58,433
59,455
60,487
61,525
62,557
63,592
64,629
65,667
66,699
67,751
68,787
69,839
70,906
71,964
72,1015
73,1092
74,1163
75,1242
76,1325
77,1423
78,1521
79,1625
80,1739
