0,1
1,1
2,1
3,1
4,1
5,1
6,1
7,1
8,1
9,1
10,1
11,2
12,2
13,3
14,4
15,5
16,5
17,6
18,6
19,6
20,8
21,8
22,10
23,11
24,11
25,11
26,11
27,11
28,11
29,11
30,11
31,12
32,12
33,12
34,13
35,14
36,14
37,16
38,17
39,18
40,19
41,20
42,22
43,24
44,27
45,28
46,31
47,36
48,36
49,37
50,40
51,43
52,45
53,47
54,49
55,53
56,60
57,64
58,68
59,71
60,73
61,79
62,87
63,89
64,95
65,99
66,103
67,105
68,107
69,110
70,116
71,120
72,124
73,127
74,131
75,134
76,139
77,144
78,148
79,157
80,161
