0,1
1,1
2,1
3,1
4,7
5,7
6,9
7,11
8,13
9,16
10,22
11,23
12,25
13,30
14,35
15,39
16,44
17,48
18,50
19,54
20,60
21,67
22,71
23,74
24,80
25,86
26,92
27,97
28,103
29,108
30,112
31,116
32,124
33,129
34,134
35,141
36,147
37,153
38,162
39,168
40,176
41,183
42,189
43,192
44,201
45,208
46,217
47,227
48,234
49,242
50,256
51,266
52,274
53,283
54,294
55,300
56,315
57,324
58,346
59,357
60,366
61,381
62,397
63,410
64,420
65,433
66,463
67,480
68,499
69,525
70,547
71,567
72,592
73,616
74,646
75,666
76,687
77,728
78,751
79,784
80,819
