0,1
1,1
2,1
3,1
4,2
5,2
6,4
7,6
8,8
9,9
10,10
11,11
12,14
13,16
14,17
15,19
16,19
17,24
18,26
19,28
20,30
21,36
22,40
23,44
24,47
25,49
26,52
27,55
28,63
29,69
30,76
31,81
32,87
33,93
34,98
35,104
36,110
37,125
38,132
39,134
40,142
41,154
42,163
43,171
44,179
45,193
46,202
47,211
48,224
49,237
50,250
51,264
52,279
53,293
54,309
55,328
56,343
57,373
58,388
59,406
60,435
61,454
62,476
63,499
64,529
65,563
66,595
67,625
68,654
69,699
70,743
71,786
72,835
73,879
74,924
75,985
76,1054
77,1116
78,1169
79,1235
80,1299
