0,1
1,1
2,1
3,1
4,2
5,2
6,3
7,3
8,4
9,5
10,6
11,6
12,7
13,7
14,10
15,12
16,12
17,13
18,13
19,14
20,15
21,16
22,16
23,19
24,19
25,21
26,23
27,25
28,27
29,28
30,30
31,33
32,34
33,38
34,42
35,45
36,46
37,48
38,53
39,54
40,55
41,56
42,60
43,62
44,68
45,70
46,74
47,77
48,83
49,88
50,93
51,98
52,103
53,110
54,116
55,125
56,138
57,148
58,155
59,163
60,174
61,184
62,195
63,204
64,212
65,222
66,233
67,241
68,251
69,264
70,280
71,294
72,304
73,312
74,328
75,344
76,353
77,369
78,386
79,410
80,424
