0,1
1,1
2,1
3,2
4,3
5,5
6,6
7,6
8,7
9,10
10,13
11,18
12,20
13,25
14,29
15,32
16,33
17,37
18,39
19,42
20,45
21,51
22,53
23,57
24,61
25,68
26,75
27,79
28,84
29,92
30,97
31,102
32,107
33,117
34,128
35,139
36,149
37,158
38,168
39,182
40,198
41,210
42,225
43,239
44,261
45,274
46,285
47,301
48,320
49,349
50,373
51,392
52,409
53,432
54,462
55,491
56,518
57,550
58,574
59,608
60,635
61,660
62,696
63,738
64,769
65,808
66,839
67,869
68,918
69,955
70,1000
71,1039
72,1090
73,1133
74,1187
75,1240
76,1289
77,1337
78,1405
79,1469
80,1550
