0,1
1,1
2,1
3,1
4,1
5,1
6,1
7,2
8,2
9,3
10,4
11,5
12,5
13,6
14,9
15,10
16,14
17,18
18,23
19,25
20,29
21,34
22,35
23,42
24,48
25,51
26,55
27,59
28,67
29,74
30,77
31,86
32,94
33,107
34,117
35,128
36,133
37,145
38,147
39,152
40,161
41,170
42,184
43,195
44,203
45,208
46,223
47,233
48,243
49,258
50,267
51,281
52,294
53,310
54,324
55,349
56,373
57,388
58,401
59,417
60,430
61,452
62,469
63,500
64,518
65,545
66,575
67,601
68,627
69,656
70,694
71,720
72,756
73,779
74,818
75,855
76,907
77,962
78,991
79,1043
80,1094
