0,1
1,1
2,1
3,1
4,3
5,4
6,5
7,5
8,5
9,6
10,8
11,8
12,9
13,9
14,10
15,10
16,11
17,11
18,11
19,11
20,12
21,12
22,12
23,12
24,13
25,14
26,14
27,14
28,15
29,16
30,19
31,19
32,19
33,20
34,22
35,23
36,23
37,23
38,23
39,25
40,27
41,28
42,29
43,30
44,31
45,31
46,32
47,33
48,36
49,36
50,37
51,37
52,38
53,39
54,42
55,44
56,47
57,49
58,53
59,55
60,58
61,62
62,65
63,70
64,72
65,76
66,77
67,78
68,82
69,85
70,93
71,97
72,101
73,109
74,112
75,118
76,123
77,126
78,136
79,150
80,162
