0,1
1,1
2,1
3,2
4,2
5,2
6,2
7,2
8,2
9,2
10,2
11,3
12,3
13,3
14,3
15,4
16,7
17,8
18,10
19,12
20,13
21,14
22,16
23,16
24,18
25,19
26,21
27,22
28,24
29,25
30,28
31,29
32,29
33,31
34,32
35,32
36,34
37,36
38,40
39,41
40,43
41,47
42,49
43,52
44,56
45,59
46,62
47,65
48,70
49,71
50,77
51,83
52,89
53,91
54,99
55,106
56,111
57,120
58,127
59,135
60,142
61,148
62,156
63,164
64,171
65,179
66,194
67,204
68,213
69,231
70,243
71,263
72,274
73,287
74,309
75,324
76,336
77,354
78,377
79,392
80,408
