0,1
1,1
2,1
3,2
4,2
5,2
6,2
7,3
8,4
9,5
10,7
11,8
12,11
13,11
14,14
15,14
16,14
17,17
18,17
19,17
20,18
21,19
22,19
23,23
24,23
25,27
26,28
27,28
28,29
29,29
30,31
31,33
32,34
33,35
34,36
35,37
36,38
37,41
38,44
39,45
40,46
41,46
42,49
43,51
44,53
45,54
46,55
47,56
48,59
49,61
50,62
51,62
52,66
53,72
54,76
55,81
56,88
57,89
58,94
59,95
60,104
61,111
62,119
63,130
64,134
65,147
66,157
67,165
68,173
69,177
70,185
71,190
72,200
73,210
74,223
75,234
76,250
77,265
78,270
79,282
80,294
