0,1
1,1
2,1
3,1
4,1
5,2
6,2
7,4
8,4
9,4
10,6
11,7
12,7
13,10
14,12
15,13
16,14
17,16
18,17
19,19
20,20
21,21
22,22
23,23
24,26
25,26
26,26
27,28
28,30
29,31
30,34
31,36
32,38
33,39
34,41
35,44
36,45
37,48
38,50
39,53
40,56
41,57
42,57
43,58
44,60
45,60
46,61
47,63
48,66
49,68
50,72
51,78
52,83
53,90
54,96
55,102
56,107
57,110
58,113
59,125
60,130
61,133
62,136
63,140
64,146
65,153
66,158
67,164
68,171
69,178
70,188
71,196
72,205
73,210
74,222
75,230
76,233
77,243
78,255
79,265
80,272
