0,1
1,1
2,1
3,1
4,2
5,2
6,4
7,4
8,5
9,5
10,5
11,5
12,6
13,8
14,8
15,8
16,9
17,10
18,12
19,14
20,19
21,21
22,24
23,26
24,27
25,30
26,32
27,32
28,35
29,39
30,41
31,42
32,42
33,46
34,47
35,48
36,52
37,54
38,59
39,62
40,65
41,67
42,71
43,72
44,76
45,79
46,84
47,87
48,90
49,95
50,99
51,103
52,107
53,110
54,114
55,119
56,126
57,133
58,142
59,149
60,154
61,161
62,172
63,179
64,191
65,197
66,207
67,217
68,225
69,239
70,245
71,263
72,272
73,290
74,301
75,318
76,330
77,348
78,357
79,381
80,403
