0,1
1,1
2,1
3,2
4,3
5,6
6,6
7,6
8,7
9,8
10,9
11,11
12,13
13,15
14,17
15,18
16,21
17,21
18,21
19,25
20,28
21,31
22,33
23,36
24,36
25,40
26,41
27,46
28,48
29,52
30,54
31,55
32,59
33,62
34,66
35,69
36,73
37,79
38,81
39,84
40,89
41,91
42,98
43,102
44,106
45,110
46,116
47,128
48,133
49,144
50,152
51,162
52,178
53,188
54,192
55,207
56,215
57,231
58,251
59,268
60,280
61,301
62,325
63,341
64,369
65,390
66,413
67,435
68,462
69,496
70,526
71,551
72,594
73,620
74,647
75,696
76,733
77,766
78,810
79,865
80,925
