0,1
1,1
2,1
3,1
4,1
5,1
6,2
7,3
8,3
9,3
10,3
11,5
12,6
13,6
14,8
15,10
16,12
17,13
18,13
19,14
20,15
21,16
22,17
23,17
24,18
25,21
26,21
27,21
28,21
29,23
30,24
31,26
32,28
33,29
34,33
35,35
36,35
37,38
38,40
39,42
40,43
41,45
42,46
43,48
44,48
45,50
46,54
47,54
48,54
49,56
50,58
51,61
52,64
53,66
54,68
55,68
56,69
57,69
58,70
59,71
60,71
61,72
62,72
63,72
64,73
65,73
66,74
67,74
68,74
69,74
70,74
71,75
72,75
73,76
74,76
75,76
76,76
77,77
78,77
79,77
80,78
