0,1
1,1
2,1
3,1
4,1
5,2
6,2
7,4
8,4
9,4
10,5
11,8
12,10
13,10
14,12
15,13
16,15
17,16
18,17
19,19
20,20
21,20
22,20
23,20
24,23
25,24
26,25
27,25
28,25
29,26
30,26
31,27
32,27
33,27
34,27
35,27
36,27
37,27
38,28
39,28
40,28
41,29
42,29
43,29
44,29
45,29
46,29
47,29
48,29
49,30
50,30
51,30
52,31
53,31
54,31
55,32
56,34
57,35
58,35
59,36
60,38
61,39
62,39
63,41
64,42
65,43
66,44
67,48
68,53
69,54
70,57
71,59
72,60
73,63
74,65
75,68
76,71
77,74
78,76
79,77
80,81
