0,1
1,1
2,1
3,1
4,2
5,2
6,2
7,2
8,4
9,4
10,5
11,5
12,8
13,10
14,10
15,11
16,13
17,13
18,13
19,14
20,15
21,16
22,17
23,18
24,19
25,21
26,21
27,21
28,23
29,24
30,25
31,27
32,27
33,28
34,31
35,34
36,37
37,40
38,46
39,47
40,50
41,56
42,61
43,64
44,66
45,73
46,80
47,84
48,89
49,92
50,94
51,97
52,104
53,108
54,111
55,115
56,125
57,130
58,140
59,143
60,152
61,158
62,163
63,169
64,177
65,186
66,193
67,206
68,214
69,221
70,225
71,236
72,246
73,257
74,270
75,280
76,295
77,309
78,321
79,329
80,351
