0,1
1,1
2,1
3,1
4,2
5,3
6,4
7,4
8,5
9,5
10,5
11,5
12,5
13,5
14,6
15,6
16,6
17,6
18,6
19,6
20,6
21,6
22,7
23,7
24,7
25,7
26,8
27,8
28,9
29,9
30,9
31,9
32,9
33,10
34,11
35,11
36,12
37,12
38,12
39,12
40,12
41,13
42,13
43,13
44,13
45,14
46,14
47,14
48,15
49,15
50,15
51,16
52,17
53,17
54,17
55,17
56,19
57,21
58,25
59,25
60,28
61,31
62,31
63,32
64,33
65,35
66,35
67,37
68,37
69,38
70,40
71,43
72,45
73,48
74,50
75,53
76,57
77,62
78,69
79,75
80,80
