0,1
1,1
2,1
3,1
4,1
5,2
6,4
7,4
8,4
9,4
10,4
11,5
12,5
13,5
14,5
15,5
16,6
17,7
18,8
19,9
20,9
21,11
22,14
23,15
24,15
25,17
26,19
27,20
28,21
29,22
30,24
31,29
32,31
33,34
34,39
35,41
36,44
37,47
38,51
39,53
40,56
41,63
42,73
43,81
44,85
45,89
46,97
47,105
48,114
49,121
50,140
51,155
52,169
53,179
54,192
55,213
56,226
57,240
58,254
59,273
60,294
61,311
62,328
63,347
64,366
65,383
66,410
67,440
68,463
69,489
70,519
71,561
72,598
73,642
74,687
75,727
76,783
77,839
78,877
79,933
80,983
