0,1
1,1
2,1
3,1
4,1
5,2
6,4
7,4
8,4
9,4
10,4
11,4
12,5
13,5
14,6
15,7
16,7
17,7
18,8
19,9
20,9
21,9
22,10
23,10
24,15
25,15
26,15
27,17
28,21
29,24
30,26
31,27
32,28
33,32
34,35
35,38
36,46
37,50
38,52
39,54
40,56
41,60
42,66
43,72
44,73
45,79
46,84
47,91
48,95
49,101
50,107
51,113
52,119
53,126
54,134
55,140
56,145
57,160
58,169
59,180
60,188
61,199
62,214
63,228
64,237
65,254
66,276
67,288
68,301
69,318
70,337
71,352
72,365
73,379
74,397
75,420
76,429
77,444
78,469
79,492
80,509
