0,1
1,1
2,1
3,1
4,1
5,1
6,1
7,2
8,2
9,2
10,3
11,4
12,4
13,5
14,6
15,7
16,7
17,7
18,8
19,9
20,10
21,10
22,14
23,18
24,21
25,24
26,28
27,33
28,34
29,38
30,42
31,47
32,51
33,54
34,57
35,61
36,65
37,72
38,76
39,78
40,82
41,86
42,90
43,94
44,95
45,102
46,108
47,112
48,117
49,122
50,125
51,130
52,135
53,144
54,151
55,158
56,163
57,169
58,180
59,189
60,196
61,207
62,221
63,238
64,251
65,262
66,271
67,280
68,294
69,309
70,325
71,338
72,356
73,368
74,388
75,400
76,415
77,432
78,454
79,476
80,492
