0,1
1,1
2,1
3,2
4,2
5,3
6,5
7,7
8,10
9,10
10,14
11,16
12,17
13,19
14,22
15,26
16,28
17,30
18,37
19,40
20,43
21,47
22,52
23,56
24,60
25,65
26,69
27,73
28,77
29,80
30,86
31,91
32,98
33,103
34,108
35,114
36,124
37,130
38,140
39,150
40,154
41,169
42,182
43,201
44,208
45,225
46,240
47,266
48,280
49,298
50,323
51,344
52,377
53,403
54,435
55,463
56,496
57,533
58,584
59,630
60,678
61,722
62,791
63,846
64,915
65,974
66,1039
67,1102
68,1168
69,1273
70,1362
71,1455
72,1561
73,1658
74,1765
75,1895
76,2022
77,2146
78,2290
79,2421
80,2575
