0,1
1,1
2,1
3,1
4,1
5,1
6,1
7,1
8,2
9,3
10,3
11,4
12,5
13,5
14,7
15,9
16,10
17,15
18,19
19,20
20,22
21,26
22,30
23,30
24,35
25,38
26,44
27,49
28,50
29,55
30,57
31,60
32,65
33,69
34,75
35,79
36,84
37,86
38,91
39,98
40,100
41,106
42,114
43,118
44,122
45,124
46,131
47,133
48,140
49,148
50,153
51,155
52,160
53,167
54,172
55,180
56,191
57,196
58,201
59,210
60,218
61,225
62,238
63,247
64,256
65,264
66,271
67,276
68,279
69,296
70,306
71,314
72,323
73,328
74,339
75,350
76,361
77,369
78,372
79,382
80,388
