0,1
1,1
2,1
3,1
4,2
5,2
6,2
7,4
8,5
9,5
10,6
11,7
12,7
13,7
14,12
15,13
16,14
17,17
18,19
19,22
20,25
21,26
22,29
23,32
24,37
25,42
26,48
27,50
28,53
29,62
30,69
31,73
32,80
33,82
34,94
35,101
36,107
37,112
38,121
39,129
40,137
41,142
42,151
43,158
44,168
45,180
46,191
47,203
48,216
49,229
50,242
51,255
52,277
53,288
54,301
55,324
56,343
57,367
58,389
59,427
60,461
61,487
62,518
63,553
64,586
65,618
66,647
67,687
68,718
69,763
70,798
71,839
72,886
73,926
74,973
75,1011
76,1071
77,1137
78,1200
79,1267
80,1330
