0,1
1,1
2,1
3,1
4,1
5,1
6,1
7,2
8,3
9,3
10,3
11,3
12,3
13,6
14,9
15,9
16,10
17,12
18,13
19,13
20,13
21,14
22,17
23,17
24,18
25,18
26,20
27,23
28,24
29,28
30,31
31,33
32,34
33,38
34,40
35,40
36,43
37,44
38,46
39,46
40,49
41,52
42,52
43,57
44,59
45,61
46,65
47,68
48,70
49,75
50,78
51,83
52,87
53,92
54,95
55,96
56,100
57,102
58,110
59,115
60,123
61,125
62,131
63,137
64,143
65,148
66,159
67,171
68,177
69,183
70,197
71,210
72,221
73,232
74,244
75,260
76,274
77,283
78,303
79,317
80,326
