0,1
1,1
2,1
3,1
4,4
5,5
6,6
7,6
8,6
9,7
10,8
11,10
12,11
13,12
14,12
15,12
16,15
17,19
18,22
19,22
20,24
21,27
22,29
23,31
24,34
25,36
26,38
27,43
28,46
29,50
30,58
31,58
32,62
33,69
34,74
35,82
36,84
37,90
38,97
39,102
40,106
41,118
42,125
43,129
44,135
45,144
46,147
47,157
48,163
49,176
50,182
51,192
52,201
53,208
54,215
55,226
56,234
57,240
58,254
59,261
60,271
61,282
62,295
63,304
64,312
65,331
66,348
67,361
68,377
69,394
70,408
71,431
72,441
73,453
74,469
75,492
76,503
77,522
78,544
79,571
80,596
