0,1
1,1
2,1
3,1
4,2
5,2
6,2
7,2
8,4
9,4
10,4
11,5
12,5
13,6
14,7
15,7
16,10
17,10
18,12
19,13
20,14
21,17
22,18
23,21
24,23
25,28
26,30
27,32
28,35
29,38
30,41
31,43
32,45
33,48
34,53
35,59
36,64
37,67
38,75
39,83
40,92
41,101
42,113
43,125
44,138
45,145
46,157
47,178
48,189
49,205
50,219
51,229
52,246
53,263
54,277
55,290
56,304
57,316
58,324
59,340
60,359
61,377
62,403
63,417
64,438
65,458
66,476
67,500
68,523
69,547
70,569
71,594
72,617
73,634
74,661
75,687
76,720
77,749
78,775
79,821
80,864
