0,1
1,1
2,1
3,1
4,2
5,3
6,3
7,4
8,7
9,10
10,12
11,13
12,16
13,18
14,20
15,25
16,26
17,27
18,33
19,35
20,41
21,43
22,46
23,54
24,56
25,59
26,64
27,70
28,76
29,78
30,86
31,91
32,101
33,109
34,119
35,124
36,132
37,144
38,155
39,157
40,160
41,166
42,177
43,190
44,200
45,210
46,225
47,236
48,245
49,264
50,273
51,296
52,319
53,335
54,357
55,382
56,409
57,444
58,474
59,503
60,531
61,571
62,602
63,630
64,675
65,704
66,751
67,794
68,841
69,887
70,950
71,996
72,1041
73,1090
74,1144
75,1203
76,1280
77,1327
78,1406
79,1479
80,1548
