0,1
1,1
2,1
3,2
4,2
5,2
6,2
7,3
8,4
9,4
10,4
11,5
12,5
13,5
14,5
15,6
16,6
17,6
18,7
19,8
20,9
21,9
22,9
23,10
24,10
25,10
26,10
27,10
28,11
29,12
30,12
31,14
32,14
33,15
34,18
35,20
36,20
37,21
38,21
39,22
40,24
41,25
42,26
43,26
44,26
45,28
46,30
47,30
48,31
49,32
50,34
51,34
52,36
53,42
54,46
55,48
56,51
57,59
58,64
59,69
60,73
61,79
62,83
63,92
64,99
65,103
66,106
67,113
68,117
69,124
70,134
71,145
72,151
73,160
74,167
75,183
76,193
77,195
78,205
79,215
80,221
