0,1
1,1
2,2
3,3
4,3
5,5
6,5
7,7
8,10
9,13
10,15
11,19
12,19
13,23
14,28
15,33
16,37
17,42
18,45
19,49
20,56
21,58
22,64
23,71
24,75
25,81
26,85
27,90
28,97
29,105
30,108
31,121
32,128
33,138
34,148
35,165
36,174
37,192
38,207
39,221
40,234
41,252
42,274
43,302
44,317
45,348
46,369
47,386
48,408
49,428
50,454
51,487
52,503
53,529
54,560
55,595
56,630
57,654
58,686
59,722
60,758
61,801
62,839
63,877
64,930
65,977
66,1016
67,1086
68,1147
69,1208
70,1265
71,1338
72,1415
73,1493
74,1593
75,1685
76,1778
77,1880
78,1982
79,2099
80,2203
