0,1
1,1
2,1
3,2
4,4
5,4
6,4
7,6
8,7
9,9
10,9
11,10
12,11
13,13
14,14
15,15
16,18
17,24
18,26
19,28
20,34
21,40
22,50
23,56
24,57
25,60
26,67
27,77
28,83
29,94
30,103
31,113
32,125
33,138
34,153
35,165
36,179
37,197
38,213
39,225
40,244
41,261
42,283
43,299
44,321
45,338
46,360
47,381
48,404
49,427
50,458
51,477
52,507
53,529
54,558
55,583
56,616
57,639
58,679
59,717
60,763
61,801
62,849
63,895
64,933
65,983
66,1047
67,1110
68,1160
69,1228
70,1296
71,1357
72,1415
73,1491
74,1559
75,1629
76,1716
77,1808
78,1896
79,1980
80,2089
