0,1
1,1
2,2
3,3
4,3
5,4
6,4
7,4
8,4
9,4
10,4
11,4
12,5
13,6
14,6
15,6
16,6
17,6
18,6
19,7
20,8
21,9
22,9
23,9
24,10
25,12
26,14
27,15
28,16
29,17
30,20
31,22
32,23
33,25
34,26
35,29
36,31
37,31
38,31
39,35
40,37
41,38
42,41
43,43
44,46
45,48
46,50
47,54
48,57
49,59
50,59
51,62
52,65
53,65
54,67
55,68
56,69
57,72
58,72
59,74
60,76
61,76
62,77
63,79
64,82
65,84
66,86
67,87
68,88
69,91
70,93
71,95
72,97
73,98
74,100
75,102
76,105
77,106
78,108
79,108
80,109
