0,1
1,1
2,1
3,1
4,2
5,4
6,4
7,4
8,5
9,8
10,10
11,10
12,11
13,13
14,17
15,19
16,20
17,21
18,23
19,25
20,25
21,28
22,29
23,29
24,30
25,30
26,31
27,31
28,33
29,33
30,35
31,36
32,37
33,37
34,37
35,39
36,39
37,39
38,41
39,42
40,43
41,43
42,43
43,45
44,46
45,46
46,46
47,47
48,48
49,52
50,53
51,55
52,59
53,61
54,66
55,69
56,70
57,74
58,77
59,81
60,85
61,87
62,94
63,98
64,101
65,109
66,119
67,125
68,132
69,139
70,145
71,152
72,158
73,167
74,178
75,186
76,195
77,204
78,216
79,229
80,241
