0,1
1,1
2,1
3,1
4,2
5,2
6,2
7,2
8,3
9,3
10,3
11,4
12,5
13,6
14,6
15,11
16,12
17,19
18,24
19,27
20,30
21,35
22,40
23,46
24,55
25,61
26,68
27,72
28,81
29,86
30,93
31,100
32,113
33,123
34,139
35,152
36,162
37,179
38,194
39,213
40,234
41,256
42,282
43,307
44,334
45,369
46,391
47,417
48,446
49,469
50,509
51,547
52,577
53,620
54,668
55,707
56,754
57,796
58,842
59,884
60,938
61,976
62,1030
63,1082
64,1140
65,1195
66,1254
67,1313
68,1357
69,1426
70,1498
71,1586
72,1647
73,1724
74,1820
75,1907
76,1990
77,2088
78,2184
79,2305
80,2421
