0,1
1,1
2,1
3,1
4,2
5,2
6,3
7,3
8,3
9,3
10,4
11,4
12,4
13,4
14,4
15,4
16,5
17,5
18,5
19,7
20,7
21,7
22,8
23,9
24,9
25,10
26,10
27,10
28,10
29,11
30,12
31,13
32,13
33,14
34,14
35,15
36,17
37,17
38,18
39,20
40,22
41,24
42,26
43,27
44,30
45,31
46,33
47,37
48,42
49,45
50,49
51,52
52,56
53,58
54,67
55,69
56,71
57,77
58,84
59,86
60,95
61,100
62,102
63,107
64,113
65,116
66,120
67,126
68,135
69,143
70,148
71,154
72,161
73,173
74,179
75,198
76,213
77,221
78,234
79,248
80,266
