0,1
1,1
2,1
3,1
4,2
5,2
6,2
7,2
8,2
9,2
10,3
11,3
12,3
13,3
14,5
15,5
16,5
17,5
18,6
19,7
20,7
21,7
22,7
23,9
24,10
25,12
26,12
27,13
28,15
29,17
30,18
31,21
32,24
33,28
34,34
35,36
36,40
37,46
38,49
39,55
40,59
41,61
42,63
43,68
44,78
45,83
46,89
47,94
48,101
49,113
50,120
51,129
52,135
53,146
54,156
55,164
56,175
57,181
58,194
59,208
60,225
61,235
62,249
63,261
64,275
65,294
66,311
67,326
68,338
69,360
70,379
71,391
72,411
73,429
74,449
75,467
76,493
77,523
78,551
79,575
80,605
