0,1
1,1
2,1
3,1
4,2
5,2
6,2
7,3
8,5
9,7
10,8
11,8
12,10
13,15
14,16
15,19
16,20
17,21
18,22
19,24
20,29
21,31
22,33
23,34
24,35
25,42
26,46
27,49
28,53
29,57
30,65
31,69
32,77
33,85
34,89
35,94
36,97
37,109
38,115
39,119
40,127
41,140
42,152
43,162
44,178
45,193
46,210
47,224
48,244
49,266
50,293
51,315
52,337
53,362
54,390
55,417
56,441
57,478
58,513
59,545
60,589
61,626
62,680
63,736
64,796
65,843
66,908
67,973
68,1033
69,1096
70,1185
71,1254
72,1337
73,1428
74,1510
75,1596
76,1702
77,1809
78,1908
79,2022
80,2141
