0,1
1,1
2,1
3,3
4,4
5,4
6,7
7,7
8,10
9,10
10,12
11,14
12,18
13,21
14,24
15,29
16,32
17,38
18,44
19,48
20,53
21,54
22,58
23,65
24,66
25,68
26,70
27,76
28,82
29,87
30,96
31,103
32,106
33,114
34,117
35,123
36,131
37,139
38,146
39,157
40,170
41,183
42,200
43,221
44,231
45,253
46,274
47,293
48,316
49,345
50,376
51,407
52,433
53,472
54,507
55,541
56,582
57,606
58,651
59,699
60,740
61,800
62,840
63,901
64,955
65,1011
66,1063
67,1119
68,1187
69,1247
70,1319
71,1403
72,1462
73,1535
74,1612
75,1702
76,1804
77,1899
78,2001
79,2104
80,2236
