0,1
1,1
2,1
3,1
4,1
5,2
6,2
7,2
8,2
9,2
10,2
11,3
12,3
13,3
14,4
15,4
16,4
17,4
18,5
19,7
20,7
21,8
22,9
23,11
24,14
25,14
26,17
27,19
28,23
29,26
30,29
31,31
32,33
33,37
34,41
35,42
36,46
37,47
38,49
39,51
40,56
41,63
42,66
43,69
44,74
45,81
46,91
47,96
48,107
49,117
50,124
51,133
52,145
53,162
54,171
55,183
56,195
57,203
58,219
59,232
60,245
61,254
62,266
63,279
64,302
65,315
66,334
67,346
68,366
69,394
70,416
71,438
72,460
73,494
74,522
75,553
76,582
77,616
78,648
79,688
80,720
