0,1
1,1
2,1
3,1
4,2
5,2
6,2
7,2
8,3
9,6
10,8
11,9
12,9
13,11
14,11
15,12
16,12
17,15
18,16
19,16
20,18
21,22
22,23
23,25
24,28
25,33
26,35
27,35
28,35
29,36
30,38
31,39
32,43
33,44
34,46
35,51
36,55
37,56
38,57
39,61
40,63
41,64
42,66
43,66
44,67
45,73
46,75
47,77
48,78
49,80
50,82
51,87
52,92
53,97
54,99
55,101
56,103
57,112
58,118
59,123
60,130
61,135
62,140
63,144
64,150
65,159
66,165
67,169
68,174
69,180
70,193
71,199
72,204
73,209
74,216
75,221
76,227
77,238
78,242
79,255
80,265
