0,1
1,1
2,1
3,1
4,1
5,2
6,2
7,2
8,2
9,3
10,5
11,6
12,7
13,8
14,8
15,8
16,14
17,15
18,15
19,17
20,19
21,20
22,22
23,23
24,24
25,25
26,25
27,25
28,27
29,27
30,27
31,29
32,30
33,31
34,35
35,37
36,38
37,38
38,40
39,41
40,43
41,44
42,46
43,47
44,48
45,49
46,53
47,53
48,54
49,56
50,62
51,65
52,69
53,73
54,75
55,80
56,82
57,87
58,90
59,95
60,99
61,103
62,108
63,112
64,116
65,123
66,128
67,136
68,140
69,144
70,148
71,151
72,157
73,163
74,171
75,177
76,186
77,192
78,199
79,206
80,214
