0,1
1,1
2,1
3,1
4,1
5,1
6,2
7,2
8,3
9,3
10,4
11,4
12,4
13,4
14,7
15,7
16,7
17,7
18,9
19,11
20,13
21,13
22,14
23,17
24,18
25,20
26,26
27,27
28,30
29,34
30,37
31,41
32,44
33,46
34,49
35,55
36,62
37,67
38,74
39,80
40,83
41,100
42,121
43,128
44,141
45,150
46,167
47,181
48,208
49,233
50,255
51,268
52,291
53,318
54,340
55,369
56,398
57,424
58,453
59,488
60,523
61,554
62,608
63,652
64,702
65,743
66,799
67,852
68,909
69,973
70,1018
71,1101
72,1170
73,1248
74,1329
75,1411
76,1495
77,1589
78,1696
79,1792
80,1886
