0,1
1,1
2,1
3,2
4,2
5,2
6,3
7,4
8,7
9,8
10,9
11,13
12,15
13,19
14,20
15,24
16,26
17,31
18,36
19,38
20,39
21,41
22,44
23,46
24,52
25,55
26,61
27,69
28,78
29,80
30,89
31,97
32,98
33,104
34,112
35,115
36,126
37,134
38,143
39,150
40,157
41,163
42,173
43,181
44,187
45,195
46,205
47,216
48,223
49,232
50,245
51,255
52,269
53,284
54,301
55,312
56,328
57,340
58,350
59,371
60,385
61,402
62,420
63,439
64,464
65,482
66,511
67,540
68,566
69,596
70,626
71,666
72,690
73,723
74,760
75,801
76,835
77,873
78,930
79,968
80,1011
