0,1
1,1
2,1
3,1
4,2
5,2
6,5
7,6
8,7
9,8
10,9
11,11
12,12
13,13
14,15
15,16
16,16
17,17
18,18
19,19
20,19
21,21
22,22
23,23
24,23
25,24
26,24
27,24
28,26
29,26
30,26
31,27
32,28
33,29
34,30
35,30
36,32
37,33
38,33
39,34
40,35
41,36
42,38
43,42
44,42
45,43
46,43
47,44
48,44
49,45
50,46
51,48
52,49
53,50
54,51
55,54
56,56
57,56
58,58
59,59
60,62
61,63
62,65
63,65
64,66
65,68
66,71
67,72
68,75
69,80
70,82
71,85
72,85
73,86
74,88
75,90
76,93
77,94
78,95
79,97
80,99
