0,1
1,1
2,1
3,1
4,1
5,1
6,1
7,1
8,1
9,2
10,2
11,2
12,2
13,4
14,6
15,6
16,6
17,7
18,8
19,10
20,10
21,11
22,12
23,14
24,14
25,15
26,16
27,18
28,18
29,18
30,18
31,19
32,20
33,22
34,22
35,28
36,29
37,30
38,31
39,34
40,36
41,40
42,40
43,46
44,47
45,49
46,50
47,53
48,55
49,59
50,66
51,69
52,72
53,79
54,84
55,87
56,93
57,99
58,108
59,116
60,121
61,132
62,137
63,144
64,160
65,166
66,173
67,182
68,191
69,197
70,215
71,226
72,239
73,256
74,272
75,288
76,310
77,315
78,330
79,349
80,361
