0,1
1,1
2,1
3,1
4,1
5,1
6,1
7,2
8,2
9,2
10,2
11,2
12,2
13,2
14,2
15,3
16,3
17,3
18,5
19,6
20,7
21,7
22,8
23,8
24,10
25,12
26,14
27,15
28,17
29,18
30,19
31,20
32,22
33,23
34,31
35,35
36,45
37,49
38,54
39,63
40,71
41,85
42,91
43,95
44,102
45,107
46,118
47,122
48,136
49,145
50,162
51,173
52,192
53,200
54,216
55,236
56,255
57,271
58,285
59,312
60,341
61,360
62,389
63,418
64,449
65,473
66,502
67,527
68,561
69,596
70,634
71,669
72,711
73,759
74,803
75,848
76,894
77,945
78,997
79,1048
80,1102
