0,1
1,1
2,1
3,1
4,1
5,1
6,2
7,2
8,4
9,4
10,4
11,6
12,7
13,7
14,7
15,10
16,12
17,15
18,18
19,24
20,26
21,27
22,33
23,43
24,50
25,55
26,58
27,66
28,74
29,81
30,89
31,93
32,97
33,107
34,118
35,124
36,135
37,140
38,150
39,158
40,166
41,175
42,190
43,198
44,210
45,219
46,230
47,242
48,253
49,265
50,277
51,287
52,309
53,325
54,339
55,355
56,377
57,397
58,416
59,442
60,467
61,493
62,517
63,537
64,564
65,588
66,616
67,645
68,686
69,714
70,750
71,783
72,828
73,859
74,895
75,938
76,988
77,1031
78,1074
79,1129
80,1182
