0,1
1,1
2,1
3,1
4,1
5,4
6,5
7,6
8,6
9,6
10,8
11,8
12,8
13,8
14,8
15,10
16,10
17,10
18,10
19,10
20,10
21,10
22,11
23,11
24,12
25,12
26,12
27,12
28,14
29,14
30,14
31,14
32,15
33,15
34,15
35,15
36,15
37,17
38,17
39,17
40,17
41,17
42,17
43,17
44,17
45,17
46,17
47,17
48,17
49,17
50,18
51,18
52,18
53,18
54,18
55,18
56,19
57,19
58,20
59,21
60,21
61,23
62,24
63,26
64,28
65,31
66,32
67,33
68,35
69,36
70,38
71,41
72,43
73,43
74,43
75,45
76,45
77,45
78,46
79,47
80,48
