0,1
1,1
2,1
3,1
4,1
5,2
6,3
7,3
8,3
9,4
10,4
11,6
12,7
13,7
14,7
15,8
16,8
17,10
18,10
19,10
20,10
21,11
22,12
23,13
24,15
25,17
26,18
27,20
28,22
29,24
30,24
31,27
32,29
33,30
34,32
35,34
36,36
37,37
38,37
39,41
40,42
41,42
42,44
43,46
44,48
45,49
46,50
47,52
48,55
49,60
50,61
51,66
52,71
53,74
54,79
55,83
56,88
57,92
58,95
59,100
60,110
61,117
62,126
63,136
64,139
65,152
66,164
67,179
68,197
69,212
70,219
71,234
72,253
73,274
74,301
75,330
76,356
77,383
78,412
79,453
80,491
