0,1
1,1
2,1
3,1
4,2
5,4
6,8
7,8
8,9
9,11
10,11
11,14
12,17
13,21
14,24
15,26
16,29
17,36
18,40
19,43
20,50
21,56
22,67
23,76
24,89
25,99
26,113
27,121
28,134
29,150
30,162
31,174
32,191
33,208
34,215
35,233
36,243
37,265
38,287
39,299
40,320
41,336
42,352
43,378
44,397
45,412
46,442
47,468
48,500
49,526
50,551
51,592
52,634
53,666
54,701
55,742
56,794
57,830
58,881
59,929
60,988
61,1052
62,1105
63,1168
64,1231
65,1292
66,1352
67,1410
68,1493
69,1563
70,1645
71,1717
72,1798
73,1879
74,1974
75,2069
76,2174
77,2286
78,2391
79,2507
80,2627
