0,1
1,1
2,2
3,2
4,2
5,3
6,4
7,4
8,6
9,8
10,9
11,11
12,15
13,19
14,20
15,27
16,32
17,37
18,39
19,44
20,52
21,57
22,58
23,68
24,74
25,80
26,87
27,94
28,97
29,101
30,108
31,115
32,122
33,125
34,131
35,139
36,147
37,156
38,161
39,169
40,174
41,181
42,195
43,212
44,223
45,233
46,244
47,258
48,265
49,275
50,297
51,310
52,320
53,330
54,346
55,353
56,374
57,387
58,394
59,409
60,424
61,437
62,451
63,471
64,492
65,506
66,531
67,550
68,573
69,594
70,622
71,647
72,669
73,699
74,735
75,763
76,801
77,838
78,878
79,924
80,965
