0,1
1,1
2,1
3,1
4,2
5,2
6,3
7,3
8,4
9,4
10,6
11,8
12,9
13,10
14,10
15,13
16,14
17,15
18,18
19,20
20,23
21,26
22,28
23,34
24,39
25,43
26,48
27,53
28,54
29,59
30,67
31,73
32,80
33,86
34,90
35,95
36,100
37,107
38,114
39,126
40,133
41,140
42,143
43,148
44,156
45,164
46,170
47,173
48,176
49,181
50,187
51,188
52,197
53,201
54,207
55,212
56,219
57,226
58,228
59,234
60,242
61,247
62,251
63,257
64,259
65,272
66,278
67,286
68,291
69,300
70,305
71,312
72,318
73,332
74,343
75,355
76,370
77,381
78,394
79,412
80,429
