0,1
1,1
2,1
3,1
4,1
5,1
6,2
7,3
8,3
9,3
10,5
11,7
12,7
13,8
14,9
15,11
16,13
17,15
18,16
19,20
20,21
21,21
22,23
23,24
24,27
25,29
26,32
27,32
28,36
29,40
30,46
31,47
32,50
33,56
34,59
35,63
36,69
37,72
38,80
39,87
40,88
41,92
42,98
43,107
44,117
45,124
46,132
47,144
48,156
49,168
50,180
51,193
52,212
53,223
54,240
55,260
56,276
57,295
58,311
59,331
60,350
61,368
62,401
63,416
64,439
65,467
66,498
67,523
68,559
69,586
70,630
71,674
72,719
73,756
74,796
75,842
76,890
77,951
78,998
79,1061
80,1128
