0,1
1,1
2,1
3,1
4,3
5,3
6,4
7,6
8,6
9,7
10,7
11,8
12,10
13,11
14,12
15,13
16,15
17,16
18,17
19,19
20,20
21,21
22,23
23,25
24,28
25,30
26,32
27,34
28,36
29,38
30,43
31,44
32,47
33,52
34,56
35,59
36,63
37,68
38,71
39,76
40,81
41,86
42,90
43,94
44,106
45,112
46,116
47,128
48,138
49,150
50,156
51,162
52,170
53,180
54,187
55,197
56,206
57,216
58,225
59,242
60,253
61,267
62,279
63,289
64,302
65,312
66,325
67,339
68,353
69,367
70,381
71,400
72,418
73,435
74,458
75,479
76,500
77,519
78,545
79,571
80,600
