0,1
1,1
2,1
3,2
4,2
5,3
6,5
7,6
8,10
9,10
10,13
11,14
12,16
13,17
14,19
15,21
16,24
17,24
18,26
19,29
20,33
21,33
22,36
23,38
24,45
25,47
26,51
27,53
28,57
29,63
30,68
31,72
32,78
33,87
34,91
35,93
36,95
37,100
38,105
39,110
40,118
41,120
42,124
43,130
44,138
45,144
46,149
47,154
48,163
49,170
50,173
51,178
52,188
53,193
54,203
55,209
56,216
57,222
58,229
59,243
60,252
61,259
62,270
63,282
64,292
65,309
66,324
67,342
68,354
69,369
70,382
71,393
72,414
73,434
74,456
75,480
76,495
77,518
78,549
79,578
80,608
