0,1
1,1
2,1
3,2
4,4
5,4
6,4
7,4
8,5
9,6
10,7
11,7
12,7
13,9
14,10
15,10
16,13
17,13
18,13
19,15
20,16
21,16
22,17
23,19
24,19
25,19
26,20
27,22
28,24
29,25
30,26
31,26
32,27
33,28
34,29
35,30
36,31
37,32
38,34
39,36
40,36
41,36
42,37
43,39
44,44
45,45
46,48
47,50
48,50
49,56
50,57
51,58
52,64
53,67
54,70
55,75
56,81
57,84
58,84
59,86
60,90
61,92
62,96
63,97
64,99
65,103
66,107
67,108
68,113
69,121
70,126
71,128
72,133
73,136
74,140
75,142
76,148
77,152
78,155
79,159
80,166
