0,1
1,1
2,1
3,1
4,1
5,1
6,2
7,2
8,3
9,3
10,4
11,5
12,6
13,7
14,9
15,9
16,10
17,11
18,14
19,14
20,15
21,18
22,18
23,20
24,21
25,23
26,25
27,27
28,28
29,31
30,34
31,39
32,39
33,39
34,42
35,44
36,52
37,53
38,57
39,60
40,62
41,64
42,66
43,69
44,74
45,75
46,75
47,77
48,81
49,82
50,85
51,85
52,87
53,87
54,89
55,92
56,94
57,95
58,97
59,99
60,101
61,104
62,107
63,108
64,109
65,112
66,114
67,117
68,117
69,120
70,122
71,125
72,125
73,126
74,128
75,129
76,132
77,135
78,136
79,138
80,140
