0,1
1,1
2,1
3,1
4,1
5,1
6,4
7,4
8,5
9,6
10,7
11,8
12,9
13,11
14,12
15,15
16,16
17,20
18,24
19,25
20,30
21,35
22,37
23,40
24,44
25,54
26,60
27,66
28,69
29,73
30,76
31,84
32,90
33,97
34,107
35,115
36,127
37,136
38,145
39,158
40,178
41,188
42,211
43,222
44,235
45,252
46,268
47,293
48,314
49,340
50,361
51,391
52,418
53,456
54,482
55,519
56,559
57,592
58,627
59,657
60,696
61,737
62,790
63,831
64,884
65,934
66,987
67,1036
68,1092
69,1154
70,1225
71,1281
72,1351
73,1417
74,1486
75,1557
76,1633
77,1708
78,1801
79,1897
80,1979
