0,1
1,1
2,1
3,1
4,2
5,2
6,4
7,4
8,4
9,7
10,8
11,9
12,12
13,15
14,17
15,18
16,20
17,22
18,27
19,30
20,32
21,36
22,41
23,44
24,46
25,50
26,54
27,58
28,63
29,64
30,75
31,78
32,80
33,85
34,87
35,90
36,93
37,101
38,108
39,110
40,114
41,121
42,127
43,131
44,131
45,134
46,141
47,142
48,151
49,155
50,159
51,169
52,174
53,183
54,191
55,207
56,217
57,229
58,244
59,254
60,271
61,282
62,296
63,315
64,334
65,350
66,369
67,391
68,418
69,437
70,460
71,476
72,502
73,524
74,558
75,590
76,621
77,650
78,691
79,727
80,771
