0,1
1,1
2,1
3,1
4,1
5,2
6,2
7,2
8,2
9,3
10,4
11,4
12,6
13,8
14,10
15,10
16,12
17,13
18,13
19,13
20,14
21,17
22,19
23,20
24,21
25,22
26,23
27,24
28,26
29,27
30,29
31,30
32,30
33,30
34,34
35,36
36,37
37,37
38,40
39,44
40,45
41,47
42,48
43,49
44,50
45,53
46,57
47,58
48,59
49,64
50,69
51,71
52,71
53,72
54,77
55,78
56,81
57,86
58,92
59,96
60,101
61,108
62,117
63,125
64,130
65,137
66,150
67,165
68,175
69,188
70,198
71,209
72,225
73,237
74,251
75,271
76,287
77,306
78,325
79,346
80,373
