0,1
1,1
2,1
3,1
4,1
5,1
6,2
7,2
8,2
9,2
10,3
11,3
12,4
13,4
14,4
15,5
16,7
17,8
18,8
19,9
20,10
21,13
22,13
23,15
24,15
25,16
26,17
27,18
28,20
29,21
30,24
31,28
32,29
33,31
34,34
35,36
36,38
37,39
38,42
39,44
40,44
41,46
42,47
43,51
44,54
45,55
46,56
47,58
48,62
49,64
50,65
51,67
52,68
53,69
54,69
55,69
56,69
57,70
58,72
59,73
60,74
61,74
62,75
63,76
64,79
65,79
66,79
67,80
68,81
69,83
70,83
71,89
72,89
73,91
74,91
75,92
76,93
77,94
78,94
79,96
80,96
