0,1
1,1
2,1
3,1
4,2
5,3
6,3
7,4
8,5
9,5
10,5
11,5
12,5
13,5
14,6
15,6
16,6
17,6
18,7
19,7
20,7
21,8
22,8
23,8
24,9
25,9
26,10
27,10
28,13
29,13
30,15
31,17
32,17
33,19
34,19
35,24
36,28
37,30
38,31
39,33
40,34
41,37
42,41
43,43
44,45
45,47
46,49
47,52
48,57
49,57
50,58
51,61
52,63
53,64
54,67
55,72
56,74
57,77
58,78
59,79
60,83
61,84
62,88
63,90
64,96
65,99
66,103
67,105
68,107
69,111
70,115
71,118
72,127
73,133
74,138
75,144
76,151
77,155
78,162
79,173
80,181
