0,1
1,1
2,1
3,1
4,2
5,2
6,2
7,4
8,4
9,5
10,5
11,7
12,8
13,8
14,8
15,9
16,9
17,10
18,13
19,15
20,16
21,16
22,16
23,16
24,19
25,22
26,26
27,27
28,28
29,30
30,32
31,33
32,36
33,39
34,44
35,47
36,51
37,52
38,58
39,60
40,65
41,69
42,76
43,79
44,83
45,87
46,91
47,94
48,95
49,98
50,103
51,106
52,112
53,118
54,124
55,125
56,128
57,135
58,142
59,144
60,152
61,157
62,164
63,173
64,178
65,186
66,193
67,201
68,209
69,219
70,225
71,236
72,249
73,255
74,269
75,281
76,295
77,301
78,319
79,335
80,354
