0,1
1,1
2,1
3,2
4,3
5,3
6,3
7,3
8,4
9,4
10,5
11,5
12,6
13,6
14,7
15,9
16,13
17,13
18,13
19,14
20,14
21,15
22,17
23,18
24,18
25,18
26,20
27,20
28,22
29,22
30,24
31,26
32,28
33,29
34,29
35,31
36,31
37,35
38,35
39,37
40,37
41,38
42,39
43,42
44,42
45,44
46,45
47,45
48,46
49,49
50,51
51,51
52,53
53,54
54,54
55,55
56,58
57,60
58,62
59,65
60,67
61,71
62,76
63,78
64,81
65,85
66,90
67,97
68,101
69,106
70,113
71,115
72,122
73,127
74,133
75,139
76,141
77,146
78,156
79,157
80,160
