0,1
1,1
2,1
3,2
4,3
5,3
6,3
7,4
8,5
9,5
10,5
11,7
12,7
13,8
14,10
15,11
16,11
17,11
18,12
19,13
20,15
21,18
22,20
23,22
24,24
25,29
26,31
27,33
28,37
29,40
30,44
31,48
32,50
33,53
34,58
35,65
36,69
37,77
38,83
39,91
40,105
41,113
42,124
43,135
44,147
45,160
46,175
47,188
48,210
49,241
50,268
51,284
52,306
53,335
54,366
55,399
56,427
57,458
58,489
59,528
60,568
61,609
62,642
63,692
64,725
65,781
66,824
67,865
68,905
69,956
70,1014
71,1069
72,1144
73,1208
74,1291
75,1357
76,1436
77,1508
78,1594
79,1674
80,1767
