0,1
1,1
2,1
3,1
4,1
5,1
6,2
7,3
8,3
9,3
10,4
11,4
12,4
13,5
14,5
15,6
16,6
17,7
18,7
19,8
20,8
21,13
22,14
23,18
24,20
25,24
26,27
27,28
28,31
29,36
30,37
31,38
32,42
33,44
34,48
35,50
36,54
37,56
38,58
39,60
40,62
41,67
42,69
43,73
44,75
45,81
46,86
47,90
48,93
49,97
50,103
51,112
52,124
53,131
54,137
55,140
56,148
57,159
58,172
59,180
60,188
61,204
62,211
63,219
64,224
65,237
66,249
67,261
68,273
69,288
70,295
71,315
72,331
73,347
74,368
75,380
76,397
77,420
78,437
79,455
80,479
