0,1
1,1
2,1
3,1
4,1
5,4
6,4
7,4
8,4
9,4
10,6
11,6
12,6
13,7
14,8
15,8
16,10
17,10
18,11
19,12
20,13
21,13
22,13
23,14
24,14
25,14
26,15
27,17
28,19
29,20
30,23
31,25
32,28
33,29
34,34
35,36
36,37
37,39
38,44
39,46
40,47
41,50
42,51
43,58
44,60
45,63
46,69
47,76
48,79
49,83
50,91
51,100
52,109
53,120
54,125
55,138
56,146
57,157
58,173
59,183
60,197
61,207
62,222
63,232
64,248
65,260
66,276
67,291
68,307
69,324
70,338
71,354
72,375
73,391
74,408
75,420
76,435
77,463
78,488
79,508
80,534
