0,1
1,1
2,1
3,2
4,3
5,5
6,5
7,7
8,11
9,12
10,14
11,16
12,17
13,18
14,21
15,24
16,27
17,31
18,36
19,41
20,43
21,44
22,49
23,53
24,55
25,58
26,62
27,65
28,67
29,71
30,73
31,75
32,79
33,84
34,84
35,88
36,91
37,93
38,95
39,97
40,104
41,111
42,115
43,118
44,121
45,124
46,130
47,138
48,140
49,147
50,152
51,157
52,165
53,171
54,182
55,187
56,199
57,206
58,214
59,221
60,229
61,242
62,249
63,264
64,275
65,286
66,300
67,311
68,331
69,344
70,362
71,384
72,406
73,418
74,435
75,460
76,492
77,518
78,537
79,575
80,607
