0,1
1,1
2,1
3,2
4,2
5,2
6,2
7,2
8,3
9,3
10,3
11,3
12,3
13,3
14,4
15,4
16,6
17,6
18,7
19,8
20,8
21,9
22,13
23,13
24,15
25,18
26,19
27,23
28,27
29,30
30,33
31,35
32,37
33,41
34,45
35,55
36,56
37,60
38,66
39,77
40,82
41,86
42,93
43,97
44,104
45,115
46,119
47,126
48,134
49,144
50,156
51,169
52,177
53,188
54,198
55,206
56,217
57,232
58,244
59,265
60,270
61,280
62,291
63,298
64,315
65,327
66,337
67,352
68,373
69,396
70,419
71,440
72,467
73,495
74,517
75,543
76,575
77,606
78,643
79,686
80,722
