0,1
1,1
2,1
3,2
4,2
5,2
6,2
7,2
8,2
9,3
10,3
11,3
12,4
13,4
14,4
15,6
16,6
17,6
18,6
19,7
20,7
21,7
22,8
23,10
24,10
25,11
26,12
27,16
28,20
29,27
30,30
31,34
32,42
33,48
34,54
35,61
36,68
37,71
38,79
39,85
40,91
41,98
42,109
43,118
44,125
45,139
46,149
47,158
48,169
49,182
50,191
51,201
52,217
53,227
54,242
55,256
56,268
57,279
58,294
59,299
60,323
61,338
62,353
63,371
64,392
65,407
66,424
67,442
68,464
69,479
70,502
71,530
72,549
73,567
74,611
75,632
76,666
77,693
78,718
79,759
80,794
