0,1
1,1
2,1
3,1
4,3
5,4
6,5
7,6
8,7
9,9
10,10
11,12
12,16
13,17
14,23
15,28
16,32
17,36
18,37
19,42
20,44
21,46
22,49
23,56
24,60
25,60
26,61
27,67
28,75
29,79
30,88
31,94
32,104
33,112
34,120
35,128
36,132
37,143
38,145
39,152
40,166
41,175
42,189
43,198
44,207
45,218
46,229
47,245
48,263
49,284
50,297
51,317
52,333
53,349
54,366
55,392
56,415
57,448
58,473
59,504
60,532
61,564
62,603
63,652
64,688
65,738
66,787
67,831
68,884
69,938
70,998
71,1060
72,1118
73,1202
74,1292
75,1362
76,1433
77,1511
78,1603
79,1704
80,1799
