0,1
1,1
2,1
3,2
4,2
5,2
6,3
7,4
8,5
9,5
10,6
11,10
12,10
13,11
14,14
15,16
16,18
17,20
18,25
19,29
20,32
21,35
22,39
23,45
24,54
25,58
26,64
27,72
28,80
29,86
30,99
31,104
32,115
33,123
34,136
35,142
36,154
37,170
38,181
39,195
40,210
41,224
42,235
43,258
44,277
45,301
46,320
47,341
48,370
49,398
50,427
51,450
52,477
53,507
54,541
55,569
56,600
57,648
58,687
59,732
60,778
61,817
62,879
63,936
64,986
65,1046
66,1096
67,1164
68,1237
69,1303
70,1361
71,1452
72,1518
73,1614
74,1716
75,1816
76,1913
77,2030
78,2159
79,2271
80,2403
