0,1
1,1
2,1
3,1
4,1
5,1
6,4
7,4
8,4
9,4
10,5
11,6
12,7
13,9
14,12
15,14
16,15
17,19
18,29
19,37
20,40
21,43
22,48
23,54
24,58
25,63
26,68
27,74
28,76
29,88
30,100
31,108
32,122
33,127
34,135
35,142
36,156
37,173
38,185
39,195
40,206
41,226
42,235
43,250
44,263
45,280
46,297
47,314
48,341
49,359
50,371
51,403
52,423
53,444
54,470
55,499
56,513
57,541
58,565
59,601
60,649
61,683
62,714
63,748
64,791
65,844
66,883
67,934
68,980
69,1034
70,1099
71,1161
72,1229
73,1293
74,1365
75,1440
76,1525
77,1615
78,1710
79,1799
80,1882
