0,1
1,1
2,1
3,2
4,2
5,2
6,3
7,3
8,3
9,3
10,4
11,5
12,5
13,5
14,5
15,7
16,7
17,7
18,8
19,11
20,17
21,21
22,24
23,26
24,32
25,37
26,44
27,48
28,51
29,57
30,62
31,68
32,72
33,77
34,87
35,95
36,100
37,106
38,113
39,118
40,131
41,145
42,156
43,163
44,173
45,182
46,192
47,204
48,215
49,232
50,248
51,255
52,259
53,274
54,299
55,311
56,323
57,339
58,360
59,373
60,384
61,394
62,411
63,418
64,442
65,462
66,481
67,493
68,512
69,534
70,552
71,572
72,590
73,620
74,647
75,684
76,710
77,745
78,778
79,816
80,849
