0,1
1,1
2,1
3,1
4,2
5,2
6,3
7,3
8,5
9,6
10,6
11,8
12,8
13,9
14,11
15,12
16,12
17,13
18,14
19,15
20,16
21,18
22,19
23,21
24,22
25,25
26,26
27,26
28,27
29,30
30,33
31,33
32,34
33,35
34,37
35,38
36,40
37,40
38,40
39,41
40,43
41,44
42,46
43,46
44,47
45,48
46,49
47,51
48,56
49,58
50,59
51,60
52,61
53,65
54,66
55,67
56,67
57,68
58,72
59,76
60,76
61,81
62,84
63,90
64,93
65,96
66,99
67,105
68,116
69,122
70,129
71,141
72,153
73,163
74,172
75,179
76,191
77,198
78,209
79,217
80,222
