0,1
1,1
2,1
3,1
4,1
5,1
6,1
7,1
8,2
9,3
10,3
11,3
12,3
13,5
14,5
15,6
16,8
17,12
18,14
19,15
20,19
21,21
22,24
23,26
24,30
25,31
26,36
27,38
28,38
29,40
30,43
31,45
32,47
33,48
34,50
35,52
36,54
37,55
38,56
39,58
40,59
41,59
42,59
43,60
44,62
45,63
46,63
47,63
48,66
49,66
50,68
51,73
52,73
53,75
54,79
55,79
56,82
57,84
58,89
59,94
60,96
61,99
62,111
63,116
64,122
65,123
66,130
67,134
68,140
69,143
70,151
71,155
72,166
73,176
74,185
75,196
76,199
77,211
78,226
79,233
80,246
