0,1
1,1
2,1
3,2
4,2
5,2
6,3
7,4
8,5
9,5
10,5
11,7
12,8
13,8
14,9
15,9
16,10
17,11
18,13
19,13
20,14
21,14
22,16
23,16
24,19
25,19
26,21
27,22
28,23
29,24
30,24
31,26
32,27
33,31
34,33
35,34
36,37
37,39
38,39
39,41
40,46
41,46
42,50
43,52
44,56
45,61
46,63
47,70
48,75
49,80
50,86
51,95
52,100
53,108
54,115
55,127
56,135
57,144
58,154
59,169
60,180
61,198
62,211
63,219
64,234
65,252
66,264
67,279
68,291
69,304
70,317
71,338
72,356
73,367
74,388
75,412
76,431
77,446
78,464
79,495
80,512
