0,1
1,1
2,1
3,1
4,1
5,2
6,2
7,2
8,4
9,4
10,4
11,4
12,4
13,4
14,4
15,6
16,6
17,7
18,7
19,7
20,9
21,9
22,11
23,12
24,15
25,15
26,16
27,16
28,17
29,20
30,20
31,23
32,26
33,32
34,33
35,36
36,37
37,40
38,41
39,45
40,49
41,51
42,53
43,55
44,56
45,58
46,59
47,61
48,65
49,66
50,70
51,73
52,76
53,80
54,84
55,89
56,93
57,98
58,101
59,110
60,117
61,123
62,135
63,142
64,156
65,167
66,180
67,194
68,208
69,230
70,241
71,255
72,272
73,293
74,309
75,324
76,346
77,362
78,386
79,416
80,440
