0,1
1,1
2,1
3,1
4,1
5,1
6,1
7,1
8,1
9,1
10,1
11,2
12,2
13,3
14,5
15,7
16,10
17,13
18,14
19,17
20,20
21,22
22,23
23,30
24,35
25,38
26,43
27,45
28,46
29,52
30,56
31,57
32,61
33,65
34,69
35,74
36,80
37,87
38,94
39,99
40,105
41,109
42,116
43,125
44,137
45,148
46,156
47,163
48,169
49,175
50,189
51,202
52,214
53,225
54,235
55,249
56,265
57,278
58,290
59,312
60,332
61,352
62,382
63,410
64,442
65,462
66,490
67,526
68,556
69,592
70,620
71,654
72,687
73,738
74,790
75,830
76,883
77,931
78,978
79,1025
80,1088
