0,1
1,1
2,1
3,1
4,1
5,1
6,1
7,3
8,3
9,3
10,3
11,3
12,4
13,4
14,5
15,5
16,5
17,5
18,7
19,8
20,9
21,11
22,13
23,15
24,15
25,16
26,17
27,17
28,17
29,19
30,20
31,20
32,21
33,23
34,24
35,24
36,27
37,32
38,39
39,41
40,44
41,47
42,53
43,57
44,66
45,70
46,78
47,85
48,92
49,99
50,114
51,127
52,139
53,150
54,165
55,182
56,192
57,206
58,222
59,246
60,265
61,276
62,298
63,319
64,342
65,360
66,384
67,407
68,432
69,453
70,478
71,501
72,526
73,552
74,579
75,612
76,646
77,680
78,721
79,757
80,805
