0,1
1,1
2,1
3,1
4,2
5,4
6,5
7,7
8,11
9,16
10,18
11,18
12,20
13,22
14,23
15,25
16,26
17,31
18,36
19,38
20,42
21,45
22,47
23,54
24,61
25,67
26,73
27,78
28,84
29,93
30,96
31,104
32,112
33,116
34,130
35,138
36,145
37,153
38,165
39,179
40,185
41,199
42,207
43,212
44,220
45,230
46,243
47,252
48,264
49,283
50,300
51,317
52,337
53,360
54,377
55,400
56,421
57,443
58,467
59,484
60,520
61,538
62,560
63,586
64,612
65,634
66,663
67,688
68,717
69,749
70,787
71,820
72,867
73,903
74,952
75,997
76,1043
77,1096
78,1153
79,1206
80,1266
