0,1
1,1
2,1
3,1
4,1
5,1
6,1
7,3
8,4
9,4
10,4
11,6
12,8
13,9
14,10
15,13
16,14
17,17
18,17
19,20
20,22
21,26
22,28
23,33
24,39
25,39
26,42
27,43
28,53
29,59
30,64
31,71
32,79
33,83
34,87
35,94
36,100
37,109
38,116
39,122
40,130
41,141
42,150
43,156
44,167
45,173
46,186
47,194
48,202
49,210
50,219
51,223
52,237
53,246
54,263
55,280
56,290
57,295
58,301
59,312
60,324
61,337
62,346
63,353
64,364
65,372
66,385
67,395
68,405
69,423
70,443
71,456
72,482
73,491
74,506
75,523
76,543
77,569
78,588
79,617
80,641
