0,1
1,1
2,1
3,1
4,1
5,1
6,2
7,2
8,2
9,2
10,2
11,3
12,3
13,5
14,5
15,5
16,5
17,6
18,7
19,7
20,8
21,8
22,8
23,10
24,12
25,12
26,12
27,13
28,15
29,18
30,19
31,23
32,24
33,26
34,28
35,30
36,33
37,35
38,37
39,43
40,47
41,50
42,53
43,59
44,63
45,69
46,76
47,84
48,86
49,88
50,96
51,108
52,117
53,129
54,136
55,142
56,151
57,167
58,177
59,191
60,201
61,208
62,224
63,248
64,254
65,276
66,289
67,308
68,325
69,342
70,362
71,387
72,408
73,426
74,445
75,464
76,485
77,505
78,526
79,545
80,574
