0,1
1,1
2,2
3,2
4,4
5,4
6,5
7,8
8,10
9,13
10,16
11,16
12,21
13,22
14,27
15,29
16,33
17,36
18,38
19,42
20,47
21,51
22,56
23,61
24,64
25,66
26,76
27,82
28,91
29,100
30,103
31,111
32,116
33,125
34,132
35,139
36,147
37,154
38,160
39,167
40,172
41,186
42,199
43,209
44,218
45,225
46,241
47,244
48,249
49,261
50,267
51,273
52,280
53,294
54,298
55,309
56,316
57,325
58,335
59,347
60,363
61,373
62,383
63,394
64,408
65,415
66,431
67,451
68,469
69,476
70,487
71,504
72,524
73,532
74,542
75,556
76,571
77,590
78,602
79,624
80,646
