0,1
1,1
2,1
3,1
4,2
5,2
6,4
7,5
8,5
9,5
10,5
11,6
12,6
13,6
14,9
15,9
16,9
17,10
18,10
19,11
20,12
21,13
22,13
23,13
24,13
25,13
26,13
27,14
28,15
29,16
30,16
31,16
32,17
33,18
34,18
35,19
36,20
37,20
38,22
39,22
40,22
41,23
42,23
43,25
44,25
45,26
46,27
47,27
48,28
49,29
50,32
51,32
52,34
53,36
54,39
55,41
56,43
57,44
58,45
59,47
60,49
61,50
62,52
63,53
64,53
65,53
66,55
67,55
68,57
69,57
70,58
71,59
72,59
73,60
74,62
75,62
76,63
77,64
78,64
79,68
80,70
