0,1
1,1
2,1
3,1
4,1
5,2
6,3
7,4
8,4
9,4
10,5
11,8
12,10
13,11
14,12
15,13
16,14
17,16
18,18
19,19
20,19
21,20
22,21
23,22
24,23
25,24
26,24
27,26
28,26
29,27
30,29
31,30
32,30
33,31
34,32
35,33
36,33
37,34
38,34
39,35
40,35
41,35
42,35
43,36
44,36
45,37
46,37
47,37
48,38
49,39
50,40
51,41
52,41
53,41
54,42
55,43
56,45
57,47
58,47
59,47
60,47
61,50
62,51
63,52
64,52
65,52
66,52
67,52
68,52
69,53
70,54
71,54
72,54
73,54
74,54
75,55
76,55
77,56
78,57
79,57
80,57
