0,1
1,1
2,1
3,2
4,3
5,4
6,4
7,4
8,4
9,6
10,9
11,11
12,12
13,13
14,14
15,16
16,18
17,20
18,22
19,25
20,28
21,35
22,40
23,45
24,55
25,59
26,65
27,72
28,76
29,85
30,95
31,101
32,106
33,117
34,129
35,139
36,153
37,167
38,178
39,191
40,203
41,215
42,232
43,245
44,257
45,266
46,281
47,297
48,319
49,328
50,342
51,369
52,388
53,409
54,422
55,445
56,465
57,489
58,506
59,528
60,555
61,575
62,597
63,618
64,657
65,682
66,714
67,749
68,783
69,823
70,865
71,901
72,945
73,993
74,1034
75,1069
76,1109
77,1158
78,1200
79,1250
80,1302
