0,1
1,1
2,1
3,1
4,1
5,2
6,2
7,2
8,2
9,3
10,3
11,3
12,4
13,4
14,4
15,4
16,5
17,5
18,7
19,7
20,8
21,9
22,10
23,12
24,12
25,13
26,14
27,15
28,15
29,19
30,21
31,26
32,28
33,32
34,35
35,44
36,47
37,54
38,63
39,71
40,79
41,84
42,88
43,95
44,102
45,111
46,117
47,129
48,140
49,149
50,167
51,177
52,197
53,215
54,226
55,245
56,261
57,278
58,296
59,317
60,340
61,359
62,396
63,423
64,446
65,471
66,511
67,548
68,577
69,606
70,638
71,685
72,729
73,779
74,833
75,895
76,954
77,1012
78,1073
79,1128
80,1198
