0,1
1,1
2,1
3,1
4,1
5,2
6,2
7,2
8,2
9,2
10,3
11,3
12,3
13,4
14,5
15,5
16,5
17,6
18,6
19,6
20,8
21,8
22,9
23,10
24,10
25,12
26,12
27,12
28,13
29,16
30,18
31,20
32,21
33,24
34,26
35,29
36,30
37,32
38,37
39,41
40,41
41,44
42,49
43,55
44,58
45,61
46,65
47,69
48,72
49,76
50,82
51,85
52,93
53,97
54,100
55,107
56,118
57,130
58,136
59,149
60,164
61,174
62,192
63,207
64,221
65,233
66,254
67,273
68,291
69,308
70,331
71,361
72,384
73,416
74,447
75,471
76,498
77,523
78,553
79,583
80,613
