0,1
1,1
2,1
3,1
4,1
5,1
6,2
7,2
8,2
9,3
10,3
11,4
12,6
13,6
14,6
15,7
16,8
17,8
18,9
19,9
20,9
21,9
22,12
23,12
24,12
25,12
26,12
27,14
28,14
29,14
30,15
31,16
32,17
33,18
34,19
35,23
36,25
37,27
38,29
39,32
40,34
41,40
42,43
43,46
44,50
45,56
46,64
47,70
48,71
49,77
50,91
51,96
52,103
53,109
54,117
55,119
56,127
57,134
58,137
59,144
60,156
61,162
62,168
63,174
64,183
65,193
66,210
67,216
68,221
69,234
70,242
71,258
72,271
73,280
74,292
75,310
76,328
77,345
78,365
79,383
80,404
