0,1
1,1
2,1
3,1
4,2
5,2
6,2
7,4
8,5
9,8
10,8
11,9
12,12
13,12
14,13
15,17
16,21
17,25
18,29
19,36
20,44
21,46
22,52
23,59
24,63
25,67
26,70
27,77
28,82
29,89
30,96
31,104
32,111
33,123
34,128
35,137
36,148
37,154
38,167
39,178
40,191
41,196
42,199
43,206
44,214
45,225
46,234
47,242
48,254
49,263
50,278
51,291
52,299
53,314
54,321
55,343
56,358
57,373
58,395
59,417
60,444
61,469
62,488
63,510
64,530
65,560
66,591
67,620
68,646
69,680
70,717
71,759
72,807
73,840
74,878
75,919
76,972
77,1016
78,1065
79,1119
80,1172
