0,1
1,1
2,1
3,1
4,1
5,2
6,3
7,3
8,4
9,4
10,5
11,7
12,8
13,10
14,10
15,10
16,11
17,11
18,11
19,12
20,13
21,13
22,13
23,14
24,14
25,15
26,16
27,16
28,16
29,16
30,17
31,17
32,19
33,21
34,22
35,25
36,27
37,29
38,33
39,35
40,40
41,43
42,45
43,49
44,54
45,57
46,62
47,67
48,73
49,77
50,79
51,81
52,87
53,90
54,95
55,98
56,105
57,106
58,111
59,114
60,118
61,122
62,128
63,136
64,140
65,145
66,152
67,159
68,166
69,170
70,173
71,177
72,184
73,189
74,198
75,209
76,221
77,235
78,251
79,272
80,290
