0,1
1,1
2,1
3,1
4,2
5,4
6,5
7,5
8,7
9,9
10,10
11,13
12,15
13,17
14,21
15,23
16,27
17,30
18,33
19,35
20,38
21,42
22,47
23,53
24,59
25,66
26,68
27,74
28,79
29,83
30,87
31,97
32,105
33,117
34,119
35,129
36,142
37,159
38,171
39,181
40,194
41,214
42,234
43,251
44,263
45,293
46,306
47,329
48,357
49,377
50,408
51,438
52,485
53,521
54,565
55,599
56,647
57,692
58,747
59,792
60,856
61,912
62,972
63,1052
64,1117
65,1187
66,1267
67,1348
68,1436
69,1521
70,1599
71,1696
72,1803
73,1897
74,1980
75,2087
76,2196
77,2317
78,2420
79,2542
80,2668
