0,1
1,1
2,1
3,1
4,1
5,1
6,1
7,1
8,1
9,2
10,2
11,3
12,3
13,4
14,6
15,8
16,10
17,13
18,13
19,14
20,15
21,16
22,18
23,20
24,20
25,20
26,22
27,22
28,23
29,25
30,28
31,29
32,29
33,29
34,31
35,32
36,34
37,37
38,39
39,39
40,40
41,43
42,45
43,46
44,49
45,50
46,52
47,53
48,58
49,60
50,61
51,62
52,66
53,67
54,69
55,72
56,73
57,75
58,78
59,80
60,83
61,83
62,85
63,86
64,86
65,88
66,89
67,95
68,97
69,99
70,100
71,104
72,105
73,108
74,114
75,118
76,121
77,124
78,126
79,131
80,135
