0,1
1,1
2,1
3,1
4,1
5,1
6,3
7,3
8,3
9,3
10,5
11,5
12,5
13,6
14,6
15,6
16,7
17,7
18,8
19,8
20,8
21,10
22,10
23,11
24,11
25,13
26,15
27,17
28,17
29,17
30,18
31,19
32,19
33,23
34,25
35,27
36,27
37,28
38,28
39,28
40,28
41,29
42,30
43,32
44,32
45,32
46,34
47,35
48,35
49,35
50,36
51,37
52,37
53,37
54,38
55,38
56,39
57,39
58,39
59,39
60,40
61,42
62,42
63,43
64,43
65,44
66,45
67,46
68,46
69,46
70,46
71,47
72,47
73,48
74,48
75,50
76,50
77,50
78,51
79,51
80,51
