0,1
1,1
2,1
3,1
4,2
5,3
6,4
7,5
8,5
9,6
10,8
11,11
12,11
13,12
14,14
15,17
16,20
17,21
18,24
19,25
20,28
21,30
22,33
23,33
24,36
25,40
26,45
27,46
28,48
29,50
30,55
31,62
32,65
33,69
34,74
35,76
36,81
37,83
38,88
39,89
40,92
41,95
42,98
43,102
44,106
45,106
46,108
47,113
48,115
49,117
50,126
51,127
52,128
53,130
54,134
55,135
56,144
57,152
58,156
59,165
60,170
61,175
62,184
63,189
64,196
65,208
66,216
67,231
68,245
69,258
70,270
71,289
72,313
73,333
74,346
75,359
76,381
77,400
78,423
79,448
80,464
