0,1
1,1
2,1
3,1
4,2
5,3
6,3
7,5
8,6
9,6
10,6
11,6
12,8
13,11
14,12
15,15
16,16
17,20
18,23
19,25
20,25
21,26
22,29
23,31
24,33
25,34
26,38
27,39
28,39
29,39
30,40
31,40
32,41
33,42
34,44
35,44
36,44
37,47
38,49
39,49
40,49
41,49
42,51
43,51
44,52
45,52
46,54
47,54
48,55
49,56
50,56
51,56
52,58
53,58
54,59
55,63
56,65
57,67
58,68
59,70
60,73
61,74
62,77
63,78
64,80
65,83
66,83
67,85
68,88
69,91
70,93
71,95
72,99
73,104
74,108
75,110
76,116
77,121
78,123
79,128
80,131
