0,1
1,1
2,2
3,2
4,3
5,3
6,5
7,5
8,5
9,6
10,8
11,9
12,13
13,13
14,15
15,18
16,21
17,23
18,25
19,27
20,32
21,33
22,33
23,38
24,43
25,47
26,53
27,55
28,60
29,67
30,73
31,76
32,84
33,91
34,94
35,101
36,107
37,110
38,111
39,121
40,132
41,143
42,149
43,162
44,169
45,185
46,191
47,200
48,210
49,228
50,242
51,252
52,262
53,292
54,303
55,327
56,350
57,373
58,389
59,409
60,440
61,463
62,496
63,514
64,535
65,573
66,608
67,641
68,677
69,714
70,761
71,800
72,842
73,886
74,933
75,972
76,1023
77,1086
78,1147
79,1206
80,1272
