0,1
1,1
2,1
3,1
4,2
5,2
6,4
7,4
8,5
9,5
10,5
11,5
12,7
13,8
14,8
15,8
16,10
17,12
18,15
19,18
20,19
21,20
22,24
23,27
24,31
25,35
26,39
27,40
28,43
29,45
30,46
31,48
32,48
33,51
34,52
35,53
36,56
37,56
38,59
39,59
40,61
41,63
42,65
43,67
44,68
45,76
46,83
47,87
48,91
49,99
50,106
51,114
52,118
53,126
54,132
55,142
56,150
57,158
58,165
59,177
60,187
61,200
62,215
63,227
64,243
65,257
66,270
67,287
68,310
69,327
70,358
71,376
72,388
73,411
74,433
75,449
76,477
77,508
78,535
79,573
80,602
