0,1
1,1
2,1
3,1
4,2
5,2
6,2
7,3
8,3
9,4
10,7
11,8
12,9
13,13
14,14
15,17
16,19
17,20
18,23
19,24
20,27
21,30
22,33
23,34
24,35
25,37
26,38
27,42
28,46
29,47
30,51
31,54
32,56
33,58
34,59
35,59
36,66
37,68
38,69
39,71
40,73
41,77
42,81
43,83
44,84
45,89
46,89
47,91
48,94
49,96
50,100
51,104
52,109
53,111
54,115
55,123
56,129
57,135
58,142
59,148
60,154
61,163
62,167
63,177
64,189
65,192
66,199
67,203
68,209
69,218
70,222
71,233
72,239
73,251
74,259
75,271
76,283
77,293
78,302
79,315
80,327
