0,1
1,1
2,1
3,1
4,2
5,2
6,3
7,3
8,5
9,5
10,7
11,8
12,9
13,11
14,12
15,14
16,17
17,19
18,21
19,25
20,29
21,36
22,41
23,45
24,52
25,59
26,63
27,73
28,77
29,82
30,89
31,96
32,103
33,112
34,115
35,128
36,139
37,157
38,171
39,190
40,202
41,217
42,241
43,266
44,288
45,313
46,330
47,344
48,375
49,400
50,423
51,447
52,478
53,499
54,519
55,541
56,568
57,601
58,632
59,667
60,695
61,725
62,763
63,808
64,848
65,895
66,940
67,983
68,1041
69,1100
70,1159
71,1220
72,1288
73,1347
74,1409
75,1486
76,1575
77,1653
78,1733
79,1803
80,1899
