0,1
1,1
2,1
3,2
4,3
5,4
6,4
7,4
8,5
9,5
10,8
11,10
12,12
13,14
14,15
15,18
16,19
17,23
18,27
19,32
20,34
21,38
22,43
23,48
24,54
25,55
26,62
27,68
28,70
29,73
30,75
31,77
32,83
33,93
34,98
35,101
36,105
37,111
38,116
39,120
40,121
41,123
42,128
43,133
44,137
45,142
46,148
47,154
48,162
49,168
50,175
51,183
52,198
53,211
54,227
55,241
56,253
57,275
58,291
59,319
60,336
61,356
62,375
63,411
64,431
65,459
66,492
67,514
68,551
69,588
70,628
71,666
72,705
73,746
74,781
75,806
76,844
77,881
78,914
79,957
80,996
