0,1
1,1
2,1
3,1
4,2
5,4
6,4
7,4
8,4
9,5
10,8
11,9
12,10
13,11
14,16
15,18
16,20
17,24
18,27
19,32
20,34
21,38
22,43
23,48
24,49
25,50
26,59
27,64
28,67
29,69
30,76
31,83
32,86
33,90
34,97
35,101
36,103
37,109
38,113
39,116
40,116
41,120
42,125
43,128
44,135
45,138
46,143
47,145
48,151
49,156
50,157
51,160
52,165
53,171
54,174
55,180
56,185
57,192
58,201
59,206
60,212
61,217
62,224
63,230
64,238
65,245
66,250
67,257
68,273
69,280
70,292
71,298
72,307
73,317
74,329
75,339
76,350
77,366
78,379
79,386
80,398
