0,1
1,1
2,1
3,1
4,1
5,1
6,4
7,4
8,5
9,5
10,7
11,8
12,10
13,11
14,11
15,16
16,16
17,18
18,20
19,21
20,23
21,24
22,28
23,31
24,36
25,36
26,38
27,45
28,53
29,61
30,68
31,77
32,86
33,91
34,95
35,98
36,104
37,110
38,119
39,123
40,130
41,143
42,151
43,160
44,167
45,182
46,195
47,202
48,210
49,224
50,236
51,253
52,272
53,292
54,317
55,337
56,359
57,387
58,419
59,442
60,478
61,512
62,546
63,581
64,619
65,650
66,690
67,727
68,773
69,812
70,850
71,882
72,929
73,981
74,1031
75,1068
76,1113
77,1164
78,1219
79,1288
80,1336
