0,1
1,1
2,1
3,1
4,1
5,2
6,2
7,4
8,4
9,4
10,5
11,8
12,11
13,12
14,13
15,15
16,17
17,19
18,21
19,24
20,24
21,24
22,25
23,30
24,30
25,32
26,36
27,38
28,40
29,44
30,45
31,47
32,49
33,51
34,53
35,55
36,59
37,62
38,64
39,64
40,64
41,67
42,68
43,71
44,75
45,78
46,78
47,78
48,79
49,81
50,83
51,83
52,84
53,85
54,85
55,87
56,88
57,90
58,91
59,92
60,92
61,93
62,96
63,97
64,98
65,99
66,101
67,103
68,107
69,110
70,111
71,114
72,118
73,121
74,121
75,122
76,124
77,125
78,126
79,127
80,127
