0,1
1,1
2,1
3,1
4,2
5,2
6,3
7,3
8,3
9,4
10,5
11,6
12,6
13,6
14,7
15,9
16,9
17,9
18,10
19,10
20,11
21,13
22,14
23,14
24,15
25,15
26,16
27,18
28,18
29,18
30,18
31,19
32,20
33,21
34,23
35,23
36,23
37,23
38,23
39,23
40,25
41,25
42,25
43,25
44,25
45,25
46,25
47,25
48,25
49,26
50,26
51,26
52,26
53,26
54,26
55,26
56,26
57,26
58,26
59,26
60,26
61,27
62,27
63,27
64,27
65,27
66,27
67,27
68,28
69,28
70,29
71,29
72,29
73,30
74,30
75,31
76,32
77,32
78,33
79,33
80,33
