0,1
1,1
2,1
3,1
4,2
5,4
6,4
7,5
8,6
9,8
10,9
11,9
12,10
13,11
14,11
15,13
16,13
17,13
18,14
19,15
20,18
21,18
22,19
23,22
24,23
25,24
26,24
27,29
28,31
29,31
30,33
31,34
32,36
33,37
34,40
35,41
36,42
37,42
38,45
39,47
40,49
41,49
42,52
43,55
44,57
45,58
46,59
47,60
48,60
49,62
50,65
51,71
52,71
53,76
54,76
55,83
56,84
57,87
58,88
59,90
60,91
61,92
62,97
63,99
64,103
65,103
66,105
67,108
68,112
69,115
70,115
71,116
72,120
73,123
74,123
75,127
76,130
77,132
78,133
79,136
80,137
