0,1
1,1
2,1
3,1
4,1
5,1
6,1
7,1
8,1
9,1
10,1
11,1
12,1
13,2
14,2
15,2
16,2
17,3
18,3
19,3
20,3
21,4
22,4
23,5
24,5
25,5
26,5
27,5
28,6
29,6
30,6
31,6
32,9
33,9
34,9
35,10
36,10
37,10
38,10
39,12
40,12
41,13
42,13
43,16
44,17
45,20
46,22
47,22
48,24
49,27
50,29
51,32
52,35
53,38
54,40
55,46
56,50
57,52
58,58
59,60
60,64
61,73
62,78
63,82
64,92
65,95
66,103
67,111
68,120
69,126
70,130
71,145
72,152
73,161
74,180
75,188
76,198
77,206
78,218
79,235
80,255
