0,1
1,1
2,1
3,1
4,2
5,2
6,2
7,2
8,2
9,2
10,3
11,3
12,4
13,5
14,5
15,5
16,5
17,5
18,5
19,5
20,5
21,6
22,6
23,6
24,7
25,7
26,8
27,8
28,8
29,9
30,11
31,12
32,13
33,14
34,14
35,14
36,15
37,15
38,16
39,16
40,17
41,18
42,18
43,18
44,19
45,19
46,20
47,20
48,21
49,21
50,23
51,24
52,24
53,24
54,25
55,25
56,26
57,26
58,26
59,28
60,28
61,28
62,30
63,32
64,32
65,33
66,35
67,36
68,37
69,37
70,39
71,41
72,43
73,45
74,47
75,50
76,51
77,52
78,56
79,57
80,61
