0,1
1,1
2,2
3,3
4,5
5,6
6,8
7,9
8,12
9,15
10,19
11,23
12,26
13,32
14,35
15,41
16,46
17,52
18,59
19,71
20,78
21,86
22,93
23,93
24,100
25,103
26,116
27,125
28,129
29,141
30,148
31,160
32,172
33,190
34,202
35,213
36,231
37,253
38,275
39,306
40,333
41,353
42,379
43,403
44,434
45,464
46,498
47,532
48,572
49,607
50,643
51,683
52,706
53,742
54,792
55,823
56,869
57,911
58,966
59,1024
60,1077
61,1109
62,1159
63,1217
64,1284
65,1360
66,1417
67,1468
68,1537
69,1605
70,1687
71,1743
72,1820
73,1890
74,1974
75,2055
76,2140
77,2227
78,2325
79,2422
80,2529
