0,1
1,1
2,1
3,1
4,1
5,2
6,2
7,2
8,2
9,2
10,3
11,3
12,3
13,3
14,4
15,4
16,4
17,4
18,6
19,6
20,7
21,7
22,8
23,8
24,9
25,9
26,9
27,9
28,10
29,11
30,11
31,12
32,13
33,14
34,14
35,14
36,15
37,16
38,19
39,20
40,21
41,22
42,23
43,23
44,25
45,26
46,26
47,28
48,29
49,33
50,34
51,35
52,36
53,41
54,45
55,47
56,48
57,50
58,52
59,58
60,61
61,62
62,65
63,69
64,71
65,74
66,78
67,79
68,81
69,82
70,87
71,92
72,96
73,102
74,103
75,110
76,114
77,116
78,123
79,126
80,131
