0,1
1,1
2,1
3,2
4,4
5,4
6,6
7,8
8,9
9,13
10,16
11,20
12,22
13,22
14,23
15,27
16,27
17,29
18,31
19,33
20,34
21,34
22,36
23,38
24,39
25,39
26,39
27,39
28,40
29,42
30,44
31,46
32,48
33,50
34,53
35,59
36,61
37,65
38,69
39,75
40,77
41,79
42,84
43,90
44,97
45,103
46,106
47,108
48,118
49,124
50,130
51,143
52,149
53,159
54,165
55,173
56,186
57,195
58,203
59,222
60,233
61,242
62,253
63,268
64,276
65,290
66,308
67,323
68,342
69,367
70,386
71,418
72,446
73,470
74,497
75,522
76,554
77,582
78,604
79,636
80,663
