0,1
1,1
2,1
3,2
4,2
5,2
6,6
7,9
8,10
9,11
10,11
11,17
12,24
13,28
14,31
15,36
16,41
17,48
18,54
19,60
20,63
21,73
22,78
23,85
24,98
25,108
26,119
27,132
28,147
29,167
30,182
31,200
32,221
33,241
34,262
35,286
36,316
37,339
38,368
39,405
40,428
41,455
42,486
43,523
44,568
45,593
46,619
47,659
48,703
49,737
50,776
51,824
52,867
53,907
54,965
55,1014
56,1068
57,1131
58,1193
59,1253
60,1325
61,1393
62,1455
63,1534
64,1617
65,1700
66,1790
67,1885
68,1987
69,2080
70,2197
71,2311
72,2438
73,2548
74,2685
75,2828
76,2960
77,3130
78,3316
79,3499
80,3703
