0,1
1,1
2,1
3,1
4,1
5,2
6,2
7,2
8,2
9,5
10,5
11,6
12,8
13,9
14,9
15,11
16,12
17,16
18,17
19,18
20,20
21,21
22,24
23,30
24,32
25,36
26,36
27,39
28,41
29,42
30,45
31,48
32,49
33,54
34,56
35,58
36,62
37,67
38,74
39,81
40,86
41,94
42,102
43,112
44,119
45,127
46,136
47,146
48,156
49,165
50,174
51,193
52,206
53,214
54,227
55,239
56,254
57,260
58,274
59,286
60,299
61,316
62,326
63,347
64,372
65,388
66,410
67,425
68,450
69,475
70,504
71,527
72,548
73,578
74,603
75,637
76,669
77,702
78,738
79,782
80,814
