0,1
1,1
2,1
3,1
4,1
5,1
6,1
7,1
8,1
9,2
10,2
11,2
12,4
13,5
14,6
15,8
16,14
17,15
18,23
19,26
20,28
21,31
22,33
23,39
24,41
25,45
26,48
27,54
28,62
29,67
30,75
31,80
32,85
33,93
34,99
35,109
36,117
37,125
38,132
39,142
40,154
41,164
42,178
43,185
44,200
45,212
46,229
47,239
48,256
49,276
50,291
51,309
52,331
53,358
54,387
55,410
56,432
57,457
58,482
59,505
60,523
61,549
62,573
63,615
64,647
65,686
66,728
67,766
68,811
69,866
70,907
71,961
72,1026
73,1076
74,1128
75,1202
76,1282
77,1350
78,1412
79,1496
80,1585
