0,1
1,1
2,1
3,1
4,1
5,3
6,4
7,5
8,5
9,5
10,6
11,6
12,6
13,7
14,7
15,7
16,7
17,8
18,8
19,9
20,9
21,10
22,10
23,10
24,10
25,10
26,10
27,10
28,11
29,11
30,12
31,13
32,13
33,14
34,14
35,14
36,17
37,19
38,19
39,20
40,20
41,22
42,23
43,23
44,23
45,23
46,24
47,24
48,24
49,25
50,26
51,27
52,27
53,28
54,28
55,28
56,29
57,30
58,32
59,32
60,32
61,32
62,33
63,36
64,36
65,38
66,38
67,38
68,41
69,42
70,43
71,48
72,50
73,53
74,55
75,55
76,59
77,62
78,65
79,68
80,71
