0,1
1,1
2,1
3,1
4,2
5,4
6,5
7,6
8,7
9,7
10,8
11,9
12,12
13,15
14,15
15,17
16,21
17,25
18,26
19,30
20,36
21,42
22,46
23,49
24,51
25,56
26,60
27,64
28,67
29,73
30,77
31,87
32,88
33,91
34,95
35,95
36,98
37,102
38,110
39,114
40,118
41,119
42,125
43,131
44,137
45,139
46,144
47,146
48,149
49,159
50,168
51,176
52,184
53,194
54,205
55,218
56,226
57,237
58,246
59,254
60,264
61,269
62,285
63,294
64,305
65,318
66,333
67,354
68,364
69,384
70,399
71,411
72,426
73,447
74,466
75,487
76,504
77,531
78,556
79,576
80,596
