0,1
1,1
2,1
3,1
4,2
5,2
6,3
7,3
8,3
9,3
10,3
11,4
12,4
13,4
14,4
15,5
16,5
17,8
18,8
19,9
20,10
21,14
22,17
23,20
24,23
25,24
26,30
27,34
28,36
29,39
30,47
31,50
32,51
33,53
34,58
35,58
36,58
37,60
38,63
39,63
40,63
41,65
42,66
43,69
44,71
45,72
46,74
47,74
48,77
49,79
50,80
51,83
52,85
53,86
54,89
55,94
56,98
57,101
58,104
59,111
60,114
61,117
62,118
63,122
64,124
65,124
66,128
67,136
68,138
69,141
70,144
71,149
72,152
73,162
74,165
75,172
76,180
77,186
78,194
79,203
80,208
