0,1
1,1
2,1
3,1
4,1
5,1
6,1
7,1
8,1
9,1
10,2
11,2
12,3
13,5
14,7
15,12
16,14
17,16
18,18
19,18
20,21
21,22
22,22
23,23
24,26
25,28
26,29
27,30
28,33
29,34
30,38
31,40
32,42
33,44
34,45
35,47
36,51
37,52
38,54
39,54
40,56
41,58
42,59
43,63
44,66
45,67
46,74
47,78
48,82
49,85
50,88
51,90
52,94
53,99
54,99
55,102
56,109
57,114
58,117
59,127
60,129
61,138
62,150
63,154
64,160
65,165
66,174
67,180
68,186
69,191
70,206
71,219
72,230
73,244
74,257
75,267
76,283
77,303
78,324
79,336
80,353
