0,1
1,1
2,1
3,1
4,1
5,1
6,1
7,1
8,1
9,2
10,2
11,3
12,3
13,4
14,4
15,6
16,8
17,9
18,10
19,12
20,12
21,13
22,13
23,14
24,14
25,16
26,16
27,17
28,18
29,21
30,23
31,25
32,27
33,28
34,31
35,32
36,36
37,38
38,42
39,47
40,52
41,53
42,58
43,59
44,64
45,65
46,68
47,75
48,78
49,82
50,83
51,85
52,88
53,90
54,94
55,96
56,100
57,105
58,108
59,115
60,121
61,126
62,129
63,131
64,138
65,142
66,152
67,160
68,165
69,173
70,178
71,190
72,197
73,205
74,217
75,228
76,236
77,245
78,258
79,271
80,283
