0,1
1,1
2,1
3,1
4,1
5,1
6,1
7,1
8,1
9,1
10,1
11,2
12,2
13,3
14,4
15,6
16,7
17,7
18,9
19,11
20,18
21,20
22,24
23,27
24,27
25,30
26,32
27,38
28,39
29,45
30,45
31,49
32,59
33,67
34,73
35,82
36,93
37,98
38,106
39,110
40,114
41,124
42,137
43,147
44,155
45,161
46,171
47,185
48,192
49,198
50,208
51,227
52,238
53,249
54,261
55,281
56,292
57,309
58,334
59,348
60,366
61,393
62,413
63,435
64,456
65,478
66,510
67,534
68,567
69,605
70,644
71,664
72,697
73,728
74,760
75,793
76,829
77,861
78,897
79,939
80,974
