0,1
1,1
2,1
3,1
4,3
5,3
6,3
7,6
8,6
9,7
10,8
11,9
12,11
13,11
14,11
15,11
16,12
17,13
18,13
19,13
20,13
21,13
22,14
23,15
24,15
25,16
26,18
27,19
28,22
29,23
30,25
31,25
32,27
33,27
34,28
35,29
36,31
37,31
38,35
39,35
40,36
41,37
42,38
43,39
44,41
45,42
46,42
47,42
48,42
49,42
50,42
51,43
52,43
53,43
54,43
55,43
56,45
57,45
58,45
59,45
60,46
61,46
62,46
63,49
64,49
65,51
66,52
67,52
68,55
69,56
70,58
71,59
72,61
73,65
74,65
75,66
76,68
77,70
78,71
79,75
80,77
