0,1
1,1
2,1
3,1
4,1
5,1
6,2
7,2
8,2
9,2
10,2
11,2
12,3
13,3
14,3
15,4
16,5
17,5
18,5
19,5
20,9
21,10
22,10
23,11
24,15
25,18
26,20
27,22
28,25
29,26
30,29
31,30
32,35
33,37
34,38
35,40
36,45
37,46
38,47
39,51
40,51
41,53
42,57
43,61
44,63
45,64
46,67
47,69
48,74
49,77
50,78
51,81
52,83
53,85
54,89
55,96
56,103
57,108
58,112
59,115
60,119
61,127
62,133
63,141
64,144
65,147
66,153
67,158
68,161
69,168
70,175
71,184
72,192
73,202
74,210
75,213
76,224
77,228
78,236
79,248
80,258
