0,1
1,1
2,2
3,3
4,5
5,8
6,10
7,11
8,15
9,17
10,20
11,23
12,27
13,30
14,37
15,38
16,46
17,51
18,57
19,62
20,68
21,78
22,82
23,89
24,95
25,111
26,122
27,135
28,140
29,153
30,161
31,177
32,188
33,203
34,213
35,228
36,245
37,261
38,277
39,295
40,311
41,322
42,334
43,349
44,374
45,397
46,424
47,446
48,464
49,495
50,525
51,554
52,583
53,611
54,652
55,686
56,730
57,767
58,818
59,862
60,919
61,960
62,1009
63,1070
64,1124
65,1184
66,1239
67,1301
68,1362
69,1428
70,1495
71,1576
72,1641
73,1718
74,1811
75,1911
76,2011
77,2119
78,2238
79,2362
80,2475
