0,1
1,1
2,1
3,2
4,3
5,3
6,4
7,5
8,5
9,6
10,6
11,8
12,8
13,9
14,9
15,10
16,11
17,12
18,13
19,15
20,15
21,20
22,23
23,23
24,24
25,28
26,32
27,36
28,38
29,41
30,48
31,54
32,57
33,63
34,63
35,70
36,74
37,76
38,85
39,94
40,97
41,102
42,104
43,110
44,112
45,120
46,129
47,131
48,134
49,145
50,152
51,157
52,161
53,169
54,178
55,186
56,191
57,198
58,209
59,215
60,222
61,234
62,242
63,253
64,263
65,278
66,291
67,302
68,313
69,325
70,333
71,349
72,365
73,382
74,401
75,412
76,428
77,440
78,455
79,484
80,506
