0,1
1,1
2,1
3,1
4,1
5,2
6,2
7,2
8,3
9,3
10,3
11,3
12,3
13,5
14,5
15,5
16,7
17,8
18,9
19,9
20,10
21,11
22,14
23,14
24,15
25,17
26,18
27,21
28,27
29,32
30,35
31,39
32,42
33,49
34,53
35,57
36,59
37,75
38,80
39,87
40,96
41,103
42,114
43,123
44,127
45,139
46,149
47,158
48,171
49,181
50,192
51,206
52,220
53,235
54,248
55,257
56,273
57,296
58,317
59,334
60,349
61,367
62,385
63,408
64,422
65,443
66,467
67,489
68,513
69,542
70,566
71,590
72,614
73,646
74,675
75,699
76,748
77,778
78,805
79,832
80,859
