0,1
1,1
2,1
3,1
4,1
5,2
6,2
7,3
8,3
9,3
10,4
11,5
12,7
13,8
14,10
15,10
16,11
17,12
18,12
19,13
20,14
21,16
22,16
23,17
24,18
25,18
26,18
27,20
28,21
29,23
30,24
31,24
32,26
33,28
34,28
35,29
36,30
37,31
38,34
39,34
40,38
41,41
42,42
43,42
44,45
45,46
46,48
47,49
48,54
49,57
50,60
51,61
52,62
53,65
54,70
55,72
56,74
57,76
58,83
59,85
60,86
61,91
62,95
63,98
64,102
65,104
66,105
67,110
68,112
69,114
70,122
71,126
72,132
73,142
74,149
75,157
76,164
77,169
78,190
79,201
80,214
