0,1
1,1
2,1
3,1
4,1
5,4
6,4
7,4
8,4
9,4
10,5
11,6
12,6
13,8
14,8
15,8
16,8
17,9
18,10
19,12
20,13
21,14
22,16
23,23
24,26
25,29
26,31
27,35
28,43
29,48
30,57
31,62
32,70
33,73
34,81
35,90
36,96
37,104
38,111
39,124
40,133
41,141
42,156
43,159
44,168
45,176
46,187
47,200
48,203
49,212
50,219
51,236
52,246
53,263
54,277
55,295
56,316
57,329
58,351
59,385
60,406
61,434
62,457
63,491
64,520
65,560
66,597
67,637
68,674
69,714
70,771
71,824
72,872
73,915
74,972
75,1037
76,1091
77,1160
78,1229
79,1300
80,1371
