0,1
1,1
2,2
3,2
4,3
5,4
6,5
7,5
8,5
9,6
10,6
11,6
12,6
13,6
14,6
15,8
16,9
17,9
18,10
19,10
20,12
21,14
22,15
23,16
24,18
25,19
26,21
27,22
28,22
29,23
30,24
31,24
32,26
33,26
34,26
35,29
36,30
37,30
38,30
39,30
40,32
41,32
42,33
43,34
44,36
45,37
46,38
47,40
48,43
49,47
50,50
51,57
52,60
53,64
54,66
55,68
56,70
57,71
58,74
59,75
60,80
61,86
62,88
63,91
64,94
65,98
66,103
67,107
68,113
69,117
70,120
71,122
72,127
73,130
74,138
75,146
76,154
77,162
78,171
79,180
80,192
