0,1
1,1
2,1
3,1
4,1
5,2
6,3
7,4
8,4
9,5
10,5
11,6
12,8
13,8
14,8
15,9
16,10
17,11
18,12
19,12
20,15
21,17
22,19
23,21
24,21
25,23
26,26
27,27
28,29
29,30
30,31
31,32
32,34
33,37
34,41
35,41
36,44
37,48
38,55
39,58
40,62
41,66
42,74
43,81
44,86
45,93
46,99
47,105
48,115
49,124
50,138
51,149
52,165
53,176
54,187
55,197
56,214
57,233
58,246
59,270
60,289
61,306
62,333
63,352
64,372
65,394
66,415
67,440
68,475
69,501
70,534
71,566
72,602
73,645
74,685
75,715
76,754
77,791
78,841
79,881
80,923
