0,1
1,1
2,1
3,1
4,2
5,2
6,3
7,4
8,4
9,5
10,6
11,7
12,8
13,8
14,8
15,8
16,9
17,9
18,9
19,11
20,13
21,14
22,14
23,14
24,17
25,19
26,19
27,20
28,24
29,25
30,29
31,30
32,33
33,34
34,36
35,39
36,46
37,50
38,54
39,59
40,59
41,67
42,74
43,80
44,85
45,96
46,103
47,113
48,118
49,126
50,132
51,141
52,145
53,151
54,155
55,160
56,166
57,172
58,175
59,184
60,193
61,201
62,212
63,219
64,231
65,238
66,248
67,260
68,266
69,277
70,293
71,312
72,320
73,330
74,342
75,362
76,378
77,395
78,407
79,427
80,452
