0,1
1,1
2,1
3,1
4,1
5,1
6,2
7,3
8,4
9,5
10,6
11,8
12,8
13,10
14,13
15,13
16,16
17,19
18,20
19,20
20,26
21,32
22,37
23,40
24,50
25,54
26,60
27,67
28,78
29,83
30,92
31,98
32,109
33,119
34,128
35,136
36,143
37,159
38,170
39,178
40,190
41,202
42,212
43,224
44,233
45,242
46,249
47,259
48,267
49,281
50,293
51,315
52,325
53,337
54,354
55,365
56,378
57,396
58,413
59,434
60,453
61,476
62,492
63,519
64,541
65,565
66,593
67,621
68,653
69,680
70,705
71,731
72,775
73,808
74,843
75,882
76,917
77,960
78,1010
79,1069
80,1128
