0,1
1,1
2,1
3,3
4,4
5,6
6,7
7,8
8,10
9,12
10,13
11,13
12,14
13,16
14,17
15,17
16,18
17,19
18,20
19,23
20,25
21,27
22,31
23,33
24,35
25,39
26,43
27,43
28,46
29,49
30,58
31,59
32,64
33,70
34,75
35,79
36,85
37,90
38,92
39,96
40,101
41,103
42,110
43,114
44,124
45,132
46,137
47,141
48,143
49,149
50,156
51,162
52,167
53,172
54,179
55,186
56,195
57,203
58,221
59,230
60,240
61,251
62,265
63,280
64,292
65,303
66,317
67,328
68,342
69,354
70,369
71,385
72,407
73,418
74,434
75,448
76,464
77,487
78,503
79,523
80,548
