0,1
1,1
2,1
3,3
4,3
5,4
6,4
7,8
8,9
9,11
10,13
11,14
12,18
13,19
14,21
15,23
16,27
17,29
18,30
19,35
20,36
21,39
22,45
23,50
24,53
25,58
26,65
27,73
28,86
29,93
30,97
31,108
32,121
33,136
34,148
35,163
36,178
37,191
38,203
39,217
40,229
41,241
42,256
43,272
44,285
45,306
46,319
47,337
48,363
49,389
50,408
51,424
52,453
53,476
54,504
55,534
56,557
57,596
58,636
59,665
60,712
61,761
62,806
63,861
64,905
65,957
66,1017
67,1095
68,1154
69,1221
70,1295
71,1374
72,1464
73,1541
74,1632
75,1724
76,1821
77,1904
78,1975
79,2065
80,2185
