0,1
1,1
2,1
3,1
4,1
5,1
6,1
7,1
8,1
9,1
10,2
11,2
12,3
13,3
14,3
15,3
16,3
17,4
18,4
19,4
20,4
21,5
22,5
23,6
24,7
25,8
26,9
27,11
28,13
29,14
30,14
31,15
32,15
33,16
34,17
35,20
36,21
37,22
38,24
39,26
40,26
41,26
42,26
43,29
44,30
45,33
46,33
47,33
48,35
49,36
50,39
51,40
52,41
53,41
54,44
55,45
56,45
57,48
58,49
59,52
60,57
61,62
62,65
63,72
64,78
65,80
66,89
67,96
68,102
69,110
70,116
71,122
72,134
73,145
74,154
75,173
76,184
77,196
78,212
79,225
80,233
