0,1
1,1
2,1
3,1
4,2
5,3
6,6
7,8
8,8
9,9
10,16
11,19
12,22
13,24
14,28
15,33
16,34
17,38
18,41
19,43
20,45
21,46
22,46
23,49
24,51
25,53
26,54
27,56
28,59
29,60
30,60
31,63
32,64
33,66
34,68
35,75
36,77
37,80
38,81
39,82
40,84
41,86
42,87
43,92
44,93
45,95
46,103
47,104
48,107
49,109
50,110
51,115
52,118
53,122
54,128
55,131
56,133
57,136
58,138
59,144
60,149
61,151
62,158
63,161
64,172
65,178
66,186
67,190
68,200
69,214
70,228
71,238
72,244
73,258
74,275
75,289
76,298
77,310
78,326
79,340
80,366
