0,1
1,1
2,1
3,1
4,2
5,2
6,2
7,3
8,4
9,4
10,5
11,5
12,7
13,7
14,8
15,8
16,10
17,10
18,11
19,11
20,14
21,15
22,16
23,16
24,17
25,18
26,18
27,20
28,21
29,21
30,22
31,22
32,23
33,25
34,25
35,26
36,28
37,28
38,28
39,32
40,32
41,33
42,34
43,36
44,40
45,44
46,45
47,51
48,55
49,56
50,59
51,61
52,64
53,65
54,69
55,71
56,75
57,79
58,82
59,89
60,96
61,101
62,105
63,117
64,128
65,137
66,149
67,162
68,172
69,186
70,195
71,205
72,219
73,238
74,254
75,271
76,284
77,302
78,313
79,326
80,339
