0,1
1,1
2,1
3,1
4,3
5,4
6,6
7,6
8,8
9,8
10,10
11,10
12,12
13,12
14,12
15,13
16,16
17,16
18,16
19,16
20,17
21,17
22,17
23,17
24,18
25,19
26,19
27,21
28,21
29,21
30,24
31,27
32,28
33,29
34,30
35,31
36,35
37,37
38,40
39,41
40,44
41,49
42,51
43,55
44,61
45,64
46,72
47,78
48,82
49,84
50,87
51,91
52,95
53,100
54,107
55,114
56,124
57,133
58,144
59,155
60,167
61,181
62,194
63,203
64,218
65,231
66,248
67,269
68,287
69,300
70,311
71,332
72,353
73,383
74,406
75,431
76,451
77,471
78,497
79,524
80,557
