0,1
1,1
2,1
3,2
4,2
5,3
6,6
7,6
8,10
9,11
10,17
11,20
12,23
13,26
14,33
15,39
16,41
17,43
18,52
19,60
20,74
21,81
22,93
23,106
24,117
25,132
26,150
27,160
28,172
29,181
30,192
31,213
32,227
33,242
34,257
35,275
36,287
37,303
38,326
39,343
40,363
41,377
42,405
43,435
44,455
45,484
46,511
47,538
48,567
49,595
50,623
51,654
52,678
53,702
54,732
55,764
56,799
57,828
58,855
59,904
60,942
61,988
62,1028
63,1072
64,1107
65,1157
66,1213
67,1265
68,1331
69,1377
70,1424
71,1475
72,1524
73,1583
74,1644
75,1706
76,1783
77,1852
78,1930
79,2001
80,2109
