0,1
1,1
2,1
3,1
4,2
5,3
6,4
7,4
8,7
9,10
10,13
11,18
12,19
13,20
14,23
15,28
16,31
17,38
18,40
19,46
20,49
21,52
22,57
23,63
24,66
25,75
26,81
27,87
28,96
29,106
30,111
31,119
32,125
33,132
34,142
35,151
36,158
37,168
38,185
39,206
40,219
41,238
42,254
43,275
44,291
45,312
46,330
47,353
48,376
49,404
50,435
51,469
52,502
53,529
54,561
55,591
56,625
57,657
58,689
59,719
60,757
61,803
62,836
63,881
64,924
65,970
66,1015
67,1069
68,1122
69,1178
70,1235
71,1296
72,1365
73,1432
74,1499
75,1576
76,1653
77,1736
78,1845
79,1951
80,2061
