0,1
1,1
2,1
3,1
4,1
5,1
6,2
7,6
8,7
9,7
10,8
11,10
12,13
13,14
14,14
15,16
16,16
17,18
18,19
19,19
20,20
21,21
22,23
23,24
24,25
25,26
26,27
27,28
28,29
29,34
30,37
31,38
32,41
33,41
34,42
35,44
36,46
37,46
38,47
39,48
40,49
41,51
42,52
43,52
44,53
45,54
46,55
47,55
48,56
49,56
50,58
51,59
52,59
53,64
54,64
55,69
56,70
57,73
58,79
59,81
60,83
61,84
62,87
63,91
64,91
65,93
66,96
67,98
68,101
69,105
70,107
71,110
72,117
73,120
74,122
75,127
76,133
77,140
78,143
79,149
80,156
