0,1
1,1
2,1
3,1
4,2
5,3
6,4
7,4
8,5
9,6
10,7
11,8
12,8
13,9
14,10
15,11
16,12
17,13
18,17
19,22
20,24
21,25
22,30
23,33
24,36
25,43
26,50
27,59
28,64
29,69
30,79
31,83
32,96
33,105
34,113
35,128
36,137
37,147
38,162
39,172
40,187
41,198
42,215
43,243
44,258
45,285
46,305
47,325
48,353
49,376
50,394
51,414
52,451
53,483
54,521
55,556
56,593
57,626
58,671
59,714
60,767
61,812
62,871
63,922
64,979
65,1054
66,1127
67,1195
68,1267
69,1348
70,1437
71,1519
72,1617
73,1700
74,1812
75,1931
76,2039
77,2167
78,2289
79,2437
80,2578
