0,1
1,1
2,1
3,1
4,1
5,1
6,3
7,3
8,3
9,3
10,3
11,3
12,3
13,5
14,5
15,5
16,6
17,9
18,9
19,11
20,12
21,14
22,14
23,17
24,18
25,22
26,24
27,27
28,29
29,31
30,33
31,36
32,39
33,41
34,45
35,50
36,53
37,54
38,56
39,56
40,62
41,66
42,67
43,69
44,70
45,73
46,74
47,74
48,75
49,77
50,78
51,78
52,79
53,82
54,83
55,84
56,86
57,89
58,89
59,90
60,91
61,93
62,97
63,100
64,104
65,105
66,110
67,115
68,121
69,123
70,126
71,132
72,134
73,140
74,145
75,151
76,155
77,161
78,169
79,178
80,182
