0,1
1,1
2,1
3,1
4,1
5,1
6,3
7,3
8,3
9,5
10,6
11,6
12,7
13,8
14,8
15,8
16,10
17,11
18,12
19,16
20,17
21,18
22,19
23,21
24,22
25,27
26,28
27,32
28,32
29,33
30,37
31,40
32,44
33,46
34,46
35,48
36,50
37,52
38,53
39,55
40,57
41,58
42,59
43,61
44,65
45,67
46,69
47,71
48,72
49,75
50,78
51,79
52,81
53,84
54,87
55,87
56,90
57,93
58,98
59,99
60,102
61,106
62,108
63,109
64,111
65,114
66,120
67,124
68,129
69,134
70,137
71,142
72,147
73,151
74,156
75,160
76,166
77,169
78,174
79,181
80,190
