0,1
1,1
2,2
3,4
4,8
5,9
6,11
7,12
8,12
9,13
10,17
11,20
12,22
13,24
14,25
15,29
16,31
17,33
18,34
19,36
20,37
21,37
22,41
23,46
24,46
25,46
26,47
27,50
28,54
29,55
30,57
31,59
32,63
33,66
34,69
35,72
36,74
37,77
38,80
39,83
40,88
41,90
42,93
43,95
44,97
45,101
46,105
47,110
48,114
49,114
50,119
51,125
52,130
53,135
54,139
55,144
56,148
57,151
58,158
59,162
60,169
61,178
62,186
63,189
64,200
65,207
66,212
67,226
68,234
69,239
70,251
71,261
72,280
73,289
74,297
75,318
76,331
77,348
78,360
79,372
80,399
