0,1
1,1
2,1
3,1
4,2
5,2
6,2
7,2
8,3
9,3
10,3
11,3
12,5
13,5
14,5
15,5
16,7
17,9
18,10
19,14
20,15
21,16
22,17
23,17
24,19
25,19
26,20
27,21
28,25
29,28
30,30
31,32
32,36
33,40
34,41
35,42
36,46
37,50
38,51
39,53
40,54
41,55
42,56
43,59
44,61
45,65
46,66
47,69
48,70
49,72
50,75
51,76
52,81
53,82
54,86
55,88
56,92
57,96
58,99
59,100
60,101
61,108
62,114
63,117
64,118
65,122
66,132
67,138
68,147
69,152
70,154
71,162
72,174
73,182
74,190
75,201
76,210
77,217
78,223
79,232
80,238
