0,1
1,1
2,1
3,1
4,1
5,2
6,3
7,5
8,6
9,6
10,7
11,9
12,11
13,12
14,13
15,16
16,22
17,23
18,27
19,31
20,37
21,44
22,46
23,51
24,52
25,54
26,57
27,59
28,64
29,69
30,72
31,77
32,83
33,86
34,92
35,99
36,106
37,112
38,118
39,121
40,133
41,142
42,148
43,157
44,167
45,179
46,190
47,201
48,212
49,224
50,235
51,249
52,276
53,293
54,303
55,314
56,337
57,354
58,374
59,389
60,413
61,439
62,477
63,504
64,539
65,568
66,602
67,650
68,691
69,733
70,778
71,826
72,883
73,932
74,1003
75,1068
76,1137
77,1196
78,1277
79,1351
80,1442
