0,1
1,1
2,1
3,1
4,1
5,3
6,3
7,3
8,6
9,9
10,14
11,16
12,20
13,24
14,26
15,29
16,31
17,36
18,41
19,46
20,55
21,55
22,61
23,66
24,74
25,83
26,95
27,99
28,112
29,121
30,129
31,143
32,155
33,167
34,184
35,198
36,216
37,231
38,247
39,274
40,287
41,312
42,331
43,359
44,391
45,419
46,449
47,487
48,531
49,565
50,607
51,644
52,672
53,719
54,747
55,800
56,858
57,907
58,968
59,1026
60,1067
61,1148
62,1213
63,1293
64,1368
65,1438
66,1501
67,1576
68,1644
69,1717
70,1796
71,1884
72,1976
73,2060
74,2148
75,2252
76,2357
77,2482
78,2599
79,2725
80,2844
