0,1
1,1
2,1
3,1
4,1
5,2
6,5
7,5
8,6
9,7
10,8
11,11
12,12
13,12
14,16
15,19
16,19
17,20
18,24
19,26
20,29
21,31
22,35
23,42
24,43
25,43
26,47
27,51
28,53
29,58
30,62
31,66
32,69
33,74
34,78
35,82
36,84
37,90
38,95
39,99
40,106
41,113
42,120
43,127
44,133
45,141
46,142
47,148
48,151
49,157
50,163
51,169
52,174
53,178
54,185
55,197
56,199
57,207
58,212
59,219
60,226
61,240
62,256
63,266
64,269
65,279
66,292
67,302
68,317
69,328
70,348
71,363
72,389
73,407
74,425
75,449
76,468
77,498
78,517
79,537
80,566
