0,1
1,1
2,1
3,2
4,3
5,3
6,4
7,5
8,6
9,6
10,7
11,7
12,9
13,9
14,10
15,12
16,13
17,13
18,15
19,17
20,17
21,20
22,23
23,24
24,24
25,24
26,28
27,28
28,28
29,28
30,31
31,31
32,33
33,35
34,36
35,37
36,38
37,39
38,40
39,42
40,45
41,47
42,49
43,49
44,50
45,50
46,50
47,52
48,54
49,56
50,57
51,58
52,60
53,61
54,62
55,63
56,66
57,69
58,71
59,74
60,75
61,77
62,79
63,83
64,85
65,87
66,91
67,92
68,95
69,100
70,103
71,107
72,108
73,112
74,113
75,114
76,120
77,123
78,124
79,127
80,135
