0,1
1,1
2,1
3,2
4,3
5,4
6,5
7,5
8,5
9,7
10,9
11,9
12,10
13,11
14,13
15,14
16,17
17,18
18,19
19,21
20,25
21,28
22,31
23,32
24,32
25,36
26,37
27,38
28,43
29,49
30,52
31,57
32,61
33,66
34,70
35,76
36,83
37,85
38,101
39,108
40,117
41,123
42,134
43,142
44,159
45,170
46,177
47,186
48,202
49,212
50,216
51,227
52,243
53,256
54,271
55,278
56,287
57,305
58,322
59,338
60,354
61,384
62,400
63,413
64,445
65,461
66,486
67,511
68,546
69,571
70,602
71,635
72,667
73,705
74,734
75,779
76,811
77,852
78,880
79,920
80,953
